[
  {
    "place": "Gym / Fitness Center4558b83bf964a5204b3d1fe3",
    "time": "2012-04-03"
  },
  {
    "place": "Gym / Fitness Center4558b83bf964a5204b3d1fe3",
    "time": "2012-04-04"
  },
  {
    "place": "Gym / Fitness Center4558b83bf964a5204b3d1fe3",
    "time": "2012-04-05"
  },
  {
    "place": "Caf\u00c3\u00a94a49212cf964a52004ab1fe3",
    "time": "2012-04-06"
  },
  {
    "place": "Caf\u00c3\u00a949d29c7ef964a520c05b1fe3",
    "time": "2012-04-07"
  },
  {
    "place": "Gym / Fitness Center4558b83bf964a5204b3d1fe3",
    "time": "2012-04-07"
  },
  {
    "place": "BBQ Joint427c0500f964a52099211fe3",
    "time": "2012-04-07"
  },
  {
    "place": "Bar4123ed80f964a5203b0c1fe3",
    "time": "2012-04-08"
  },
  {
    "place": "Bar4aa936ecf964a520815220e3",
    "time": "2012-04-08"
  },
  {
    "place": "Ramen /  Noodle House49d64db0f964a520b35c1fe3",
    "time": "2012-04-08"
  },
  {
    "place": "Food & Drink Shop4c225ae47e85c9283ee5bb21",
    "time": "2012-04-09"
  },
  {
    "place": "Gym / Fitness Center4558b83bf964a5204b3d1fe3",
    "time": "2012-04-09"
  },
  {
    "place": "Cosmetics Shop4afdcce7f964a520fc2a22e3",
    "time": "2012-04-11"
  },
  {
    "place": "Italian Restaurant4c7d4f1b8da18cfa1afc9ece",
    "time": "2012-04-12"
  },
  {
    "place": "Thai Restaurant4c410f70ff711b8dda731105",
    "time": "2012-04-13"
  },
  {
    "place": "Australian Restaurant4993f345f964a52082521fe3",
    "time": "2012-04-14"
  },
  {
    "place": "French Restaurant47402474f964a5206e4c1fe3",
    "time": "2012-04-14"
  },
  {
    "place": "Gym / Fitness Center4558b83bf964a5204b3d1fe3",
    "time": "2012-04-14"
  },
  {
    "place": "Japanese Restaurant4a0f01acf964a52011761fe3",
    "time": "2012-04-14"
  },
  {
    "place": "Caf\u00c3\u00a949d29c7ef964a520c05b1fe3",
    "time": "2012-04-15"
  },
  {
    "place": "Sushi Restaurant40ad4680f964a52038f31ee3",
    "time": "2012-04-15"
  },
  {
    "place": "Gym / Fitness Center4558b83bf964a5204b3d1fe3",
    "time": "2012-04-16"
  },
  {
    "place": "Gym / Fitness Center4558b83bf964a5204b3d1fe3",
    "time": "2012-04-17"
  },
  {
    "place": "Salon / Barbershop4b61dce3f964a520d3272ae3",
    "time": "2012-04-17"
  },
  {
    "place": "Cosmetics Shop4afdcce7f964a520fc2a22e3",
    "time": "2012-04-17"
  },
  {
    "place": "Italian Restaurant4f5e46196d862a0c7a0b9301",
    "time": "2012-04-17"
  },
  {
    "place": "American Restaurant4f6e6af3e4b0463c94b07375",
    "time": "2012-04-18"
  },
  {
    "place": "Chinese Restaurant4ee279ecc2eee7f3576fd40e",
    "time": "2012-04-18"
  },
  {
    "place": "Gym / Fitness Center4558b83bf964a5204b3d1fe3",
    "time": "2012-04-19"
  },
  {
    "place": "Asian Restaurant4e77965de4cd32543841d77d",
    "time": "2012-04-19"
  },
  {
    "place": "Gym / Fitness Center4558b83bf964a5204b3d1fe3",
    "time": "2012-04-21"
  },
  {
    "place": "American Restaurant40f86c00f964a520bf0a1fe3",
    "time": "2012-04-21"
  },
  {
    "place": "Clothing Store4a8c5349f964a520a90d20e3",
    "time": "2012-04-21"
  },
  {
    "place": "Bar4c914b047f3b8cfac5819b1e",
    "time": "2012-04-21"
  },
  {
    "place": "Bar43125000f964a52058271fe3",
    "time": "2012-04-22"
  },
  {
    "place": "Gym / Fitness Center4558b83bf964a5204b3d1fe3",
    "time": "2012-04-23"
  },
  {
    "place": "Gym / Fitness Center4558b83bf964a5204b3d1fe3",
    "time": "2012-04-24"
  },
  {
    "place": "Gym / Fitness Center4558b83bf964a5204b3d1fe3",
    "time": "2012-04-25"
  },
  {
    "place": "Food & Drink Shop4c225ae47e85c9283ee5bb21",
    "time": "2012-04-27"
  },
  {
    "place": "Gym / Fitness Center4558b83bf964a5204b3d1fe3",
    "time": "2012-04-27"
  },
  {
    "place": "Mediterranean Restaurant4ae32479f964a520e09021e3",
    "time": "2012-04-29"
  },
  {
    "place": "Bar4f71e4207beb1d18abcc9648",
    "time": "2012-04-29"
  },
  {
    "place": "Salon / Barbershop4b61dce3f964a520d3272ae3",
    "time": "2012-05-01"
  },
  {
    "place": "Cosmetics Shop4afdcce7f964a520fc2a22e3",
    "time": "2012-05-01"
  },
  {
    "place": "American Restaurant4e691e82b9930387355c629d",
    "time": "2012-05-01"
  },
  {
    "place": "Gastropub4ee535472c5b5fc6cd1fd9d9",
    "time": "2012-05-01"
  },
  {
    "place": "Salon / Barbershop4f5696f2e4b060fb2f249d0a",
    "time": "2012-05-04"
  },
  {
    "place": "Greek Restaurant45d3258cf964a520ba421fe3",
    "time": "2012-05-04"
  },
  {
    "place": "Mediterranean Restaurant4a050dcff964a52053721fe3",
    "time": "2012-05-05"
  },
  {
    "place": "Building49a411d4f964a5209b521fe3",
    "time": "2012-05-05"
  },
  {
    "place": "Chinese Restaurant4e7fc0019adffe8cdf3b2198",
    "time": "2012-05-06"
  },
  {
    "place": "American Restaurant4e691e82b9930387355c629d",
    "time": "2012-05-06"
  },
  {
    "place": "Gym / Fitness Center4558b83bf964a5204b3d1fe3",
    "time": "2012-05-07"
  },
  {
    "place": "Gym / Fitness Center4558b83bf964a5204b3d1fe3",
    "time": "2012-05-08"
  },
  {
    "place": "Food & Drink Shop4c225ae47e85c9283ee5bb21",
    "time": "2012-05-08"
  },
  {
    "place": "Gym / Fitness Center4558b83bf964a5204b3d1fe3",
    "time": "2012-05-08"
  },
  {
    "place": "Gym / Fitness Center4558b83bf964a5204b3d1fe3",
    "time": "2012-05-09"
  },
  {
    "place": "French Restaurant4c604627891bef3b0564284b",
    "time": "2012-05-09"
  },
  {
    "place": "Italian Restaurant3fd66200f964a520dbe91ee3",
    "time": "2012-05-10"
  },
  {
    "place": "Library4e91f563550342b5a4c99baf",
    "time": "2012-05-12"
  },
  {
    "place": "Seafood Restaurant422b9980f964a520cd1f1fe3",
    "time": "2012-05-12"
  },
  {
    "place": "Gym / Fitness Center4558b83bf964a5204b3d1fe3",
    "time": "2012-05-14"
  },
  {
    "place": "Gym / Fitness Center4558b83bf964a5204b3d1fe3",
    "time": "2012-05-15"
  },
  {
    "place": "Salon / Barbershop4b61dce3f964a520d3272ae3",
    "time": "2012-05-15"
  },
  {
    "place": "Dessert Shop4ddda6cdb0fbc2c4eef29e3d",
    "time": "2012-05-16"
  },
  {
    "place": "Gym / Fitness Center4558b83bf964a5204b3d1fe3",
    "time": "2012-05-16"
  },
  {
    "place": "Cosmetics Shop4afdcce7f964a520fc2a22e3",
    "time": "2012-05-16"
  },
  {
    "place": "Mexican Restaurant4f1c54810cd67469c7ac3a72",
    "time": "2012-05-16"
  },
  {
    "place": "Food & Drink Shop4c225ae47e85c9283ee5bb21",
    "time": "2012-05-18"
  },
  {
    "place": "Gym / Fitness Center4558b83bf964a5204b3d1fe3",
    "time": "2012-05-18"
  },
  {
    "place": "American Restaurant44b78a37f964a52070351fe3",
    "time": "2012-05-19"
  },
  {
    "place": "Bar4eb023780cd6528d834b7b7b",
    "time": "2012-05-19"
  },
  {
    "place": "Food & Drink Shop4c225ae47e85c9283ee5bb21",
    "time": "2012-05-21"
  },
  {
    "place": "Gym / Fitness Center4558b83bf964a5204b3d1fe3",
    "time": "2012-05-21"
  },
  {
    "place": "Gym / Fitness Center4558b83bf964a5204b3d1fe3",
    "time": "2012-05-22"
  },
  {
    "place": "Cosmetics Shop4afdcce7f964a520fc2a22e3",
    "time": "2012-05-23"
  },
  {
    "place": "American Restaurant457ebeaaf964a5203f3f1fe3",
    "time": "2012-05-23"
  },
  {
    "place": "American Restaurant4b539a4af964a52034a427e3",
    "time": "2012-05-25"
  },
  {
    "place": "American Restaurant4edfd5865c5cced979ab7dd1",
    "time": "2012-05-25"
  },
  {
    "place": "Seafood Restaurant422b9980f964a520cd1f1fe3",
    "time": "2012-05-26"
  },
  {
    "place": "BBQ Joint3fd66200f964a52069e71ee3",
    "time": "2012-05-27"
  },
  {
    "place": "Food & Drink Shop4ae4bf7ef964a520bf9d21e3",
    "time": "2012-05-28"
  },
  {
    "place": "Furniture / Home Store4a242c9af964a520fb7d1fe3",
    "time": "2012-05-28"
  },
  {
    "place": "Furniture / Home Store4a6c745ef964a52091d01fe3",
    "time": "2012-05-28"
  },
  {
    "place": "Seafood Restaurant3fd66200f964a5209fea1ee3",
    "time": "2012-05-28"
  },
  {
    "place": "Furniture / Home Store4ae35878f964a520cc9321e3",
    "time": "2012-05-28"
  },
  {
    "place": "Furniture / Home Store4a2c0e75f964a52014971fe3",
    "time": "2012-05-28"
  },
  {
    "place": "Furniture / Home Store4b1d21b3f964a520230c24e3",
    "time": "2012-05-28"
  },
  {
    "place": "Food & Drink Shop49f37c28f964a520a36a1fe3",
    "time": "2012-05-28"
  },
  {
    "place": "Gym / Fitness Center4558b83bf964a5204b3d1fe3",
    "time": "2012-05-29"
  },
  {
    "place": "Salon / Barbershop4b61dce3f964a520d3272ae3",
    "time": "2012-05-29"
  },
  {
    "place": "Gym / Fitness Center4558b83bf964a5204b3d1fe3",
    "time": "2012-05-31"
  },
  {
    "place": "Spa / Massage4b8719ecf964a520b0b031e3",
    "time": "2012-05-31"
  },
  {
    "place": "Sandwich Place4f4e44777716223249fe88b3",
    "time": "2012-05-31"
  },
  {
    "place": "Cajun / Creole Restaurant3fd66200f964a520afe91ee3",
    "time": "2012-06-02"
  },
  {
    "place": "Gastropub4ee535472c5b5fc6cd1fd9d9",
    "time": "2012-06-03"
  },
  {
    "place": "Bar4f71e4207beb1d18abcc9648",
    "time": "2012-06-03"
  },
  {
    "place": "American Restaurant3fd66200f964a52054e91ee3",
    "time": "2012-06-03"
  },
  {
    "place": "Furniture / Home Store4b1d21b3f964a520230c24e3",
    "time": "2012-06-03"
  },
  {
    "place": "Furniture / Home Store4a6c745ef964a52091d01fe3",
    "time": "2012-06-03"
  },
  {
    "place": "Furniture / Home Store4a242c9af964a520fb7d1fe3",
    "time": "2012-06-03"
  },
  {
    "place": "Food & Drink Shop4c225ae47e85c9283ee5bb21",
    "time": "2012-06-04"
  },
  {
    "place": "Gym / Fitness Center4558b83bf964a5204b3d1fe3",
    "time": "2012-06-04"
  },
  {
    "place": "Gym / Fitness Center4558b83bf964a5204b3d1fe3",
    "time": "2012-06-05"
  },
  {
    "place": "Gym / Fitness Center4558b83bf964a5204b3d1fe3",
    "time": "2012-06-06"
  },
  {
    "place": "Gym / Fitness Center4558b83bf964a5204b3d1fe3",
    "time": "2012-06-07"
  },
  {
    "place": "Greek Restaurant45d3258cf964a520ba421fe3",
    "time": "2012-06-09"
  },
  {
    "place": "Gym / Fitness Center4558b83bf964a5204b3d1fe3",
    "time": "2012-06-09"
  },
  {
    "place": "Park40b68100f964a5207d001fe3",
    "time": "2012-06-09"
  },
  {
    "place": "Gym / Fitness Center4558b83bf964a5204b3d1fe3",
    "time": "2012-09-14"
  },
  {
    "place": "American Restaurant4e691e82b9930387355c629d",
    "time": "2012-09-15"
  },
  {
    "place": "Athletic & Sport5054661fe4b0c21074366b85",
    "time": "2012-09-15"
  },
  {
    "place": "Caf\u00c3\u00a949d29c7ef964a520c05b1fe3",
    "time": "2012-09-15"
  },
  {
    "place": "Asian Restaurant4e3dce18a809ba757c0fdc74",
    "time": "2012-09-15"
  },
  {
    "place": "Italian Restaurant4c7d4f1b8da18cfa1afc9ece",
    "time": "2012-09-16"
  },
  {
    "place": "Gym / Fitness Center4558b83bf964a5204b3d1fe3",
    "time": "2012-10-03"
  },
  {
    "place": "Food & Drink Shop4c225ae47e85c9283ee5bb21",
    "time": "2012-10-16"
  },
  {
    "place": "Korean Restaurant4f91dd51c2ee283f4c41a23f",
    "time": "2012-10-16"
  },
  {
    "place": "Cosmetics Shop4afdcce7f964a520fc2a22e3",
    "time": "2012-10-18"
  },
  {
    "place": "Gym / Fitness Center4558b83bf964a5204b3d1fe3",
    "time": "2012-10-23"
  },
  {
    "place": "Bar4cc3a87a1e596dcbe665cc67",
    "time": "2012-11-12"
  },
  {
    "place": "Bar4eb023780cd6528d834b7b7b",
    "time": "2012-11-16"
  },
  {
    "place": "Bar3fd66200f964a52017e61ee3",
    "time": "2012-11-16"
  },
  {
    "place": "Gym / Fitness Center4558b83bf964a5204b3d1fe3",
    "time": "2012-11-17"
  },
  {
    "place": "Mexican Restaurant42f15a80f964a520bf261fe3",
    "time": "2012-11-17"
  },
  {
    "place": "Bar4a81ef97f964a5200af81fe3",
    "time": "2012-11-18"
  },
  {
    "place": "American Restaurant4b998a8ff964a520098235e3",
    "time": "2012-11-18"
  },
  {
    "place": "Italian Restaurant504f3f3ae4b099c2817e5e24",
    "time": "2012-11-23"
  },
  {
    "place": "American Restaurant4e691e82b9930387355c629d",
    "time": "2012-11-24"
  },
  {
    "place": "Bar4f71e4207beb1d18abcc9648",
    "time": "2012-11-24"
  },
  {
    "place": "Gym / Fitness Center4558b83bf964a5204b3d1fe3",
    "time": "2012-11-25"
  },
  {
    "place": "Art Museum47b6cfccf964a520af4d1fe3",
    "time": "2012-11-30"
  },
  {
    "place": "Gym / Fitness Center4558b83bf964a5204b3d1fe3",
    "time": "2012-12-01"
  },
  {
    "place": "Gym / Fitness Center4558b83bf964a5204b3d1fe3",
    "time": "2012-12-03"
  },
  {
    "place": "Clothing Store4bc20ddaabf495212ddbc193",
    "time": "2012-12-04"
  },
  {
    "place": "Gym / Fitness Center4558b83bf964a5204b3d1fe3",
    "time": "2012-12-05"
  },
  {
    "place": "Gym / Fitness Center4558b83bf964a5204b3d1fe3",
    "time": "2012-12-18"
  },
  {
    "place": "Airport4a3919f3f964a520219f1fe3",
    "time": "2012-12-20"
  },
  {
    "place": "Medical Center4fad4a66e4b06e5ab7da5808",
    "time": "2013-01-01"
  },
  {
    "place": "Food & Drink Shop49f37c28f964a520a36a1fe3",
    "time": "2013-01-05"
  },
  {
    "place": "Caf\u00c3\u00a949d29c7ef964a520c05b1fe3",
    "time": "2013-01-06"
  },
  {
    "place": "Furniture / Home Store4a7dcf5cf964a520b5ef1fe3",
    "time": "2013-01-06"
  },
  {
    "place": "Bar49a71dd1f964a520a0521fe3",
    "time": "2013-01-07"
  },
  {
    "place": "Food & Drink Shop4c225ae47e85c9283ee5bb21",
    "time": "2013-01-07"
  },
  {
    "place": "Pet Store4a5519d5f964a520adb31fe3",
    "time": "2013-01-08"
  },
  {
    "place": "Clothing Store4b3d1567f964a5208f8d25e3",
    "time": "2013-01-08"
  },
  {
    "place": "Gym / Fitness Center4558b83bf964a5204b3d1fe3",
    "time": "2013-01-11"
  },
  {
    "place": "Clothing Store4b18552df964a52008d123e3",
    "time": "2013-01-11"
  },
  {
    "place": "American Restaurant4aa9386ef964a5208b5220e3",
    "time": "2013-01-13"
  },
  {
    "place": "Restaurant3fd66200f964a520f1e61ee3",
    "time": "2013-01-13"
  },
  {
    "place": "Bagel Shop4a68a1c6f964a520b5ca1fe3",
    "time": "2013-01-13"
  },
  {
    "place": "American Restaurant4d9db7087f9e4eb9436ea1fc",
    "time": "2013-01-18"
  },
  {
    "place": "American Restaurant4e691e82b9930387355c629d",
    "time": "2013-01-18"
  },
  {
    "place": "Sporting Goods Shop49e34b16f964a5206f621fe3",
    "time": "2013-01-21"
  },
  {
    "place": "Food & Drink Shop4c225ae47e85c9283ee5bb21",
    "time": "2013-01-21"
  },
  {
    "place": "Gym / Fitness Center4558b83bf964a5204b3d1fe3",
    "time": "2013-01-22"
  },
  {
    "place": "Gym / Fitness Center4558b83bf964a5204b3d1fe3",
    "time": "2013-01-25"
  },
  {
    "place": "Italian Restaurant4ccc32e997d0224bff415eb8",
    "time": "2013-01-26"
  },
  {
    "place": "Gym / Fitness Center4558b83bf964a5204b3d1fe3",
    "time": "2013-01-26"
  },
  {
    "place": "Food & Drink Shop4c225ae47e85c9283ee5bb21",
    "time": "2013-01-28"
  },
  {
    "place": "Gym / Fitness Center4558b83bf964a5204b3d1fe3",
    "time": "2013-01-28"
  },
  {
    "place": "Salon / Barbershop4b61dce3f964a520d3272ae3",
    "time": "2013-01-29"
  },
  {
    "place": "Department Store41102700f964a520d60b1fe3",
    "time": "2013-01-29"
  },
  {
    "place": "Gym / Fitness Center4558b83bf964a5204b3d1fe3",
    "time": "2013-01-31"
  },
  {
    "place": "Japanese Restaurant50a848d0e4b044e8ac3e3306",
    "time": "2013-02-02"
  },
  {
    "place": "American Restaurant4e691e82b9930387355c629d",
    "time": "2013-02-02"
  },
  {
    "place": "Italian Restaurant504f3f3ae4b099c2817e5e24",
    "time": "2013-02-02"
  },
  {
    "place": "Korean Restaurant5076a130e4b004a704367a8f",
    "time": "2013-02-02"
  },
  {
    "place": "American Restaurant5096f9a5e4b0ad3a967b4237",
    "time": "2013-02-03"
  },
  {
    "place": "Gym / Fitness Center4558b83bf964a5204b3d1fe3",
    "time": "2013-02-03"
  },
  {
    "place": "Gym / Fitness Center4558b83bf964a5204b3d1fe3",
    "time": "2013-02-04"
  },
  {
    "place": "Gym / Fitness Center4558b83bf964a5204b3d1fe3",
    "time": "2013-02-06"
  },
  {
    "place": "Restaurant4e0a5cc422714194998ddfc2",
    "time": "2013-02-08"
  }
]