[
  {
    "place": "Bank4d77c7769ee9a35d4b14b8f8",
    "time": "2012-04-04"
  },
  {
    "place": "Neighborhood4c4b52ce9e6dbe9acbd4e10b",
    "time": "2012-04-10"
  },
  {
    "place": "Medical Center4d88a986401a224ba6777c18",
    "time": "2012-04-10"
  },
  {
    "place": "Coffee Shop4ad76597f964a5200e0a21e3",
    "time": "2012-04-11"
  },
  {
    "place": "Deli / Bodega4aae5c31f964a520e96120e3",
    "time": "2012-04-17"
  },
  {
    "place": "Ice Cream Shop4db8b38a93a0f369e8601ddd",
    "time": "2012-04-18"
  },
  {
    "place": "Professional & Other Places4de1740a8877bcb6862d00db",
    "time": "2012-04-21"
  },
  {
    "place": "Seafood Restaurant4ecd7bf25c5c9528f5ec887a",
    "time": "2012-04-28"
  },
  {
    "place": "Professional & Other Places4de1740a8877bcb6862d00db",
    "time": "2012-04-28"
  },
  {
    "place": "Office4b8d713ff964a52021fc32e3",
    "time": "2012-05-17"
  },
  {
    "place": "Bank4b4624fff964a520f91726e3",
    "time": "2012-05-18"
  },
  {
    "place": "Cuban Restaurant4a3019adf964a5201a991fe3",
    "time": "2012-05-18"
  },
  {
    "place": "Spa / Massage4d8cef2d1d06b1f7060b253b",
    "time": "2012-05-19"
  },
  {
    "place": "Movie Theater40afe980f964a5203bf31ee3",
    "time": "2012-05-19"
  },
  {
    "place": "Gym / Fitness Center4f1d95fde4b0e6baddcd3f41",
    "time": "2012-05-21"
  },
  {
    "place": "Camera Store49d92230f964a520035e1fe3",
    "time": "2012-05-25"
  },
  {
    "place": "Gym / Fitness Center4f1d95fde4b0e6baddcd3f41",
    "time": "2012-05-27"
  },
  {
    "place": "Sushi Restaurant4af2396df964a520bde621e3",
    "time": "2012-05-29"
  },
  {
    "place": "Gym / Fitness Center4f1d95fde4b0e6baddcd3f41",
    "time": "2012-05-31"
  },
  {
    "place": "Movie Theater4a4138ebf964a520f9a41fe3",
    "time": "2012-06-03"
  },
  {
    "place": "Professional & Other Places4de1740a8877bcb6862d00db",
    "time": "2012-06-09"
  },
  {
    "place": "Sandwich Place4aae8fd5f964a5206e6220e3",
    "time": "2012-06-11"
  },
  {
    "place": "Coffee Shop4b898555f964a520683e32e3",
    "time": "2012-06-12"
  },
  {
    "place": "Gaming Cafe4d602942196ba093bdb81656",
    "time": "2012-06-18"
  },
  {
    "place": "Beach4bb78f733db7b713aa29209a",
    "time": "2012-06-20"
  },
  {
    "place": "Beach4bb78f733db7b713aa29209a",
    "time": "2012-07-07"
  },
  {
    "place": "Coffee Shop4b898555f964a520683e32e3",
    "time": "2012-07-12"
  },
  {
    "place": "Coffee Shop4b898555f964a520683e32e3",
    "time": "2012-07-13"
  },
  {
    "place": "Office4b7c08b2f964a52085792fe3",
    "time": "2012-07-24"
  },
  {
    "place": "Park42893400f964a52052231fe3",
    "time": "2012-07-29"
  },
  {
    "place": "Coffee Shop4a9535d7f964a520b22220e3",
    "time": "2012-07-29"
  },
  {
    "place": "Spa / Massage4d8cef2d1d06b1f7060b253b",
    "time": "2012-07-29"
  },
  {
    "place": "Coffee Shop4b898555f964a520683e32e3",
    "time": "2012-07-30"
  },
  {
    "place": "Office4b7c08b2f964a52085792fe3",
    "time": "2012-07-30"
  },
  {
    "place": "Bank4d77c7769ee9a35d4b14b8f8",
    "time": "2012-08-06"
  },
  {
    "place": "Office4b7c08b2f964a52085792fe3",
    "time": "2012-08-09"
  },
  {
    "place": "Office4b7c08b2f964a52085792fe3",
    "time": "2012-08-10"
  },
  {
    "place": "Airport4a19c1def964a520497a1fe3",
    "time": "2012-08-18"
  },
  {
    "place": "Coffee Shop4b898555f964a520683e32e3",
    "time": "2012-09-13"
  },
  {
    "place": "Burger Joint4b21388df964a520793824e3",
    "time": "2012-09-13"
  },
  {
    "place": "Plaza4c77ddce947ca1cda3aa4837",
    "time": "2012-10-12"
  },
  {
    "place": "Caf\u00c3\u00a94ae5e447f964a520eca221e3",
    "time": "2012-10-18"
  },
  {
    "place": "Mexican Restaurant4fa94c32e4b038d0ab6a4de1",
    "time": "2012-10-19"
  },
  {
    "place": "Coffee Shop4b898555f964a520683e32e3",
    "time": "2012-10-25"
  },
  {
    "place": "Coffee Shop4b898555f964a520683e32e3",
    "time": "2012-10-26"
  },
  {
    "place": "Burger Joint4b21388df964a520793824e3",
    "time": "2012-10-26"
  },
  {
    "place": "Professional & Other Places4de1740a8877bcb6862d00db",
    "time": "2012-10-27"
  },
  {
    "place": "Home (private)4c71be0a376da093bbc8a4c6",
    "time": "2012-10-27"
  },
  {
    "place": "Hotel506ad5fbe4b012a83db35a2d",
    "time": "2012-11-01"
  },
  {
    "place": "Hotel49f08690f964a52034691fe3",
    "time": "2012-11-01"
  },
  {
    "place": "Office4b7c08b2f964a52085792fe3",
    "time": "2012-11-01"
  },
  {
    "place": "Park4edd991df9abeea3dd73ec81",
    "time": "2012-11-01"
  },
  {
    "place": "Neighborhood4bc5b5525935c9b6b137a6d2",
    "time": "2012-11-01"
  },
  {
    "place": "Road4da08172784f3704f4889baf",
    "time": "2012-11-01"
  },
  {
    "place": "Travel Lounge4f5ac722e4b05cfda4117848",
    "time": "2012-11-02"
  },
  {
    "place": "Office4b7c08b2f964a52085792fe3",
    "time": "2012-11-02"
  },
  {
    "place": "Coffee Shop4b898555f964a520683e32e3",
    "time": "2012-11-06"
  },
  {
    "place": "Deli / Bodega4aae5c31f964a520e96120e3",
    "time": "2012-11-06"
  },
  {
    "place": "Office4b7c08b2f964a52085792fe3",
    "time": "2012-11-06"
  },
  {
    "place": "Caf\u00c3\u00a94ae5e447f964a520eca221e3",
    "time": "2012-11-07"
  },
  {
    "place": "Bridge49ecd458f964a52099671fe3",
    "time": "2012-11-09"
  },
  {
    "place": "Deli / Bodega4c858c54dc018cfa1e64e96c",
    "time": "2012-11-11"
  },
  {
    "place": "Other Great Outdoors4d66fea26d6a236ad23b2c2a",
    "time": "2012-11-12"
  },
  {
    "place": "Residential Building (Apartment / Condo)4dd034658877851244237d89",
    "time": "2012-11-12"
  },
  {
    "place": "Road4ac7d78cf964a52011ba20e3",
    "time": "2012-11-12"
  },
  {
    "place": "Office4b7c08b2f964a52085792fe3",
    "time": "2012-11-12"
  },
  {
    "place": "Deli / Bodega4aae5c31f964a520e96120e3",
    "time": "2012-11-12"
  },
  {
    "place": "Japanese Restaurant4cf950652d80a1438bff3cd8",
    "time": "2012-11-12"
  },
  {
    "place": "Clothing Store4b58a098f964a520296228e3",
    "time": "2012-11-12"
  },
  {
    "place": "Deli / Bodega4aae5c31f964a520e96120e3",
    "time": "2012-11-13"
  },
  {
    "place": "Latin American Restaurant504cd5c5e4b09a44321944d1",
    "time": "2012-11-16"
  },
  {
    "place": "Community College44e247eaf964a52028371fe3",
    "time": "2012-11-16"
  },
  {
    "place": "Deli / Bodega4aae5c31f964a520e96120e3",
    "time": "2012-11-21"
  },
  {
    "place": "Post Office4ade30b3f964a520c47321e3",
    "time": "2012-11-23"
  },
  {
    "place": "Miscellaneous Shop4b3147dcf964a520d50325e3",
    "time": "2012-12-01"
  },
  {
    "place": "Deli / Bodega4aae5c31f964a520e96120e3",
    "time": "2012-12-05"
  },
  {
    "place": "Deli / Bodega4aae5c31f964a520e96120e3",
    "time": "2012-12-06"
  },
  {
    "place": "Deli / Bodega4a807268f964a52041f51fe3",
    "time": "2012-12-06"
  },
  {
    "place": "Deli / Bodega4a807268f964a52041f51fe3",
    "time": "2012-12-11"
  },
  {
    "place": "Other Great Outdoors50c811dbe4b0d585092b704f",
    "time": "2012-12-12"
  },
  {
    "place": "Other Great Outdoors4cb370b5562d224bb4e82d88",
    "time": "2012-12-15"
  },
  {
    "place": "Other Nightlife4d0382fa30a58cfa181399e7",
    "time": "2012-12-15"
  },
  {
    "place": "Deli / Bodega4a807268f964a52041f51fe3",
    "time": "2012-12-18"
  },
  {
    "place": "Burrito Place4e125d71d22d759bae6aeaa6",
    "time": "2012-12-18"
  },
  {
    "place": "Department Store4531059cf964a520683b1fe3",
    "time": "2012-12-19"
  },
  {
    "place": "Bar50cb425de4b02eda3969d0ae",
    "time": "2012-12-21"
  },
  {
    "place": "Post Office4c66c83119f3c9b62ac8a0ff",
    "time": "2012-12-22"
  },
  {
    "place": "Deli / Bodega4aae5c31f964a520e96120e3",
    "time": "2012-12-27"
  },
  {
    "place": "Deli / Bodega4aae5c31f964a520e96120e3",
    "time": "2012-12-28"
  },
  {
    "place": "Food & Drink Shop4d716ad97e95224bdf81356f",
    "time": "2012-12-29"
  },
  {
    "place": "Deli / Bodega4aae5c31f964a520e96120e3",
    "time": "2012-12-31"
  },
  {
    "place": "Food & Drink Shop4d716ad97e95224bdf81356f",
    "time": "2012-12-31"
  },
  {
    "place": "Miscellaneous Shop4c55c78a4623be9a596b09f5",
    "time": "2012-12-31"
  },
  {
    "place": "Other Great Outdoors50dff1a7e4b0a36649c8402e",
    "time": "2013-01-01"
  },
  {
    "place": "Sandwich Place4b560838f964a520d5fc27e3",
    "time": "2013-01-03"
  },
  {
    "place": "Office4b7c08b2f964a52085792fe3",
    "time": "2013-01-04"
  },
  {
    "place": "Sandwich Place4ffc5eade4b0a2404458438e",
    "time": "2013-01-04"
  },
  {
    "place": "Building4a7c61fef964a52072ec1fe3",
    "time": "2013-01-04"
  },
  {
    "place": "Moving Target4f2b4fd2e4b05a27b942efb6",
    "time": "2013-01-05"
  },
  {
    "place": "Coffee Shop4b898555f964a520683e32e3",
    "time": "2013-01-14"
  },
  {
    "place": "Deli / Bodega4a807268f964a52041f51fe3",
    "time": "2013-01-16"
  },
  {
    "place": "Deli / Bodega4aae5c31f964a520e96120e3",
    "time": "2013-01-28"
  },
  {
    "place": "Latin American Restaurant504cd5c5e4b09a44321944d1",
    "time": "2013-02-02"
  },
  {
    "place": "Food & Drink Shop51096179e4b0c81278c8bcd2",
    "time": "2013-02-03"
  },
  {
    "place": "Gym / Fitness Center4f1d95fde4b0e6baddcd3f41",
    "time": "2013-02-10"
  },
  {
    "place": "Pizza Place4da6133d6a23f2e805004e62",
    "time": "2013-02-10"
  },
  {
    "place": "Deli / Bodega4aae5c31f964a520e96120e3",
    "time": "2013-02-12"
  }
]