[
  {
    "place": "Train Station49f76cc2f964a5209d6c1fe3",
    "time": "2012-04-03"
  },
  {
    "place": "Train Station4ae9014af964a520f4b321e3",
    "time": "2012-04-03"
  },
  {
    "place": "Mall49e4ec34f964a5206e631fe3",
    "time": "2012-04-04"
  },
  {
    "place": "Light Rail4b8d2387f964a520dbe932e3",
    "time": "2012-04-04"
  },
  {
    "place": "Train Station4ae9014af964a520f4b321e3",
    "time": "2012-04-04"
  },
  {
    "place": "Train Station49f76cc2f964a5209d6c1fe3",
    "time": "2012-04-04"
  },
  {
    "place": "Home (private)4e2ce53dd22d3f83c89eb007",
    "time": "2012-04-04"
  },
  {
    "place": "Drugstore / Pharmacy4bf0560cc8d920a1fcb49430",
    "time": "2012-04-07"
  },
  {
    "place": "Home (private)4e2ce53dd22d3f83c89eb007",
    "time": "2012-04-07"
  },
  {
    "place": "Home (private)4e2ce53dd22d3f83c89eb007",
    "time": "2012-04-07"
  },
  {
    "place": "Home (private)4e2ce53dd22d3f83c89eb007",
    "time": "2012-04-08"
  },
  {
    "place": "Home (private)4e2ce53dd22d3f83c89eb007",
    "time": "2012-04-09"
  },
  {
    "place": "Train Station49f76cc2f964a5209d6c1fe3",
    "time": "2012-04-09"
  },
  {
    "place": "Train Station4e3ab921b3ade614e1275a0c",
    "time": "2012-04-09"
  },
  {
    "place": "American Restaurant4c71600ad7fab1f7020f61c9",
    "time": "2012-04-10"
  },
  {
    "place": "Train Station4a9fc4fbf964a520493d20e3",
    "time": "2012-04-10"
  },
  {
    "place": "Train Station4e3ab921b3ade614e1275a0c",
    "time": "2012-04-10"
  },
  {
    "place": "Train Station4a9fc4fbf964a520493d20e3",
    "time": "2012-04-11"
  },
  {
    "place": "Train Station4c6926091a6620a1beb6628c",
    "time": "2012-04-11"
  },
  {
    "place": "Train Station4e3ab921b3ade614e1275a0c",
    "time": "2012-04-12"
  },
  {
    "place": "Train Station4c6926091a6620a1beb6628c",
    "time": "2012-04-13"
  },
  {
    "place": "Train Station4e3ab921b3ade614e1275a0c",
    "time": "2012-04-13"
  },
  {
    "place": "Train Station4c6926091a6620a1beb6628c",
    "time": "2012-04-13"
  },
  {
    "place": "Home (private)4e2ce53dd22d3f83c89eb007",
    "time": "2012-04-13"
  },
  {
    "place": "Burger Joint4af20f6bf964a52090e521e3",
    "time": "2012-04-14"
  },
  {
    "place": "Dessert Shop4b80541af964a520776830e3",
    "time": "2012-04-14"
  },
  {
    "place": "Medical Center4b8aacaff964a5200f7932e3",
    "time": "2012-04-15"
  },
  {
    "place": "Home (private)4e2ce53dd22d3f83c89eb007",
    "time": "2012-04-15"
  },
  {
    "place": "Home (private)4e2ce53dd22d3f83c89eb007",
    "time": "2012-04-15"
  },
  {
    "place": "Stadium4ae6363ef964a520aba521e3",
    "time": "2012-04-16"
  },
  {
    "place": "Train Station4e3ab921b3ade614e1275a0c",
    "time": "2012-04-16"
  },
  {
    "place": "Train Station4c6926091a6620a1beb6628c",
    "time": "2012-04-16"
  },
  {
    "place": "Home (private)4e2ce53dd22d3f83c89eb007",
    "time": "2012-04-16"
  },
  {
    "place": "Home (private)4e2ce53dd22d3f83c89eb007",
    "time": "2012-04-17"
  },
  {
    "place": "Train Station49f76cc2f964a5209d6c1fe3",
    "time": "2012-04-17"
  },
  {
    "place": "Train Station4ae9014af964a520f4b321e3",
    "time": "2012-04-17"
  },
  {
    "place": "Camera Store4adb6119f964a520a72621e3",
    "time": "2012-04-17"
  },
  {
    "place": "Train Station4ae9014af964a520f4b321e3",
    "time": "2012-04-17"
  },
  {
    "place": "Train Station49f76cc2f964a5209d6c1fe3",
    "time": "2012-04-17"
  },
  {
    "place": "Home (private)4e2ce53dd22d3f83c89eb007",
    "time": "2012-04-17"
  },
  {
    "place": "Burger Joint4af20f6bf964a52090e521e3",
    "time": "2012-04-18"
  },
  {
    "place": "Gym / Fitness Center4c450ab2f799e21e24c3aea2",
    "time": "2012-04-18"
  },
  {
    "place": "Home (private)4e2ce53dd22d3f83c89eb007",
    "time": "2012-04-18"
  },
  {
    "place": "Home (private)4e2ce53dd22d3f83c89eb007",
    "time": "2012-04-19"
  },
  {
    "place": "Gym / Fitness Center4c450ab2f799e21e24c3aea2",
    "time": "2012-04-20"
  },
  {
    "place": "Train Station4c6926091a6620a1beb6628c",
    "time": "2012-04-20"
  },
  {
    "place": "Bank4f0375b693adc8245c1cbc1b",
    "time": "2012-04-20"
  },
  {
    "place": "Drugstore / Pharmacy4bc683e004e8b713283b362d",
    "time": "2012-04-21"
  },
  {
    "place": "Bookstore4af4acb5f964a520f9f421e3",
    "time": "2012-04-22"
  },
  {
    "place": "Home (private)4e2ce53dd22d3f83c89eb007",
    "time": "2012-04-22"
  },
  {
    "place": "Burger Joint4af20f6bf964a52090e521e3",
    "time": "2012-04-22"
  },
  {
    "place": "Home (private)4e2ce53dd22d3f83c89eb007",
    "time": "2012-04-23"
  },
  {
    "place": "Train Station4c6926091a6620a1beb6628c",
    "time": "2012-04-23"
  },
  {
    "place": "Train Station4e3ab921b3ade614e1275a0c",
    "time": "2012-04-23"
  },
  {
    "place": "Home (private)4e2ce53dd22d3f83c89eb007",
    "time": "2012-04-24"
  },
  {
    "place": "Train Station4c6926091a6620a1beb6628c",
    "time": "2012-04-24"
  },
  {
    "place": "Train Station4e3ab921b3ade614e1275a0c",
    "time": "2012-04-24"
  },
  {
    "place": "Home (private)4e2ce53dd22d3f83c89eb007",
    "time": "2012-04-24"
  },
  {
    "place": "Train Station4c6926091a6620a1beb6628c",
    "time": "2012-04-25"
  },
  {
    "place": "Home (private)4e2ce53dd22d3f83c89eb007",
    "time": "2012-04-26"
  },
  {
    "place": "Home (private)4e2ce53dd22d3f83c89eb007",
    "time": "2012-04-28"
  },
  {
    "place": "Burger Joint4af20f6bf964a52090e521e3",
    "time": "2012-04-28"
  },
  {
    "place": "Breakfast Spot4b5c6c6af964a5202f2f29e3",
    "time": "2012-04-28"
  },
  {
    "place": "Fast Food Restaurant4be78d7fee96c928f62afdbf",
    "time": "2012-04-29"
  },
  {
    "place": "Train Station4e3ab921b3ade614e1275a0c",
    "time": "2012-04-29"
  },
  {
    "place": "Home (private)4e2ce53dd22d3f83c89eb007",
    "time": "2012-04-29"
  },
  {
    "place": "Gym / Fitness Center4c450ab2f799e21e24c3aea2",
    "time": "2012-04-29"
  },
  {
    "place": "Home (private)4e2ce53dd22d3f83c89eb007",
    "time": "2012-05-01"
  },
  {
    "place": "Food & Drink Shop4bc5e13e41cb76b0f5ef3e6f",
    "time": "2012-05-02"
  },
  {
    "place": "Home (private)4e2ce53dd22d3f83c89eb007",
    "time": "2012-05-02"
  },
  {
    "place": "Train Station4e3ab921b3ade614e1275a0c",
    "time": "2012-05-03"
  },
  {
    "place": "Home (private)4e2ce53dd22d3f83c89eb007",
    "time": "2012-05-03"
  },
  {
    "place": "Train Station4c6926091a6620a1beb6628c",
    "time": "2012-05-04"
  },
  {
    "place": "Train Station4a719437f964a52046d91fe3",
    "time": "2012-05-04"
  },
  {
    "place": "Mall4ba82484f964a52051ce39e3",
    "time": "2012-05-04"
  },
  {
    "place": "Home (private)4e2ce53dd22d3f83c89eb007",
    "time": "2012-05-05"
  },
  {
    "place": "Diner4bd9b9480115c9b604607880",
    "time": "2012-05-05"
  },
  {
    "place": "Home (private)4e2ce53dd22d3f83c89eb007",
    "time": "2012-05-05"
  },
  {
    "place": "Bank4f0375b693adc8245c1cbc1b",
    "time": "2012-05-05"
  },
  {
    "place": "Bookstore4adce1a5f964a5202d6221e3",
    "time": "2012-05-05"
  },
  {
    "place": "Gym / Fitness Center4c450ab2f799e21e24c3aea2",
    "time": "2012-05-05"
  },
  {
    "place": "Home (private)4e2ce53dd22d3f83c89eb007",
    "time": "2012-05-05"
  },
  {
    "place": "Mall4ca78e5a97c8a1cd97ba7ba5",
    "time": "2012-05-06"
  },
  {
    "place": "Gym / Fitness Center4c450ab2f799e21e24c3aea2",
    "time": "2012-05-09"
  },
  {
    "place": "Mall4ca78e5a97c8a1cd97ba7ba5",
    "time": "2012-05-09"
  },
  {
    "place": "Shop & Service4e10bab852b1655efa3fd6e3",
    "time": "2012-05-09"
  },
  {
    "place": "Gym / Fitness Center4c450ab2f799e21e24c3aea2",
    "time": "2012-05-10"
  },
  {
    "place": "Home (private)4e2ce53dd22d3f83c89eb007",
    "time": "2012-05-11"
  },
  {
    "place": "Gym / Fitness Center4c450ab2f799e21e24c3aea2",
    "time": "2012-05-11"
  },
  {
    "place": "Paper / Office Supplies Store4c8016f874d7b60c376b6ad8",
    "time": "2012-05-12"
  },
  {
    "place": "Home (private)4e2ce53dd22d3f83c89eb007",
    "time": "2012-05-13"
  },
  {
    "place": "Train Station4c6926091a6620a1beb6628c",
    "time": "2012-05-14"
  },
  {
    "place": "Train Station4a9fc4fbf964a520493d20e3",
    "time": "2012-05-15"
  },
  {
    "place": "Train Station4c6926091a6620a1beb6628c",
    "time": "2012-05-15"
  },
  {
    "place": "Train Station4b63a3dbf964a5201a892ae3",
    "time": "2012-05-15"
  },
  {
    "place": "Train Station4ac290a3f964a520c29920e3",
    "time": "2012-05-16"
  },
  {
    "place": "Home (private)4e2ce53dd22d3f83c89eb007",
    "time": "2012-05-16"
  },
  {
    "place": "Train Station4c6926091a6620a1beb6628c",
    "time": "2012-05-16"
  },
  {
    "place": "Gym / Fitness Center4c450ab2f799e21e24c3aea2",
    "time": "2012-05-16"
  },
  {
    "place": "Mall4ca78e5a97c8a1cd97ba7ba5",
    "time": "2012-05-17"
  },
  {
    "place": "Home (private)4e2ce53dd22d3f83c89eb007",
    "time": "2012-05-18"
  },
  {
    "place": "Office4ed4cb4299119575fe87cf35",
    "time": "2012-05-21"
  },
  {
    "place": "Home (private)4e2ce53dd22d3f83c89eb007",
    "time": "2012-05-22"
  },
  {
    "place": "Train Station4c6926091a6620a1beb6628c",
    "time": "2012-05-22"
  },
  {
    "place": "Gym / Fitness Center4c450ab2f799e21e24c3aea2",
    "time": "2012-05-24"
  },
  {
    "place": "Home (private)4e2ce53dd22d3f83c89eb007",
    "time": "2012-05-24"
  },
  {
    "place": "Gym / Fitness Center4c450ab2f799e21e24c3aea2",
    "time": "2012-05-26"
  },
  {
    "place": "Home (private)4e2ce53dd22d3f83c89eb007",
    "time": "2012-05-26"
  },
  {
    "place": "Home (private)4e2ce53dd22d3f83c89eb007",
    "time": "2012-05-27"
  },
  {
    "place": "Burger Joint4af20f6bf964a52090e521e3",
    "time": "2012-05-27"
  },
  {
    "place": "Home (private)4e2ce53dd22d3f83c89eb007",
    "time": "2012-05-27"
  },
  {
    "place": "Home (private)4e2ce53dd22d3f83c89eb007",
    "time": "2012-05-28"
  },
  {
    "place": "Gym / Fitness Center4c450ab2f799e21e24c3aea2",
    "time": "2012-05-28"
  },
  {
    "place": "Train Station49f76cc2f964a5209d6c1fe3",
    "time": "2012-06-02"
  },
  {
    "place": "Home (private)4e2ce53dd22d3f83c89eb007",
    "time": "2012-06-03"
  },
  {
    "place": "Home (private)4e2ce53dd22d3f83c89eb007",
    "time": "2012-06-03"
  },
  {
    "place": "Mall4ca78e5a97c8a1cd97ba7ba5",
    "time": "2012-06-03"
  },
  {
    "place": "Pet Store4b72065ef964a520d06a2de3",
    "time": "2012-06-03"
  },
  {
    "place": "Food & Drink Shop4b072cbcf964a520cdf822e3",
    "time": "2012-06-03"
  },
  {
    "place": "Home (private)4e2ce53dd22d3f83c89eb007",
    "time": "2012-06-03"
  },
  {
    "place": "Bar4cbcafab035d236aebebe64e",
    "time": "2012-06-04"
  },
  {
    "place": "Home (private)4f7ec727e4b02cb6c7596a65",
    "time": "2012-06-05"
  },
  {
    "place": "Home (private)4e2ce53dd22d3f83c89eb007",
    "time": "2012-06-05"
  },
  {
    "place": "Japanese Restaurant4c4a4ec942b4d13ab06b027d",
    "time": "2012-06-08"
  },
  {
    "place": "Gym / Fitness Center4c450ab2f799e21e24c3aea2",
    "time": "2012-06-09"
  },
  {
    "place": "Home (private)4e2ce53dd22d3f83c89eb007",
    "time": "2012-06-10"
  },
  {
    "place": "Fast Food Restaurant4c6bb3d10c3ac9b6bd85d238",
    "time": "2012-06-11"
  },
  {
    "place": "Government Building4bd2e18c77b29c74c2798f82",
    "time": "2012-06-11"
  },
  {
    "place": "Home (private)4f7ec727e4b02cb6c7596a65",
    "time": "2012-06-12"
  },
  {
    "place": "Mall4ca78e5a97c8a1cd97ba7ba5",
    "time": "2012-06-18"
  },
  {
    "place": "Chinese Restaurant4b999053f964a520eb8335e3",
    "time": "2012-06-18"
  },
  {
    "place": "Home (private)4e2ce53dd22d3f83c89eb007",
    "time": "2012-07-03"
  },
  {
    "place": "Train Station49f76cc2f964a5209d6c1fe3",
    "time": "2012-07-04"
  },
  {
    "place": "Burger Joint4af20f6bf964a52090e521e3",
    "time": "2012-07-05"
  },
  {
    "place": "Train Station49f76cc2f964a5209d6c1fe3",
    "time": "2012-07-07"
  },
  {
    "place": "Breakfast Spot4b5c6c6af964a5202f2f29e3",
    "time": "2012-07-09"
  },
  {
    "place": "Burger Joint4af20f6bf964a52090e521e3",
    "time": "2012-07-13"
  },
  {
    "place": "Movie Theater49e17f24f964a520d1611fe3",
    "time": "2012-07-22"
  },
  {
    "place": "Home (private)4e2ce53dd22d3f83c89eb007",
    "time": "2012-07-26"
  },
  {
    "place": "Food & Drink Shop4bc5e13e41cb76b0f5ef3e6f",
    "time": "2012-07-30"
  },
  {
    "place": "Residential Building (Apartment / Condo)5019f69fe4b0ad58b40c8ec9",
    "time": "2012-08-05"
  },
  {
    "place": "Train Station4ac290a3f964a520c29920e3",
    "time": "2012-08-10"
  },
  {
    "place": "Fast Food Restaurant4ca751bfb7106dcbca9a66a5",
    "time": "2012-08-10"
  },
  {
    "place": "Train Station4ac290a3f964a520c29920e3",
    "time": "2012-08-10"
  },
  {
    "place": "Residential Building (Apartment / Condo)5019f69fe4b0ad58b40c8ec9",
    "time": "2012-08-10"
  },
  {
    "place": "Train Station4ac290a3f964a520c29920e3",
    "time": "2012-08-11"
  },
  {
    "place": "Train Station4ac290a3f964a520c29920e3",
    "time": "2012-08-11"
  },
  {
    "place": "Residential Building (Apartment / Condo)5019f69fe4b0ad58b40c8ec9",
    "time": "2012-08-12"
  },
  {
    "place": "Residential Building (Apartment / Condo)5019f69fe4b0ad58b40c8ec9",
    "time": "2012-08-14"
  },
  {
    "place": "Train Station4ac290a3f964a520c29920e3",
    "time": "2012-08-16"
  },
  {
    "place": "Residential Building (Apartment / Condo)5019f69fe4b0ad58b40c8ec9",
    "time": "2012-08-16"
  },
  {
    "place": "Train Station4ac290a3f964a520c29920e3",
    "time": "2012-08-18"
  },
  {
    "place": "Train Station4ac290a3f964a520c29920e3",
    "time": "2012-08-18"
  },
  {
    "place": "Train Station4ac290a3f964a520c29920e3",
    "time": "2012-09-05"
  },
  {
    "place": "Residential Building (Apartment / Condo)5019f69fe4b0ad58b40c8ec9",
    "time": "2012-09-05"
  },
  {
    "place": "Residential Building (Apartment / Condo)5019f69fe4b0ad58b40c8ec9",
    "time": "2012-09-09"
  },
  {
    "place": "Mall4ca78e5a97c8a1cd97ba7ba5",
    "time": "2012-09-09"
  },
  {
    "place": "Video Game Store4c2bd691ae6820a12d7b1843",
    "time": "2012-09-09"
  },
  {
    "place": "Electronics Store4addf875f964a520e66621e3",
    "time": "2012-09-09"
  },
  {
    "place": "Residential Building (Apartment / Condo)5019f69fe4b0ad58b40c8ec9",
    "time": "2012-09-09"
  },
  {
    "place": "Residential Building (Apartment / Condo)5019f69fe4b0ad58b40c8ec9",
    "time": "2012-10-26"
  }
]