[
  {
    "place": "Road4b990014f964a5203b5b35e3",
    "time": "2012-04-04"
  },
  {
    "place": "Gym / Fitness Center4d2cc14bb47d2c0fd1608594",
    "time": "2012-04-04"
  },
  {
    "place": "Nail Salon4b156188f964a520f5ab23e3",
    "time": "2012-04-04"
  },
  {
    "place": "Food & Drink Shop49c27575f964a520f1551fe3",
    "time": "2012-04-04"
  },
  {
    "place": "Middle Eastern Restaurant4a044315f964a520ea711fe3",
    "time": "2012-04-04"
  },
  {
    "place": "Mexican Restaurant45e309edf964a52035431fe3",
    "time": "2012-04-07"
  },
  {
    "place": "Bar4ad778a8f964a520030b21e3",
    "time": "2012-04-08"
  },
  {
    "place": "Diner45f3f480f964a520f2431fe3",
    "time": "2012-04-08"
  },
  {
    "place": "Mediterranean Restaurant4c91772e57e5b60cfa25611c",
    "time": "2012-04-08"
  },
  {
    "place": "Gym / Fitness Center49c9439bf964a5204e581fe3",
    "time": "2012-04-10"
  },
  {
    "place": "Gym / Fitness Center4d2cc14bb47d2c0fd1608594",
    "time": "2012-04-11"
  },
  {
    "place": "Gym / Fitness Center4a888403f964a520bb0620e3",
    "time": "2012-04-11"
  },
  {
    "place": "Food & Drink Shop4c225ae47e85c9283ee5bb21",
    "time": "2012-04-13"
  },
  {
    "place": "Bar463f4aa8f964a5204e461fe3",
    "time": "2012-04-14"
  },
  {
    "place": "Hotel4d9c92f4baae54815f2cde64",
    "time": "2012-04-14"
  },
  {
    "place": "Pizza Place4f089479e4b0882d233d83dc",
    "time": "2012-04-14"
  },
  {
    "place": "Coffee Shop4a3ffdc5f964a5202da41fe3",
    "time": "2012-04-14"
  },
  {
    "place": "Mexican Restaurant41a12c00f964a5203a1e1fe3",
    "time": "2012-04-14"
  },
  {
    "place": "Park4c1d1971b4e62d7f2229dc93",
    "time": "2012-04-14"
  },
  {
    "place": "Food & Drink Shop49b80795f964a52034531fe3",
    "time": "2012-04-15"
  },
  {
    "place": "Coffee Shop4a1c91b1f964a520527b1fe3",
    "time": "2012-04-16"
  },
  {
    "place": "Other Great Outdoors4f6b1a10e4b021e524a5ba99",
    "time": "2012-04-16"
  },
  {
    "place": "Coffee Shop4aa512c5f964a5205e4720e3",
    "time": "2012-04-16"
  },
  {
    "place": "Gym / Fitness Center4d2cc14bb47d2c0fd1608594",
    "time": "2012-04-16"
  },
  {
    "place": "Clothing Store4bafcc97f964a520b5213ce3",
    "time": "2012-04-17"
  },
  {
    "place": "Hotel4cec13060f196dcb7b8e5bae",
    "time": "2012-04-17"
  },
  {
    "place": "Burger Joint4c9a8eccd4b1b1f7314dd135",
    "time": "2012-04-17"
  },
  {
    "place": "American Restaurant4b6b48faf964a52025fe2be3",
    "time": "2012-04-19"
  },
  {
    "place": "Italian Restaurant40fc6080f964a5202e0b1fe3",
    "time": "2012-04-20"
  },
  {
    "place": "Clothing Store4b70770ef964a520181c2de3",
    "time": "2012-04-20"
  },
  {
    "place": "Coffee Shop4a3ffdc5f964a5202da41fe3",
    "time": "2012-04-21"
  },
  {
    "place": "Gym / Fitness Center4a888403f964a520bb0620e3",
    "time": "2012-04-21"
  },
  {
    "place": "Food & Drink Shop43bba61df964a520eb2c1fe3",
    "time": "2012-04-21"
  },
  {
    "place": "Gym / Fitness Center4d2cc14bb47d2c0fd1608594",
    "time": "2012-04-22"
  },
  {
    "place": "Hotel44d7b1f3f964a52070361fe3",
    "time": "2012-04-22"
  },
  {
    "place": "BBQ Joint4a84a143f964a52028fd1fe3",
    "time": "2012-04-22"
  },
  {
    "place": "Gym / Fitness Center4d2cc14bb47d2c0fd1608594",
    "time": "2012-04-23"
  },
  {
    "place": "Caf\u00c3\u00a93fd66200f964a52008e91ee3",
    "time": "2012-04-23"
  },
  {
    "place": "Gym / Fitness Center4e54fa7662e1d18443249ad9",
    "time": "2012-04-24"
  },
  {
    "place": "Gym / Fitness Center4d2cc14bb47d2c0fd1608594",
    "time": "2012-04-24"
  },
  {
    "place": "Mediterranean Restaurant4f331c5ce4b05255bdf07d27",
    "time": "2012-04-24"
  },
  {
    "place": "Gym / Fitness Center4d2cc14bb47d2c0fd1608594",
    "time": "2012-04-25"
  },
  {
    "place": "Airport4ace6c89f964a52078d020e3",
    "time": "2012-04-25"
  },
  {
    "place": "Airport4459d2f1f964a520d7321fe3",
    "time": "2012-05-03"
  },
  {
    "place": "Airport4ace6c89f964a52078d020e3",
    "time": "2012-05-11"
  },
  {
    "place": "Office4b4f4015f964a520b5fe26e3",
    "time": "2012-05-12"
  },
  {
    "place": "Park4bcc5dcd3740b713d5d86365",
    "time": "2012-05-14"
  },
  {
    "place": "Office4b4f4015f964a520b5fe26e3",
    "time": "2012-05-14"
  },
  {
    "place": "Gym / Fitness Center4a05d2abf964a52081721fe3",
    "time": "2012-05-15"
  },
  {
    "place": "Gym / Fitness Center49c9439bf964a5204e581fe3",
    "time": "2012-05-16"
  },
  {
    "place": "Coffee Shop49c64908f964a52030571fe3",
    "time": "2012-05-16"
  },
  {
    "place": "Office4b4f4015f964a520b5fe26e3",
    "time": "2012-05-16"
  },
  {
    "place": "Burger Joint458b049cf964a520ec3f1fe3",
    "time": "2012-05-17"
  },
  {
    "place": "Office4b4f4015f964a520b5fe26e3",
    "time": "2012-05-18"
  },
  {
    "place": "Park4d98c6e8e07ea35d6a52fa02",
    "time": "2012-05-19"
  },
  {
    "place": "Coffee Shop4ecc046b0e61aaf0384f19c4",
    "time": "2012-05-21"
  },
  {
    "place": "Mexican Restaurant43ed7e9ef964a5204e2f1fe3",
    "time": "2012-05-21"
  },
  {
    "place": "Gym / Fitness Center4d2cc14bb47d2c0fd1608594",
    "time": "2012-05-22"
  },
  {
    "place": "Airport4459d2f1f964a520d7321fe3",
    "time": "2012-05-24"
  },
  {
    "place": "Gym / Fitness Center4ed6adfce5fabbd89f617d4f",
    "time": "2012-06-01"
  },
  {
    "place": "Office4b4f4015f964a520b5fe26e3",
    "time": "2012-06-01"
  },
  {
    "place": "Bar41fd7500f964a5204d1f1fe3",
    "time": "2012-06-03"
  },
  {
    "place": "Deli / Bodega4b5b7109f964a52061fe28e3",
    "time": "2012-06-03"
  },
  {
    "place": "Gym / Fitness Center4a888403f964a520bb0620e3",
    "time": "2012-06-04"
  },
  {
    "place": "Coffee Shop4a1c91b1f964a520527b1fe3",
    "time": "2012-06-04"
  },
  {
    "place": "Office4b4f4015f964a520b5fe26e3",
    "time": "2012-06-04"
  },
  {
    "place": "Gym / Fitness Center4e54fa7662e1d18443249ad9",
    "time": "2012-06-05"
  },
  {
    "place": "Office4b4f4015f964a520b5fe26e3",
    "time": "2012-06-05"
  },
  {
    "place": "Coffee Shop49d376a1f964a520fa5b1fe3",
    "time": "2012-06-05"
  },
  {
    "place": "Gym / Fitness Center49c9439bf964a5204e581fe3",
    "time": "2012-06-06"
  },
  {
    "place": "Office4b4f4015f964a520b5fe26e3",
    "time": "2012-06-06"
  },
  {
    "place": "Medical Center4b71b836f964a52057582de3",
    "time": "2012-06-06"
  },
  {
    "place": "Coffee Shop4876216df964a52011511fe3",
    "time": "2012-06-07"
  },
  {
    "place": "Office4b4f4015f964a520b5fe26e3",
    "time": "2012-06-07"
  },
  {
    "place": "Office4f391aa3e4b0a82740933ddc",
    "time": "2012-06-07"
  },
  {
    "place": "Office4b4f4015f964a520b5fe26e3",
    "time": "2012-06-08"
  },
  {
    "place": "Gym / Fitness Center4d2cc14bb47d2c0fd1608594",
    "time": "2012-06-09"
  },
  {
    "place": "Bar4101a680f964a5205a0b1fe3",
    "time": "2012-06-09"
  },
  {
    "place": "Gym / Fitness Center49c9439bf964a5204e581fe3",
    "time": "2012-06-10"
  },
  {
    "place": "Bar4acfd8bef964a52069d620e3",
    "time": "2012-06-10"
  },
  {
    "place": "Coffee Shop4a3ffdc5f964a5202da41fe3",
    "time": "2012-06-17"
  },
  {
    "place": "Gym / Fitness Center4e54fa7662e1d18443249ad9",
    "time": "2012-06-17"
  },
  {
    "place": "French Restaurant3fd66200f964a5202bea1ee3",
    "time": "2012-06-17"
  },
  {
    "place": "Park4bcc5dcd3740b713d5d86365",
    "time": "2012-06-18"
  },
  {
    "place": "Coffee Shop4fdbd09ee4b0602ab597262c",
    "time": "2012-06-18"
  },
  {
    "place": "Office4b4f4015f964a520b5fe26e3",
    "time": "2012-06-18"
  },
  {
    "place": "Food & Drink Shop43bba61df964a520eb2c1fe3",
    "time": "2012-06-18"
  },
  {
    "place": "Airport43a52546f964a520532c1fe3",
    "time": "2012-06-27"
  },
  {
    "place": "Movie Theater43a72ba0f964a520672c1fe3",
    "time": "2012-07-07"
  },
  {
    "place": "American Restaurant47de3aebf964a5203a4e1fe3",
    "time": "2012-07-07"
  },
  {
    "place": "Bar4b6dfa4ff964a520a1a02ce3",
    "time": "2012-07-07"
  },
  {
    "place": "American Restaurant49f1c129f964a520b5691fe3",
    "time": "2012-07-08"
  },
  {
    "place": "Gym / Fitness Center4a888403f964a520bb0620e3",
    "time": "2012-07-08"
  },
  {
    "place": "Bar4cc3a87a1e596dcbe665cc67",
    "time": "2012-07-09"
  },
  {
    "place": "Italian Restaurant4c44eaf559d99c7452f5fbad",
    "time": "2012-07-09"
  },
  {
    "place": "Gym / Fitness Center4d2cc14bb47d2c0fd1608594",
    "time": "2012-07-09"
  },
  {
    "place": "Office4b4f4015f964a520b5fe26e3",
    "time": "2012-07-09"
  },
  {
    "place": "French Restaurant4a26e0e1f964a520e97e1fe3",
    "time": "2012-07-11"
  },
  {
    "place": "Gym / Fitness Center4d2cc14bb47d2c0fd1608594",
    "time": "2012-07-11"
  },
  {
    "place": "Bar4bdb3aa963c5c9b617f22668",
    "time": "2012-07-11"
  },
  {
    "place": "Coffee Shop4a20b852f964a520b97c1fe3",
    "time": "2012-07-11"
  },
  {
    "place": "Pizza Place4eaf7a8e9911374b16dff376",
    "time": "2012-07-11"
  },
  {
    "place": "Ethiopian Restaurant49f7a827f964a520cd6c1fe3",
    "time": "2012-07-11"
  },
  {
    "place": "Gym / Fitness Center4d2cc14bb47d2c0fd1608594",
    "time": "2012-07-12"
  },
  {
    "place": "Coffee Shop4a58d0acf964a520f6b71fe3",
    "time": "2012-07-12"
  },
  {
    "place": "Laundry Service4bad0829f964a52070263be3",
    "time": "2012-07-12"
  },
  {
    "place": "Bar463f4aa8f964a5204e461fe3",
    "time": "2012-07-13"
  },
  {
    "place": "Gym / Fitness Center4d2cc14bb47d2c0fd1608594",
    "time": "2012-07-13"
  },
  {
    "place": "Office4b4f4015f964a520b5fe26e3",
    "time": "2012-07-13"
  },
  {
    "place": "French Restaurant4a26e0e1f964a520e97e1fe3",
    "time": "2012-07-13"
  },
  {
    "place": "Building4f5618e9e4b00e891e2999e2",
    "time": "2012-07-13"
  },
  {
    "place": "Australian Restaurant4993f345f964a52082521fe3",
    "time": "2012-07-15"
  },
  {
    "place": "Gym / Fitness Center4d2cc14bb47d2c0fd1608594",
    "time": "2012-07-16"
  },
  {
    "place": "Diner3fd66200f964a5204ee41ee3",
    "time": "2012-07-16"
  },
  {
    "place": "Gym / Fitness Center4d2cc14bb47d2c0fd1608594",
    "time": "2012-07-17"
  },
  {
    "place": "Office4b4f4015f964a520b5fe26e3",
    "time": "2012-07-18"
  },
  {
    "place": "French Restaurant4a26e0e1f964a520e97e1fe3",
    "time": "2012-07-18"
  },
  {
    "place": "Korean Restaurant4e67954f52b1ca65dc3778fd",
    "time": "2012-07-18"
  },
  {
    "place": "Italian Restaurant4fccfed41081ba9a64ce9613",
    "time": "2012-07-20"
  },
  {
    "place": "Coffee Shop4a3ffdc5f964a5202da41fe3",
    "time": "2012-07-24"
  },
  {
    "place": "Medical Center4e9dd00a0aaf015a061d03ac",
    "time": "2012-07-24"
  },
  {
    "place": "Coffee Shop4a1c91b1f964a520527b1fe3",
    "time": "2012-07-28"
  },
  {
    "place": "Gym / Fitness Center4d2cc14bb47d2c0fd1608594",
    "time": "2012-07-28"
  },
  {
    "place": "Bar4cc3a87a1e596dcbe665cc67",
    "time": "2012-07-28"
  },
  {
    "place": "Deli / Bodega4b5b7109f964a52061fe28e3",
    "time": "2012-07-29"
  },
  {
    "place": "Taco Place4f3e4c26754ab16082bb607f",
    "time": "2012-07-30"
  },
  {
    "place": "Office4b4f4015f964a520b5fe26e3",
    "time": "2012-09-05"
  },
  {
    "place": "Food & Drink Shop43bba61df964a520eb2c1fe3",
    "time": "2012-09-05"
  },
  {
    "place": "Airport4ace6c89f964a52078d020e3",
    "time": "2012-09-09"
  },
  {
    "place": "Office4b4f4015f964a520b5fe26e3",
    "time": "2012-09-13"
  },
  {
    "place": "Train Station42911d00f964a520f5231fe3",
    "time": "2012-09-13"
  },
  {
    "place": "Train Station42911d00f964a520f5231fe3",
    "time": "2012-09-14"
  },
  {
    "place": "Bar3fd66200f964a520e6e61ee3",
    "time": "2012-09-15"
  },
  {
    "place": "Fair4e72a6ffaeb74f9f48eb61fe",
    "time": "2012-09-15"
  },
  {
    "place": "Deli / Bodega4b5b7109f964a52061fe28e3",
    "time": "2012-09-15"
  },
  {
    "place": "Furniture / Home Store4a7dcf5cf964a520b5ef1fe3",
    "time": "2012-09-15"
  },
  {
    "place": "Office4b4f4015f964a520b5fe26e3",
    "time": "2012-10-08"
  },
  {
    "place": "High School4ad0ab9df964a520fcd820e3",
    "time": "2012-10-12"
  },
  {
    "place": "Deli / Bodega4b5b7109f964a52061fe28e3",
    "time": "2012-10-12"
  },
  {
    "place": "Office4b4f4015f964a520b5fe26e3",
    "time": "2012-10-12"
  },
  {
    "place": "Gym / Fitness Center50524857e4b0bdd5e90ea0ee",
    "time": "2012-10-17"
  },
  {
    "place": "American Restaurant4dad79d0bf88ebc454377dc6",
    "time": "2012-10-18"
  },
  {
    "place": "Train Station42911d00f964a520f5231fe3",
    "time": "2012-10-19"
  },
  {
    "place": "Office4b4f4015f964a520b5fe26e3",
    "time": "2012-10-22"
  },
  {
    "place": "American Restaurant5064dcb9e4b0916c4c6106ae",
    "time": "2012-10-22"
  },
  {
    "place": "Office4b4f4015f964a520b5fe26e3",
    "time": "2012-10-23"
  },
  {
    "place": "Gym / Fitness Center4d2cc14bb47d2c0fd1608594",
    "time": "2012-10-23"
  },
  {
    "place": "Coffee Shop4e56634545dd92275e4c30d9",
    "time": "2012-10-25"
  },
  {
    "place": "Office4b4f4015f964a520b5fe26e3",
    "time": "2012-10-25"
  },
  {
    "place": "Gym / Fitness Center50524857e4b0bdd5e90ea0ee",
    "time": "2012-10-27"
  },
  {
    "place": "Coffee Shop4a9eb0e7f964a520e43a20e3",
    "time": "2012-10-27"
  },
  {
    "place": "Bar4cc3a87a1e596dcbe665cc67",
    "time": "2012-10-28"
  },
  {
    "place": "Other Great Outdoors508af9ccf13627e878935855",
    "time": "2012-10-28"
  },
  {
    "place": "Office4b4f4015f964a520b5fe26e3",
    "time": "2012-10-29"
  },
  {
    "place": "Gym / Fitness Center4d2cc14bb47d2c0fd1608594",
    "time": "2012-11-05"
  },
  {
    "place": "Coffee Shop4a3ffdc5f964a5202da41fe3",
    "time": "2012-11-07"
  },
  {
    "place": "Gym / Fitness Center4d2cc14bb47d2c0fd1608594",
    "time": "2012-11-08"
  },
  {
    "place": "Office4b4f4015f964a520b5fe26e3",
    "time": "2012-11-08"
  },
  {
    "place": "Mexican Restaurant45e309edf964a52035431fe3",
    "time": "2012-11-10"
  },
  {
    "place": "Italian Restaurant45dffe2cf964a5201d431fe3",
    "time": "2012-11-10"
  },
  {
    "place": "Food & Drink Shop4c225ae47e85c9283ee5bb21",
    "time": "2012-11-11"
  },
  {
    "place": "American Restaurant4b998a8ff964a520098235e3",
    "time": "2012-11-11"
  },
  {
    "place": "Movie Theater466ec638f964a520b7471fe3",
    "time": "2012-11-11"
  },
  {
    "place": "Gym / Fitness Center4d2cc14bb47d2c0fd1608594",
    "time": "2012-11-12"
  },
  {
    "place": "Event Space4f8ae783e4b0ddfd838d8035",
    "time": "2012-11-12"
  },
  {
    "place": "Office4b4f4015f964a520b5fe26e3",
    "time": "2012-11-13"
  },
  {
    "place": "Food & Drink Shop4a381289f964a520ad9e1fe3",
    "time": "2012-11-16"
  },
  {
    "place": "Gym / Fitness Center50524857e4b0bdd5e90ea0ee",
    "time": "2012-11-17"
  },
  {
    "place": "Nail Salon4b156188f964a520f5ab23e3",
    "time": "2012-11-17"
  },
  {
    "place": "Coffee Shop50b76ef0e4b0a436037703e9",
    "time": "2012-12-01"
  },
  {
    "place": "Drugstore / Pharmacy4b4fd148f964a520881627e3",
    "time": "2012-12-03"
  },
  {
    "place": "Coffee Shop4e56634545dd92275e4c30d9",
    "time": "2012-12-04"
  },
  {
    "place": "Gym / Fitness Center4d2cc14bb47d2c0fd1608594",
    "time": "2012-12-05"
  },
  {
    "place": "Gym / Fitness Center4d2cc14bb47d2c0fd1608594",
    "time": "2012-12-06"
  },
  {
    "place": "Mexican Restaurant4b9ff08af964a5202a4c37e3",
    "time": "2012-12-06"
  },
  {
    "place": "Office4b4f4015f964a520b5fe26e3",
    "time": "2012-12-06"
  },
  {
    "place": "Mexican Restaurant45e309edf964a52035431fe3",
    "time": "2012-12-07"
  },
  {
    "place": "Gym / Fitness Center4d2cc14bb47d2c0fd1608594",
    "time": "2012-12-07"
  },
  {
    "place": "Office4ac60ba4f964a520b1b220e3",
    "time": "2012-12-08"
  },
  {
    "place": "Department Store4a749ffef964a520e7de1fe3",
    "time": "2012-12-09"
  },
  {
    "place": "Gym / Fitness Center4d2cc14bb47d2c0fd1608594",
    "time": "2012-12-11"
  },
  {
    "place": "Office4b4f4015f964a520b5fe26e3",
    "time": "2012-12-11"
  },
  {
    "place": "Mexican Restaurant50353357e4b002981d16a900",
    "time": "2012-12-11"
  },
  {
    "place": "Bar4acfd8bef964a52069d620e3",
    "time": "2012-12-15"
  },
  {
    "place": "Other Nightlife4d0382fa30a58cfa181399e7",
    "time": "2012-12-16"
  },
  {
    "place": "Gym / Fitness Center4d2cc14bb47d2c0fd1608594",
    "time": "2012-12-18"
  },
  {
    "place": "Gym / Fitness Center4d2cc14bb47d2c0fd1608594",
    "time": "2012-12-19"
  },
  {
    "place": "Coffee Shop4e56634545dd92275e4c30d9",
    "time": "2012-12-19"
  },
  {
    "place": "Office4b4f4015f964a520b5fe26e3",
    "time": "2012-12-21"
  },
  {
    "place": "Bar4ee2b3caf9ab478e59c076b0",
    "time": "2012-12-21"
  },
  {
    "place": "Post Office4a60da21f964a5204cc11fe3",
    "time": "2013-01-05"
  },
  {
    "place": "Nail Salon4b156188f964a520f5ab23e3",
    "time": "2013-01-05"
  },
  {
    "place": "Clothing Store4b119283f964a5209d7f23e3",
    "time": "2013-01-05"
  },
  {
    "place": "Gym / Fitness Center4d2cc14bb47d2c0fd1608594",
    "time": "2013-01-07"
  },
  {
    "place": "Office50edc349e4b0da7c9b2b77ec",
    "time": "2013-01-09"
  },
  {
    "place": "Mexican Restaurant4d880ccf3acc6dcb954c001c",
    "time": "2013-01-11"
  },
  {
    "place": "American Restaurant49958ac3f964a52084521fe3",
    "time": "2013-01-12"
  },
  {
    "place": "Gym / Fitness Center4d2cc14bb47d2c0fd1608594",
    "time": "2013-01-14"
  },
  {
    "place": "Gym / Fitness Center4d2cc14bb47d2c0fd1608594",
    "time": "2013-01-16"
  },
  {
    "place": "Sandwich Place4b17e419f964a52051c923e3",
    "time": "2013-01-16"
  },
  {
    "place": "Office4b4f4015f964a520b5fe26e3",
    "time": "2013-01-16"
  },
  {
    "place": "Deli / Bodega4b5b7109f964a52061fe28e3",
    "time": "2013-01-18"
  },
  {
    "place": "Deli / Bodega4b5b7109f964a52061fe28e3",
    "time": "2013-01-30"
  },
  {
    "place": "Coffee Shop4876216df964a52011511fe3",
    "time": "2013-01-30"
  },
  {
    "place": "Bakery4079dc00f964a52070f21ee3",
    "time": "2013-01-31"
  },
  {
    "place": "Bar49f50a92f964a520876b1fe3",
    "time": "2013-02-02"
  },
  {
    "place": "Gym / Fitness Center4d2cc14bb47d2c0fd1608594",
    "time": "2013-02-07"
  },
  {
    "place": "Coffee Shop4ae33a3df964a520f99121e3",
    "time": "2013-02-11"
  },
  {
    "place": "American Restaurant49f1c129f964a520b5691fe3",
    "time": "2013-02-13"
  },
  {
    "place": "Gym / Fitness Center4d2cc14bb47d2c0fd1608594",
    "time": "2013-02-13"
  }
]