[
  {
    "place": "General Entertainment4db44994cda1c57c82583709",
    "time": "2012-04-08"
  },
  {
    "place": "Diner4b785f0cf964a5201cc92ee3",
    "time": "2012-04-09"
  },
  {
    "place": "Dumpling Restaurant4b1c4e40f964a520cb0524e3",
    "time": "2012-04-10"
  },
  {
    "place": "Dessert Shop4c34858f66e40f47009fc98b",
    "time": "2012-04-10"
  },
  {
    "place": "American Restaurant4bf416d594af2d7f81293a72",
    "time": "2012-04-11"
  },
  {
    "place": "Wings Joint49fa42e7f964a520e26d1fe3",
    "time": "2012-04-15"
  },
  {
    "place": "Sushi Restaurant4b65036ff964a5206fdf2ae3",
    "time": "2012-04-20"
  },
  {
    "place": "Dumpling Restaurant4b1c4e40f964a520cb0524e3",
    "time": "2012-04-25"
  },
  {
    "place": "Wings Joint49fa42e7f964a520e26d1fe3",
    "time": "2012-04-27"
  },
  {
    "place": "Chinese Restaurant4b736476f964a52045ac2de3",
    "time": "2012-04-28"
  },
  {
    "place": "Gym / Fitness Center4c88044ca0ffb60ce3b01ec5",
    "time": "2012-04-29"
  },
  {
    "place": "Italian Restaurant4bd1d070caff9521955ed1f0",
    "time": "2012-05-09"
  },
  {
    "place": "Home (private)4de1d698d22d2a4ecdb881bf",
    "time": "2012-05-11"
  },
  {
    "place": "Sandwich Place4d1df232756e8cfa7e3b5454",
    "time": "2012-06-11"
  },
  {
    "place": "Residential Building (Apartment / Condo)4e55536862e1172821f3a928",
    "time": "2012-06-11"
  },
  {
    "place": "Gym / Fitness Center4ae36ec5f964a5200a9521e3",
    "time": "2012-06-11"
  },
  {
    "place": "College Academic Building4e6e482b6365c1843ae5b0d3",
    "time": "2012-06-11"
  },
  {
    "place": "Residential Building (Apartment / Condo)4e55536862e1172821f3a928",
    "time": "2012-06-12"
  },
  {
    "place": "Sandwich Place4b5f38dbf964a5203eae29e3",
    "time": "2012-06-12"
  },
  {
    "place": "Gym / Fitness Center4ae36ec5f964a5200a9521e3",
    "time": "2012-06-12"
  },
  {
    "place": "Residential Building (Apartment / Condo)4e55536862e1172821f3a928",
    "time": "2012-06-13"
  },
  {
    "place": "Gym / Fitness Center4ae36ec5f964a5200a9521e3",
    "time": "2012-06-13"
  },
  {
    "place": "Residential Building (Apartment / Condo)4e55536862e1172821f3a928",
    "time": "2012-06-13"
  },
  {
    "place": "Gym / Fitness Center4c88044ca0ffb60ce3b01ec5",
    "time": "2012-06-13"
  },
  {
    "place": "Residential Building (Apartment / Condo)4e55536862e1172821f3a928",
    "time": "2012-06-17"
  },
  {
    "place": "Chinese Restaurant3fd66200f964a5206be61ee3",
    "time": "2012-06-17"
  },
  {
    "place": "Tea Room49f39795f964a520bd6a1fe3",
    "time": "2012-06-17"
  },
  {
    "place": "Food & Drink Shop4b97d19bf964a520ab1735e3",
    "time": "2012-06-17"
  },
  {
    "place": "Food & Drink Shop4b0397e7f964a520d84f22e3",
    "time": "2012-06-17"
  },
  {
    "place": "Residential Building (Apartment / Condo)4e55536862e1172821f3a928",
    "time": "2012-06-17"
  },
  {
    "place": "Residential Building (Apartment / Condo)4e55536862e1172821f3a928",
    "time": "2012-06-18"
  },
  {
    "place": "Residential Building (Apartment / Condo)4e55536862e1172821f3a928",
    "time": "2012-06-20"
  },
  {
    "place": "Gym / Fitness Center4ae36ec5f964a5200a9521e3",
    "time": "2012-06-20"
  },
  {
    "place": "Residential Building (Apartment / Condo)4e55536862e1172821f3a928",
    "time": "2012-06-21"
  },
  {
    "place": "Gym / Fitness Center4ae36ec5f964a5200a9521e3",
    "time": "2012-06-21"
  },
  {
    "place": "Other Great Outdoors4ff4271ae4b0b8fda8c37cc8",
    "time": "2012-07-04"
  },
  {
    "place": "Residential Building (Apartment / Condo)4e55536862e1172821f3a928",
    "time": "2012-07-29"
  },
  {
    "place": "Thai Restaurant49fdbd6cf964a520256f1fe3",
    "time": "2012-09-05"
  },
  {
    "place": "Korean Restaurant4b9be5acf964a520f83236e3",
    "time": "2012-09-15"
  },
  {
    "place": "Casino4df0eea245ddbf3897d44510",
    "time": "2012-10-13"
  },
  {
    "place": "Department Store4e369eeb7d8b0c62b2e02138",
    "time": "2012-10-24"
  },
  {
    "place": "Miscellaneous Shop4b9e560df964a520deda36e3",
    "time": "2012-10-24"
  },
  {
    "place": "Salon / Barbershop4fbbde49e4b0538ee1afee72",
    "time": "2012-12-01"
  },
  {
    "place": "Tea Room4d93bb198deb8cfafd6130c0",
    "time": "2012-12-08"
  },
  {
    "place": "Church4ea200cdf5b9efc00140f15a",
    "time": "2012-12-08"
  },
  {
    "place": "Home (private)50c433aee4b0fac7b276e16d",
    "time": "2012-12-09"
  },
  {
    "place": "Residential Building (Apartment / Condo)4e55536862e1172821f3a928",
    "time": "2012-12-10"
  },
  {
    "place": "Residential Building (Apartment / Condo)4e55536862e1172821f3a928",
    "time": "2012-12-11"
  },
  {
    "place": "Building50aa5fe4e4b0d042f9dc13f0",
    "time": "2012-12-13"
  },
  {
    "place": "Building50aa5fe4e4b0d042f9dc13f0",
    "time": "2012-12-14"
  },
  {
    "place": "Bar4a525e9df964a52094b11fe3",
    "time": "2012-12-15"
  },
  {
    "place": "Chinese Restaurant4b736476f964a52045ac2de3",
    "time": "2012-12-15"
  },
  {
    "place": "Residential Building (Apartment / Condo)4e55536862e1172821f3a928",
    "time": "2012-12-15"
  },
  {
    "place": "Dessert Shop4c34858f66e40f47009fc98b",
    "time": "2012-12-15"
  },
  {
    "place": "Residential Building (Apartment / Condo)4e55536862e1172821f3a928",
    "time": "2012-12-16"
  },
  {
    "place": "Residential Building (Apartment / Condo)4e55536862e1172821f3a928",
    "time": "2013-01-16"
  },
  {
    "place": "Residential Building (Apartment / Condo)4e55536862e1172821f3a928",
    "time": "2013-01-18"
  },
  {
    "place": "Gym / Fitness Center4c88044ca0ffb60ce3b01ec5",
    "time": "2013-01-18"
  },
  {
    "place": "Fast Food Restaurant4a65fe27f964a520d6c71fe3",
    "time": "2013-01-21"
  },
  {
    "place": "Bus Station4dbf13ac6a23e5a549cdcf40",
    "time": "2013-01-22"
  },
  {
    "place": "Residential Building (Apartment / Condo)4e55536862e1172821f3a928",
    "time": "2013-01-22"
  },
  {
    "place": "Residential Building (Apartment / Condo)4e55536862e1172821f3a928",
    "time": "2013-01-25"
  },
  {
    "place": "Caf\u00c3\u00a950c77352498e1dcd47c5081e",
    "time": "2013-01-25"
  },
  {
    "place": "Home (private)4fb72813e4b06c5b8f598133",
    "time": "2013-01-26"
  },
  {
    "place": "Home (private)4fb72813e4b06c5b8f598133",
    "time": "2013-01-27"
  },
  {
    "place": "Residential Building (Apartment / Condo)4e55536862e1172821f3a928",
    "time": "2013-01-28"
  },
  {
    "place": "Building50aa5fe4e4b0d042f9dc13f0",
    "time": "2013-01-28"
  },
  {
    "place": "Building50aa5fe4e4b0d042f9dc13f0",
    "time": "2013-01-28"
  },
  {
    "place": "Building50aa5fe4e4b0d042f9dc13f0",
    "time": "2013-01-28"
  },
  {
    "place": "Residential Building (Apartment / Condo)4e55536862e1172821f3a928",
    "time": "2013-01-28"
  },
  {
    "place": "College Academic Building4ba77b40f964a5202b9739e3",
    "time": "2013-01-29"
  },
  {
    "place": "Building50aa5fe4e4b0d042f9dc13f0",
    "time": "2013-01-29"
  },
  {
    "place": "Dumpling Restaurant4b1c4e40f964a520cb0524e3",
    "time": "2013-01-29"
  },
  {
    "place": "Residential Building (Apartment / Condo)4e55536862e1172821f3a928",
    "time": "2013-01-30"
  },
  {
    "place": "General College & University4bab64cbf964a520eca53ae3",
    "time": "2013-01-31"
  },
  {
    "place": "Korean Restaurant49e10e0bf964a52089611fe3",
    "time": "2013-02-01"
  },
  {
    "place": "Residential Building (Apartment / Condo)4e55536862e1172821f3a928",
    "time": "2013-02-01"
  },
  {
    "place": "College Academic Building4ba77b40f964a5202b9739e3",
    "time": "2013-02-01"
  },
  {
    "place": "Building50aa5fe4e4b0d042f9dc13f0",
    "time": "2013-02-01"
  },
  {
    "place": "Residential Building (Apartment / Condo)4e55536862e1172821f3a928",
    "time": "2013-02-01"
  },
  {
    "place": "Korean Restaurant4b9be5acf964a520f83236e3",
    "time": "2013-02-02"
  },
  {
    "place": "Residential Building (Apartment / Condo)4e55536862e1172821f3a928",
    "time": "2013-02-02"
  },
  {
    "place": "Dumpling Restaurant4b1c4e40f964a520cb0524e3",
    "time": "2013-02-02"
  },
  {
    "place": "College Academic Building4c764ff53adda143d49c09af",
    "time": "2013-02-04"
  },
  {
    "place": "Building50aa5fe4e4b0d042f9dc13f0",
    "time": "2013-02-04"
  },
  {
    "place": "Building50aa5fe4e4b0d042f9dc13f0",
    "time": "2013-02-05"
  },
  {
    "place": "Residential Building (Apartment / Condo)4e55536862e1172821f3a928",
    "time": "2013-02-06"
  },
  {
    "place": "Building50aa5fe4e4b0d042f9dc13f0",
    "time": "2013-02-06"
  },
  {
    "place": "American Restaurant4b96f3a4f964a520edef34e3",
    "time": "2013-02-06"
  },
  {
    "place": "Residential Building (Apartment / Condo)4e55536862e1172821f3a928",
    "time": "2013-02-07"
  },
  {
    "place": "General College & University4bab64cbf964a520eca53ae3",
    "time": "2013-02-07"
  },
  {
    "place": "Dumpling Restaurant4b1c4e40f964a520cb0524e3",
    "time": "2013-02-10"
  },
  {
    "place": "Korean Restaurant4bc9050acc8cd13a2de4bacf",
    "time": "2013-02-10"
  },
  {
    "place": "Korean Restaurant4b9be5acf964a520f83236e3",
    "time": "2013-02-10"
  },
  {
    "place": "Building50aa5fe4e4b0d042f9dc13f0",
    "time": "2013-02-11"
  },
  {
    "place": "Residential Building (Apartment / Condo)4e55536862e1172821f3a928",
    "time": "2013-02-11"
  },
  {
    "place": "Building50aa5fe4e4b0d042f9dc13f0",
    "time": "2013-02-11"
  },
  {
    "place": "Residential Building (Apartment / Condo)4e55536862e1172821f3a928",
    "time": "2013-02-11"
  },
  {
    "place": "Gym / Fitness Center4c6078691e5cd13a80c0a1ed",
    "time": "2013-02-12"
  },
  {
    "place": "College Academic Building4ba77b40f964a5202b9739e3",
    "time": "2013-02-12"
  },
  {
    "place": "Residential Building (Apartment / Condo)4e55536862e1172821f3a928",
    "time": "2013-02-12"
  },
  {
    "place": "General College & University4bab64cbf964a520eca53ae3",
    "time": "2013-02-12"
  },
  {
    "place": "Residential Building (Apartment / Condo)4e55536862e1172821f3a928",
    "time": "2013-02-13"
  },
  {
    "place": "Church4ba8feedf964a520c0013ae3",
    "time": "2013-02-13"
  },
  {
    "place": "Residential Building (Apartment / Condo)4e55536862e1172821f3a928",
    "time": "2013-02-16"
  }
]