[
  {
    "place": "Bar49f68bb6f964a5204f6c1fe3",
    "time": "2012-04-04"
  },
  {
    "place": "Food & Drink Shop43bba61df964a520eb2c1fe3",
    "time": "2012-04-07"
  },
  {
    "place": "Beer Garden4a452221f964a520d8a71fe3",
    "time": "2012-04-08"
  },
  {
    "place": "Office4db84a97f7b15ca52ce70e7f",
    "time": "2012-04-09"
  },
  {
    "place": "Bar48778b89f964a52014511fe3",
    "time": "2012-04-10"
  },
  {
    "place": "Mexican Restaurant3fd66200f964a5207be31ee3",
    "time": "2012-04-13"
  },
  {
    "place": "Coffee Shop4dd3d4058877a55425c42e70",
    "time": "2012-04-13"
  },
  {
    "place": "Gym / Fitness Center4b37b853f964a520014525e3",
    "time": "2012-04-16"
  },
  {
    "place": "Hotel4ab04eb9f964a520fe6620e3",
    "time": "2012-04-18"
  },
  {
    "place": "Bar3fd66200f964a5203ee41ee3",
    "time": "2012-04-18"
  },
  {
    "place": "Bar40a16900f964a520f9f21ee3",
    "time": "2012-04-19"
  },
  {
    "place": "Bar3fd66200f964a52019eb1ee3",
    "time": "2012-04-19"
  },
  {
    "place": "Office4b26ab3af964a520377f24e3",
    "time": "2012-04-20"
  },
  {
    "place": "Convention Center4283ee00f964a5209d221fe3",
    "time": "2012-04-21"
  },
  {
    "place": "Office4db84a97f7b15ca52ce70e7f",
    "time": "2012-04-23"
  },
  {
    "place": "Gym / Fitness Center49bad9acf964a520b8531fe3",
    "time": "2012-04-23"
  },
  {
    "place": "Bar48778b89f964a52014511fe3",
    "time": "2012-04-24"
  },
  {
    "place": "Office4db84a97f7b15ca52ce70e7f",
    "time": "2012-04-24"
  },
  {
    "place": "Office4db84a97f7b15ca52ce70e7f",
    "time": "2012-04-25"
  },
  {
    "place": "Australian Restaurant4572f7fbf964a520823e1fe3",
    "time": "2012-04-25"
  },
  {
    "place": "Taco Place431e2d80f964a52079271fe3",
    "time": "2012-04-26"
  },
  {
    "place": "Vegetarian / Vegan Restaurant42ffdb00f964a520f4261fe3",
    "time": "2012-04-26"
  },
  {
    "place": "Office4db84a97f7b15ca52ce70e7f",
    "time": "2012-04-26"
  },
  {
    "place": "Coffee Shop4dd3d4058877a55425c42e70",
    "time": "2012-04-27"
  },
  {
    "place": "Office4db84a97f7b15ca52ce70e7f",
    "time": "2012-04-27"
  },
  {
    "place": "Office4db84a97f7b15ca52ce70e7f",
    "time": "2012-04-28"
  },
  {
    "place": "Beer Garden4a7dff4df964a52091f01fe3",
    "time": "2012-04-28"
  },
  {
    "place": "Malaysian Restaurant4341c600f964a5205e281fe3",
    "time": "2012-04-28"
  },
  {
    "place": "Diner40da1980f964a5206c011fe3",
    "time": "2012-04-29"
  },
  {
    "place": "Fast Food Restaurant4e25b91bd4c0d18a28a9020f",
    "time": "2012-05-01"
  },
  {
    "place": "Office4db84a97f7b15ca52ce70e7f",
    "time": "2012-05-03"
  },
  {
    "place": "Office4db84a97f7b15ca52ce70e7f",
    "time": "2012-05-04"
  },
  {
    "place": "Seafood Restaurant49c42857f964a5209f561fe3",
    "time": "2012-05-04"
  },
  {
    "place": "Diner49ef93faf964a520d0681fe3",
    "time": "2012-05-05"
  },
  {
    "place": "Bar4c5f7bddde6920a1a1169464",
    "time": "2012-05-05"
  },
  {
    "place": "Beer Garden4a7dff4df964a52091f01fe3",
    "time": "2012-05-05"
  },
  {
    "place": "Office4db84a97f7b15ca52ce70e7f",
    "time": "2012-05-07"
  },
  {
    "place": "Office4db84a97f7b15ca52ce70e7f",
    "time": "2012-05-08"
  },
  {
    "place": "College Academic Building4bbcd7680780952102d5d991",
    "time": "2012-05-08"
  },
  {
    "place": "Mexican Restaurant4a80bbedf964a52011f61fe3",
    "time": "2012-05-08"
  },
  {
    "place": "Coffee Shop4b5e5125f964a520488929e3",
    "time": "2012-05-09"
  },
  {
    "place": "Office4db84a97f7b15ca52ce70e7f",
    "time": "2012-05-09"
  },
  {
    "place": "Mexican Restaurant4427bd00f964a520b6311fe3",
    "time": "2012-05-09"
  },
  {
    "place": "Coffee Shop4dd3d4058877a55425c42e70",
    "time": "2012-05-10"
  },
  {
    "place": "Gym / Fitness Center40d77680f964a52059011fe3",
    "time": "2012-05-10"
  },
  {
    "place": "Office4db84a97f7b15ca52ce70e7f",
    "time": "2012-05-11"
  },
  {
    "place": "Beer Garden4a7dff4df964a52091f01fe3",
    "time": "2012-05-11"
  },
  {
    "place": "Beer Garden40870b00f964a520b7f21ee3",
    "time": "2012-05-12"
  },
  {
    "place": "Food & Drink Shop460d4b1ef964a52004451fe3",
    "time": "2012-05-12"
  },
  {
    "place": "Music Venue4abe8ee6f964a5207a8e20e3",
    "time": "2012-05-12"
  },
  {
    "place": "Park4dc54423d22dafda2f9f4ac3",
    "time": "2012-05-12"
  },
  {
    "place": "Bar4bca8b25b6c49c7485d99091",
    "time": "2012-05-12"
  },
  {
    "place": "Office4db84a97f7b15ca52ce70e7f",
    "time": "2012-05-14"
  },
  {
    "place": "Electronics Store49c2df9cf964a5203b561fe3",
    "time": "2012-05-14"
  },
  {
    "place": "Gym / Fitness Center49bad9acf964a520b8531fe3",
    "time": "2012-05-14"
  },
  {
    "place": "Bar48778b89f964a52014511fe3",
    "time": "2012-05-15"
  },
  {
    "place": "Office4db84a97f7b15ca52ce70e7f",
    "time": "2012-05-15"
  },
  {
    "place": "Cosmetics Shop4bc5ef686c26b7136efbebf3",
    "time": "2012-05-15"
  },
  {
    "place": "Thai Restaurant3fd66200f964a520fce91ee3",
    "time": "2012-05-16"
  },
  {
    "place": "Movie Theater4a4138ebf964a520f9a41fe3",
    "time": "2012-05-16"
  },
  {
    "place": "Bus Station4840fe6bf964a52030501fe3",
    "time": "2012-05-16"
  },
  {
    "place": "Gym / Fitness Center49bad9acf964a520b8531fe3",
    "time": "2012-05-17"
  },
  {
    "place": "Office4db84a97f7b15ca52ce70e7f",
    "time": "2012-05-17"
  },
  {
    "place": "Office4bc764e10050b713a99cb83b",
    "time": "2012-05-17"
  },
  {
    "place": "Harbor / Marina3fd66200f964a520daf11ee3",
    "time": "2012-05-17"
  },
  {
    "place": "Office4db84a97f7b15ca52ce70e7f",
    "time": "2012-05-18"
  },
  {
    "place": "Office4db84a97f7b15ca52ce70e7f",
    "time": "2012-05-21"
  },
  {
    "place": "Office4db84a97f7b15ca52ce70e7f",
    "time": "2012-05-22"
  },
  {
    "place": "Hotel46756255f964a520da471fe3",
    "time": "2012-05-24"
  },
  {
    "place": "Bar4cc59facb2beb1f7d1c6234c",
    "time": "2012-05-28"
  },
  {
    "place": "Diner44d5539ef964a52054361fe3",
    "time": "2012-05-28"
  },
  {
    "place": "Office4db84a97f7b15ca52ce70e7f",
    "time": "2012-05-29"
  },
  {
    "place": "Ice Cream Shop458cca5ff964a520fc3f1fe3",
    "time": "2012-05-29"
  },
  {
    "place": "Movie Theater43df8ad6f964a520b92e1fe3",
    "time": "2012-06-07"
  },
  {
    "place": "Office4db84a97f7b15ca52ce70e7f",
    "time": "2012-06-08"
  },
  {
    "place": "Office4e454af0cc3f08423c12831d",
    "time": "2012-06-08"
  },
  {
    "place": "Malaysian Restaurant4341c600f964a5205e281fe3",
    "time": "2012-06-09"
  },
  {
    "place": "Sculpture Garden4a6b8bf4f964a52018cf1fe3",
    "time": "2012-06-09"
  },
  {
    "place": "Bridge4c8ecf9a5aa29c74d2628302",
    "time": "2012-06-09"
  },
  {
    "place": "Spanish Restaurant4a52320cf964a52062b11fe3",
    "time": "2012-06-09"
  },
  {
    "place": "Ice Cream Shop4bb10203f964a52056723ce3",
    "time": "2012-06-10"
  },
  {
    "place": "Office4db84a97f7b15ca52ce70e7f",
    "time": "2012-06-11"
  },
  {
    "place": "Bar48778b89f964a52014511fe3",
    "time": "2012-06-12"
  },
  {
    "place": "Office4db84a97f7b15ca52ce70e7f",
    "time": "2012-06-12"
  },
  {
    "place": "Bar40a16900f964a520f9f21ee3",
    "time": "2012-06-12"
  },
  {
    "place": "Office4db84a97f7b15ca52ce70e7f",
    "time": "2012-06-13"
  },
  {
    "place": "Fair4fdb2b43e4b0d1f5f8972de2",
    "time": "2012-06-17"
  },
  {
    "place": "Spa / Massage4b2c10c9f964a520c8c024e3",
    "time": "2012-06-18"
  },
  {
    "place": "Pizza Place4f16b98fe4b0f2c21698586c",
    "time": "2012-06-21"
  },
  {
    "place": "Ice Cream Shop4bc273102a89ef3bace1f388",
    "time": "2012-06-21"
  },
  {
    "place": "Art Gallery4593b8e2f964a5204a401fe3",
    "time": "2012-06-26"
  },
  {
    "place": "Performing Arts Venue49f9a233f964a5207d6d1fe3",
    "time": "2012-06-30"
  },
  {
    "place": "Thai Restaurant4ae91871f964a52059b421e3",
    "time": "2012-07-02"
  },
  {
    "place": "Office4db84a97f7b15ca52ce70e7f",
    "time": "2012-07-03"
  },
  {
    "place": "Mexican Restaurant4427bd00f964a520b6311fe3",
    "time": "2012-07-03"
  },
  {
    "place": "Office4db84a97f7b15ca52ce70e7f",
    "time": "2012-07-05"
  },
  {
    "place": "Office4db84a97f7b15ca52ce70e7f",
    "time": "2012-07-06"
  },
  {
    "place": "Mexican Restaurant4bbc92b02d9ea593e9bca0ce",
    "time": "2012-07-06"
  },
  {
    "place": "Food & Drink Shop4c225ae47e85c9283ee5bb21",
    "time": "2012-07-06"
  },
  {
    "place": "Gym / Fitness Center40d77680f964a52059011fe3",
    "time": "2012-07-07"
  },
  {
    "place": "Food & Drink Shop441a8599f964a52036311fe3",
    "time": "2012-07-07"
  },
  {
    "place": "Office4db84a97f7b15ca52ce70e7f",
    "time": "2012-07-09"
  },
  {
    "place": "Gym / Fitness Center49bad9acf964a520b8531fe3",
    "time": "2012-07-09"
  },
  {
    "place": "Office4db84a97f7b15ca52ce70e7f",
    "time": "2012-07-11"
  },
  {
    "place": "Office4db84a97f7b15ca52ce70e7f",
    "time": "2012-07-12"
  },
  {
    "place": "Italian Restaurant4fbc138fe4b092db91c7acf9",
    "time": "2012-07-13"
  },
  {
    "place": "Office4db84a97f7b15ca52ce70e7f",
    "time": "2012-07-13"
  },
  {
    "place": "Vegetarian / Vegan Restaurant42ffdb00f964a520f4261fe3",
    "time": "2012-07-13"
  },
  {
    "place": "Bar4acf2596f964a52087d220e3",
    "time": "2012-07-13"
  },
  {
    "place": "Bar4ad4f3e2f964a520e10021e3",
    "time": "2012-07-15"
  },
  {
    "place": "Office4db84a97f7b15ca52ce70e7f",
    "time": "2012-07-16"
  },
  {
    "place": "Mexican Restaurant3fd66200f964a52014e71ee3",
    "time": "2012-07-16"
  },
  {
    "place": "Office4db84a97f7b15ca52ce70e7f",
    "time": "2012-07-17"
  },
  {
    "place": "Office4af979fff964a520f21122e3",
    "time": "2012-07-17"
  },
  {
    "place": "Bakery4bec28c161aca593a7e08500",
    "time": "2012-07-21"
  },
  {
    "place": "Performing Arts Venue4e838c3ae5e877f1e16ed150",
    "time": "2012-07-21"
  },
  {
    "place": "Office4db84a97f7b15ca52ce70e7f",
    "time": "2012-07-24"
  },
  {
    "place": "Sushi Restaurant4ad3e9f6f964a520e8e620e3",
    "time": "2012-07-28"
  },
  {
    "place": "Harbor / Marina46ac520df964a52071491fe3",
    "time": "2012-07-28"
  },
  {
    "place": "Music Venue4fc8408152a4a26672d909df",
    "time": "2012-07-28"
  },
  {
    "place": "Office4db84a97f7b15ca52ce70e7f",
    "time": "2012-07-30"
  },
  {
    "place": "Gym / Fitness Center49bad9acf964a520b8531fe3",
    "time": "2012-07-30"
  },
  {
    "place": "Office4db84a97f7b15ca52ce70e7f",
    "time": "2012-08-06"
  },
  {
    "place": "Office4db84a97f7b15ca52ce70e7f",
    "time": "2012-08-09"
  },
  {
    "place": "Office4db84a97f7b15ca52ce70e7f",
    "time": "2012-08-14"
  },
  {
    "place": "Office4db84a97f7b15ca52ce70e7f",
    "time": "2012-08-20"
  },
  {
    "place": "Gym / Fitness Center40d77680f964a52059011fe3",
    "time": "2012-09-14"
  },
  {
    "place": "Coffee Shop4a3fbfacf964a520eaa31fe3",
    "time": "2012-10-03"
  },
  {
    "place": "Hotel4adfb640f964a520e57c21e3",
    "time": "2012-10-03"
  },
  {
    "place": "Bar3fd66200f964a520c7e71ee3",
    "time": "2012-10-12"
  },
  {
    "place": "Bar3fd66200f964a520abe51ee3",
    "time": "2012-10-13"
  },
  {
    "place": "Italian Restaurant50855cace4b0e99d0d347d30",
    "time": "2012-10-22"
  },
  {
    "place": "Gym / Fitness Center49bad9acf964a520b8531fe3",
    "time": "2012-10-22"
  },
  {
    "place": "Italian Restaurant50855cace4b0e99d0d347d30",
    "time": "2012-10-25"
  },
  {
    "place": "American Restaurant4c472ee531e41b8d0ef84b35",
    "time": "2012-10-28"
  },
  {
    "place": "Italian Restaurant50855cace4b0e99d0d347d30",
    "time": "2012-11-06"
  },
  {
    "place": "Hotel4ae5a3fbf964a52034a121e3",
    "time": "2012-11-12"
  },
  {
    "place": "Coffee Shop4b069e81f964a520cfed22e3",
    "time": "2012-11-13"
  },
  {
    "place": "Building505b53e6e4b0f6521ce2e15b",
    "time": "2012-11-13"
  },
  {
    "place": "Coffee Shop4b069e81f964a520cfed22e3",
    "time": "2012-11-15"
  },
  {
    "place": "Food & Drink Shop4c225ae47e85c9283ee5bb21",
    "time": "2012-11-17"
  },
  {
    "place": "Italian Restaurant50855cace4b0e99d0d347d30",
    "time": "2012-11-18"
  },
  {
    "place": "Building505b53e6e4b0f6521ce2e15b",
    "time": "2012-11-20"
  },
  {
    "place": "Building505b53e6e4b0f6521ce2e15b",
    "time": "2012-11-21"
  },
  {
    "place": "Italian Restaurant50855cace4b0e99d0d347d30",
    "time": "2012-12-15"
  },
  {
    "place": "Bar4b57b82cf964a520a53d28e3",
    "time": "2012-12-16"
  },
  {
    "place": "Italian Restaurant50855cace4b0e99d0d347d30",
    "time": "2012-12-16"
  },
  {
    "place": "Building505b53e6e4b0f6521ce2e15b",
    "time": "2012-12-17"
  },
  {
    "place": "Building505b53e6e4b0f6521ce2e15b",
    "time": "2012-12-18"
  },
  {
    "place": "American Restaurant4a43b04ff964a520afa61fe3",
    "time": "2012-12-18"
  },
  {
    "place": "Coffee Shop4b069e81f964a520cfed22e3",
    "time": "2012-12-19"
  },
  {
    "place": "Building505b53e6e4b0f6521ce2e15b",
    "time": "2012-12-19"
  },
  {
    "place": "Soup Place4a92ca3bf964a520b21d20e3",
    "time": "2012-12-19"
  },
  {
    "place": "Department Store41102700f964a520d60b1fe3",
    "time": "2012-12-20"
  },
  {
    "place": "Vegetarian / Vegan Restaurant4b02f734f964a520814b22e3",
    "time": "2012-12-21"
  },
  {
    "place": "Bar4e43461d1f6e0a1ba5d00d60",
    "time": "2012-12-22"
  },
  {
    "place": "Chinese Restaurant4cc385e291413704b5abbc55",
    "time": "2012-12-23"
  },
  {
    "place": "Bar4bf5d5665efe2d7f0e2a6634",
    "time": "2013-01-01"
  },
  {
    "place": "Thai Restaurant4a27cde9f964a52086911fe3",
    "time": "2013-01-01"
  },
  {
    "place": "Peruvian Restaurant50a52e55e4b01d68ab56d063",
    "time": "2013-01-04"
  },
  {
    "place": "Gym / Fitness Center5065e558011c9fb87575b212",
    "time": "2013-01-05"
  },
  {
    "place": "Spanish Restaurant48ff3964f964a52056521fe3",
    "time": "2013-01-07"
  },
  {
    "place": "Building505b53e6e4b0f6521ce2e15b",
    "time": "2013-01-08"
  },
  {
    "place": "Bar4e08d3d82271dfa46bb79241",
    "time": "2013-01-08"
  },
  {
    "place": "Food & Drink Shop460d4b66f964a52005451fe3",
    "time": "2013-01-09"
  },
  {
    "place": "Food & Drink Shop4c225ae47e85c9283ee5bb21",
    "time": "2013-01-09"
  },
  {
    "place": "Movie Theater4a4138ebf964a520f9a41fe3",
    "time": "2013-01-09"
  },
  {
    "place": "Coffee Shop4b069e81f964a520cfed22e3",
    "time": "2013-01-09"
  },
  {
    "place": "Building505b53e6e4b0f6521ce2e15b",
    "time": "2013-01-10"
  },
  {
    "place": "Gym / Fitness Center40d77680f964a52059011fe3",
    "time": "2013-01-10"
  },
  {
    "place": "Thai Restaurant4ae91871f964a52059b421e3",
    "time": "2013-01-11"
  },
  {
    "place": "Music Venue40e9eb80f964a5201c0a1fe3",
    "time": "2013-01-13"
  },
  {
    "place": "Food & Drink Shop49c170abf964a520a7551fe3",
    "time": "2013-01-13"
  },
  {
    "place": "Dessert Shop44c91345f964a520f3351fe3",
    "time": "2013-01-14"
  },
  {
    "place": "Gym / Fitness Center49bad9acf964a520b8531fe3",
    "time": "2013-01-14"
  },
  {
    "place": "Coffee Shop4b069e81f964a520cfed22e3",
    "time": "2013-01-17"
  },
  {
    "place": "Vegetarian / Vegan Restaurant3fd66200f964a520b1e91ee3",
    "time": "2013-01-17"
  },
  {
    "place": "Department Store4531059cf964a520683b1fe3",
    "time": "2013-01-17"
  },
  {
    "place": "Gym / Fitness Center49bad9acf964a520b8531fe3",
    "time": "2013-01-21"
  },
  {
    "place": "Italian Restaurant4b4d140bf964a5202aca26e3",
    "time": "2013-01-24"
  },
  {
    "place": "Gym / Fitness Center40d77680f964a52059011fe3",
    "time": "2013-01-25"
  },
  {
    "place": "Building505b53e6e4b0f6521ce2e15b",
    "time": "2013-01-25"
  },
  {
    "place": "Tea Room500c4710e4b01eff31c1a82c",
    "time": "2013-01-26"
  },
  {
    "place": "Chinese Restaurant49f50c47f964a520896b1fe3",
    "time": "2013-01-27"
  },
  {
    "place": "Coffee Shop4b069e81f964a520cfed22e3",
    "time": "2013-01-30"
  },
  {
    "place": "Bar3fd66200f964a5205be81ee3",
    "time": "2013-01-31"
  },
  {
    "place": "Building505b53e6e4b0f6521ce2e15b",
    "time": "2013-01-31"
  },
  {
    "place": "Southern / Soul Food Restaurant4b2d8948f964a5207dd824e3",
    "time": "2013-02-02"
  },
  {
    "place": "Drugstore / Pharmacy4a9e7fadf964a520503a20e3",
    "time": "2013-02-03"
  },
  {
    "place": "Office4fda7413e4b040870382d8fe",
    "time": "2013-02-03"
  },
  {
    "place": "Building505b53e6e4b0f6521ce2e15b",
    "time": "2013-02-04"
  },
  {
    "place": "Mexican Restaurant4396cca9f964a520952b1fe3",
    "time": "2013-02-06"
  },
  {
    "place": "Coffee Shop4b069e81f964a520cfed22e3",
    "time": "2013-02-07"
  },
  {
    "place": "Building505b53e6e4b0f6521ce2e15b",
    "time": "2013-02-07"
  },
  {
    "place": "Building505b53e6e4b0f6521ce2e15b",
    "time": "2013-02-11"
  },
  {
    "place": "Bar48427799f964a5203c501fe3",
    "time": "2013-02-11"
  },
  {
    "place": "Coffee Shop4b069e81f964a520cfed22e3",
    "time": "2013-02-12"
  },
  {
    "place": "Building505b53e6e4b0f6521ce2e15b",
    "time": "2013-02-13"
  },
  {
    "place": "Coffee Shop4b069e81f964a520cfed22e3",
    "time": "2013-02-13"
  },
  {
    "place": "Gym / Fitness Center5065e558011c9fb87575b212",
    "time": "2013-02-13"
  }
]