[
  {
    "place": "Office4f2729f9e4b067a3297bbda6",
    "time": "2012-04-03"
  },
  {
    "place": "Ramen /  Noodle House4a2ae34ff964a52065961fe3",
    "time": "2012-04-04"
  },
  {
    "place": "Sandwich Place4b1ff2eaf964a520372b24e3",
    "time": "2012-04-04"
  },
  {
    "place": "Office4f2729f9e4b067a3297bbda6",
    "time": "2012-04-04"
  },
  {
    "place": "Taxi4cd76aa6a5b34688c3389950",
    "time": "2012-04-04"
  },
  {
    "place": "Bank4c3c6c4e7c1ee21e647f8c71",
    "time": "2012-04-04"
  },
  {
    "place": "Subway4cbfbedea0c4f04d1e085731",
    "time": "2012-04-07"
  },
  {
    "place": "Mexican Restaurant4cc1c9a5be40a35db8336d4c",
    "time": "2012-04-07"
  },
  {
    "place": "Residential Building (Apartment / Condo)4bbe1bb50ec69c7495d65559",
    "time": "2012-04-07"
  },
  {
    "place": "Home (private)4eda6074b8f7fcd0403e7e19",
    "time": "2012-04-07"
  },
  {
    "place": "General Entertainment4c314f36452620a1bb7f200f",
    "time": "2012-04-07"
  },
  {
    "place": "Home (private)4f810c3ee4b085b99b9bd8fa",
    "time": "2012-04-08"
  },
  {
    "place": "Bar4a68cfe7f964a5200ecb1fe3",
    "time": "2012-04-08"
  },
  {
    "place": "Mac & Cheese Joint4f81e6ffe4b0a6d0b782dde7",
    "time": "2012-04-08"
  },
  {
    "place": "Deli / Bodega4a510d5af964a52081b01fe3",
    "time": "2012-04-08"
  },
  {
    "place": "Taxi4c393d5d18e72d7f01fd19f5",
    "time": "2012-04-09"
  },
  {
    "place": "Sandwich Place4b1ff2eaf964a520372b24e3",
    "time": "2012-04-09"
  },
  {
    "place": "Office4f2729f9e4b067a3297bbda6",
    "time": "2012-04-09"
  },
  {
    "place": "Office4f2729f9e4b067a3297bbda6",
    "time": "2012-04-10"
  },
  {
    "place": "Other Nightlife4f84de0fe4b0e90cd4037922",
    "time": "2012-04-11"
  },
  {
    "place": "Taxi4bd83176dc4b952102867888",
    "time": "2012-04-11"
  },
  {
    "place": "Residential Building (Apartment / Condo)4bbe1bb50ec69c7495d65559",
    "time": "2012-04-11"
  },
  {
    "place": "Home (private)4eda6074b8f7fcd0403e7e19",
    "time": "2012-04-11"
  },
  {
    "place": "Temple4eeeb0b46c25c7f9d378cdf2",
    "time": "2012-04-11"
  },
  {
    "place": "Office4f2729f9e4b067a3297bbda6",
    "time": "2012-04-11"
  },
  {
    "place": "Sandwich Place4b1ff2eaf964a520372b24e3",
    "time": "2012-04-12"
  },
  {
    "place": "Office4f2729f9e4b067a3297bbda6",
    "time": "2012-04-13"
  },
  {
    "place": "Food Truck49ca9f91f964a520cc581fe3",
    "time": "2012-04-13"
  },
  {
    "place": "Office4f2729f9e4b067a3297bbda6",
    "time": "2012-04-13"
  },
  {
    "place": "Taxi4d5de1eb196ba093c289fb55",
    "time": "2012-04-14"
  },
  {
    "place": "Office4f2729f9e4b067a3297bbda6",
    "time": "2012-04-16"
  },
  {
    "place": "Fast Food Restaurant4c56f6676201e21ec2b2ff6d",
    "time": "2012-04-16"
  },
  {
    "place": "Office4f2729f9e4b067a3297bbda6",
    "time": "2012-04-16"
  },
  {
    "place": "Office4f2729f9e4b067a3297bbda6",
    "time": "2012-04-17"
  },
  {
    "place": "Taxi4f1223aae4b0d85e52f403c2",
    "time": "2012-04-17"
  },
  {
    "place": "Taxi4c86ca04b504a1439e66b11c",
    "time": "2012-04-17"
  },
  {
    "place": "Office4c4db97f1b8e1b8dfa811626",
    "time": "2012-04-17"
  },
  {
    "place": "Steakhouse3fd66200f964a52094e41ee3",
    "time": "2012-04-18"
  },
  {
    "place": "Taxi4d5b4b411287a0938d811e56",
    "time": "2012-04-18"
  },
  {
    "place": "Office4f2729f9e4b067a3297bbda6",
    "time": "2012-04-18"
  },
  {
    "place": "Office4f2729f9e4b067a3297bbda6",
    "time": "2012-04-20"
  },
  {
    "place": "Australian Restaurant4993f345f964a52082521fe3",
    "time": "2012-04-21"
  },
  {
    "place": "Taxi4d6834451b63a1cdc8282f2d",
    "time": "2012-04-22"
  },
  {
    "place": "Residential Building (Apartment / Condo)4bbe1bb50ec69c7495d65559",
    "time": "2012-04-22"
  },
  {
    "place": "Home (private)4eda6074b8f7fcd0403e7e19",
    "time": "2012-04-22"
  },
  {
    "place": "Office4f2729f9e4b067a3297bbda6",
    "time": "2012-04-23"
  },
  {
    "place": "Sandwich Place4b1ff2eaf964a520372b24e3",
    "time": "2012-04-23"
  },
  {
    "place": "Office4f2729f9e4b067a3297bbda6",
    "time": "2012-04-23"
  },
  {
    "place": "Sandwich Place4ab42d07f964a520417020e3",
    "time": "2012-04-24"
  },
  {
    "place": "Italian Restaurant4dcabca41f6e2812677e3598",
    "time": "2012-04-24"
  },
  {
    "place": "Residential Building (Apartment / Condo)4bbe1bb50ec69c7495d65559",
    "time": "2012-04-24"
  },
  {
    "place": "Home (private)4eda6074b8f7fcd0403e7e19",
    "time": "2012-04-24"
  },
  {
    "place": "Taxi4d9e80ebfb79a1437f35914d",
    "time": "2012-04-25"
  },
  {
    "place": "Office4f2729f9e4b067a3297bbda6",
    "time": "2012-04-25"
  },
  {
    "place": "BBQ Joint3fd66200f964a52020e71ee3",
    "time": "2012-04-25"
  },
  {
    "place": "Office4f2729f9e4b067a3297bbda6",
    "time": "2012-04-27"
  },
  {
    "place": "Mexican Restaurant4a80bbedf964a52011f61fe3",
    "time": "2012-04-27"
  },
  {
    "place": "Subway4ae4eb45f964a5206e9f21e3",
    "time": "2012-04-28"
  },
  {
    "place": "Bar4df6cab0aeb7da11e1a72c4c",
    "time": "2012-04-28"
  },
  {
    "place": "Concert Hall49f9d486f964a520896d1fe3",
    "time": "2012-04-29"
  },
  {
    "place": "Bar42cdc200f964a520f3251fe3",
    "time": "2012-04-29"
  },
  {
    "place": "Concert Hall49f9d486f964a520896d1fe3",
    "time": "2012-04-29"
  },
  {
    "place": "Hotel49d18dfdf964a5208f5b1fe3",
    "time": "2012-04-29"
  },
  {
    "place": "General Entertainment4c314f36452620a1bb7f200f",
    "time": "2012-04-29"
  },
  {
    "place": "American Restaurant4aa9386ef964a5208b5220e3",
    "time": "2012-05-01"
  },
  {
    "place": "Office4f2729f9e4b067a3297bbda6",
    "time": "2012-05-01"
  },
  {
    "place": "Taxi4e3eaeb28877b00cfc573efe",
    "time": "2012-05-03"
  },
  {
    "place": "Theater4a3eb4e6f964a52054a31fe3",
    "time": "2012-05-03"
  },
  {
    "place": "Taxi4cfc0729c51fa1cdcadbe92b",
    "time": "2012-05-04"
  },
  {
    "place": "Residential Building (Apartment / Condo)4bbe1bb50ec69c7495d65559",
    "time": "2012-05-04"
  },
  {
    "place": "Home (private)4eda6074b8f7fcd0403e7e19",
    "time": "2012-05-04"
  },
  {
    "place": "American Restaurant4eb1ca7b93ad74b3b8d93ea1",
    "time": "2012-05-06"
  },
  {
    "place": "Office4f2729f9e4b067a3297bbda6",
    "time": "2012-05-08"
  },
  {
    "place": "Bar440d6b93f964a5208b301fe3",
    "time": "2012-05-11"
  },
  {
    "place": "Airport4ace64bef964a52053d020e3",
    "time": "2012-05-11"
  },
  {
    "place": "French Restaurant4c6fabb83444370440b2215f",
    "time": "2012-05-11"
  },
  {
    "place": "Airport4ca4f798d971b1f7ff71f2e0",
    "time": "2012-05-11"
  },
  {
    "place": "Airport4ace64bef964a52053d020e3",
    "time": "2012-05-14"
  },
  {
    "place": "Home (private)4eda6074b8f7fcd0403e7e19",
    "time": "2012-05-16"
  },
  {
    "place": "Office4f2729f9e4b067a3297bbda6",
    "time": "2012-05-16"
  },
  {
    "place": "Deli / Bodega4a6f4289f964a520bed51fe3",
    "time": "2012-05-16"
  },
  {
    "place": "Sandwich Place4b1ff2eaf964a520372b24e3",
    "time": "2012-05-16"
  },
  {
    "place": "Subway4ae4eb45f964a5206e9f21e3",
    "time": "2012-05-17"
  },
  {
    "place": "Train Station4cbfbedea0c4f04d1e085731",
    "time": "2012-05-17"
  },
  {
    "place": "Residential Building (Apartment / Condo)4bbe1bb50ec69c7495d65559",
    "time": "2012-05-17"
  },
  {
    "place": "Home (private)4eda6074b8f7fcd0403e7e19",
    "time": "2012-05-17"
  },
  {
    "place": "Office4f2729f9e4b067a3297bbda6",
    "time": "2012-05-17"
  },
  {
    "place": "Sandwich Place4b1ff2eaf964a520372b24e3",
    "time": "2012-05-17"
  },
  {
    "place": "Office4f2729f9e4b067a3297bbda6",
    "time": "2012-05-17"
  },
  {
    "place": "Mexican Restaurant4a80bbedf964a52011f61fe3",
    "time": "2012-05-18"
  },
  {
    "place": "Office4f2729f9e4b067a3297bbda6",
    "time": "2012-05-18"
  },
  {
    "place": "Taxi4cb8765a9552b60c10b5cc8b",
    "time": "2012-05-19"
  },
  {
    "place": "Pizza Place4a0ecea5f964a520ef751fe3",
    "time": "2012-05-19"
  },
  {
    "place": "Office4f2729f9e4b067a3297bbda6",
    "time": "2012-05-21"
  },
  {
    "place": "Office4f2729f9e4b067a3297bbda6",
    "time": "2012-05-21"
  },
  {
    "place": "General Entertainment4d7951399d27ba7a48a90c42",
    "time": "2012-05-22"
  },
  {
    "place": "BBQ Joint427ff980f964a520b7211fe3",
    "time": "2012-05-22"
  },
  {
    "place": "Taxi4daa58d60437dccbd8048850",
    "time": "2012-05-22"
  },
  {
    "place": "Residential Building (Apartment / Condo)4bbe1bb50ec69c7495d65559",
    "time": "2012-05-22"
  },
  {
    "place": "Home (private)4eda6074b8f7fcd0403e7e19",
    "time": "2012-05-22"
  },
  {
    "place": "Temple4eeeb0b46c25c7f9d378cdf2",
    "time": "2012-05-22"
  },
  {
    "place": "Office4f2729f9e4b067a3297bbda6",
    "time": "2012-05-23"
  },
  {
    "place": "Sandwich Place4b1ff2eaf964a520372b24e3",
    "time": "2012-05-23"
  },
  {
    "place": "Fast Food Restaurant4b222e79f964a5203b4424e3",
    "time": "2012-05-24"
  },
  {
    "place": "Bar4f516615e4b0195da2b45c54",
    "time": "2012-05-26"
  },
  {
    "place": "Bar4b7f4808f964a520a72430e3",
    "time": "2012-05-26"
  },
  {
    "place": "Bar46dda121f964a520924a1fe3",
    "time": "2012-05-27"
  },
  {
    "place": "Seafood Restaurant3fd66200f964a52077e51ee3",
    "time": "2012-05-27"
  },
  {
    "place": "Sandwich Place4b1ff2eaf964a520372b24e3",
    "time": "2012-05-29"
  },
  {
    "place": "Airport4c1296daa1010f4781234918",
    "time": "2012-06-05"
  },
  {
    "place": "Airport4b8baecef964a520d8a632e3",
    "time": "2012-06-05"
  },
  {
    "place": "Airport4459d2f1f964a520d7321fe3",
    "time": "2012-06-05"
  },
  {
    "place": "Residential Building (Apartment / Condo)4bbe1bb50ec69c7495d65559",
    "time": "2012-06-05"
  },
  {
    "place": "Home (private)4eda6074b8f7fcd0403e7e19",
    "time": "2012-06-05"
  },
  {
    "place": "American Restaurant3fd66200f964a52054e91ee3",
    "time": "2012-06-13"
  },
  {
    "place": "Theater4f44743aa17cf345b7425f4f",
    "time": "2012-06-14"
  },
  {
    "place": "Bar49a71dd1f964a520a0521fe3",
    "time": "2012-06-14"
  },
  {
    "place": "Deli / Bodega4a510d5af964a52081b01fe3",
    "time": "2012-06-16"
  },
  {
    "place": "American Restaurant4a541923f964a52008b31fe3",
    "time": "2012-06-18"
  },
  {
    "place": "Bar4cb66b191b0af04de5ced025",
    "time": "2012-12-05"
  }
]