[
  {
    "place": "Coffee Shop4b634bd1f964a52073702ae3",
    "time": "2012-04-04"
  },
  {
    "place": "Train Station4a737bf8f964a52091dc1fe3",
    "time": "2012-04-05"
  },
  {
    "place": "Clothing Store4c7aa76e97028cfa36d0defe",
    "time": "2012-04-08"
  },
  {
    "place": "Clothing Store4c7aa76e97028cfa36d0defe",
    "time": "2012-04-08"
  },
  {
    "place": "Coffee Shop4e4dcaffbd41b76bef933358",
    "time": "2012-04-08"
  },
  {
    "place": "Coffee Shop4e4dcaffbd41b76bef933358",
    "time": "2012-04-08"
  },
  {
    "place": "Church4e6938ef45dd0f430c1834c5",
    "time": "2012-04-08"
  },
  {
    "place": "Train Station4a737bf8f964a52091dc1fe3",
    "time": "2012-04-08"
  },
  {
    "place": "Department Store49cbb6f9f964a5200f591fe3",
    "time": "2012-04-08"
  },
  {
    "place": "Coffee Shop4e4dcaffbd41b76bef933358",
    "time": "2012-04-09"
  },
  {
    "place": "Plaza49b79f54f964a5202c531fe3",
    "time": "2012-04-09"
  },
  {
    "place": "Coffee Shop4e4dcaffbd41b76bef933358",
    "time": "2012-04-10"
  },
  {
    "place": "Church4e6938ef45dd0f430c1834c5",
    "time": "2012-04-10"
  },
  {
    "place": "Church4e6938ef45dd0f430c1834c5",
    "time": "2012-04-10"
  },
  {
    "place": "Train Station4a737bf8f964a52091dc1fe3",
    "time": "2012-04-10"
  },
  {
    "place": "Department Store49cbb6f9f964a5200f591fe3",
    "time": "2012-04-10"
  },
  {
    "place": "Coffee Shop4e4dcaffbd41b76bef933358",
    "time": "2012-04-11"
  },
  {
    "place": "Coffee Shop4e4dcaffbd41b76bef933358",
    "time": "2012-04-11"
  },
  {
    "place": "Church4e6938ef45dd0f430c1834c5",
    "time": "2012-04-11"
  },
  {
    "place": "College Academic Building4e678f3b483bef6eb7feee2b",
    "time": "2012-04-11"
  },
  {
    "place": "Bakery4c892b0f7223b1f7dfb031a8",
    "time": "2012-04-11"
  },
  {
    "place": "Bar4a6e29dff964a52018d41fe3",
    "time": "2012-04-11"
  },
  {
    "place": "Coffee Shop4e4dcaffbd41b76bef933358",
    "time": "2012-04-12"
  },
  {
    "place": "Coffee Shop4e4dcaffbd41b76bef933358",
    "time": "2012-04-12"
  },
  {
    "place": "Coffee Shop4b634bd1f964a52073702ae3",
    "time": "2012-04-12"
  },
  {
    "place": "Coffee Shop4e4dcaffbd41b76bef933358",
    "time": "2012-04-13"
  },
  {
    "place": "Coffee Shop4e4dcaffbd41b76bef933358",
    "time": "2012-04-13"
  },
  {
    "place": "Bar4ade4af8f964a520b67421e3",
    "time": "2012-04-13"
  },
  {
    "place": "Coffee Shop4e4dcaffbd41b76bef933358",
    "time": "2012-04-13"
  },
  {
    "place": "Park3fd66200f964a520d7f11ee3",
    "time": "2012-04-13"
  },
  {
    "place": "General Entertainment4e9713d4b8f7d8c69111e1f8",
    "time": "2012-04-13"
  },
  {
    "place": "Plaza49b79f54f964a5202c531fe3",
    "time": "2012-04-13"
  },
  {
    "place": "Plaza49b79f54f964a5202c531fe3",
    "time": "2012-04-13"
  },
  {
    "place": "Music Venue40e9eb80f964a5201c0a1fe3",
    "time": "2012-04-14"
  },
  {
    "place": "Coffee Shop4e4dcaffbd41b76bef933358",
    "time": "2012-04-14"
  },
  {
    "place": "College Academic Building4ae210e9f964a520608a21e3",
    "time": "2012-04-14"
  },
  {
    "place": "Bar4ade4af8f964a520b67421e3",
    "time": "2012-04-15"
  },
  {
    "place": "Church4e6938ef45dd0f430c1834c5",
    "time": "2012-04-15"
  },
  {
    "place": "Park3fd66200f964a520d7f11ee3",
    "time": "2012-04-15"
  },
  {
    "place": "Bakery4c892b0f7223b1f7dfb031a8",
    "time": "2012-04-15"
  },
  {
    "place": "Coffee Shop4b634bd1f964a52073702ae3",
    "time": "2012-04-16"
  },
  {
    "place": "Coffee Shop4e4dcaffbd41b76bef933358",
    "time": "2012-04-17"
  },
  {
    "place": "Church4e6938ef45dd0f430c1834c5",
    "time": "2012-04-17"
  },
  {
    "place": "University4cbb52fc035d236ad584df4e",
    "time": "2012-04-17"
  },
  {
    "place": "College Academic Building4a79d938f964a520c9e71fe3",
    "time": "2012-04-17"
  },
  {
    "place": "Plaza49b79f54f964a5202c531fe3",
    "time": "2012-04-17"
  },
  {
    "place": "Coffee Shop4e4dcaffbd41b76bef933358",
    "time": "2012-04-18"
  },
  {
    "place": "Mexican Restaurant4d0a25d08ea0a1433975e473",
    "time": "2012-04-18"
  },
  {
    "place": "Plaza49b7ed6df964a52030531fe3",
    "time": "2012-04-18"
  },
  {
    "place": "Office4b55fb4af964a5203efa27e3",
    "time": "2012-04-18"
  },
  {
    "place": "Coffee Shop4e4dcaffbd41b76bef933358",
    "time": "2012-04-19"
  },
  {
    "place": "Bar4ade4af8f964a520b67421e3",
    "time": "2012-04-19"
  },
  {
    "place": "Office4e1afc327d8bb17ec6399698",
    "time": "2012-04-19"
  },
  {
    "place": "Coffee Shop4e4dcaffbd41b76bef933358",
    "time": "2012-04-19"
  },
  {
    "place": "College Academic Building4a7628c9f964a5206ce21fe3",
    "time": "2012-04-19"
  },
  {
    "place": "Office4b55fb4af964a5203efa27e3",
    "time": "2012-04-19"
  },
  {
    "place": "Department Store49cbb6f9f964a5200f591fe3",
    "time": "2012-04-19"
  },
  {
    "place": "Coffee Shop4e4dcaffbd41b76bef933358",
    "time": "2012-04-20"
  },
  {
    "place": "Coffee Shop4e4dcaffbd41b76bef933358",
    "time": "2012-04-20"
  },
  {
    "place": "Coffee Shop4e4dcaffbd41b76bef933358",
    "time": "2012-04-20"
  },
  {
    "place": "Office4b55fb4af964a5203efa27e3",
    "time": "2012-04-20"
  },
  {
    "place": "Office49edce76f964a520f9671fe3",
    "time": "2012-04-21"
  },
  {
    "place": "Coffee Shop4e4dcaffbd41b76bef933358",
    "time": "2012-04-21"
  },
  {
    "place": "Bakery4c892b0f7223b1f7dfb031a8",
    "time": "2012-04-21"
  },
  {
    "place": "Bar3fd66200f964a520a7e31ee3",
    "time": "2012-04-22"
  },
  {
    "place": "Coffee Shop4e4dcaffbd41b76bef933358",
    "time": "2012-04-22"
  },
  {
    "place": "Church4a7a534af964a5202ae91fe3",
    "time": "2012-04-22"
  },
  {
    "place": "Church4a7a534af964a5202ae91fe3",
    "time": "2012-04-22"
  },
  {
    "place": "Park3fd66200f964a520d7f11ee3",
    "time": "2012-04-22"
  },
  {
    "place": "Plaza49b7ed6df964a52030531fe3",
    "time": "2012-04-23"
  },
  {
    "place": "Plaza49b7ed6df964a52030531fe3",
    "time": "2012-04-23"
  },
  {
    "place": "Coffee Shop4af09ab3f964a52094dd21e3",
    "time": "2012-04-23"
  },
  {
    "place": "Burger Joint4a75470bf964a520bce01fe3",
    "time": "2012-04-23"
  },
  {
    "place": "Coffee Shop4e4dcb0ebd41b76bef9333bf",
    "time": "2012-04-23"
  },
  {
    "place": "Coffee Shop4b634bd1f964a52073702ae3",
    "time": "2012-04-23"
  },
  {
    "place": "Office4b55fb4af964a5203efa27e3",
    "time": "2012-04-23"
  },
  {
    "place": "Coffee Shop4b5f42a1f964a52094b029e3",
    "time": "2012-04-23"
  },
  {
    "place": "Coffee Shop4af09ab3f964a52094dd21e3",
    "time": "2012-04-24"
  },
  {
    "place": "Coffee Shop4af09ab3f964a52094dd21e3",
    "time": "2012-04-24"
  },
  {
    "place": "Food Truck4ec3e93ec2eed4eacbd6a404",
    "time": "2012-04-24"
  },
  {
    "place": "College Academic Building4adcb625f964a520ff2e21e3",
    "time": "2012-04-24"
  },
  {
    "place": "Department Store49cbb6f9f964a5200f591fe3",
    "time": "2012-04-24"
  },
  {
    "place": "Spanish Restaurant4e42f99b1f6ec2e19315ffec",
    "time": "2012-04-24"
  },
  {
    "place": "Government Building4e43ebb6887703085fd976fd",
    "time": "2012-04-25"
  },
  {
    "place": "Spanish Restaurant4a679c50f964a520c7c91fe3",
    "time": "2012-04-25"
  },
  {
    "place": "Park3fd66200f964a520d7f11ee3",
    "time": "2012-04-25"
  },
  {
    "place": "Coffee Shop4b58f22af964a520c07428e3",
    "time": "2012-04-26"
  },
  {
    "place": "Coffee Shop4aa52d50f964a520834720e3",
    "time": "2012-04-26"
  },
  {
    "place": "Coffee Shop49de2becf964a5202b601fe3",
    "time": "2012-04-26"
  },
  {
    "place": "Coffee Shop4e1b6c2fa8099d0a25c614d4",
    "time": "2012-04-26"
  },
  {
    "place": "Food Truck4baa1841f964a520484a3ae3",
    "time": "2012-04-27"
  },
  {
    "place": "Food Truck4baa1841f964a520484a3ae3",
    "time": "2012-04-27"
  },
  {
    "place": "Bakery4e8dab0dd22d2a85bdbb6f20",
    "time": "2012-04-27"
  },
  {
    "place": "Bakery4e8dab0dd22d2a85bdbb6f20",
    "time": "2012-04-27"
  },
  {
    "place": "Coffee Shop45112af0f964a5208d391fe3",
    "time": "2012-04-28"
  },
  {
    "place": "Department Store49cbb6f9f964a5200f591fe3",
    "time": "2012-04-28"
  },
  {
    "place": "Jewelry Store4c1d4fd0b9f876b047707d46",
    "time": "2012-04-28"
  },
  {
    "place": "Bakery4c892b0f7223b1f7dfb031a8",
    "time": "2012-04-28"
  },
  {
    "place": "Bar4ade4af8f964a520b67421e3",
    "time": "2012-04-28"
  },
  {
    "place": "Coffee Shop4f52a0c6e4b07de37bccc8ae",
    "time": "2012-04-29"
  },
  {
    "place": "Bakery4c892b0f7223b1f7dfb031a8",
    "time": "2012-05-01"
  },
  {
    "place": "Bakery4c892b0f7223b1f7dfb031a8",
    "time": "2012-05-01"
  },
  {
    "place": "Coffee Shop4a1c91b1f964a520527b1fe3",
    "time": "2012-05-02"
  },
  {
    "place": "Coffee Shop4b634bd1f964a52073702ae3",
    "time": "2012-05-02"
  },
  {
    "place": "Coffee Shop4b634bd1f964a52073702ae3",
    "time": "2012-05-03"
  },
  {
    "place": "College Academic Building4ae210e9f964a520608a21e3",
    "time": "2012-05-03"
  },
  {
    "place": "River4de3c1877d8b2547eb22899b",
    "time": "2012-05-03"
  },
  {
    "place": "Burger Joint4c2bccc7d1a10f475a88f864",
    "time": "2012-05-03"
  },
  {
    "place": "Office4b55fb4af964a5203efa27e3",
    "time": "2012-05-03"
  },
  {
    "place": "Coffee Shop4b5f42a1f964a52094b029e3",
    "time": "2012-05-05"
  },
  {
    "place": "Coffee Shop4a847222f964a520a1fc1fe3",
    "time": "2012-05-05"
  },
  {
    "place": "River4de3c1877d8b2547eb22899b",
    "time": "2012-05-05"
  },
  {
    "place": "Food Truck4ec3e93ec2eed4eacbd6a404",
    "time": "2012-05-05"
  },
  {
    "place": "Park3fd66200f964a520d7f11ee3",
    "time": "2012-05-05"
  },
  {
    "place": "Department Store49cbb6f9f964a5200f591fe3",
    "time": "2012-05-05"
  },
  {
    "place": "Burger Joint4c2bccc7d1a10f475a88f864",
    "time": "2012-05-05"
  },
  {
    "place": "Plaza4ef0ead3b8f7eb2371a3add1",
    "time": "2012-05-05"
  },
  {
    "place": "Food Truck4ec3e93ec2eed4eacbd6a404",
    "time": "2012-05-07"
  },
  {
    "place": "Office4b55fb4af964a5203efa27e3",
    "time": "2012-05-07"
  },
  {
    "place": "Office4c6d48b5fe77bfb7eb4aa323",
    "time": "2012-05-07"
  },
  {
    "place": "Burger Joint4c2bccc7d1a10f475a88f864",
    "time": "2012-05-07"
  },
  {
    "place": "Burger Joint4c2bccc7d1a10f475a88f864",
    "time": "2012-05-07"
  },
  {
    "place": "Residential Building (Apartment / Condo)4dbae167cda109aa6c72b72f",
    "time": "2012-05-08"
  },
  {
    "place": "Burger Joint4c2bccc7d1a10f475a88f864",
    "time": "2012-05-09"
  },
  {
    "place": "Burger Joint4c2bccc7d1a10f475a88f864",
    "time": "2012-05-09"
  },
  {
    "place": "Coffee Shop4b4b7d50f964a520c29d26e3",
    "time": "2012-05-09"
  },
  {
    "place": "Burger Joint4c2bccc7d1a10f475a88f864",
    "time": "2012-05-09"
  },
  {
    "place": "Clothing Store4c7aa76e97028cfa36d0defe",
    "time": "2012-05-09"
  },
  {
    "place": "Burger Joint4c2bccc7d1a10f475a88f864",
    "time": "2012-05-10"
  },
  {
    "place": "Coffee Shop4a847222f964a520a1fc1fe3",
    "time": "2012-05-11"
  },
  {
    "place": "Church4e6938ef45dd0f430c1834c5",
    "time": "2012-05-11"
  },
  {
    "place": "Plaza4a5d0685f964a52011bd1fe3",
    "time": "2012-05-12"
  },
  {
    "place": "Coffee Shop4a847222f964a520a1fc1fe3",
    "time": "2012-05-13"
  },
  {
    "place": "American Restaurant4a3d29e6f964a520e6a11fe3",
    "time": "2012-05-13"
  },
  {
    "place": "Residential Building (Apartment / Condo)4dbae167cda109aa6c72b72f",
    "time": "2012-05-13"
  },
  {
    "place": "Burger Joint4c2bccc7d1a10f475a88f864",
    "time": "2012-05-14"
  },
  {
    "place": "Burger Joint4c2bccc7d1a10f475a88f864",
    "time": "2012-05-14"
  },
  {
    "place": "Coffee Shop4a699cddf964a520f3cb1fe3",
    "time": "2012-05-14"
  },
  {
    "place": "Student Center4a69ef60f964a5203dcc1fe3",
    "time": "2012-05-14"
  },
  {
    "place": "Burger Joint4c2bccc7d1a10f475a88f864",
    "time": "2012-05-14"
  },
  {
    "place": "Burger Joint4c2bccc7d1a10f475a88f864",
    "time": "2012-05-15"
  },
  {
    "place": "Coffee Shop4a3ffdc5f964a5202da41fe3",
    "time": "2012-05-16"
  },
  {
    "place": "Church4e6938ef45dd0f430c1834c5",
    "time": "2012-05-16"
  },
  {
    "place": "Office4b55fb4af964a5203efa27e3",
    "time": "2012-05-16"
  },
  {
    "place": "Residential Building (Apartment / Condo)4dbae167cda109aa6c72b72f",
    "time": "2012-05-17"
  },
  {
    "place": "Coffee Shop45112af0f964a5208d391fe3",
    "time": "2012-05-17"
  },
  {
    "place": "Food Truck4ec3e93ec2eed4eacbd6a404",
    "time": "2012-05-17"
  },
  {
    "place": "Office4afc822af964a5206c2322e3",
    "time": "2012-05-17"
  },
  {
    "place": "Park3fd66200f964a520d7f11ee3",
    "time": "2012-05-18"
  },
  {
    "place": "Department Store49cbb6f9f964a5200f591fe3",
    "time": "2012-05-18"
  },
  {
    "place": "Candy Store4a6c6b4af964a52082d01fe3",
    "time": "2012-05-18"
  },
  {
    "place": "Clothing Store4e66284d922e6a5aab02297f",
    "time": "2012-05-18"
  },
  {
    "place": "Clothing Store451d233bf964a520893a1fe3",
    "time": "2012-05-18"
  },
  {
    "place": "Burger Joint4c2bccc7d1a10f475a88f864",
    "time": "2012-05-19"
  },
  {
    "place": "Coffee Shop49de2becf964a5202b601fe3",
    "time": "2012-05-19"
  },
  {
    "place": "Food Truck4ec3e93ec2eed4eacbd6a404",
    "time": "2012-05-19"
  },
  {
    "place": "Plaza49b79f54f964a5202c531fe3",
    "time": "2012-05-19"
  },
  {
    "place": "Coffee Shop4a809c7df964a520b2f51fe3",
    "time": "2012-05-19"
  },
  {
    "place": "Office4b55fb4af964a5203efa27e3",
    "time": "2012-05-24"
  },
  {
    "place": "Airport43a52546f964a520532c1fe3",
    "time": "2012-06-04"
  },
  {
    "place": "Airport43a52546f964a520532c1fe3",
    "time": "2012-06-04"
  },
  {
    "place": "Residential Building (Apartment / Condo)4dbae167cda109aa6c72b72f",
    "time": "2012-06-05"
  },
  {
    "place": "Park3fd66200f964a520d7f11ee3",
    "time": "2012-06-05"
  },
  {
    "place": "Coffee Shop4a847222f964a520a1fc1fe3",
    "time": "2012-06-05"
  },
  {
    "place": "Other Great Outdoors4a229fa8f964a520797d1fe3",
    "time": "2012-06-06"
  },
  {
    "place": "Office4b55fb4af964a5203efa27e3",
    "time": "2012-06-06"
  },
  {
    "place": "Burger Joint4c2bccc7d1a10f475a88f864",
    "time": "2012-06-06"
  },
  {
    "place": "General Entertainment4ce48f41b4373704e006f4ce",
    "time": "2012-06-07"
  },
  {
    "place": "Building43695300f964a5208c291fe3",
    "time": "2012-06-07"
  },
  {
    "place": "Food Truck4ec3e93ec2eed4eacbd6a404",
    "time": "2012-06-07"
  },
  {
    "place": "Food Truck4ec3e93ec2eed4eacbd6a404",
    "time": "2012-06-07"
  },
  {
    "place": "Office4b55fb4af964a5203efa27e3",
    "time": "2012-06-07"
  },
  {
    "place": "Bakery4c892b0f7223b1f7dfb031a8",
    "time": "2012-06-07"
  },
  {
    "place": "Burger Joint4c2bccc7d1a10f475a88f864",
    "time": "2012-06-08"
  },
  {
    "place": "Office4b55fb4af964a5203efa27e3",
    "time": "2012-06-08"
  },
  {
    "place": "Other Great Outdoors4a229fa8f964a520797d1fe3",
    "time": "2012-06-09"
  },
  {
    "place": "Road4a4821f5f964a52095aa1fe3",
    "time": "2012-06-09"
  },
  {
    "place": "Bar3fd66200f964a52071e71ee3",
    "time": "2012-06-10"
  },
  {
    "place": "Other Great Outdoors4a229fa8f964a520797d1fe3",
    "time": "2012-06-10"
  },
  {
    "place": "Church4e6938ef45dd0f430c1834c5",
    "time": "2012-06-10"
  },
  {
    "place": "Park3fd66200f964a520d7f11ee3",
    "time": "2012-06-10"
  },
  {
    "place": "Hotel4bb4df032ba29c74c468ef2d",
    "time": "2012-06-11"
  },
  {
    "place": "Diner3fd66200f964a5204ee41ee3",
    "time": "2012-06-11"
  },
  {
    "place": "Diner3fd66200f964a5204ee41ee3",
    "time": "2012-06-11"
  },
  {
    "place": "American Restaurant3fd66200f964a52067e81ee3",
    "time": "2012-06-11"
  },
  {
    "place": "Other Great Outdoors4a229fa8f964a520797d1fe3",
    "time": "2012-06-11"
  },
  {
    "place": "Burger Joint4c2bccc7d1a10f475a88f864",
    "time": "2012-06-12"
  },
  {
    "place": "Office4b55fb4af964a5203efa27e3",
    "time": "2012-06-12"
  },
  {
    "place": "Diner3fd66200f964a520dbe71ee3",
    "time": "2012-06-12"
  },
  {
    "place": "Residential Building (Apartment / Condo)4dbae167cda109aa6c72b72f",
    "time": "2012-06-13"
  },
  {
    "place": "Office4c6d48b5fe77bfb7eb4aa323",
    "time": "2012-06-13"
  },
  {
    "place": "Department Store49cbb6f9f964a5200f591fe3",
    "time": "2012-06-13"
  },
  {
    "place": "American Restaurant3fd66200f964a5207de91ee3",
    "time": "2012-06-14"
  },
  {
    "place": "Food Truck4ec3e93ec2eed4eacbd6a404",
    "time": "2012-06-14"
  },
  {
    "place": "Bar4a525e9df964a52094b11fe3",
    "time": "2012-06-15"
  },
  {
    "place": "Department Store49cbb6f9f964a5200f591fe3",
    "time": "2012-06-17"
  },
  {
    "place": "Jewelry Store4ae33123f964a5207d9121e3",
    "time": "2012-06-17"
  },
  {
    "place": "Residential Building (Apartment / Condo)4dbae167cda109aa6c72b72f",
    "time": "2012-06-17"
  },
  {
    "place": "Church4e6938ef45dd0f430c1834c5",
    "time": "2012-06-17"
  },
  {
    "place": "American Restaurant3fd66200f964a5207de91ee3",
    "time": "2012-06-17"
  },
  {
    "place": "Coffee Shop4aa52d50f964a520834720e3",
    "time": "2012-06-18"
  },
  {
    "place": "Fast Food Restaurant4b24227df964a520ea6124e3",
    "time": "2012-06-18"
  },
  {
    "place": "Burger Joint4c2bccc7d1a10f475a88f864",
    "time": "2012-06-21"
  },
  {
    "place": "Coffee Shop49da74aef964a5208b5e1fe3",
    "time": "2012-06-21"
  },
  {
    "place": "Building4a8ab27cf964a520390a20e3",
    "time": "2012-06-21"
  },
  {
    "place": "Bar4283ee00f964a52095221fe3",
    "time": "2012-06-21"
  },
  {
    "place": "Office4bb4fb7d310276b0d1a1cf90",
    "time": "2012-06-25"
  },
  {
    "place": "General Entertainment4ce48f41b4373704e006f4ce",
    "time": "2012-06-27"
  },
  {
    "place": "Residential Building (Apartment / Condo)4dbae167cda109aa6c72b72f",
    "time": "2012-06-27"
  },
  {
    "place": "Office4b55fb4af964a5203efa27e3",
    "time": "2012-06-27"
  },
  {
    "place": "Clothing Store4ace5782f964a52000d020e3",
    "time": "2012-06-27"
  },
  {
    "place": "Building4a8ab27cf964a520390a20e3",
    "time": "2012-07-02"
  },
  {
    "place": "Clothing Store4c3ce1187d00d13a78853950",
    "time": "2012-07-02"
  },
  {
    "place": "Bar4a9efa88f964a520063c20e3",
    "time": "2012-07-03"
  },
  {
    "place": "Bar4a9efa88f964a520063c20e3",
    "time": "2012-07-03"
  },
  {
    "place": "Fast Food Restaurant4e4e0e89bd4101d0d7a13250",
    "time": "2012-07-03"
  },
  {
    "place": "Office4b55fb4af964a5203efa27e3",
    "time": "2012-07-03"
  },
  {
    "place": "Office4b55fb4af964a5203efa27e3",
    "time": "2012-07-03"
  },
  {
    "place": "Clothing Store4c3ce1187d00d13a78853950",
    "time": "2012-07-04"
  },
  {
    "place": "Clothing Store4c3ce1187d00d13a78853950",
    "time": "2012-07-04"
  },
  {
    "place": "Airport43a52546f964a520532c1fe3",
    "time": "2012-07-04"
  },
  {
    "place": "Coffee Shop4c056eb3191f20a17415e314",
    "time": "2012-07-04"
  },
  {
    "place": "Park3fd66200f964a520d7f11ee3",
    "time": "2012-07-13"
  },
  {
    "place": "Residential Building (Apartment / Condo)4dbae167cda109aa6c72b72f",
    "time": "2012-07-13"
  },
  {
    "place": "Subway4a737bf8f964a52091dc1fe3",
    "time": "2012-07-13"
  },
  {
    "place": "Subway4b3bf3f3f964a520187f25e3",
    "time": "2012-07-13"
  },
  {
    "place": "American Restaurant4a3d29e6f964a520e6a11fe3",
    "time": "2012-07-13"
  },
  {
    "place": "American Restaurant4b2044ccf964a520af2f24e3",
    "time": "2012-07-14"
  },
  {
    "place": "Fast Food Restaurant4b24227df964a520ea6124e3",
    "time": "2012-07-14"
  },
  {
    "place": "Coffee Shop4b634bd1f964a52073702ae3",
    "time": "2012-07-16"
  },
  {
    "place": "Student Center4a69ef60f964a5203dcc1fe3",
    "time": "2012-07-16"
  },
  {
    "place": "College Academic Building4a549b96f964a52027b31fe3",
    "time": "2012-07-16"
  },
  {
    "place": "Bar3fd66200f964a52071e71ee3",
    "time": "2012-07-16"
  },
  {
    "place": "Coffee Shop4b5f42a1f964a52094b029e3",
    "time": "2012-07-17"
  },
  {
    "place": "Residential Building (Apartment / Condo)4b809413f964a520527e30e3",
    "time": "2012-07-17"
  },
  {
    "place": "Bar4459f9bff964a520e1321fe3",
    "time": "2012-07-18"
  },
  {
    "place": "Bar4459f9bff964a520e1321fe3",
    "time": "2012-07-18"
  },
  {
    "place": "College Academic Building4abf1d17f964a520d39020e3",
    "time": "2012-07-18"
  },
  {
    "place": "College Academic Building4abf1d17f964a520d39020e3",
    "time": "2012-07-18"
  },
  {
    "place": "Office4b55fb4af964a5203efa27e3",
    "time": "2012-07-20"
  },
  {
    "place": "Chinese Restaurant4aa7e37ff964a520d94d20e3",
    "time": "2012-07-24"
  },
  {
    "place": "Other Great Outdoors4baa970cf964a52086773ae3",
    "time": "2012-07-28"
  },
  {
    "place": "Park3fd66200f964a520def11ee3",
    "time": "2012-07-29"
  },
  {
    "place": "Coffee Shop4a3ffdc5f964a5202da41fe3",
    "time": "2012-07-29"
  },
  {
    "place": "Athletic & Sport4a78425df964a52053e51fe3",
    "time": "2012-07-29"
  },
  {
    "place": "Athletic & Sport4a78425df964a52053e51fe3",
    "time": "2012-07-29"
  },
  {
    "place": "Coffee Shop4aa52d50f964a520834720e3",
    "time": "2012-07-30"
  },
  {
    "place": "Fast Food Restaurant4b24227df964a520ea6124e3",
    "time": "2012-07-30"
  },
  {
    "place": "Church4ed12684d3e3521ce68b14ad",
    "time": "2012-08-05"
  },
  {
    "place": "Park4c8c1883b118b7131c821701",
    "time": "2012-08-05"
  },
  {
    "place": "Bar3fd66200f964a520f4e71ee3",
    "time": "2012-08-06"
  },
  {
    "place": "Fast Food Restaurant4b24227df964a520ea6124e3",
    "time": "2012-08-06"
  },
  {
    "place": "College Academic Building4b1ed4e3f964a520452024e3",
    "time": "2012-08-06"
  },
  {
    "place": "College Academic Building4a6f9480f964a5208cd61fe3",
    "time": "2012-08-09"
  },
  {
    "place": "Bakery4a19d10ff964a520597a1fe3",
    "time": "2012-08-09"
  },
  {
    "place": "Burger Joint4c2bccc7d1a10f475a88f864",
    "time": "2012-08-09"
  },
  {
    "place": "Movie Theater49e17f24f964a520d1611fe3",
    "time": "2012-08-11"
  },
  {
    "place": "Residential Building (Apartment / Condo)4dbae167cda109aa6c72b72f",
    "time": "2012-08-12"
  },
  {
    "place": "Church4a7a534af964a5202ae91fe3",
    "time": "2012-08-12"
  },
  {
    "place": "Bookstore43fe1ba4f964a520f82f1fe3",
    "time": "2012-08-13"
  },
  {
    "place": "Residential Building (Apartment / Condo)4dbae167cda109aa6c72b72f",
    "time": "2012-08-13"
  },
  {
    "place": "Residential Building (Apartment / Condo)4dbae167cda109aa6c72b72f",
    "time": "2012-08-13"
  },
  {
    "place": "Park412d2800f964a520df0c1fe3",
    "time": "2012-08-14"
  },
  {
    "place": "Residential Building (Apartment / Condo)4b809413f964a520527e30e3",
    "time": "2012-08-14"
  },
  {
    "place": "Church4bc525966c26b713f703ebf3",
    "time": "2012-08-19"
  },
  {
    "place": "Laundry Service4dd7f444e4cd37c893b89ac2",
    "time": "2012-08-19"
  },
  {
    "place": "Park3fd66200f964a520d7f11ee3",
    "time": "2012-08-20"
  },
  {
    "place": "Park4adf50e7f964a520627921e3",
    "time": "2012-08-18"
  },
  {
    "place": "Park4adf50e7f964a520627921e3",
    "time": "2012-08-18"
  },
  {
    "place": "Office4f900a30e4b027bf9cf7b8b2",
    "time": "2012-08-22"
  },
  {
    "place": "American Restaurant4a01d00ff964a520ff701fe3",
    "time": "2012-08-22"
  },
  {
    "place": "Medical Center4a4cc69df964a52040ad1fe3",
    "time": "2012-09-05"
  },
  {
    "place": "Sandwich Place4bef1089d1b7d13acd46cdec",
    "time": "2012-10-08"
  },
  {
    "place": "Office4b55fb4af964a5203efa27e3",
    "time": "2012-10-08"
  },
  {
    "place": "Law School4bce6bbbef1095215f328486",
    "time": "2012-10-16"
  },
  {
    "place": "Jewelry Store4beabadab3352d7fad7e55d2",
    "time": "2012-10-16"
  },
  {
    "place": "Neighborhood4aa42b50f964a520a44520e3",
    "time": "2012-10-16"
  },
  {
    "place": "Bakery4c892b0f7223b1f7dfb031a8",
    "time": "2012-10-16"
  },
  {
    "place": "American Restaurant3fd66200f964a520cee51ee3",
    "time": "2012-10-16"
  },
  {
    "place": "Department Store4576ddcaf964a520ac3e1fe3",
    "time": "2012-10-16"
  },
  {
    "place": "Department Store49cbb6f9f964a5200f591fe3",
    "time": "2012-10-16"
  },
  {
    "place": "Plaza49b7ed6df964a52030531fe3",
    "time": "2012-10-16"
  },
  {
    "place": "Clothing Store4a50fd41f964a5205fb01fe3",
    "time": "2012-10-16"
  },
  {
    "place": "Professional & Other Places4dc83c38c65be1b8e34e7c04",
    "time": "2012-10-16"
  },
  {
    "place": "Clothing Store4aa9bcacf964a520195520e3",
    "time": "2012-10-16"
  },
  {
    "place": "Sandwich Place4e6e440e3151d38bc2daf56c",
    "time": "2012-10-17"
  },
  {
    "place": "College Academic Building4a549b96f964a52027b31fe3",
    "time": "2012-10-17"
  },
  {
    "place": "American Restaurant3fd66200f964a520cee51ee3",
    "time": "2012-10-23"
  },
  {
    "place": "Hotel3fd66200f964a520fce71ee3",
    "time": "2012-10-23"
  },
  {
    "place": "Burger Joint4c2bccc7d1a10f475a88f864",
    "time": "2012-10-23"
  },
  {
    "place": "College Academic Building4a6c195df964a52065d01fe3",
    "time": "2012-10-23"
  },
  {
    "place": "Building4d5c8eb7ddac721e146e6ffe",
    "time": "2012-10-24"
  },
  {
    "place": "Park412d2800f964a520df0c1fe3",
    "time": "2012-10-24"
  },
  {
    "place": "Burger Joint4c2bccc7d1a10f475a88f864",
    "time": "2012-10-24"
  },
  {
    "place": "Department Store4576ddcaf964a520ac3e1fe3",
    "time": "2012-10-24"
  },
  {
    "place": "Department Store49cbb6f9f964a5200f591fe3",
    "time": "2012-10-24"
  },
  {
    "place": "Hotel44d7b1f3f964a52070361fe3",
    "time": "2012-10-24"
  },
  {
    "place": "Clothing Store5085b985e4b0fedcb33e8ed8",
    "time": "2012-10-24"
  },
  {
    "place": "Clothing Store4b50de3ff964a520163627e3",
    "time": "2012-10-24"
  },
  {
    "place": "Bar4d042c5b28926ea811226ac2",
    "time": "2012-10-25"
  },
  {
    "place": "Theater4a07986bf964a52087731fe3",
    "time": "2012-10-25"
  },
  {
    "place": "Coffee Shop4afb634af964a520951d22e3",
    "time": "2012-10-25"
  },
  {
    "place": "Park3fd66200f964a520d7f11ee3",
    "time": "2012-10-25"
  },
  {
    "place": "Office4b55fb4af964a5203efa27e3",
    "time": "2012-10-25"
  },
  {
    "place": "Clothing Store4b57199af964a520612628e3",
    "time": "2012-10-25"
  },
  {
    "place": "Coffee Shop4aeedbe6f964a5206cd421e3",
    "time": "2012-10-25"
  },
  {
    "place": "Coffee Shop4abce119f964a520878720e3",
    "time": "2012-10-26"
  },
  {
    "place": "Plaza49b7ed6df964a52030531fe3",
    "time": "2012-10-26"
  },
  {
    "place": "Department Store49cbb6f9f964a5200f591fe3",
    "time": "2012-10-27"
  },
  {
    "place": "Bar4b1bf775f964a520d0ff23e3",
    "time": "2012-10-27"
  },
  {
    "place": "Department Store4576ddcaf964a520ac3e1fe3",
    "time": "2012-10-27"
  },
  {
    "place": "Bar4b1bf775f964a520d0ff23e3",
    "time": "2012-10-28"
  },
  {
    "place": "Bakery4cd1d42cde0f6dcb316e7363",
    "time": "2012-10-28"
  },
  {
    "place": "Department Store49cbb6f9f964a5200f591fe3",
    "time": "2012-10-28"
  },
  {
    "place": "Clothing Store4a8047adf964a520ddf41fe3",
    "time": "2012-10-28"
  },
  {
    "place": "Department Store4576ddcaf964a520ac3e1fe3",
    "time": "2012-10-28"
  },
  {
    "place": "Coffee Shop4a993262f964a5207c2d20e3",
    "time": "2012-10-28"
  },
  {
    "place": "Residential Building (Apartment / Condo)4f4040b0e4b0e408249e4657",
    "time": "2012-10-31"
  },
  {
    "place": "American Restaurant3fd66200f964a520cee51ee3",
    "time": "2012-11-05"
  },
  {
    "place": "Burger Joint4c2bccc7d1a10f475a88f864",
    "time": "2012-11-07"
  },
  {
    "place": "American Restaurant3fd66200f964a520cee51ee3",
    "time": "2012-11-09"
  },
  {
    "place": "Office4b55fb4af964a5203efa27e3",
    "time": "2012-11-13"
  },
  {
    "place": "Burger Joint4c2bccc7d1a10f475a88f864",
    "time": "2012-11-13"
  },
  {
    "place": "Park3fd66200f964a520d7f11ee3",
    "time": "2012-11-16"
  },
  {
    "place": "Clothing Store4a8047adf964a520ddf41fe3",
    "time": "2012-11-16"
  },
  {
    "place": "Event Space436d4780f964a520bd291fe3",
    "time": "2012-11-16"
  },
  {
    "place": "Convention Center4de0577b45dd3eae876ccd1e",
    "time": "2012-11-16"
  },
  {
    "place": "American Restaurant3fd66200f964a520cee51ee3",
    "time": "2012-11-18"
  },
  {
    "place": "Airport43a52546f964a520532c1fe3",
    "time": "2012-11-20"
  },
  {
    "place": "Airport43a52546f964a520532c1fe3",
    "time": "2012-11-27"
  },
  {
    "place": "Department Store49cbb6f9f964a5200f591fe3",
    "time": "2012-11-27"
  },
  {
    "place": "Burger Joint40e74880f964a520150a1fe3",
    "time": "2012-11-30"
  },
  {
    "place": "Department Store4576ddcaf964a520ac3e1fe3",
    "time": "2012-12-01"
  },
  {
    "place": "Bar4b1bf775f964a520d0ff23e3",
    "time": "2012-12-01"
  },
  {
    "place": "Department Store49cbb6f9f964a5200f591fe3",
    "time": "2012-12-02"
  },
  {
    "place": "Department Store49cbb6f9f964a5200f591fe3",
    "time": "2012-12-05"
  },
  {
    "place": "Clothing Store4aa9bcacf964a520195520e3",
    "time": "2012-12-05"
  },
  {
    "place": "Caf\u00c3\u00a94a49212cf964a52004ab1fe3",
    "time": "2012-12-06"
  },
  {
    "place": "Plaza4caf1ae81168a093485f1f23",
    "time": "2012-12-07"
  },
  {
    "place": "Department Store4576ddcaf964a520ac3e1fe3",
    "time": "2012-12-07"
  },
  {
    "place": "Sushi Restaurant450972f5f964a5203d391fe3",
    "time": "2012-12-08"
  },
  {
    "place": "Bar4b1bf775f964a520d0ff23e3",
    "time": "2012-12-08"
  },
  {
    "place": "Clothing Store4a50fd41f964a5205fb01fe3",
    "time": "2012-12-08"
  },
  {
    "place": "Caf\u00c3\u00a94a49212cf964a52004ab1fe3",
    "time": "2012-12-09"
  },
  {
    "place": "Music Venue3fd66200f964a52035e41ee3",
    "time": "2012-12-09"
  },
  {
    "place": "Clothing Store4aa9bcacf964a520195520e3",
    "time": "2012-12-10"
  },
  {
    "place": "College Academic Building4a6d1611f964a52080d21fe3",
    "time": "2012-12-11"
  },
  {
    "place": "Plaza4caf1ae81168a093485f1f23",
    "time": "2012-12-13"
  },
  {
    "place": "Office4b55fb4af964a5203efa27e3",
    "time": "2012-12-17"
  },
  {
    "place": "Coffee Shop4a3ffdc5f964a5202da41fe3",
    "time": "2012-12-18"
  },
  {
    "place": "Coffee Shop4a3ffdc5f964a5202da41fe3",
    "time": "2012-12-21"
  },
  {
    "place": "Department Store49cbb6f9f964a5200f591fe3",
    "time": "2012-12-22"
  },
  {
    "place": "Plaza49b7ed6df964a52030531fe3",
    "time": "2013-01-01"
  },
  {
    "place": "Office4b55fb4af964a5203efa27e3",
    "time": "2013-01-12"
  },
  {
    "place": "Airport43a52546f964a520532c1fe3",
    "time": "2013-01-14"
  },
  {
    "place": "Coffee Shop4b5f42a1f964a52094b029e3",
    "time": "2013-02-07"
  }
]