[
  {
    "place": "Office4b983c11f964a520273635e3",
    "time": "2012-04-09"
  },
  {
    "place": "Office4b983c11f964a520273635e3",
    "time": "2012-04-12"
  },
  {
    "place": "Synagogue4ba37c86f964a520414138e3",
    "time": "2012-04-13"
  },
  {
    "place": "Synagogue4ba37c86f964a520414138e3",
    "time": "2012-04-14"
  },
  {
    "place": "Coffee Shop4a887a70f964a520970620e3",
    "time": "2012-04-14"
  },
  {
    "place": "Home (private)4bdf4cbd6198c9b6b3ae16ff",
    "time": "2012-04-15"
  },
  {
    "place": "Office4b983c11f964a520273635e3",
    "time": "2012-04-16"
  },
  {
    "place": "Post Office4b28e31df964a520ed9524e3",
    "time": "2012-04-16"
  },
  {
    "place": "Office4b983c11f964a520273635e3",
    "time": "2012-04-16"
  },
  {
    "place": "Office4b983c11f964a520273635e3",
    "time": "2012-04-17"
  },
  {
    "place": "Mexican Restaurant4cab85492776b60cffc24c0d",
    "time": "2012-04-18"
  },
  {
    "place": "Office4b983c11f964a520273635e3",
    "time": "2012-04-19"
  },
  {
    "place": "University4a494ce4f964a5202cab1fe3",
    "time": "2012-04-19"
  },
  {
    "place": "Office4b983c11f964a520273635e3",
    "time": "2012-04-20"
  },
  {
    "place": "Coffee Shop4a887a70f964a520970620e3",
    "time": "2012-04-21"
  },
  {
    "place": "Train Station42911d00f964a520f5231fe3",
    "time": "2012-04-22"
  },
  {
    "place": "Office4b983c11f964a520273635e3",
    "time": "2012-04-24"
  },
  {
    "place": "Office4b983c11f964a520273635e3",
    "time": "2012-04-25"
  },
  {
    "place": "Office4b983c11f964a520273635e3",
    "time": "2012-04-26"
  },
  {
    "place": "Synagogue4ba37c86f964a520414138e3",
    "time": "2012-04-28"
  },
  {
    "place": "Coffee Shop4a887a70f964a520970620e3",
    "time": "2012-04-28"
  },
  {
    "place": "Office4b983c11f964a520273635e3",
    "time": "2012-05-03"
  },
  {
    "place": "Office4b983c11f964a520273635e3",
    "time": "2012-05-04"
  },
  {
    "place": "Office4b983c11f964a520273635e3",
    "time": "2012-05-07"
  },
  {
    "place": "Office4b983c11f964a520273635e3",
    "time": "2012-05-08"
  },
  {
    "place": "Office4b983c11f964a520273635e3",
    "time": "2012-05-09"
  },
  {
    "place": "University4a494ce4f964a5202cab1fe3",
    "time": "2012-05-10"
  },
  {
    "place": "Office4b983c11f964a520273635e3",
    "time": "2012-05-11"
  },
  {
    "place": "Synagogue4ba37c86f964a520414138e3",
    "time": "2012-05-12"
  },
  {
    "place": "Office4b983c11f964a520273635e3",
    "time": "2012-05-14"
  },
  {
    "place": "Office4b983c11f964a520273635e3",
    "time": "2012-05-15"
  },
  {
    "place": "Office4b983c11f964a520273635e3",
    "time": "2012-05-16"
  },
  {
    "place": "Office4b983c11f964a520273635e3",
    "time": "2012-05-17"
  },
  {
    "place": "Office4b983c11f964a520273635e3",
    "time": "2012-05-18"
  },
  {
    "place": "Synagogue4ba37c86f964a520414138e3",
    "time": "2012-05-19"
  },
  {
    "place": "Office4b983c11f964a520273635e3",
    "time": "2012-05-21"
  },
  {
    "place": "Office4b983c11f964a520273635e3",
    "time": "2012-05-22"
  },
  {
    "place": "Office4b983c11f964a520273635e3",
    "time": "2012-05-23"
  },
  {
    "place": "Synagogue4ba37c86f964a520414138e3",
    "time": "2012-05-23"
  },
  {
    "place": "Office4b983c11f964a520273635e3",
    "time": "2012-05-25"
  },
  {
    "place": "Synagogue4ba37c86f964a520414138e3",
    "time": "2012-05-27"
  },
  {
    "place": "Office4b983c11f964a520273635e3",
    "time": "2012-05-29"
  },
  {
    "place": "Office49bee48bf964a520ed541fe3",
    "time": "2012-05-31"
  },
  {
    "place": "Office4b983c11f964a520273635e3",
    "time": "2012-06-01"
  },
  {
    "place": "Office4b983c11f964a520273635e3",
    "time": "2012-06-04"
  },
  {
    "place": "Office4b983c11f964a520273635e3",
    "time": "2012-06-05"
  },
  {
    "place": "Office4b983c11f964a520273635e3",
    "time": "2012-06-06"
  },
  {
    "place": "Office4b983c11f964a520273635e3",
    "time": "2012-06-07"
  },
  {
    "place": "Synagogue4b835954f964a5206e0331e3",
    "time": "2012-06-09"
  },
  {
    "place": "Home (private)4bdf4cbd6198c9b6b3ae16ff",
    "time": "2012-06-12"
  },
  {
    "place": "Medical Center4ad635d8f964a520c40521e3",
    "time": "2012-06-19"
  },
  {
    "place": "Office4b983c11f964a520273635e3",
    "time": "2012-06-27"
  },
  {
    "place": "Office4b983c11f964a520273635e3",
    "time": "2012-07-02"
  },
  {
    "place": "Office4b983c11f964a520273635e3",
    "time": "2012-07-03"
  },
  {
    "place": "Synagogue4ba37c86f964a520414138e3",
    "time": "2012-07-07"
  },
  {
    "place": "Diner4a58b908f964a520b7b71fe3",
    "time": "2012-07-08"
  },
  {
    "place": "Office4b983c11f964a520273635e3",
    "time": "2012-07-09"
  },
  {
    "place": "Office4b983c11f964a520273635e3",
    "time": "2012-07-12"
  },
  {
    "place": "Office4b983c11f964a520273635e3",
    "time": "2012-07-13"
  },
  {
    "place": "Train Station42911d00f964a520f5231fe3",
    "time": "2012-07-15"
  },
  {
    "place": "Office4b983c11f964a520273635e3",
    "time": "2012-07-17"
  },
  {
    "place": "Office4b983c11f964a520273635e3",
    "time": "2012-07-18"
  },
  {
    "place": "University4a494ce4f964a5202cab1fe3",
    "time": "2012-07-18"
  },
  {
    "place": "Synagogue4ba37c86f964a520414138e3",
    "time": "2012-07-28"
  },
  {
    "place": "Office4b983c11f964a520273635e3",
    "time": "2012-07-30"
  },
  {
    "place": "Office4b983c11f964a520273635e3",
    "time": "2012-08-06"
  },
  {
    "place": "Office4b983c11f964a520273635e3",
    "time": "2012-08-09"
  },
  {
    "place": "University4a494ce4f964a5202cab1fe3",
    "time": "2012-08-13"
  },
  {
    "place": "Office4b983c11f964a520273635e3",
    "time": "2012-08-20"
  },
  {
    "place": "Synagogue4ba37c86f964a520414138e3",
    "time": "2012-08-18"
  },
  {
    "place": "Office4b983c11f964a520273635e3",
    "time": "2012-09-05"
  },
  {
    "place": "Government Building4daf47dcfa8c123fa7eae3a0",
    "time": "2012-09-13"
  },
  {
    "place": "Office4b983c11f964a520273635e3",
    "time": "2012-09-13"
  },
  {
    "place": "Office4b983c11f964a520273635e3",
    "time": "2012-09-14"
  },
  {
    "place": "Synagogue4ba37c86f964a520414138e3",
    "time": "2012-10-08"
  },
  {
    "place": "Synagogue4ba37c86f964a520414138e3",
    "time": "2012-10-13"
  },
  {
    "place": "Office4b983c11f964a520273635e3",
    "time": "2012-10-16"
  },
  {
    "place": "Office4b983c11f964a520273635e3",
    "time": "2012-10-17"
  },
  {
    "place": "Airport4ace6c89f964a52078d020e3",
    "time": "2012-10-18"
  },
  {
    "place": "Office4b983c11f964a520273635e3",
    "time": "2012-10-23"
  },
  {
    "place": "Office4b983c11f964a520273635e3",
    "time": "2012-10-26"
  },
  {
    "place": "Synagogue4ba37c86f964a520414138e3",
    "time": "2012-10-27"
  },
  {
    "place": "Office4b983c11f964a520273635e3",
    "time": "2012-10-31"
  },
  {
    "place": "Office4b983c11f964a520273635e3",
    "time": "2012-11-02"
  },
  {
    "place": "Office4b983c11f964a520273635e3",
    "time": "2012-11-05"
  },
  {
    "place": "College Academic Building4b02e0c9f964a5209d4a22e3",
    "time": "2012-11-05"
  },
  {
    "place": "Office4b983c11f964a520273635e3",
    "time": "2012-11-07"
  },
  {
    "place": "University4a494ce4f964a5202cab1fe3",
    "time": "2012-11-12"
  },
  {
    "place": "Office4b983c11f964a520273635e3",
    "time": "2012-11-13"
  },
  {
    "place": "College Academic Building4b02e0c9f964a5209d4a22e3",
    "time": "2012-11-17"
  },
  {
    "place": "University4a494ce4f964a5202cab1fe3",
    "time": "2012-11-19"
  },
  {
    "place": "Office4b983c11f964a520273635e3",
    "time": "2012-11-20"
  },
  {
    "place": "Office4b983c11f964a520273635e3",
    "time": "2012-11-21"
  },
  {
    "place": "Synagogue4ba37c86f964a520414138e3",
    "time": "2012-12-01"
  },
  {
    "place": "Office4b983c11f964a520273635e3",
    "time": "2012-12-05"
  },
  {
    "place": "Office4b983c11f964a520273635e3",
    "time": "2012-12-06"
  },
  {
    "place": "Synagogue4ba37c86f964a520414138e3",
    "time": "2012-12-08"
  },
  {
    "place": "Office4b983c11f964a520273635e3",
    "time": "2012-12-10"
  },
  {
    "place": "Building4b58c03df964a5201d6928e3",
    "time": "2012-12-12"
  },
  {
    "place": "Bookstore43fe1ba4f964a520f82f1fe3",
    "time": "2012-12-12"
  },
  {
    "place": "Office4b983c11f964a520273635e3",
    "time": "2012-12-18"
  },
  {
    "place": "Office4b983c11f964a520273635e3",
    "time": "2012-12-19"
  },
  {
    "place": "Office4b983c11f964a520273635e3",
    "time": "2012-12-21"
  },
  {
    "place": "Food & Drink Shop50c4d618e4b0dee5440160a3",
    "time": "2012-12-21"
  },
  {
    "place": "Museum4a746fb2f964a52025de1fe3",
    "time": "2012-12-23"
  },
  {
    "place": "Office4b983c11f964a520273635e3",
    "time": "2013-01-02"
  },
  {
    "place": "Synagogue4ba37c86f964a520414138e3",
    "time": "2013-01-05"
  },
  {
    "place": "Office4b983c11f964a520273635e3",
    "time": "2013-01-11"
  },
  {
    "place": "Office4b983c11f964a520273635e3",
    "time": "2013-01-15"
  },
  {
    "place": "Office4b983c11f964a520273635e3",
    "time": "2013-01-17"
  },
  {
    "place": "Office4b983c11f964a520273635e3",
    "time": "2013-01-18"
  },
  {
    "place": "Office4b983c11f964a520273635e3",
    "time": "2013-01-25"
  },
  {
    "place": "Office4b983c11f964a520273635e3",
    "time": "2013-01-28"
  },
  {
    "place": "Office4b983c11f964a520273635e3",
    "time": "2013-02-12"
  }
]