[
  {
    "place": "Home (private)4d8ab5757d4c5481da8f6f71",
    "time": "2012-04-10"
  },
  {
    "place": "Bar4b7def17f964a520ceda2fe3",
    "time": "2012-04-14"
  },
  {
    "place": "Bar411ff900f964a520290c1fe3",
    "time": "2012-04-15"
  },
  {
    "place": "Bar4f50044ae4b03fbe28b12990",
    "time": "2012-04-15"
  },
  {
    "place": "Bar457430b9f964a520913e1fe3",
    "time": "2012-04-15"
  },
  {
    "place": "Mediterranean Restaurant47c65c85f964a520ef4d1fe3",
    "time": "2012-04-15"
  },
  {
    "place": "Train Station4ab38f3df964a520ca6d20e3",
    "time": "2012-04-21"
  },
  {
    "place": "Bar4a8e031cf964a520be1120e3",
    "time": "2012-04-21"
  },
  {
    "place": "Food & Drink Shop43bba61df964a520eb2c1fe3",
    "time": "2012-04-22"
  },
  {
    "place": "Movie Theater4f91ddc2e4b020a51dd1121a",
    "time": "2012-04-22"
  },
  {
    "place": "Home (private)4d8ab5757d4c5481da8f6f71",
    "time": "2012-04-23"
  },
  {
    "place": "Movie Theater4a4138ebf964a520f9a41fe3",
    "time": "2012-04-23"
  },
  {
    "place": "Movie Theater4f91ddc2e4b020a51dd1121a",
    "time": "2012-04-23"
  },
  {
    "place": "Movie Theater4f91ddc2e4b020a51dd1121a",
    "time": "2012-04-24"
  },
  {
    "place": "Movie Theater4f91ddc2e4b020a51dd1121a",
    "time": "2012-04-25"
  },
  {
    "place": "Gym / Fitness Center4c89426db8d4236a13f49c03",
    "time": "2012-04-25"
  },
  {
    "place": "Bar46e643f4f964a520c14a1fe3",
    "time": "2012-04-26"
  },
  {
    "place": "Bar4a8e031cf964a520be1120e3",
    "time": "2012-04-29"
  },
  {
    "place": "Vegetarian / Vegan Restaurant4bc4fff66cccd13a7e99ff8b",
    "time": "2012-05-01"
  },
  {
    "place": "Vegetarian / Vegan Restaurant3fd66200f964a52098eb1ee3",
    "time": "2012-05-03"
  },
  {
    "place": "Bar43504680f964a520b3281fe3",
    "time": "2012-05-05"
  },
  {
    "place": "Bar46e643f4f964a520c14a1fe3",
    "time": "2012-05-05"
  },
  {
    "place": "Flea Market4d9885ae647d8cfa23ccf03d",
    "time": "2012-05-06"
  },
  {
    "place": "Ferry4de797f51fc7fcfe04ac20f0",
    "time": "2012-05-06"
  },
  {
    "place": "Art Gallery4f854d1abb3d670e74af1871",
    "time": "2012-05-06"
  },
  {
    "place": "Office4d4afa407d36f04de72221e5",
    "time": "2012-05-07"
  },
  {
    "place": "Bakery4ef372169adf60f8399b4bd7",
    "time": "2012-05-08"
  },
  {
    "place": "Italian Restaurant4eb5e354b8f786e2756cb884",
    "time": "2012-05-11"
  },
  {
    "place": "Bar4a8e031cf964a520be1120e3",
    "time": "2012-05-11"
  },
  {
    "place": "Mexican Restaurant4d02d8b726adb1f76cd2c870",
    "time": "2012-05-12"
  },
  {
    "place": "Seafood Restaurant4581734ff964a520653f1fe3",
    "time": "2012-05-12"
  },
  {
    "place": "Bar46e643f4f964a520c14a1fe3",
    "time": "2012-05-12"
  },
  {
    "place": "Bar3fd66200f964a520c5f01ee3",
    "time": "2012-05-12"
  },
  {
    "place": "Diner3fd66200f964a52048ee1ee3",
    "time": "2012-05-12"
  },
  {
    "place": "Park49cea4dff964a5206a5a1fe3",
    "time": "2012-05-12"
  },
  {
    "place": "Beer Garden3fd66200f964a52008f11ee3",
    "time": "2012-05-12"
  },
  {
    "place": "Music Venue40c10d00f964a520da001fe3",
    "time": "2012-05-13"
  },
  {
    "place": "Park4c423c5bcc410f475783ac61",
    "time": "2012-05-13"
  },
  {
    "place": "Taco Place4a21c1caf964a520397d1fe3",
    "time": "2012-05-14"
  },
  {
    "place": "Bar4ba19cb0f964a520c2c337e3",
    "time": "2012-05-14"
  },
  {
    "place": "Bar4a419d27f964a5207aa51fe3",
    "time": "2012-05-14"
  },
  {
    "place": "Office4d4afa407d36f04de72221e5",
    "time": "2012-05-15"
  },
  {
    "place": "Bar48dab7f4f964a52009521fe3",
    "time": "2012-05-15"
  },
  {
    "place": "Office4c725357ad69b60c4d1a83b9",
    "time": "2012-05-16"
  },
  {
    "place": "Bowling Alley3fd66200f964a5200ae91ee3",
    "time": "2012-05-16"
  },
  {
    "place": "Art Museum4a6cbb32f964a52076d11fe3",
    "time": "2012-05-23"
  },
  {
    "place": "Bar4ac6bb7ff964a52014b620e3",
    "time": "2012-05-26"
  },
  {
    "place": "Bar46e643f4f964a520c14a1fe3",
    "time": "2012-05-26"
  },
  {
    "place": "Bar49d95652f964a520235e1fe3",
    "time": "2012-05-27"
  },
  {
    "place": "Music Venue4bc63a0c04e8b7138aa9352d",
    "time": "2012-05-27"
  },
  {
    "place": "Park4c423c5bcc410f475783ac61",
    "time": "2012-05-28"
  },
  {
    "place": "Park4081c500f964a52081f21ee3",
    "time": "2012-05-28"
  },
  {
    "place": "Bar4a8e031cf964a520be1120e3",
    "time": "2012-05-28"
  },
  {
    "place": "Bar49ce4562f964a5202a5a1fe3",
    "time": "2012-05-29"
  },
  {
    "place": "Park4a299005f964a520a8951fe3",
    "time": "2012-05-31"
  },
  {
    "place": "Bakery4ef372169adf60f8399b4bd7",
    "time": "2012-06-01"
  },
  {
    "place": "Bar4b7def17f964a520ceda2fe3",
    "time": "2012-06-03"
  },
  {
    "place": "Bar3fd66200f964a520c5f01ee3",
    "time": "2012-06-17"
  },
  {
    "place": "Bar46e643f4f964a520c14a1fe3",
    "time": "2012-06-17"
  },
  {
    "place": "Home (private)4d8ab5757d4c5481da8f6f71",
    "time": "2012-06-18"
  },
  {
    "place": "Park49cea4dff964a5206a5a1fe3",
    "time": "2012-06-18"
  },
  {
    "place": "Bar409ad180f964a520eff21ee3",
    "time": "2012-06-27"
  },
  {
    "place": "Park4081c500f964a52081f21ee3",
    "time": "2012-06-30"
  },
  {
    "place": "Bar3fd66200f964a520c5f01ee3",
    "time": "2012-07-01"
  },
  {
    "place": "Office4ae0977ff964a520b98021e3",
    "time": "2012-07-03"
  },
  {
    "place": "Bar4f14d5d8e4b0f2c214cafd27",
    "time": "2012-07-04"
  },
  {
    "place": "Park4081c500f964a52081f21ee3",
    "time": "2012-07-04"
  },
  {
    "place": "Art Museum3fd66200f964a52096eb1ee3",
    "time": "2012-07-07"
  },
  {
    "place": "Thai Restaurant49cfd074f964a520ce5a1fe3",
    "time": "2012-07-08"
  },
  {
    "place": "Music Venue4f37129fe4b01139d56b877a",
    "time": "2012-07-08"
  },
  {
    "place": "Bar46e643f4f964a520c14a1fe3",
    "time": "2012-07-08"
  },
  {
    "place": "Bar3fd66200f964a520c5f01ee3",
    "time": "2012-07-08"
  },
  {
    "place": "Bar4a8e031cf964a520be1120e3",
    "time": "2012-07-08"
  },
  {
    "place": "Bar4f5303dbe4b02cf6be81de21",
    "time": "2012-07-09"
  },
  {
    "place": "Office4ae0977ff964a520b98021e3",
    "time": "2012-07-09"
  },
  {
    "place": "Hotel4e760aa5b61c22c638709910",
    "time": "2012-07-12"
  },
  {
    "place": "Bar43753080f964a520352a1fe3",
    "time": "2012-07-14"
  },
  {
    "place": "Taco Place4e302cb1c65b80dfd84807cc",
    "time": "2012-07-15"
  },
  {
    "place": "Building4fa6fdc8e4b0b487cf352e77",
    "time": "2012-07-17"
  },
  {
    "place": "Office4ae0977ff964a520b98021e3",
    "time": "2012-07-18"
  },
  {
    "place": "Bar4127e200f964a5205d0c1fe3",
    "time": "2012-07-28"
  },
  {
    "place": "Bar409ad180f964a520eff21ee3",
    "time": "2012-07-28"
  },
  {
    "place": "Bar4f50044ae4b03fbe28b12990",
    "time": "2012-07-28"
  },
  {
    "place": "Music Venue4dec00a588774880e345564d",
    "time": "2012-07-29"
  },
  {
    "place": "Deli / Bodega49ef67bbf964a520af681fe3",
    "time": "2012-07-30"
  },
  {
    "place": "Office4ae0977ff964a520b98021e3",
    "time": "2012-07-30"
  },
  {
    "place": "Residential Building (Apartment / Condo)4e5682fec65be3cea467197d",
    "time": "2012-08-05"
  },
  {
    "place": "Music Venue47048266f964a5204f4b1fe3",
    "time": "2012-08-06"
  },
  {
    "place": "Bar4f14d5d8e4b0f2c214cafd27",
    "time": "2012-08-11"
  },
  {
    "place": "Hotel3fd66200f964a520bbe61ee3",
    "time": "2012-08-12"
  },
  {
    "place": "Bar4dcf439b52b1f8915bacf008",
    "time": "2012-08-12"
  },
  {
    "place": "Park40f1d480f964a5206a0a1fe3",
    "time": "2012-08-13"
  },
  {
    "place": "Office4ae0977ff964a520b98021e3",
    "time": "2012-08-14"
  },
  {
    "place": "Bar3fd66200f964a52067e41ee3",
    "time": "2012-08-16"
  },
  {
    "place": "Music Venue4c4333baaf052d7faf028079",
    "time": "2012-08-19"
  },
  {
    "place": "Bar49ce4562f964a5202a5a1fe3",
    "time": "2012-08-17"
  },
  {
    "place": "Bar49cd07cdf964a520ab591fe3",
    "time": "2012-09-06"
  },
  {
    "place": "Other Great Outdoors4ddeabb488779c82beca18bd",
    "time": "2012-09-15"
  },
  {
    "place": "Office4ae0977ff964a520b98021e3",
    "time": "2012-10-03"
  },
  {
    "place": "Bar4f50044ae4b03fbe28b12990",
    "time": "2012-10-13"
  },
  {
    "place": "Bar4a106005f964a520af761fe3",
    "time": "2012-10-13"
  },
  {
    "place": "Bar4a106005f964a520af761fe3",
    "time": "2012-10-13"
  },
  {
    "place": "Movie Theater4ba3f708f964a520367238e3",
    "time": "2012-10-16"
  },
  {
    "place": "Arts & Entertainment4e77c1d17d8b90e441bcdc13",
    "time": "2012-10-19"
  },
  {
    "place": "Bowling Alley4ab551acf964a520eb7320e3",
    "time": "2012-10-19"
  },
  {
    "place": "Pizza Place47e100b9f964a520414e1fe3",
    "time": "2012-10-24"
  },
  {
    "place": "Bar4f5303dbe4b02cf6be81de21",
    "time": "2012-10-26"
  },
  {
    "place": "Bowling Alley4ab551acf964a520eb7320e3",
    "time": "2012-10-27"
  },
  {
    "place": "Bar4c241507c11dc9b6a4fe2424",
    "time": "2012-10-30"
  },
  {
    "place": "Bar4202bb00f964a520611f1fe3",
    "time": "2012-11-06"
  },
  {
    "place": "Beer Garden4da60c5d432dd03d359b8729",
    "time": "2012-11-07"
  },
  {
    "place": "Music Venue4b46a4b3f964a520252626e3",
    "time": "2012-11-17"
  },
  {
    "place": "Home (private)4d8ab5757d4c5481da8f6f71",
    "time": "2013-02-08"
  }
]