[
  {
    "place": "Park4f6b61d8e4b0e15b873dad2f",
    "time": "2012-04-04"
  },
  {
    "place": "Eastern European Restaurant4b142286f964a520cb9d23e3",
    "time": "2012-04-07"
  },
  {
    "place": "Mexican Restaurant4bdba8902a3a0f477c51b0b6",
    "time": "2012-04-08"
  },
  {
    "place": "Bar43bbc5fdf964a520f02c1fe3",
    "time": "2012-04-08"
  },
  {
    "place": "Thai Restaurant4a99e8d6f964a5200e3120e3",
    "time": "2012-04-10"
  },
  {
    "place": "Salon / Barbershop4ceaca529f776ea882ae6a22",
    "time": "2012-04-12"
  },
  {
    "place": "Office4c19333a98f4a59336b8fff5",
    "time": "2012-04-13"
  },
  {
    "place": "Office4c19333a98f4a59336b8fff5",
    "time": "2012-04-20"
  },
  {
    "place": "Art Gallery4b537d78f964a520969f27e3",
    "time": "2012-04-21"
  },
  {
    "place": "Bar4c18320a4ff90f4793250e49",
    "time": "2012-04-21"
  },
  {
    "place": "Bar4c1eb2558b3aa59315869c5f",
    "time": "2012-04-21"
  },
  {
    "place": "Design Studio4b4e00a7f964a520badd26e3",
    "time": "2012-04-22"
  },
  {
    "place": "Mexican Restaurant4d02d8b726adb1f76cd2c870",
    "time": "2012-04-28"
  },
  {
    "place": "Sandwich Place49d6c29ef964a520035d1fe3",
    "time": "2012-04-28"
  },
  {
    "place": "Spa / Massage4e592dbf1f6e804280c203ff",
    "time": "2012-04-28"
  },
  {
    "place": "Office4c19333a98f4a59336b8fff5",
    "time": "2012-05-01"
  },
  {
    "place": "Pizza Place4b9709fcf964a520c4f434e3",
    "time": "2012-05-02"
  },
  {
    "place": "Office4c19333a98f4a59336b8fff5",
    "time": "2012-05-04"
  },
  {
    "place": "Salon / Barbershop4e179325b0fb8567c66463fd",
    "time": "2012-05-04"
  },
  {
    "place": "Mexican Restaurant4d02d8b726adb1f76cd2c870",
    "time": "2012-05-05"
  },
  {
    "place": "Bar4dd6b3bd81dcd5bca59a8276",
    "time": "2012-05-05"
  },
  {
    "place": "Hardware Store4a21834ff964a520077d1fe3",
    "time": "2012-05-05"
  },
  {
    "place": "Bookstore43fe1ba4f964a520f82f1fe3",
    "time": "2012-05-05"
  },
  {
    "place": "Flea Market4d9885ae647d8cfa23ccf03d",
    "time": "2012-05-06"
  },
  {
    "place": "Bar4a8e031cf964a520be1120e3",
    "time": "2012-05-06"
  },
  {
    "place": "Spa / Massage4dc702aec65b89d3ca9617fb",
    "time": "2012-05-08"
  },
  {
    "place": "Theater49ff4eecf964a52005701fe3",
    "time": "2012-05-10"
  },
  {
    "place": "American Restaurant4f69f4236d86f87117bb37b3",
    "time": "2012-05-11"
  },
  {
    "place": "Bakery4a294f81f964a5207e951fe3",
    "time": "2012-05-11"
  },
  {
    "place": "Stadium3fd66200f964a520ddf01ee3",
    "time": "2012-05-12"
  },
  {
    "place": "Nail Salon4bedc8de946c0f4727eda263",
    "time": "2012-05-16"
  },
  {
    "place": "Mexican Restaurant4d02d8b726adb1f76cd2c870",
    "time": "2012-05-19"
  },
  {
    "place": "Bar4cf5cb53c020b60c9bd81c75",
    "time": "2012-05-19"
  },
  {
    "place": "Bar4a8e031cf964a520be1120e3",
    "time": "2012-05-19"
  },
  {
    "place": "Theater49ff4eecf964a52005701fe3",
    "time": "2012-05-24"
  },
  {
    "place": "Mexican Restaurant3fd66200f964a52034e81ee3",
    "time": "2012-05-24"
  },
  {
    "place": "Brewery3fd66200f964a5205deb1ee3",
    "time": "2012-05-30"
  },
  {
    "place": "Mexican Restaurant4d02d8b726adb1f76cd2c870",
    "time": "2012-05-30"
  },
  {
    "place": "Home (private)4fb94f24e4b0510baa862f79",
    "time": "2012-06-02"
  },
  {
    "place": "Restaurant4b64e534f964a52020d82ae3",
    "time": "2012-06-03"
  },
  {
    "place": "Spa / Massage4ae30a56f964a520139021e3",
    "time": "2012-06-08"
  },
  {
    "place": "Mexican Restaurant4d02d8b726adb1f76cd2c870",
    "time": "2012-06-09"
  },
  {
    "place": "Bar4cf5cb53c020b60c9bd81c75",
    "time": "2012-06-09"
  },
  {
    "place": "Bar4412d2c3f964a520d8301fe3",
    "time": "2012-06-09"
  },
  {
    "place": "Neighborhood4be43a08bcef2d7f9b3a02e5",
    "time": "2012-06-10"
  },
  {
    "place": "Mexican Restaurant4d02d8b726adb1f76cd2c870",
    "time": "2012-06-10"
  },
  {
    "place": "Office4c1cdcc0b9f876b0a3887c46",
    "time": "2012-06-13"
  },
  {
    "place": "Home (private)4fb94f24e4b0510baa862f79",
    "time": "2012-06-17"
  },
  {
    "place": "Office4c19333a98f4a59336b8fff5",
    "time": "2012-06-26"
  },
  {
    "place": "Mexican Restaurant4d02d8b726adb1f76cd2c870",
    "time": "2012-06-27"
  },
  {
    "place": "Hotel4dece08d636555593e5e75a7",
    "time": "2012-07-11"
  },
  {
    "place": "Mexican Restaurant4d02d8b726adb1f76cd2c870",
    "time": "2012-07-11"
  },
  {
    "place": "Office4c19333a98f4a59336b8fff5",
    "time": "2012-07-12"
  },
  {
    "place": "Bar4fbeb6cbe4b0801de3d3351f",
    "time": "2012-07-15"
  },
  {
    "place": "Pizza Place4a0ecea5f964a520ef751fe3",
    "time": "2012-07-15"
  },
  {
    "place": "Food & Drink Shop4d9690b6942ba093044d578c",
    "time": "2012-07-16"
  },
  {
    "place": "Office4c19333a98f4a59336b8fff5",
    "time": "2012-07-16"
  },
  {
    "place": "Fair4ff76f7ce4b045d12e4939d2",
    "time": "2012-07-17"
  },
  {
    "place": "Beach4e0759868877394591e578e6",
    "time": "2012-07-17"
  },
  {
    "place": "Spa / Massage4ae30a56f964a520139021e3",
    "time": "2012-07-28"
  },
  {
    "place": "Mexican Restaurant4d02d8b726adb1f76cd2c870",
    "time": "2012-07-28"
  },
  {
    "place": "Hotel4fee528de4b0ff692b742ed4",
    "time": "2012-07-28"
  },
  {
    "place": "American Restaurant4f69f4236d86f87117bb37b3",
    "time": "2012-07-28"
  },
  {
    "place": "Park4aaa38e9f964a520a15520e3",
    "time": "2012-07-28"
  },
  {
    "place": "Office4c19333a98f4a59336b8fff5",
    "time": "2012-08-09"
  },
  {
    "place": "Sushi Restaurant4f7de7250cd6833371eac5c2",
    "time": "2012-08-11"
  },
  {
    "place": "Restaurant4e36bb6cb3adaade0530e432",
    "time": "2012-08-18"
  },
  {
    "place": "Spa / Massage4e592dbf1f6e804280c203ff",
    "time": "2012-09-05"
  },
  {
    "place": "Hotel4e760aa5b61c22c638709910",
    "time": "2012-09-06"
  },
  {
    "place": "Hotel4fb48535e4b02faa1c408950",
    "time": "2012-09-06"
  },
  {
    "place": "Caf\u00c3\u00a94f934254e4b0d0d988e6cdb7",
    "time": "2012-09-09"
  },
  {
    "place": "Mexican Restaurant4d02d8b726adb1f76cd2c870",
    "time": "2012-09-09"
  },
  {
    "place": "Mexican Restaurant4d02d8b726adb1f76cd2c870",
    "time": "2012-09-15"
  },
  {
    "place": "Home (private)4fb94f24e4b0510baa862f79",
    "time": "2012-09-15"
  },
  {
    "place": "Pizza Place4b9709fcf964a520c4f434e3",
    "time": "2012-10-12"
  },
  {
    "place": "Office4c19333a98f4a59336b8fff5",
    "time": "2012-10-19"
  },
  {
    "place": "Italian Restaurant46bc56b2f964a520d8491fe3",
    "time": "2012-10-26"
  },
  {
    "place": "Mexican Restaurant4d02d8b726adb1f76cd2c870",
    "time": "2012-10-27"
  },
  {
    "place": "Bar4fa01906e4b0dc03c7171c7a",
    "time": "2012-10-27"
  },
  {
    "place": "Office4c19333a98f4a59336b8fff5",
    "time": "2012-10-27"
  },
  {
    "place": "Bar408c5100f964a520ccf21ee3",
    "time": "2012-11-18"
  },
  {
    "place": "Bar4faf2a31e4b09cca61d58138",
    "time": "2012-11-21"
  },
  {
    "place": "Mexican Restaurant4d02d8b726adb1f76cd2c870",
    "time": "2012-12-01"
  },
  {
    "place": "Italian Restaurant4a08e2fff964a52022741fe3",
    "time": "2012-12-02"
  },
  {
    "place": "Office4c19333a98f4a59336b8fff5",
    "time": "2012-12-02"
  },
  {
    "place": "Bar4cc60b7a82388cfad0727935",
    "time": "2012-12-06"
  },
  {
    "place": "Food & Drink Shop4aaa589bf964a520ba5520e3",
    "time": "2012-12-06"
  },
  {
    "place": "Music Venue3fd66200f964a520dce31ee3",
    "time": "2012-12-08"
  },
  {
    "place": "Mexican Restaurant4d02d8b726adb1f76cd2c870",
    "time": "2012-12-13"
  },
  {
    "place": "Mexican Restaurant4f69f2b76d86f87117bb13ab",
    "time": "2012-12-23"
  },
  {
    "place": "Bar3fd66200f964a52052f11ee3",
    "time": "2012-12-28"
  },
  {
    "place": "Pizza Place4aaec606f964a5203d6320e3",
    "time": "2013-01-07"
  },
  {
    "place": "Vegetarian / Vegan Restaurant467e1d72f964a5200f481fe3",
    "time": "2013-01-11"
  },
  {
    "place": "Beer Garden4da60c5d432dd03d359b8729",
    "time": "2013-01-12"
  },
  {
    "place": "Italian Restaurant4e18c44ee4cd49a7e3ed5a3d",
    "time": "2013-01-25"
  },
  {
    "place": "Art Museum427c0500f964a52097211fe3",
    "time": "2013-01-26"
  },
  {
    "place": "Spa / Massage4e592dbf1f6e804280c203ff",
    "time": "2013-01-26"
  },
  {
    "place": "Italian Restaurant4e18c44ee4cd49a7e3ed5a3d",
    "time": "2013-01-27"
  },
  {
    "place": "Bar4c18fe064ff90f47d1370f49",
    "time": "2013-01-27"
  },
  {
    "place": "French Restaurant4bcf1883c564ef3ba33beff0",
    "time": "2013-01-28"
  },
  {
    "place": "Spa / Massage4ae30a56f964a520139021e3",
    "time": "2013-02-06"
  },
  {
    "place": "Beer Garden4da60c5d432dd03d359b8729",
    "time": "2013-02-07"
  },
  {
    "place": "Airport49c046f1f964a5205b551fe3",
    "time": "2013-02-07"
  }
]