[
  {
    "place": "Home (private)4f5278f1e4b0ee60b905f4ce",
    "time": "2012-04-03"
  },
  {
    "place": "Fast Food Restaurant4bfec352daf9c9b64038f9ef",
    "time": "2012-04-10"
  },
  {
    "place": "Church4bdcde8f2a3a0f470ac9b4b6",
    "time": "2012-04-28"
  },
  {
    "place": "University49eabfeef964a52091661fe3",
    "time": "2012-04-29"
  },
  {
    "place": "College Academic Building4c2132e799282d7fd43965b0",
    "time": "2012-04-29"
  },
  {
    "place": "Student Center4b7aceb9f964a520d03d2fe3",
    "time": "2012-04-29"
  },
  {
    "place": "Home (private)4f4b3acae4b0c132f3c11107",
    "time": "2012-04-29"
  },
  {
    "place": "Caribbean Restaurant4bbfb90eb492d13ad82ea360",
    "time": "2012-04-29"
  },
  {
    "place": "Home (private)4f4b3acae4b0c132f3c11107",
    "time": "2012-05-07"
  },
  {
    "place": "Church4bdcde8f2a3a0f470ac9b4b6",
    "time": "2012-05-12"
  },
  {
    "place": "Ice Cream Shop4c24087ab7b8a59304ea3be8",
    "time": "2012-05-14"
  },
  {
    "place": "Bank4b40b9a7f964a5205dba25e3",
    "time": "2012-05-14"
  },
  {
    "place": "Food & Drink Shop4e593b9de4cd875e8eab707e",
    "time": "2012-05-14"
  },
  {
    "place": "Road4e0dcf4262e1d5a30cfa6cae",
    "time": "2012-05-14"
  },
  {
    "place": "Home (private)4f4b3acae4b0c132f3c11107",
    "time": "2012-05-14"
  },
  {
    "place": "City4e54305d22710ebb5a878664",
    "time": "2012-05-17"
  },
  {
    "place": "Sandwich Place4d5427bbf5daa093f49d6e74",
    "time": "2012-05-17"
  },
  {
    "place": "Park4bb6297046d4a593dcc8c5c0",
    "time": "2012-05-17"
  },
  {
    "place": "Food & Drink Shop4aaadf68f964a520ce5720e3",
    "time": "2012-05-17"
  },
  {
    "place": "Miscellaneous Shop4c65b183b80abe9a4dffcae5",
    "time": "2012-05-18"
  },
  {
    "place": "Church4bdcde8f2a3a0f470ac9b4b6",
    "time": "2012-05-19"
  },
  {
    "place": "Home (private)4f4b3acae4b0c132f3c11107",
    "time": "2012-05-19"
  },
  {
    "place": "Gas Station / Garage4ca5e2cd44a8224b10a7fd3f",
    "time": "2012-05-19"
  },
  {
    "place": "Coffee Shop4ca8967cd971b1f768c915e1",
    "time": "2012-05-19"
  },
  {
    "place": "Medical Center4ebce3850aaf88633b85381d",
    "time": "2012-05-19"
  },
  {
    "place": "Building4c06c2a4b4aa0f47549c6462",
    "time": "2012-05-19"
  },
  {
    "place": "Church4c4ca363e906c9280b90b23a",
    "time": "2012-05-19"
  },
  {
    "place": "Home (private)4f5278f1e4b0ee60b905f4ce",
    "time": "2012-05-19"
  },
  {
    "place": "Other Great Outdoors4db45c94f7b121c29f4a0fd9",
    "time": "2012-05-19"
  },
  {
    "place": "High School4b847fc2f964a520eb3831e3",
    "time": "2012-05-19"
  },
  {
    "place": "Park4bcb60fa0687ef3bbb9bddcc",
    "time": "2012-05-21"
  },
  {
    "place": "Fast Food Restaurant4bfec352daf9c9b64038f9ef",
    "time": "2012-05-23"
  },
  {
    "place": "Other Great Outdoors4db45c94f7b121c29f4a0fd9",
    "time": "2012-05-24"
  },
  {
    "place": "Light Rail4c6ad75a9c76d13a452a4d0f",
    "time": "2012-05-24"
  },
  {
    "place": "Road4dbe0943fa8cee727376ab71",
    "time": "2012-05-24"
  },
  {
    "place": "Miscellaneous Shop4c65b183b80abe9a4dffcae5",
    "time": "2012-05-24"
  },
  {
    "place": "Home (private)4f4b3acae4b0c132f3c11107",
    "time": "2012-05-24"
  },
  {
    "place": "Home (private)4f5278f1e4b0ee60b905f4ce",
    "time": "2012-05-26"
  },
  {
    "place": "Home (private)4f4b3acae4b0c132f3c11107",
    "time": "2012-05-26"
  },
  {
    "place": "Home (private)4f5278f1e4b0ee60b905f4ce",
    "time": "2012-05-27"
  },
  {
    "place": "Road4e0dcf4262e1d5a30cfa6cae",
    "time": "2012-05-27"
  },
  {
    "place": "Neighborhood4f3e757ee4b038a0550cd6df",
    "time": "2012-05-27"
  },
  {
    "place": "Building4ce8b5d975c62c0f28b5e657",
    "time": "2012-05-27"
  },
  {
    "place": "Home (private)4f4b3acae4b0c132f3c11107",
    "time": "2012-05-27"
  },
  {
    "place": "Neighborhood4f3e757ee4b038a0550cd6df",
    "time": "2012-05-27"
  },
  {
    "place": "Fast Food Restaurant4bfec352daf9c9b64038f9ef",
    "time": "2012-05-27"
  },
  {
    "place": "Park4bcb60fa0687ef3bbb9bddcc",
    "time": "2012-05-28"
  },
  {
    "place": "Neighborhood4f3e757ee4b038a0550cd6df",
    "time": "2012-05-28"
  },
  {
    "place": "Building4ce8b5d975c62c0f28b5e657",
    "time": "2012-05-28"
  },
  {
    "place": "Fast Food Restaurant4c82c3ee51ada1cd6fff1f10",
    "time": "2012-05-28"
  },
  {
    "place": "Home (private)4f4b3acae4b0c132f3c11107",
    "time": "2012-05-28"
  },
  {
    "place": "General Travel4b9e63dcf964a52069df36e3",
    "time": "2012-05-28"
  },
  {
    "place": "Drugstore / Pharmacy4bf0560cc8d920a1fcb49430",
    "time": "2012-05-28"
  },
  {
    "place": "Home (private)4fc3c3d0e4b09b4ea9e5843c",
    "time": "2012-05-28"
  },
  {
    "place": "Building4ce8b5d975c62c0f28b5e657",
    "time": "2012-05-28"
  },
  {
    "place": "Neighborhood4f3e757ee4b038a0550cd6df",
    "time": "2012-05-28"
  },
  {
    "place": "Food4db2eb6f4df05e5aaabe9bf7",
    "time": "2012-05-28"
  },
  {
    "place": "Fast Food Restaurant4c82c3ee51ada1cd6fff1f10",
    "time": "2012-05-28"
  },
  {
    "place": "Home (private)4f4b3acae4b0c132f3c11107",
    "time": "2012-05-28"
  },
  {
    "place": "Park4bcb60fa0687ef3bbb9bddcc",
    "time": "2012-05-28"
  },
  {
    "place": "Park4bcb60fa0687ef3bbb9bddcc",
    "time": "2012-05-29"
  },
  {
    "place": "Road4e0dcf4262e1d5a30cfa6cae",
    "time": "2012-05-29"
  },
  {
    "place": "Neighborhood4f3e757ee4b038a0550cd6df",
    "time": "2012-05-29"
  },
  {
    "place": "Building4ce8b5d975c62c0f28b5e657",
    "time": "2012-05-29"
  },
  {
    "place": "Food4db2eb6f4df05e5aaabe9bf7",
    "time": "2012-05-29"
  },
  {
    "place": "Fast Food Restaurant4c82c3ee51ada1cd6fff1f10",
    "time": "2012-05-29"
  },
  {
    "place": "Home (private)4f4b3acae4b0c132f3c11107",
    "time": "2012-05-29"
  },
  {
    "place": "Fast Food Restaurant4c82c3ee51ada1cd6fff1f10",
    "time": "2012-05-29"
  },
  {
    "place": "Building4ce8b5d975c62c0f28b5e657",
    "time": "2012-05-29"
  },
  {
    "place": "Park4bcb60fa0687ef3bbb9bddcc",
    "time": "2012-05-29"
  },
  {
    "place": "Fast Food Restaurant4bfec352daf9c9b64038f9ef",
    "time": "2012-05-29"
  },
  {
    "place": "Fast Food Restaurant4bfec352daf9c9b64038f9ef",
    "time": "2012-05-29"
  },
  {
    "place": "Park4bcb60fa0687ef3bbb9bddcc",
    "time": "2012-05-30"
  },
  {
    "place": "Road4e0dcf4262e1d5a30cfa6cae",
    "time": "2012-05-30"
  },
  {
    "place": "Building4ce8b5d975c62c0f28b5e657",
    "time": "2012-05-30"
  },
  {
    "place": "Neighborhood4f3e757ee4b038a0550cd6df",
    "time": "2012-05-30"
  },
  {
    "place": "Food4db2eb6f4df05e5aaabe9bf7",
    "time": "2012-05-30"
  },
  {
    "place": "Fast Food Restaurant4c82c3ee51ada1cd6fff1f10",
    "time": "2012-05-30"
  },
  {
    "place": "Home (private)4f4b3acae4b0c132f3c11107",
    "time": "2012-05-30"
  },
  {
    "place": "Other Great Outdoors4db45c94f7b121c29f4a0fd9",
    "time": "2012-05-31"
  },
  {
    "place": "Hardware Store4bef137c2ff520a13216e8a2",
    "time": "2012-06-01"
  },
  {
    "place": "Home (private)4f4b3acae4b0c132f3c11107",
    "time": "2012-06-01"
  },
  {
    "place": "College Academic Building4cb44b51eb65b1f7fcc888cd",
    "time": "2012-06-01"
  },
  {
    "place": "Park4bb6297046d4a593dcc8c5c0",
    "time": "2012-06-01"
  },
  {
    "place": "Food4db2eb6f4df05e5aaabe9bf7",
    "time": "2012-06-03"
  },
  {
    "place": "Home (private)4f4b3acae4b0c132f3c11107",
    "time": "2012-06-03"
  },
  {
    "place": "Building4ce8b5d975c62c0f28b5e657",
    "time": "2012-06-03"
  },
  {
    "place": "Other Great Outdoors4db45c94f7b121c29f4a0fd9",
    "time": "2012-06-03"
  },
  {
    "place": "Fast Food Restaurant4bfec352daf9c9b64038f9ef",
    "time": "2012-06-03"
  },
  {
    "place": "Pizza Place4d41f0acaed776ebce9c6997",
    "time": "2012-06-04"
  },
  {
    "place": "Bus Station4bad01f4f964a520d0233be3",
    "time": "2012-06-04"
  },
  {
    "place": "General Travel4b9e63dcf964a52069df36e3",
    "time": "2012-06-04"
  },
  {
    "place": "Food & Drink Shop4aaadf68f964a520ce5720e3",
    "time": "2012-06-04"
  },
  {
    "place": "Food & Drink Shop4bc5e13e41cb76b0f5ef3e6f",
    "time": "2012-06-04"
  },
  {
    "place": "Park4bcb60fa0687ef3bbb9bddcc",
    "time": "2012-06-05"
  },
  {
    "place": "Building4ce8b5d975c62c0f28b5e657",
    "time": "2012-06-05"
  },
  {
    "place": "Neighborhood4f3e757ee4b038a0550cd6df",
    "time": "2012-06-05"
  },
  {
    "place": "Home (private)4f4b3acae4b0c132f3c11107",
    "time": "2012-06-05"
  },
  {
    "place": "Road4dbe0943fa8cee727376ab71",
    "time": "2012-06-06"
  },
  {
    "place": "Park4bcb60fa0687ef3bbb9bddcc",
    "time": "2012-06-06"
  },
  {
    "place": "Cemetery4e91bf4561afcfde2a59a226",
    "time": "2012-06-06"
  },
  {
    "place": "Light Rail4b672e79f964a520dc3f2be3",
    "time": "2012-06-07"
  },
  {
    "place": "Other Great Outdoors4db45c94f7b121c29f4a0fd9",
    "time": "2012-06-07"
  },
  {
    "place": "Road4dbe0943fa8cee727376ab71",
    "time": "2012-06-07"
  },
  {
    "place": "Park4bcb60fa0687ef3bbb9bddcc",
    "time": "2012-06-07"
  },
  {
    "place": "Gas Station / Garage4f0b0504e4b071c578187755",
    "time": "2012-06-07"
  },
  {
    "place": "College Academic Building4cb44b51eb65b1f7fcc888cd",
    "time": "2012-06-07"
  },
  {
    "place": "Building4ce8b5d975c62c0f28b5e657",
    "time": "2012-06-07"
  },
  {
    "place": "Food4db2eb6f4df05e5aaabe9bf7",
    "time": "2012-06-07"
  },
  {
    "place": "Fast Food Restaurant4c82c3ee51ada1cd6fff1f10",
    "time": "2012-06-07"
  },
  {
    "place": "Home (private)4f4b3acae4b0c132f3c11107",
    "time": "2012-06-07"
  },
  {
    "place": "Fast Food Restaurant4bbe09528ec3d13a14ce1c28",
    "time": "2012-06-07"
  },
  {
    "place": "City4c6133c1832fa593f36bf1d3",
    "time": "2012-06-08"
  },
  {
    "place": "Neighborhood4db45c94f7b121c29f4a0fd9",
    "time": "2012-06-08"
  },
  {
    "place": "Home (private)4f4b3acae4b0c132f3c11107",
    "time": "2012-06-08"
  },
  {
    "place": "Church4bdcde8f2a3a0f470ac9b4b6",
    "time": "2012-06-09"
  },
  {
    "place": "Home (private)4f4b3acae4b0c132f3c11107",
    "time": "2012-06-11"
  },
  {
    "place": "Park4bcb60fa0687ef3bbb9bddcc",
    "time": "2012-06-12"
  },
  {
    "place": "Park4ddd68ae45dd033c3918001b",
    "time": "2012-06-12"
  },
  {
    "place": "Building4ce8b5d975c62c0f28b5e657",
    "time": "2012-06-12"
  },
  {
    "place": "Neighborhood4f3e757ee4b038a0550cd6df",
    "time": "2012-06-12"
  },
  {
    "place": "Home (private)4f4b3acae4b0c132f3c11107",
    "time": "2012-06-12"
  },
  {
    "place": "Building4ce8b5d975c62c0f28b5e657",
    "time": "2012-06-12"
  },
  {
    "place": "Neighborhood4f3e757ee4b038a0550cd6df",
    "time": "2012-06-12"
  },
  {
    "place": "Park4ddd68ae45dd033c3918001b",
    "time": "2012-06-12"
  },
  {
    "place": "Neighborhood4db45c94f7b121c29f4a0fd9",
    "time": "2012-06-12"
  },
  {
    "place": "Fast Food Restaurant4bfec352daf9c9b64038f9ef",
    "time": "2012-06-12"
  },
  {
    "place": "Home (private)4f5278f1e4b0ee60b905f4ce",
    "time": "2012-06-16"
  },
  {
    "place": "Church4bdcde8f2a3a0f470ac9b4b6",
    "time": "2012-06-17"
  },
  {
    "place": "Miscellaneous Shop4c65b183b80abe9a4dffcae5",
    "time": "2012-06-17"
  },
  {
    "place": "College Academic Building4cb0a62a562d224bd8471888",
    "time": "2012-06-17"
  },
  {
    "place": "High School4cab156576d3a09341c1286b",
    "time": "2012-06-17"
  },
  {
    "place": "Bus Station4bad01f4f964a520d0233be3",
    "time": "2012-06-17"
  },
  {
    "place": "General Travel4b9e63dcf964a52069df36e3",
    "time": "2012-06-17"
  },
  {
    "place": "Home (private)4f4b3acae4b0c132f3c11107",
    "time": "2012-06-17"
  },
  {
    "place": "General Travel4b9e63dcf964a52069df36e3",
    "time": "2012-06-27"
  },
  {
    "place": "City4c6133c1832fa593f36bf1d3",
    "time": "2012-06-27"
  },
  {
    "place": "High School4bdcb4f9c79cc928d4c287e9",
    "time": "2012-06-27"
  },
  {
    "place": "City4e55a736a809cbf4e4720053",
    "time": "2012-06-27"
  },
  {
    "place": "General Travel4b9e63dcf964a52069df36e3",
    "time": "2012-06-27"
  },
  {
    "place": "Building4ce8b5d975c62c0f28b5e657",
    "time": "2012-06-27"
  },
  {
    "place": "Miscellaneous Shop4c65b183b80abe9a4dffcae5",
    "time": "2012-06-27"
  },
  {
    "place": "Bus Station4bad01f4f964a520d0233be3",
    "time": "2012-06-27"
  },
  {
    "place": "Home (private)4f4b3acae4b0c132f3c11107",
    "time": "2012-06-27"
  },
  {
    "place": "Home (private)4f4b3acae4b0c132f3c11107",
    "time": "2012-07-11"
  },
  {
    "place": "Medical Center4c8beb99c37a6dcb4077f27a",
    "time": "2012-07-11"
  },
  {
    "place": "Bus Station4e9f1365823139c86b867d2a",
    "time": "2012-07-11"
  },
  {
    "place": "Clothing Store4ad8f130f964a5203a1621e3",
    "time": "2012-07-11"
  },
  {
    "place": "Home (private)4f4b3acae4b0c132f3c11107",
    "time": "2012-07-13"
  },
  {
    "place": "Home (private)4f5278f1e4b0ee60b905f4ce",
    "time": "2012-09-09"
  },
  {
    "place": "Drugstore / Pharmacy4bf0560cc8d920a1fcb49430",
    "time": "2012-09-09"
  },
  {
    "place": "Bank4dd13e1422718eed7a7b4803",
    "time": "2012-09-09"
  },
  {
    "place": "Stadium49f754c1f964a520896c1fe3",
    "time": "2012-09-09"
  },
  {
    "place": "American Restaurant4e4c707abd413c4cc6696637",
    "time": "2012-10-18"
  },
  {
    "place": "Home (private)4f4b3acae4b0c132f3c11107",
    "time": "2012-10-19"
  },
  {
    "place": "Fast Food Restaurant4bfec352daf9c9b64038f9ef",
    "time": "2012-10-23"
  },
  {
    "place": "Home (private)4f5278f1e4b0ee60b905f4ce",
    "time": "2012-10-23"
  },
  {
    "place": "School4c7bdf64794e224b948b6c28",
    "time": "2012-10-23"
  },
  {
    "place": "Fast Food Restaurant4bfec352daf9c9b64038f9ef",
    "time": "2012-10-23"
  },
  {
    "place": "School4c7bdf64794e224b948b6c28",
    "time": "2012-10-25"
  },
  {
    "place": "Residential Building (Apartment / Condo)50899e4be4b0499bc56e39cc",
    "time": "2012-10-25"
  },
  {
    "place": "Home (private)4f5278f1e4b0ee60b905f4ce",
    "time": "2012-10-25"
  },
  {
    "place": "Fast Food Restaurant4bfec352daf9c9b64038f9ef",
    "time": "2012-10-25"
  },
  {
    "place": "Building4ce8b5d975c62c0f28b5e657",
    "time": "2012-10-26"
  },
  {
    "place": "Home (private)4f4b3acae4b0c132f3c11107",
    "time": "2012-10-26"
  },
  {
    "place": "Home (private)508a6f9ce4b0306b56e768ea",
    "time": "2012-10-26"
  },
  {
    "place": "Building4ce8b5d975c62c0f28b5e657",
    "time": "2012-10-26"
  },
  {
    "place": "Home (private)4f4b3acae4b0c132f3c11107",
    "time": "2012-10-26"
  },
  {
    "place": "Deli / Bodega4bc1315ef8219c748014b310",
    "time": "2012-10-26"
  },
  {
    "place": "Bank4c6f04edb5a5236ad4f24b52",
    "time": "2012-10-26"
  },
  {
    "place": "City4e54305d22710ebb5a878664",
    "time": "2012-10-26"
  },
  {
    "place": "Road4b6d7534f964a52093752ce3",
    "time": "2012-10-26"
  },
  {
    "place": "City4e55a736a809cbf4e4720053",
    "time": "2012-10-26"
  },
  {
    "place": "Food & Drink Shop4aaadf68f964a520ce5720e3",
    "time": "2012-10-26"
  },
  {
    "place": "Home (private)4d8bafb137c6a143cabfaf0c",
    "time": "2012-10-26"
  },
  {
    "place": "Road4b6d7534f964a52093752ce3",
    "time": "2012-10-26"
  },
  {
    "place": "General Travel4b9e63dcf964a52069df36e3",
    "time": "2012-10-26"
  },
  {
    "place": "Home (private)508a6f9ce4b0306b56e768ea",
    "time": "2012-10-26"
  },
  {
    "place": "General Travel4f2e9a09e4b006ef9a4cb41e",
    "time": "2012-10-27"
  },
  {
    "place": "Church4bdcde8f2a3a0f470ac9b4b6",
    "time": "2012-10-27"
  },
  {
    "place": "Home (private)4f5278f1e4b0ee60b905f4ce",
    "time": "2012-10-27"
  },
  {
    "place": "Sandwich Place4d5427bbf5daa093f49d6e74",
    "time": "2012-10-27"
  },
  {
    "place": "Fast Food Restaurant4bfec352daf9c9b64038f9ef",
    "time": "2012-10-27"
  },
  {
    "place": "Home (private)508a6f9ce4b0306b56e768ea",
    "time": "2012-10-28"
  },
  {
    "place": "Miscellaneous Shop4c65b183b80abe9a4dffcae5",
    "time": "2012-10-30"
  },
  {
    "place": "Neighborhood4fb3de02e4b02e02f44c7a10",
    "time": "2012-10-30"
  },
  {
    "place": "Road4dbe0943fa8cee727376ab71",
    "time": "2012-10-30"
  },
  {
    "place": "Home (private)4f5278f1e4b0ee60b905f4ce",
    "time": "2012-10-30"
  },
  {
    "place": "Home (private)4f4b3acae4b0c132f3c11107",
    "time": "2012-10-31"
  },
  {
    "place": "Home (private)4f4b3acae4b0c132f3c11107",
    "time": "2012-11-01"
  },
  {
    "place": "Medical Center4ebce3850aaf88633b85381d",
    "time": "2012-11-01"
  },
  {
    "place": "City4e54305d22710ebb5a878664",
    "time": "2012-11-01"
  },
  {
    "place": "Bank4c6f04edb5a5236ad4f24b52",
    "time": "2012-11-01"
  },
  {
    "place": "Food & Drink Shop4bc9e2df3740b71325735f65",
    "time": "2012-11-01"
  },
  {
    "place": "Home (private)508a6f9ce4b0306b56e768ea",
    "time": "2012-11-01"
  },
  {
    "place": "Neighborhood4eda9503be7be28337f8ec25",
    "time": "2012-11-01"
  },
  {
    "place": "Miscellaneous Shop4c65b183b80abe9a4dffcae5",
    "time": "2012-11-01"
  },
  {
    "place": "Home (private)4f4b3acae4b0c132f3c11107",
    "time": "2012-11-01"
  },
  {
    "place": "Residential Building (Apartment / Condo)50899e4be4b0499bc56e39cc",
    "time": "2012-11-01"
  },
  {
    "place": "Home (private)4f5278f1e4b0ee60b905f4ce",
    "time": "2012-11-01"
  },
  {
    "place": "Fast Food Restaurant4bfec352daf9c9b64038f9ef",
    "time": "2012-11-02"
  },
  {
    "place": "Home (private)4f4b3acae4b0c132f3c11107",
    "time": "2012-11-02"
  },
  {
    "place": "Park4bcb60fa0687ef3bbb9bddcc",
    "time": "2012-11-06"
  },
  {
    "place": "Park4ddd68ae45dd033c3918001b",
    "time": "2012-11-06"
  },
  {
    "place": "Neighborhood4f3e757ee4b038a0550cd6df",
    "time": "2012-11-06"
  },
  {
    "place": "Home (private)4f4b3acae4b0c132f3c11107",
    "time": "2012-11-06"
  },
  {
    "place": "College Academic Building4cb44b51eb65b1f7fcc888cd",
    "time": "2012-11-06"
  },
  {
    "place": "City4e54305d22710ebb5a878664",
    "time": "2012-11-06"
  },
  {
    "place": "Gas Station / Garage4da70e8c8154fe28a8ddfdbf",
    "time": "2012-11-06"
  },
  {
    "place": "Nursery School4f550d5ae4b040bb62d7b8b7",
    "time": "2012-11-06"
  },
  {
    "place": "Drugstore / Pharmacy4bf0560cc8d920a1fcb49430",
    "time": "2012-11-06"
  },
  {
    "place": "College Academic Building4cb44b51eb65b1f7fcc888cd",
    "time": "2012-11-06"
  },
  {
    "place": "Park4ddd68ae45dd033c3918001b",
    "time": "2012-11-06"
  },
  {
    "place": "Fast Food Restaurant4bfec352daf9c9b64038f9ef",
    "time": "2012-11-06"
  },
  {
    "place": "Cemetery4e91bf4561afcfde2a59a226",
    "time": "2012-11-07"
  },
  {
    "place": "Park4ddd68ae45dd033c3918001b",
    "time": "2012-11-07"
  },
  {
    "place": "Park4bcb60fa0687ef3bbb9bddcc",
    "time": "2012-11-07"
  },
  {
    "place": "Building4ce8b5d975c62c0f28b5e657",
    "time": "2012-11-07"
  },
  {
    "place": "Home (private)4f4b3acae4b0c132f3c11107",
    "time": "2012-11-07"
  },
  {
    "place": "Bank4c6f04edb5a5236ad4f24b52",
    "time": "2012-11-27"
  },
  {
    "place": "Neighborhood4eda9503be7be28337f8ec25",
    "time": "2012-11-27"
  },
  {
    "place": "Drugstore / Pharmacy4bc0b9b3461576b0309f7a32",
    "time": "2012-11-27"
  },
  {
    "place": "Zoo4e9c94a802d5df1b511486af",
    "time": "2012-11-27"
  },
  {
    "place": "Park4ddd68ae45dd033c3918001b",
    "time": "2012-11-27"
  },
  {
    "place": "Cemetery4e91bf4561afcfde2a59a226",
    "time": "2012-11-27"
  },
  {
    "place": "College Academic Building4cb44b51eb65b1f7fcc888cd",
    "time": "2012-11-28"
  },
  {
    "place": "Fast Food Restaurant4bfec352daf9c9b64038f9ef",
    "time": "2012-11-28"
  },
  {
    "place": "Miscellaneous Shop4c65b183b80abe9a4dffcae5",
    "time": "2012-12-01"
  },
  {
    "place": "Home (private)508a6f9ce4b0306b56e768ea",
    "time": "2012-12-01"
  },
  {
    "place": "Fast Food Restaurant4bfec352daf9c9b64038f9ef",
    "time": "2012-12-01"
  },
  {
    "place": "Park4ddd68ae45dd033c3918001b",
    "time": "2012-12-01"
  },
  {
    "place": "Zoo4e9c94a802d5df1b511486af",
    "time": "2012-12-01"
  },
  {
    "place": "Neighborhood4fd10677e4b07143729df17f",
    "time": "2012-12-01"
  },
  {
    "place": "Government Building4c6ecba7a437224bcaf530b1",
    "time": "2012-12-01"
  },
  {
    "place": "Road5095a5b5498e4ddf686a5a15",
    "time": "2012-12-01"
  },
  {
    "place": "General Travel4f2e9a09e4b006ef9a4cb41e",
    "time": "2012-12-01"
  },
  {
    "place": "Church4bdcde8f2a3a0f470ac9b4b6",
    "time": "2012-12-01"
  },
  {
    "place": "City4e54305d22710ebb5a878664",
    "time": "2012-12-01"
  },
  {
    "place": "Drugstore / Pharmacy4bf0560cc8d920a1fcb49430",
    "time": "2012-12-01"
  },
  {
    "place": "Church4bdcde8f2a3a0f470ac9b4b6",
    "time": "2012-12-01"
  },
  {
    "place": "Zoo4e9c94a802d5df1b511486af",
    "time": "2012-12-02"
  },
  {
    "place": "Home (private)4f4b3acae4b0c132f3c11107",
    "time": "2012-12-02"
  },
  {
    "place": "Food4db2eb6f4df05e5aaabe9bf7",
    "time": "2012-12-03"
  },
  {
    "place": "Park4bcb60fa0687ef3bbb9bddcc",
    "time": "2012-12-03"
  },
  {
    "place": "Road5095a5b5498e4ddf686a5a15",
    "time": "2012-12-03"
  },
  {
    "place": "Fast Food Restaurant4bfec352daf9c9b64038f9ef",
    "time": "2012-12-03"
  },
  {
    "place": "Food & Drink Shop4e7b7700d22dd95e8cfed039",
    "time": "2012-12-03"
  },
  {
    "place": "Road5095a5b5498e4ddf686a5a15",
    "time": "2012-12-03"
  },
  {
    "place": "Cemetery4e91bf4561afcfde2a59a226",
    "time": "2012-12-03"
  },
  {
    "place": "Park4ddd68ae45dd033c3918001b",
    "time": "2012-12-03"
  },
  {
    "place": "Park4bcb60fa0687ef3bbb9bddcc",
    "time": "2012-12-03"
  },
  {
    "place": "Neighborhood4fb3de02e4b02e02f44c7a10",
    "time": "2012-12-03"
  },
  {
    "place": "Road4ef0f444f790ec1293ec9572",
    "time": "2012-12-03"
  },
  {
    "place": "Neighborhood4f3e757ee4b038a0550cd6df",
    "time": "2012-12-03"
  },
  {
    "place": "Building4ce8b5d975c62c0f28b5e657",
    "time": "2012-12-03"
  },
  {
    "place": "Home (private)4f4b3acae4b0c132f3c11107",
    "time": "2012-12-03"
  },
  {
    "place": "Park4ddd68ae45dd033c3918001b",
    "time": "2012-12-03"
  },
  {
    "place": "Zoo4e9c94a802d5df1b511486af",
    "time": "2012-12-03"
  },
  {
    "place": "Home (private)4f5278f1e4b0ee60b905f4ce",
    "time": "2012-12-03"
  },
  {
    "place": "Park4ebac17a722e20541dd054be",
    "time": "2012-12-03"
  },
  {
    "place": "Neighborhood4eda9503be7be28337f8ec25",
    "time": "2012-12-04"
  },
  {
    "place": "Park4ddd68ae45dd033c3918001b",
    "time": "2012-12-04"
  },
  {
    "place": "Cemetery4e91bf4561afcfde2a59a226",
    "time": "2012-12-04"
  },
  {
    "place": "Road5095a5b5498e4ddf686a5a15",
    "time": "2012-12-04"
  },
  {
    "place": "Road5095a5b5498e4ddf686a5a15",
    "time": "2012-12-04"
  },
  {
    "place": "Cemetery4e91bf4561afcfde2a59a226",
    "time": "2012-12-04"
  },
  {
    "place": "Park4ddd68ae45dd033c3918001b",
    "time": "2012-12-04"
  },
  {
    "place": "Park4bcb60fa0687ef3bbb9bddcc",
    "time": "2012-12-04"
  },
  {
    "place": "Neighborhood4fb3de02e4b02e02f44c7a10",
    "time": "2012-12-04"
  },
  {
    "place": "Road4ef0f444f790ec1293ec9572",
    "time": "2012-12-04"
  },
  {
    "place": "Neighborhood4f3e757ee4b038a0550cd6df",
    "time": "2012-12-04"
  },
  {
    "place": "Building4ce8b5d975c62c0f28b5e657",
    "time": "2012-12-04"
  },
  {
    "place": "Road4e658473d22d509a3af0046f",
    "time": "2012-12-04"
  },
  {
    "place": "Fast Food Restaurant4c82c3ee51ada1cd6fff1f10",
    "time": "2012-12-04"
  },
  {
    "place": "Home (private)4f4b3acae4b0c132f3c11107",
    "time": "2012-12-04"
  },
  {
    "place": "Road4e658473d22d509a3af0046f",
    "time": "2012-12-04"
  },
  {
    "place": "Neighborhood4fb3de02e4b02e02f44c7a10",
    "time": "2012-12-04"
  },
  {
    "place": "Park4bcb60fa0687ef3bbb9bddcc",
    "time": "2012-12-04"
  },
  {
    "place": "Road5095a5b5498e4ddf686a5a15",
    "time": "2012-12-04"
  },
  {
    "place": "Road5095a5b5498e4ddf686a5a15",
    "time": "2012-12-05"
  },
  {
    "place": "Cemetery4e91bf4561afcfde2a59a226",
    "time": "2012-12-05"
  },
  {
    "place": "Park4ddd68ae45dd033c3918001b",
    "time": "2012-12-05"
  },
  {
    "place": "Park4bcb60fa0687ef3bbb9bddcc",
    "time": "2012-12-05"
  },
  {
    "place": "Neighborhood4fb3de02e4b02e02f44c7a10",
    "time": "2012-12-05"
  },
  {
    "place": "Road4ef0f444f790ec1293ec9572",
    "time": "2012-12-05"
  },
  {
    "place": "Neighborhood4f3e757ee4b038a0550cd6df",
    "time": "2012-12-05"
  },
  {
    "place": "Building4ce8b5d975c62c0f28b5e657",
    "time": "2012-12-05"
  },
  {
    "place": "Road4e658473d22d509a3af0046f",
    "time": "2012-12-05"
  },
  {
    "place": "Home (private)4f4b3acae4b0c132f3c11107",
    "time": "2012-12-05"
  },
  {
    "place": "Road4e658473d22d509a3af0046f",
    "time": "2012-12-05"
  },
  {
    "place": "Bank4c6f04edb5a5236ad4f24b52",
    "time": "2012-12-05"
  },
  {
    "place": "Road4e658473d22d509a3af0046f",
    "time": "2012-12-05"
  },
  {
    "place": "College Academic Building4cb44b51eb65b1f7fcc888cd",
    "time": "2012-12-05"
  },
  {
    "place": "Neighborhood4fb3de02e4b02e02f44c7a10",
    "time": "2012-12-05"
  },
  {
    "place": "Zoo4e9c94a802d5df1b511486af",
    "time": "2012-12-05"
  },
  {
    "place": "Park4ebac17a722e20541dd054be",
    "time": "2012-12-05"
  },
  {
    "place": "Drugstore / Pharmacy4bf0560cc8d920a1fcb49430",
    "time": "2012-12-05"
  },
  {
    "place": "Zoo4e9c94a802d5df1b511486af",
    "time": "2012-12-05"
  },
  {
    "place": "Fast Food Restaurant4bfec352daf9c9b64038f9ef",
    "time": "2012-12-06"
  },
  {
    "place": "Road5095a5b5498e4ddf686a5a15",
    "time": "2012-12-06"
  },
  {
    "place": "Park4bcb60fa0687ef3bbb9bddcc",
    "time": "2012-12-06"
  },
  {
    "place": "Park4bcb60fa0687ef3bbb9bddcc",
    "time": "2012-12-06"
  },
  {
    "place": "Neighborhood4fb3de02e4b02e02f44c7a10",
    "time": "2012-12-06"
  },
  {
    "place": "Road4ef0f444f790ec1293ec9572",
    "time": "2012-12-06"
  },
  {
    "place": "Building4ce8b5d975c62c0f28b5e657",
    "time": "2012-12-06"
  },
  {
    "place": "Gas Station / Garage4df80518fa76e4d6e2155b84",
    "time": "2012-12-06"
  },
  {
    "place": "Road4e658473d22d509a3af0046f",
    "time": "2012-12-06"
  },
  {
    "place": "Home (private)4f4b3acae4b0c132f3c11107",
    "time": "2012-12-06"
  },
  {
    "place": "Cemetery4e91bf4561afcfde2a59a226",
    "time": "2012-12-07"
  },
  {
    "place": "Park4bcb60fa0687ef3bbb9bddcc",
    "time": "2012-12-07"
  },
  {
    "place": "Park4bcb60fa0687ef3bbb9bddcc",
    "time": "2012-12-07"
  },
  {
    "place": "Fast Food Restaurant4bfec352daf9c9b64038f9ef",
    "time": "2012-12-07"
  },
  {
    "place": "Road5095a5b5498e4ddf686a5a15",
    "time": "2012-12-07"
  },
  {
    "place": "Park4bcb60fa0687ef3bbb9bddcc",
    "time": "2012-12-07"
  },
  {
    "place": "Park4bcb60fa0687ef3bbb9bddcc",
    "time": "2012-12-07"
  },
  {
    "place": "Neighborhood4fb3de02e4b02e02f44c7a10",
    "time": "2012-12-07"
  },
  {
    "place": "Road4ef0f444f790ec1293ec9572",
    "time": "2012-12-07"
  },
  {
    "place": "Neighborhood4f3e757ee4b038a0550cd6df",
    "time": "2012-12-07"
  },
  {
    "place": "Road4e658473d22d509a3af0046f",
    "time": "2012-12-07"
  },
  {
    "place": "Road4f78c7ace4b06ff8377c1e35",
    "time": "2012-12-07"
  },
  {
    "place": "College Academic Building4cb44b51eb65b1f7fcc888cd",
    "time": "2012-12-07"
  },
  {
    "place": "Park4bcb60fa0687ef3bbb9bddcc",
    "time": "2012-12-07"
  },
  {
    "place": "Road4ef0f444f790ec1293ec9572",
    "time": "2012-12-08"
  },
  {
    "place": "Building4ce8b5d975c62c0f28b5e657",
    "time": "2012-12-08"
  },
  {
    "place": "Road4e658473d22d509a3af0046f",
    "time": "2012-12-08"
  },
  {
    "place": "Home (private)4f4b3acae4b0c132f3c11107",
    "time": "2012-12-08"
  },
  {
    "place": "General Travel4f2e9a09e4b006ef9a4cb41e",
    "time": "2012-12-08"
  },
  {
    "place": "Park4ebac17a722e20541dd054be",
    "time": "2012-12-08"
  },
  {
    "place": "Medical Center4c0161e7b0702d7fbb276378",
    "time": "2012-12-08"
  },
  {
    "place": "Home (private)4f5278f1e4b0ee60b905f4ce",
    "time": "2012-12-08"
  },
  {
    "place": "Neighborhood4eda9503be7be28337f8ec25",
    "time": "2012-12-09"
  },
  {
    "place": "Neighborhood4eda9503be7be28337f8ec25",
    "time": "2012-12-09"
  },
  {
    "place": "Road4e658473d22d509a3af0046f",
    "time": "2012-12-09"
  },
  {
    "place": "Home (private)4f4b3acae4b0c132f3c11107",
    "time": "2012-12-09"
  },
  {
    "place": "Road4f78c7ace4b06ff8377c1e35",
    "time": "2012-12-09"
  },
  {
    "place": "Train Station49f76cc2f964a5209d6c1fe3",
    "time": "2012-12-09"
  },
  {
    "place": "Home (private)4f4b3acae4b0c132f3c11107",
    "time": "2012-12-10"
  },
  {
    "place": "College Academic Building4cb44b51eb65b1f7fcc888cd",
    "time": "2012-12-10"
  },
  {
    "place": "Neighborhood4fb3de02e4b02e02f44c7a10",
    "time": "2012-12-10"
  },
  {
    "place": "Cemetery4e91bf4561afcfde2a59a226",
    "time": "2012-12-10"
  },
  {
    "place": "Park4dbe0e910cb691071cc89c28",
    "time": "2012-12-10"
  },
  {
    "place": "Road5095a5b5498e4ddf686a5a15",
    "time": "2012-12-10"
  },
  {
    "place": "Park4bcb60fa0687ef3bbb9bddcc",
    "time": "2012-12-10"
  },
  {
    "place": "Park4bcb60fa0687ef3bbb9bddcc",
    "time": "2012-12-10"
  },
  {
    "place": "Neighborhood4fb3de02e4b02e02f44c7a10",
    "time": "2012-12-10"
  },
  {
    "place": "Road4e658473d22d509a3af0046f",
    "time": "2012-12-10"
  },
  {
    "place": "College Academic Building4cb44b51eb65b1f7fcc888cd",
    "time": "2012-12-10"
  },
  {
    "place": "Park4bcb60fa0687ef3bbb9bddcc",
    "time": "2012-12-10"
  },
  {
    "place": "Park4bcb60fa0687ef3bbb9bddcc",
    "time": "2012-12-10"
  },
  {
    "place": "Zoo4e9c94a802d5df1b511486af",
    "time": "2012-12-10"
  },
  {
    "place": "Medical Center4c0161e7b0702d7fbb276378",
    "time": "2012-12-10"
  },
  {
    "place": "Drugstore / Pharmacy4bf0560cc8d920a1fcb49430",
    "time": "2012-12-10"
  },
  {
    "place": "Fast Food Restaurant4bfec352daf9c9b64038f9ef",
    "time": "2012-12-11"
  },
  {
    "place": "Road5095a5b5498e4ddf686a5a15",
    "time": "2012-12-11"
  },
  {
    "place": "Cemetery4e91bf4561afcfde2a59a226",
    "time": "2012-12-11"
  },
  {
    "place": "Park4bcb60fa0687ef3bbb9bddcc",
    "time": "2012-12-11"
  },
  {
    "place": "Park4bcb60fa0687ef3bbb9bddcc",
    "time": "2012-12-11"
  },
  {
    "place": "Neighborhood4fb3de02e4b02e02f44c7a10",
    "time": "2012-12-11"
  },
  {
    "place": "Neighborhood4f3e757ee4b038a0550cd6df",
    "time": "2012-12-11"
  },
  {
    "place": "Building4ce8b5d975c62c0f28b5e657",
    "time": "2012-12-11"
  },
  {
    "place": "Road4e658473d22d509a3af0046f",
    "time": "2012-12-11"
  },
  {
    "place": "Home (private)4f4b3acae4b0c132f3c11107",
    "time": "2012-12-11"
  },
  {
    "place": "College Academic Building4cb44b51eb65b1f7fcc888cd",
    "time": "2012-12-11"
  },
  {
    "place": "Neighborhood4fb3de02e4b02e02f44c7a10",
    "time": "2012-12-11"
  },
  {
    "place": "Park4bcb60fa0687ef3bbb9bddcc",
    "time": "2012-12-11"
  },
  {
    "place": "Park4dbe0e910cb691071cc89c28",
    "time": "2012-12-11"
  },
  {
    "place": "Fast Food Restaurant4bfec352daf9c9b64038f9ef",
    "time": "2012-12-11"
  },
  {
    "place": "College Academic Building4cb44b51eb65b1f7fcc888cd",
    "time": "2012-12-13"
  },
  {
    "place": "Cemetery4e91bf4561afcfde2a59a226",
    "time": "2012-12-13"
  },
  {
    "place": "Road5095a5b5498e4ddf686a5a15",
    "time": "2012-12-13"
  },
  {
    "place": "Park4dbe0e910cb691071cc89c28",
    "time": "2012-12-13"
  },
  {
    "place": "Road5095a5b5498e4ddf686a5a15",
    "time": "2012-12-13"
  },
  {
    "place": "Cemetery4e91bf4561afcfde2a59a226",
    "time": "2012-12-13"
  },
  {
    "place": "Park4bcb60fa0687ef3bbb9bddcc",
    "time": "2012-12-13"
  },
  {
    "place": "Park4bcb60fa0687ef3bbb9bddcc",
    "time": "2012-12-13"
  },
  {
    "place": "Neighborhood4fb3de02e4b02e02f44c7a10",
    "time": "2012-12-13"
  },
  {
    "place": "Road4ef0f444f790ec1293ec9572",
    "time": "2012-12-13"
  },
  {
    "place": "Building4ce8b5d975c62c0f28b5e657",
    "time": "2012-12-13"
  },
  {
    "place": "Road4e658473d22d509a3af0046f",
    "time": "2012-12-13"
  },
  {
    "place": "Home (private)4f4b3acae4b0c132f3c11107",
    "time": "2012-12-13"
  },
  {
    "place": "Cemetery4e91bf4561afcfde2a59a226",
    "time": "2012-12-15"
  },
  {
    "place": "Park4bcb60fa0687ef3bbb9bddcc",
    "time": "2012-12-15"
  },
  {
    "place": "Road5095a5b5498e4ddf686a5a15",
    "time": "2012-12-15"
  },
  {
    "place": "Fast Food Restaurant4bcba29ccc8cd13affdabfcf",
    "time": "2012-12-15"
  },
  {
    "place": "Other Great Outdoors4bdb79f32a3a0f476156afb6",
    "time": "2012-12-15"
  },
  {
    "place": "Home (private)508a6f9ce4b0306b56e768ea",
    "time": "2012-12-15"
  },
  {
    "place": "College Academic Building4cb44b51eb65b1f7fcc888cd",
    "time": "2012-12-16"
  },
  {
    "place": "Cemetery4e91bf4561afcfde2a59a226",
    "time": "2012-12-16"
  },
  {
    "place": "Park4bcb60fa0687ef3bbb9bddcc",
    "time": "2012-12-16"
  },
  {
    "place": "Park4dbe0e910cb691071cc89c28",
    "time": "2012-12-16"
  },
  {
    "place": "Other Great Outdoors4bdb79f32a3a0f476156afb6",
    "time": "2012-12-17"
  },
  {
    "place": "Drugstore / Pharmacy4c5898deec2520a1830f4d12",
    "time": "2012-12-17"
  },
  {
    "place": "Road4e3ab795b3ade614e127586f",
    "time": "2012-12-17"
  },
  {
    "place": "Zoo4e9c94a802d5df1b511486af",
    "time": "2012-12-17"
  },
  {
    "place": "Road4ef0f444f790ec1293ec9572",
    "time": "2012-12-17"
  },
  {
    "place": "Cemetery4da35fffd686b60c6384cb28",
    "time": "2012-12-17"
  },
  {
    "place": "Road4ef0f444f790ec1293ec9572",
    "time": "2012-12-17"
  },
  {
    "place": "Fast Food Restaurant4bfec352daf9c9b64038f9ef",
    "time": "2012-12-17"
  },
  {
    "place": "Park4bcb60fa0687ef3bbb9bddcc",
    "time": "2012-12-18"
  },
  {
    "place": "Park4bcb60fa0687ef3bbb9bddcc",
    "time": "2012-12-18"
  },
  {
    "place": "Road5095a5b5498e4ddf686a5a15",
    "time": "2012-12-18"
  },
  {
    "place": "Athletic & Sport4ff049c7e4b0ccc775bf5b2b",
    "time": "2012-12-18"
  },
  {
    "place": "Road5095a5b5498e4ddf686a5a15",
    "time": "2012-12-19"
  },
  {
    "place": "Neighborhood4eda9503be7be28337f8ec25",
    "time": "2012-12-19"
  },
  {
    "place": "Road50ce6f00e4b05a8a259cfd73",
    "time": "2012-12-19"
  },
  {
    "place": "Fast Food Restaurant4bfec510e584c9286f356d25",
    "time": "2012-12-19"
  },
  {
    "place": "Cemetery4da35fffd686b60c6384cb28",
    "time": "2012-12-19"
  },
  {
    "place": "Cemetery4e91bf4561afcfde2a59a226",
    "time": "2012-12-19"
  },
  {
    "place": "Athletic & Sport4ff049c7e4b0ccc775bf5b2b",
    "time": "2012-12-19"
  },
  {
    "place": "Park4dbe0e910cb691071cc89c28",
    "time": "2012-12-19"
  },
  {
    "place": "Fast Food Restaurant4bfec352daf9c9b64038f9ef",
    "time": "2012-12-19"
  },
  {
    "place": "Park4bcb60fa0687ef3bbb9bddcc",
    "time": "2012-12-19"
  },
  {
    "place": "Park4bcb60fa0687ef3bbb9bddcc",
    "time": "2012-12-19"
  },
  {
    "place": "Neighborhood4fb3de02e4b02e02f44c7a10",
    "time": "2012-12-19"
  },
  {
    "place": "Neighborhood4f3e757ee4b038a0550cd6df",
    "time": "2012-12-19"
  },
  {
    "place": "Building4ce8b5d975c62c0f28b5e657",
    "time": "2012-12-19"
  },
  {
    "place": "Neighborhood4eda9503be7be28337f8ec25",
    "time": "2012-12-19"
  },
  {
    "place": "Road4e658473d22d509a3af0046f",
    "time": "2012-12-19"
  },
  {
    "place": "Home (private)4f4b3acae4b0c132f3c11107",
    "time": "2012-12-19"
  },
  {
    "place": "Road4e658473d22d509a3af0046f",
    "time": "2012-12-19"
  },
  {
    "place": "College Academic Building4cb44b51eb65b1f7fcc888cd",
    "time": "2012-12-19"
  },
  {
    "place": "Neighborhood4fb3de02e4b02e02f44c7a10",
    "time": "2012-12-19"
  },
  {
    "place": "College Academic Building4cb44b51eb65b1f7fcc888cd",
    "time": "2012-12-20"
  },
  {
    "place": "Park4bcb60fa0687ef3bbb9bddcc",
    "time": "2012-12-20"
  },
  {
    "place": "Park4bcb60fa0687ef3bbb9bddcc",
    "time": "2012-12-20"
  },
  {
    "place": "Neighborhood4f2a141ee4b0837d0c520419",
    "time": "2012-12-21"
  },
  {
    "place": "Neighborhood4eda9503be7be28337f8ec25",
    "time": "2012-12-21"
  },
  {
    "place": "Miscellaneous Shop4c65b183b80abe9a4dffcae5",
    "time": "2012-12-21"
  },
  {
    "place": "Fried Chicken Joint4d0171ca7212b60cf373d4bf",
    "time": "2012-12-21"
  },
  {
    "place": "Road5095a5b5498e4ddf686a5a15",
    "time": "2012-12-21"
  },
  {
    "place": "Park4bcb60fa0687ef3bbb9bddcc",
    "time": "2012-12-21"
  },
  {
    "place": "Bank4c6f04edb5a5236ad4f24b52",
    "time": "2012-12-21"
  },
  {
    "place": "Home (private)4f4b3acae4b0c132f3c11107",
    "time": "2012-12-22"
  },
  {
    "place": "Drugstore / Pharmacy4c60154623e303bbd7db7407",
    "time": "2012-12-22"
  },
  {
    "place": "Train Station49f76cc2f964a5209d6c1fe3",
    "time": "2012-12-22"
  },
  {
    "place": "General Travel4f2e9a09e4b006ef9a4cb41e",
    "time": "2012-12-22"
  },
  {
    "place": "Park4ebac17a722e20541dd054be",
    "time": "2012-12-22"
  },
  {
    "place": "Bar4d1ed9b55c4ca1cd8b07953d",
    "time": "2012-12-22"
  },
  {
    "place": "Zoo4e9c94a802d5df1b511486af",
    "time": "2012-12-22"
  },
  {
    "place": "Road4e3ab795b3ade614e127586f",
    "time": "2012-12-22"
  },
  {
    "place": "Neighborhood4eda9503be7be28337f8ec25",
    "time": "2012-12-22"
  },
  {
    "place": "Home (private)508a6f9ce4b0306b56e768ea",
    "time": "2012-12-22"
  },
  {
    "place": "Deli / Bodega4c1626c3a5eb76b01b4ec4b7",
    "time": "2012-12-22"
  },
  {
    "place": "Drugstore / Pharmacy4bf0560cc8d920a1fcb49430",
    "time": "2012-12-23"
  },
  {
    "place": "City4e55a736a809cbf4e4720053",
    "time": "2012-12-23"
  },
  {
    "place": "Movie Theater4a7e033df964a5209ff01fe3",
    "time": "2012-12-23"
  },
  {
    "place": "Other Great Outdoors4f6c716be4b06003315741a1",
    "time": "2012-12-23"
  },
  {
    "place": "Park4bb6297046d4a593dcc8c5c0",
    "time": "2012-12-23"
  },
  {
    "place": "Neighborhood4f5ed2b2e4b0912b839c728c",
    "time": "2012-12-23"
  },
  {
    "place": "Stadium49f754c1f964a520896c1fe3",
    "time": "2012-12-23"
  },
  {
    "place": "Home (private)4f4b3acae4b0c132f3c11107",
    "time": "2012-12-23"
  },
  {
    "place": "Home (private)4f4b3acae4b0c132f3c11107",
    "time": "2012-12-27"
  },
  {
    "place": "College Academic Building4cb44b51eb65b1f7fcc888cd",
    "time": "2012-12-28"
  },
  {
    "place": "Cemetery4e91bf4561afcfde2a59a226",
    "time": "2012-12-28"
  },
  {
    "place": "Athletic & Sport4ff049c7e4b0ccc775bf5b2b",
    "time": "2012-12-28"
  },
  {
    "place": "Park4bcb60fa0687ef3bbb9bddcc",
    "time": "2012-12-28"
  },
  {
    "place": "Park4bcb60fa0687ef3bbb9bddcc",
    "time": "2012-12-28"
  },
  {
    "place": "Neighborhood4f3e757ee4b038a0550cd6df",
    "time": "2012-12-28"
  },
  {
    "place": "Road4f78c7ace4b06ff8377c1e35",
    "time": "2012-12-28"
  },
  {
    "place": "Neighborhood4eda9503be7be28337f8ec25",
    "time": "2012-12-28"
  },
  {
    "place": "College Academic Building4cb0a62a562d224bd8471888",
    "time": "2012-12-28"
  },
  {
    "place": "Stadium49f754c1f964a520896c1fe3",
    "time": "2012-12-28"
  },
  {
    "place": "Neighborhood4f2a141ee4b0837d0c520419",
    "time": "2012-12-28"
  },
  {
    "place": "Road4e4ba59e62e1ce23e577ad45",
    "time": "2012-12-29"
  },
  {
    "place": "Zoo4e9c94a802d5df1b511486af",
    "time": "2012-12-29"
  },
  {
    "place": "General Travel4f2e9a09e4b006ef9a4cb41e",
    "time": "2012-12-29"
  },
  {
    "place": "Medical Center4c0161e7b0702d7fbb276378",
    "time": "2012-12-29"
  },
  {
    "place": "Food & Drink Shop4c38f2ee3849c928e973c0b1",
    "time": "2012-12-30"
  },
  {
    "place": "Building4ce8b5d975c62c0f28b5e657",
    "time": "2012-12-30"
  },
  {
    "place": "College Academic Building4cb44b51eb65b1f7fcc888cd",
    "time": "2012-12-31"
  },
  {
    "place": "Road4e0dcf4262e1d5a30cfa6cae",
    "time": "2012-12-31"
  },
  {
    "place": "Park4bcb60fa0687ef3bbb9bddcc",
    "time": "2012-12-31"
  },
  {
    "place": "Road5095a5b5498e4ddf686a5a15",
    "time": "2012-12-31"
  },
  {
    "place": "Park4dbe0e910cb691071cc89c28",
    "time": "2012-12-31"
  },
  {
    "place": "Zoo4e9c94a802d5df1b511486af",
    "time": "2013-01-01"
  },
  {
    "place": "City4e54305d22710ebb5a878664",
    "time": "2013-01-01"
  },
  {
    "place": "Other Great Outdoors50e24527e4b0748c864c538b",
    "time": "2013-01-01"
  },
  {
    "place": "Road4e0dcf4262e1d5a30cfa6cae",
    "time": "2013-01-02"
  },
  {
    "place": "Cemetery4e91bf4561afcfde2a59a226",
    "time": "2013-01-02"
  },
  {
    "place": "Park4bcb60fa0687ef3bbb9bddcc",
    "time": "2013-01-02"
  },
  {
    "place": "Fast Food Restaurant4bfec352daf9c9b64038f9ef",
    "time": "2013-01-03"
  },
  {
    "place": "Cemetery4e91bf4561afcfde2a59a226",
    "time": "2013-01-03"
  },
  {
    "place": "Park4bcb60fa0687ef3bbb9bddcc",
    "time": "2013-01-03"
  },
  {
    "place": "Park4bcb60fa0687ef3bbb9bddcc",
    "time": "2013-01-03"
  },
  {
    "place": "Neighborhood4fb3de02e4b02e02f44c7a10",
    "time": "2013-01-03"
  },
  {
    "place": "Neighborhood4f3e757ee4b038a0550cd6df",
    "time": "2013-01-03"
  },
  {
    "place": "Building4ce8b5d975c62c0f28b5e657",
    "time": "2013-01-03"
  },
  {
    "place": "Home (private)4f4b3acae4b0c132f3c11107",
    "time": "2013-01-03"
  },
  {
    "place": "College Academic Building4cb44b51eb65b1f7fcc888cd",
    "time": "2013-01-04"
  },
  {
    "place": "Neighborhood4eda9503be7be28337f8ec25",
    "time": "2013-01-04"
  },
  {
    "place": "Park4bcb60fa0687ef3bbb9bddcc",
    "time": "2013-01-04"
  },
  {
    "place": "Road5095a5b5498e4ddf686a5a15",
    "time": "2013-01-04"
  },
  {
    "place": "Cemetery4e91bf4561afcfde2a59a226",
    "time": "2013-01-04"
  },
  {
    "place": "Park4bcb60fa0687ef3bbb9bddcc",
    "time": "2013-01-04"
  },
  {
    "place": "Road4e658473d22d509a3af0046f",
    "time": "2013-01-04"
  },
  {
    "place": "Park4bcb60fa0687ef3bbb9bddcc",
    "time": "2013-01-04"
  },
  {
    "place": "Road5095a5b5498e4ddf686a5a15",
    "time": "2013-01-04"
  },
  {
    "place": "Drugstore / Pharmacy4bbbb2203de8c9b6761b9aad",
    "time": "2013-01-04"
  },
  {
    "place": "Cosmetics Shop4c7e9af02042b1f7cb71c0ad",
    "time": "2013-01-04"
  },
  {
    "place": "Medical Center4c0161e7b0702d7fbb276378",
    "time": "2013-01-05"
  },
  {
    "place": "Road4ef0f444f790ec1293ec9572",
    "time": "2013-01-05"
  },
  {
    "place": "Home (private)4f4b3acae4b0c132f3c11107",
    "time": "2013-01-05"
  },
  {
    "place": "City4e54305d22710ebb5a878664",
    "time": "2013-01-05"
  },
  {
    "place": "General Travel4f2e9a09e4b006ef9a4cb41e",
    "time": "2013-01-05"
  },
  {
    "place": "Zoo4e9c94a802d5df1b511486af",
    "time": "2013-01-05"
  },
  {
    "place": "Fast Food Restaurant4bfec510e584c9286f356d25",
    "time": "2013-01-07"
  },
  {
    "place": "Road4e658473d22d509a3af0046f",
    "time": "2013-01-07"
  },
  {
    "place": "Cemetery4e91bf4561afcfde2a59a226",
    "time": "2013-01-07"
  },
  {
    "place": "Park4bcb60fa0687ef3bbb9bddcc",
    "time": "2013-01-07"
  },
  {
    "place": "Road5095a5b5498e4ddf686a5a15",
    "time": "2013-01-07"
  },
  {
    "place": "Cemetery4e91bf4561afcfde2a59a226",
    "time": "2013-01-07"
  },
  {
    "place": "Park4bcb60fa0687ef3bbb9bddcc",
    "time": "2013-01-07"
  },
  {
    "place": "Park4bcb60fa0687ef3bbb9bddcc",
    "time": "2013-01-07"
  },
  {
    "place": "Neighborhood4f3e757ee4b038a0550cd6df",
    "time": "2013-01-07"
  },
  {
    "place": "Fast Food Restaurant4bfec352daf9c9b64038f9ef",
    "time": "2013-01-08"
  },
  {
    "place": "Road5095a5b5498e4ddf686a5a15",
    "time": "2013-01-08"
  },
  {
    "place": "Park4bcb60fa0687ef3bbb9bddcc",
    "time": "2013-01-08"
  },
  {
    "place": "Park4bcb60fa0687ef3bbb9bddcc",
    "time": "2013-01-08"
  },
  {
    "place": "Road4ef0f444f790ec1293ec9572",
    "time": "2013-01-08"
  },
  {
    "place": "Building4ce8b5d975c62c0f28b5e657",
    "time": "2013-01-08"
  },
  {
    "place": "Road4e658473d22d509a3af0046f",
    "time": "2013-01-08"
  },
  {
    "place": "Home (private)4f4b3acae4b0c132f3c11107",
    "time": "2013-01-08"
  },
  {
    "place": "Italian Restaurant4bb3890f42959c74c312222c",
    "time": "2013-01-08"
  },
  {
    "place": "Road4b6d7534f964a52093752ce3",
    "time": "2013-01-08"
  },
  {
    "place": "City4e54305d22710ebb5a878664",
    "time": "2013-01-08"
  },
  {
    "place": "Cemetery4da35fffd686b60c6384cb28",
    "time": "2013-01-08"
  },
  {
    "place": "Park4bcb60fa0687ef3bbb9bddcc",
    "time": "2013-01-08"
  },
  {
    "place": "Park4bcb60fa0687ef3bbb9bddcc",
    "time": "2013-01-08"
  },
  {
    "place": "Athletic & Sport4ff049c7e4b0ccc775bf5b2b",
    "time": "2013-01-09"
  },
  {
    "place": "Fast Food Restaurant4bfec352daf9c9b64038f9ef",
    "time": "2013-01-09"
  },
  {
    "place": "Cemetery4e91bf4561afcfde2a59a226",
    "time": "2013-01-09"
  },
  {
    "place": "Park4bcb60fa0687ef3bbb9bddcc",
    "time": "2013-01-09"
  },
  {
    "place": "Neighborhood4fb3de02e4b02e02f44c7a10",
    "time": "2013-01-09"
  },
  {
    "place": "Building4ce8b5d975c62c0f28b5e657",
    "time": "2013-01-09"
  },
  {
    "place": "Road4e658473d22d509a3af0046f",
    "time": "2013-01-09"
  },
  {
    "place": "Home (private)4f4b3acae4b0c132f3c11107",
    "time": "2013-01-09"
  },
  {
    "place": "Medical Center4c0161e7b0702d7fbb276378",
    "time": "2013-01-09"
  },
  {
    "place": "Park4bcb60fa0687ef3bbb9bddcc",
    "time": "2013-01-10"
  },
  {
    "place": "Park4bcb60fa0687ef3bbb9bddcc",
    "time": "2013-01-10"
  },
  {
    "place": "Neighborhood4fb3de02e4b02e02f44c7a10",
    "time": "2013-01-10"
  },
  {
    "place": "Road4ef0f444f790ec1293ec9572",
    "time": "2013-01-10"
  },
  {
    "place": "Building4ce8b5d975c62c0f28b5e657",
    "time": "2013-01-10"
  },
  {
    "place": "Road5095a5b5498e4ddf686a5a15",
    "time": "2013-01-11"
  },
  {
    "place": "Cemetery4e91bf4561afcfde2a59a226",
    "time": "2013-01-11"
  },
  {
    "place": "Park4bcb60fa0687ef3bbb9bddcc",
    "time": "2013-01-11"
  },
  {
    "place": "Neighborhood4fb3de02e4b02e02f44c7a10",
    "time": "2013-01-11"
  },
  {
    "place": "Neighborhood4f3e757ee4b038a0550cd6df",
    "time": "2013-01-11"
  },
  {
    "place": "Road4e658473d22d509a3af0046f",
    "time": "2013-01-11"
  },
  {
    "place": "Road5095a5b5498e4ddf686a5a15",
    "time": "2013-01-12"
  },
  {
    "place": "Medical Center4c0161e7b0702d7fbb276378",
    "time": "2013-01-12"
  },
  {
    "place": "Home (private)4f5278f1e4b0ee60b905f4ce",
    "time": "2013-01-12"
  },
  {
    "place": "Road4dbe0943fa8cee727376ab71",
    "time": "2013-01-12"
  },
  {
    "place": "Neighborhood4fb3de02e4b02e02f44c7a10",
    "time": "2013-01-12"
  },
  {
    "place": "Medical Center4c8beb99c37a6dcb4077f27a",
    "time": "2013-01-12"
  },
  {
    "place": "Medical Center4e1e5fe6ae60cd553de78089",
    "time": "2013-01-12"
  },
  {
    "place": "Neighborhood4eda9503be7be28337f8ec25",
    "time": "2013-01-13"
  },
  {
    "place": "Drugstore / Pharmacy4c5898deec2520a1830f4d12",
    "time": "2013-01-13"
  },
  {
    "place": "Neighborhood4f7c4500e4b02cc04dc5d678",
    "time": "2013-01-13"
  },
  {
    "place": "Residential Building (Apartment / Condo)4f89f67ae4b07f1a35f212ea",
    "time": "2013-01-13"
  },
  {
    "place": "College Academic Building4cb44b51eb65b1f7fcc888cd",
    "time": "2013-01-14"
  },
  {
    "place": "Road5095a5b5498e4ddf686a5a15",
    "time": "2013-01-14"
  },
  {
    "place": "Cemetery4e91bf4561afcfde2a59a226",
    "time": "2013-01-14"
  },
  {
    "place": "Park4bcb60fa0687ef3bbb9bddcc",
    "time": "2013-01-14"
  },
  {
    "place": "Neighborhood4fb3de02e4b02e02f44c7a10",
    "time": "2013-01-14"
  },
  {
    "place": "Neighborhood4fb3de02e4b02e02f44c7a10",
    "time": "2013-01-14"
  },
  {
    "place": "Cemetery4e91bf4561afcfde2a59a226",
    "time": "2013-01-14"
  },
  {
    "place": "Fast Food Restaurant4bfec352daf9c9b64038f9ef",
    "time": "2013-01-14"
  },
  {
    "place": "Neighborhood4f3e757ee4b038a0550cd6df",
    "time": "2013-01-15"
  },
  {
    "place": "Building4ce8b5d975c62c0f28b5e657",
    "time": "2013-01-15"
  },
  {
    "place": "Road4e658473d22d509a3af0046f",
    "time": "2013-01-15"
  },
  {
    "place": "Road4e658473d22d509a3af0046f",
    "time": "2013-01-16"
  },
  {
    "place": "Home (private)4f4b3acae4b0c132f3c11107",
    "time": "2013-01-16"
  },
  {
    "place": "Fast Food Restaurant4bfec352daf9c9b64038f9ef",
    "time": "2013-01-17"
  },
  {
    "place": "Athletic & Sport4ff049c7e4b0ccc775bf5b2b",
    "time": "2013-01-18"
  },
  {
    "place": "Park4dbe0e910cb691071cc89c28",
    "time": "2013-01-18"
  },
  {
    "place": "Fast Food Restaurant4bfec352daf9c9b64038f9ef",
    "time": "2013-01-18"
  },
  {
    "place": "Fast Food Restaurant4c82c3ee51ada1cd6fff1f10",
    "time": "2013-01-18"
  },
  {
    "place": "Road5095a5b5498e4ddf686a5a15",
    "time": "2013-01-21"
  },
  {
    "place": "Park4bcb60fa0687ef3bbb9bddcc",
    "time": "2013-01-21"
  },
  {
    "place": "Neighborhood4fb3de02e4b02e02f44c7a10",
    "time": "2013-01-21"
  },
  {
    "place": "Neighborhood4f3e757ee4b038a0550cd6df",
    "time": "2013-01-21"
  },
  {
    "place": "Road4e658473d22d509a3af0046f",
    "time": "2013-01-21"
  },
  {
    "place": "Mall4ba82484f964a52051ce39e3",
    "time": "2013-01-21"
  },
  {
    "place": "Neighborhood4fb3de02e4b02e02f44c7a10",
    "time": "2013-01-22"
  },
  {
    "place": "Road4e0dcf4262e1d5a30cfa6cae",
    "time": "2013-01-22"
  },
  {
    "place": "Road5095a5b5498e4ddf686a5a15",
    "time": "2013-01-22"
  },
  {
    "place": "Park4dbe0e910cb691071cc89c28",
    "time": "2013-01-22"
  },
  {
    "place": "Fast Food Restaurant4bfec352daf9c9b64038f9ef",
    "time": "2013-01-22"
  },
  {
    "place": "Road5095a5b5498e4ddf686a5a15",
    "time": "2013-01-22"
  },
  {
    "place": "Cemetery4e91bf4561afcfde2a59a226",
    "time": "2013-01-22"
  },
  {
    "place": "Neighborhood4fb3de02e4b02e02f44c7a10",
    "time": "2013-01-22"
  },
  {
    "place": "Road4ef0f444f790ec1293ec9572",
    "time": "2013-01-22"
  },
  {
    "place": "Neighborhood4f3e757ee4b038a0550cd6df",
    "time": "2013-01-22"
  },
  {
    "place": "Home (private)4f4b3acae4b0c132f3c11107",
    "time": "2013-01-22"
  },
  {
    "place": "Road5095a5b5498e4ddf686a5a15",
    "time": "2013-01-27"
  },
  {
    "place": "Home (private)4f5278f1e4b0ee60b905f4ce",
    "time": "2013-01-27"
  },
  {
    "place": "Road50f7af8fe4b088a692e6b8b8",
    "time": "2013-01-27"
  },
  {
    "place": "Racetrack4ee58981e5faffd732b1516c",
    "time": "2013-01-27"
  },
  {
    "place": "Road50578052e4b0ed8a09af149e",
    "time": "2013-01-27"
  },
  {
    "place": "Neighborhood4f2a141ee4b0837d0c520419",
    "time": "2013-01-27"
  },
  {
    "place": "Road4f78c7ace4b06ff8377c1e35",
    "time": "2013-01-27"
  },
  {
    "place": "Road4e0dcf4262e1d5a30cfa6cae",
    "time": "2013-01-28"
  },
  {
    "place": "Road5095a5b5498e4ddf686a5a15",
    "time": "2013-01-28"
  },
  {
    "place": "Park4dbe0e910cb691071cc89c28",
    "time": "2013-01-28"
  },
  {
    "place": "Fast Food Restaurant4bfec352daf9c9b64038f9ef",
    "time": "2013-01-28"
  },
  {
    "place": "Neighborhood4c25ec43f7ced13a905a256d",
    "time": "2013-01-28"
  },
  {
    "place": "Stadium49f754c1f964a520896c1fe3",
    "time": "2013-01-28"
  },
  {
    "place": "Road50578052e4b0ed8a09af149e",
    "time": "2013-01-28"
  },
  {
    "place": "Neighborhood4f2a141ee4b0837d0c520419",
    "time": "2013-01-28"
  },
  {
    "place": "Residential Building (Apartment / Condo)51063b45e4b051d6c7ae0c90",
    "time": "2013-01-28"
  },
  {
    "place": "Community College4daf49df1e7264cc0e3234ca",
    "time": "2013-01-29"
  },
  {
    "place": "Neighborhood4f5ed2b2e4b0912b839c728c",
    "time": "2013-01-29"
  },
  {
    "place": "Home (private)4f5278f1e4b0ee60b905f4ce",
    "time": "2013-01-30"
  },
  {
    "place": "Train Station49f76cc2f964a5209d6c1fe3",
    "time": "2013-01-30"
  },
  {
    "place": "Stadium49f754c1f964a520896c1fe3",
    "time": "2013-01-30"
  },
  {
    "place": "City4e628332d22d509a39a9a788",
    "time": "2013-01-30"
  },
  {
    "place": "Neighborhood4f2a141ee4b0837d0c520419",
    "time": "2013-01-30"
  },
  {
    "place": "Community College4daf49df1e7264cc0e3234ca",
    "time": "2013-01-30"
  },
  {
    "place": "Road4f78c7ace4b06ff8377c1e35",
    "time": "2013-01-30"
  },
  {
    "place": "Travel Lounge5011f42de4b034c3df1b6a98",
    "time": "2013-01-30"
  },
  {
    "place": "Road4e658473d22d509a3af0046f",
    "time": "2013-01-30"
  },
  {
    "place": "Park4dbe0e910cb691071cc89c28",
    "time": "2013-01-31"
  },
  {
    "place": "Zoo4e9c94a802d5df1b511486af",
    "time": "2013-01-31"
  },
  {
    "place": "Neighborhood4f2a141ee4b0837d0c520419",
    "time": "2013-01-31"
  },
  {
    "place": "Train Station49f76cc2f964a5209d6c1fe3",
    "time": "2013-01-31"
  },
  {
    "place": "Stadium49f754c1f964a520896c1fe3",
    "time": "2013-01-31"
  },
  {
    "place": "Neighborhood4c25ec43f7ced13a905a256d",
    "time": "2013-01-31"
  },
  {
    "place": "City4e628332d22d509a39a9a788",
    "time": "2013-01-31"
  },
  {
    "place": "Road4f78c7ace4b06ff8377c1e35",
    "time": "2013-01-31"
  },
  {
    "place": "Road4e658473d22d509a3af0046f",
    "time": "2013-01-31"
  },
  {
    "place": "Home (private)4f4b3acae4b0c132f3c11107",
    "time": "2013-01-31"
  },
  {
    "place": "Home (private)4f4b3acae4b0c132f3c11107",
    "time": "2013-02-01"
  },
  {
    "place": "Miscellaneous Shop4c65b183b80abe9a4dffcae5",
    "time": "2013-02-01"
  },
  {
    "place": "Neighborhood4eda9503be7be28337f8ec25",
    "time": "2013-02-01"
  },
  {
    "place": "Road50ce6f00e4b05a8a259cfd73",
    "time": "2013-02-01"
  },
  {
    "place": "Neighborhood4f7c4500e4b02cc04dc5d678",
    "time": "2013-02-02"
  },
  {
    "place": "Neighborhood4fb3de02e4b02e02f44c7a10",
    "time": "2013-02-02"
  },
  {
    "place": "Road5095a5b5498e4ddf686a5a15",
    "time": "2013-02-02"
  },
  {
    "place": "Park4bcb60fa0687ef3bbb9bddcc",
    "time": "2013-02-02"
  },
  {
    "place": "Neighborhood4fb3de02e4b02e02f44c7a10",
    "time": "2013-02-02"
  },
  {
    "place": "Neighborhood4f3e757ee4b038a0550cd6df",
    "time": "2013-02-02"
  },
  {
    "place": "Road4b6d7534f964a52093752ce3",
    "time": "2013-02-02"
  },
  {
    "place": "City4e54305d22710ebb5a878664",
    "time": "2013-02-02"
  },
  {
    "place": "General Travel4f2e9a09e4b006ef9a4cb41e",
    "time": "2013-02-02"
  },
  {
    "place": "Church4bdcde8f2a3a0f470ac9b4b6",
    "time": "2013-02-02"
  },
  {
    "place": "Drugstore / Pharmacy4bf0560cc8d920a1fcb49430",
    "time": "2013-02-02"
  },
  {
    "place": "Road4e4ba59e62e1ce23e577ad45",
    "time": "2013-02-02"
  },
  {
    "place": "Home (private)4f5278f1e4b0ee60b905f4ce",
    "time": "2013-02-02"
  },
  {
    "place": "Moving Target510c9f9de4b0ec5cc005fc87",
    "time": "2013-02-02"
  },
  {
    "place": "Cemetery4e91bf4561afcfde2a59a226",
    "time": "2013-02-04"
  },
  {
    "place": "Road5095a5b5498e4ddf686a5a15",
    "time": "2013-02-05"
  },
  {
    "place": "City4e54305d22710ebb5a878664",
    "time": "2013-02-05"
  },
  {
    "place": "Road50f7af8fe4b088a692e6b8b8",
    "time": "2013-02-05"
  },
  {
    "place": "Cemetery4e91bf4561afcfde2a59a226",
    "time": "2013-02-05"
  },
  {
    "place": "Park4bcb60fa0687ef3bbb9bddcc",
    "time": "2013-02-05"
  },
  {
    "place": "Park4bcb60fa0687ef3bbb9bddcc",
    "time": "2013-02-05"
  },
  {
    "place": "Neighborhood4fb3de02e4b02e02f44c7a10",
    "time": "2013-02-05"
  },
  {
    "place": "Road4ef0f444f790ec1293ec9572",
    "time": "2013-02-05"
  },
  {
    "place": "Bank4c6f04edb5a5236ad4f24b52",
    "time": "2013-02-05"
  },
  {
    "place": "Road4e658473d22d509a3af0046f",
    "time": "2013-02-05"
  },
  {
    "place": "Home (private)4f4b3acae4b0c132f3c11107",
    "time": "2013-02-05"
  },
  {
    "place": "Nursery School4f550d5ae4b040bb62d7b8b7",
    "time": "2013-02-05"
  },
  {
    "place": "Road4e4ba59e62e1ce23e577ad45",
    "time": "2013-02-08"
  },
  {
    "place": "Cemetery4e91bf4561afcfde2a59a226",
    "time": "2013-02-08"
  },
  {
    "place": "Park4bcb60fa0687ef3bbb9bddcc",
    "time": "2013-02-08"
  },
  {
    "place": "Park4bcb60fa0687ef3bbb9bddcc",
    "time": "2013-02-08"
  },
  {
    "place": "Neighborhood4fb3de02e4b02e02f44c7a10",
    "time": "2013-02-08"
  },
  {
    "place": "Neighborhood4eda9503be7be28337f8ec25",
    "time": "2013-02-08"
  },
  {
    "place": "Gas Station / Garage4df80518fa76e4d6e2155b84",
    "time": "2013-02-08"
  },
  {
    "place": "Building4ce8b5d975c62c0f28b5e657",
    "time": "2013-02-08"
  },
  {
    "place": "Road4e658473d22d509a3af0046f",
    "time": "2013-02-08"
  },
  {
    "place": "Home (private)4f4b3acae4b0c132f3c11107",
    "time": "2013-02-08"
  },
  {
    "place": "Road4f78c7ace4b06ff8377c1e35",
    "time": "2013-02-10"
  },
  {
    "place": "Neighborhood4c25ec43f7ced13a905a256d",
    "time": "2013-02-10"
  },
  {
    "place": "City4e628332d22d509a39a9a788",
    "time": "2013-02-10"
  },
  {
    "place": "Road50578052e4b0ed8a09af149e",
    "time": "2013-02-10"
  },
  {
    "place": "Home (private)508a6f9ce4b0306b56e768ea",
    "time": "2013-02-11"
  },
  {
    "place": "Neighborhood4eda9503be7be28337f8ec25",
    "time": "2013-02-11"
  },
  {
    "place": "Athletic & Sport4ff049c7e4b0ccc775bf5b2b",
    "time": "2013-02-11"
  },
  {
    "place": "Road5095a5b5498e4ddf686a5a15",
    "time": "2013-02-11"
  },
  {
    "place": "Cemetery4e91bf4561afcfde2a59a226",
    "time": "2013-02-11"
  },
  {
    "place": "Neighborhood4eda9503be7be28337f8ec25",
    "time": "2013-02-11"
  },
  {
    "place": "Neighborhood4f3e757ee4b038a0550cd6df",
    "time": "2013-02-11"
  },
  {
    "place": "Building4ce8b5d975c62c0f28b5e657",
    "time": "2013-02-11"
  },
  {
    "place": "Road4e658473d22d509a3af0046f",
    "time": "2013-02-11"
  },
  {
    "place": "Home (private)4f4b3acae4b0c132f3c11107",
    "time": "2013-02-11"
  },
  {
    "place": "College Academic Building4cb44b51eb65b1f7fcc888cd",
    "time": "2013-02-12"
  },
  {
    "place": "Neighborhood4fb3de02e4b02e02f44c7a10",
    "time": "2013-02-12"
  },
  {
    "place": "Cemetery4e91bf4561afcfde2a59a226",
    "time": "2013-02-12"
  },
  {
    "place": "Road5095a5b5498e4ddf686a5a15",
    "time": "2013-02-12"
  },
  {
    "place": "Park4dbe0e910cb691071cc89c28",
    "time": "2013-02-12"
  },
  {
    "place": "Neighborhood4db45c94f7b121c29f4a0fd9",
    "time": "2013-02-12"
  },
  {
    "place": "Road4e0dcf4262e1d5a30cfa6cae",
    "time": "2013-02-13"
  },
  {
    "place": "Park4bcb60fa0687ef3bbb9bddcc",
    "time": "2013-02-13"
  },
  {
    "place": "Road5095a5b5498e4ddf686a5a15",
    "time": "2013-02-13"
  },
  {
    "place": "Zoo4e9c94a802d5df1b511486af",
    "time": "2013-02-13"
  },
  {
    "place": "Fast Food Restaurant4bfec352daf9c9b64038f9ef",
    "time": "2013-02-13"
  },
  {
    "place": "Road4e4ba59e62e1ce23e577ad45",
    "time": "2013-02-13"
  },
  {
    "place": "City4e628332d22d509a39a9a788",
    "time": "2013-02-13"
  },
  {
    "place": "Stadium49f754c1f964a520896c1fe3",
    "time": "2013-02-13"
  },
  {
    "place": "Neighborhood4c25ec43f7ced13a905a256d",
    "time": "2013-02-13"
  },
  {
    "place": "Road4f78c7ace4b06ff8377c1e35",
    "time": "2013-02-13"
  },
  {
    "place": "Road4e658473d22d509a3af0046f",
    "time": "2013-02-13"
  },
  {
    "place": "Home (private)4f4b3acae4b0c132f3c11107",
    "time": "2013-02-13"
  },
  {
    "place": "Neighborhood4fb3de02e4b02e02f44c7a10",
    "time": "2013-02-14"
  },
  {
    "place": "Road4e0dcf4262e1d5a30cfa6cae",
    "time": "2013-02-14"
  },
  {
    "place": "Cemetery4e91bf4561afcfde2a59a226",
    "time": "2013-02-14"
  },
  {
    "place": "Park4bcb60fa0687ef3bbb9bddcc",
    "time": "2013-02-14"
  },
  {
    "place": "Road5095a5b5498e4ddf686a5a15",
    "time": "2013-02-14"
  },
  {
    "place": "Fast Food Restaurant4bfec352daf9c9b64038f9ef",
    "time": "2013-02-14"
  },
  {
    "place": "Neighborhood4f2a141ee4b0837d0c520419",
    "time": "2013-02-14"
  },
  {
    "place": "Train Station49f76cc2f964a5209d6c1fe3",
    "time": "2013-02-14"
  },
  {
    "place": "Train Station4ae9014af964a520f4b321e3",
    "time": "2013-02-14"
  },
  {
    "place": "Stadium49f754c1f964a520896c1fe3",
    "time": "2013-02-14"
  },
  {
    "place": "City4e628332d22d509a39a9a788",
    "time": "2013-02-14"
  },
  {
    "place": "Neighborhood4c25ec43f7ced13a905a256d",
    "time": "2013-02-14"
  },
  {
    "place": "Government Building4b4c918cf964a5205eb626e3",
    "time": "2013-02-14"
  },
  {
    "place": "Road4f78c7ace4b06ff8377c1e35",
    "time": "2013-02-14"
  },
  {
    "place": "Road4e658473d22d509a3af0046f",
    "time": "2013-02-14"
  }
]