[
  {
    "place": "Korean Restaurant4a909d71f964a520c51820e3",
    "time": "2012-04-07"
  },
  {
    "place": "Automotive Shop4bb8b73a314e9521deaa489d",
    "time": "2012-04-07"
  },
  {
    "place": "Hardware Store4b254300f964a520e26e24e3",
    "time": "2012-04-07"
  },
  {
    "place": "Seafood Restaurant4b00a2abf964a520264022e3",
    "time": "2012-04-08"
  },
  {
    "place": "American Restaurant4b6e103bf964a520b4a72ce3",
    "time": "2012-04-09"
  },
  {
    "place": "Bookstore4c08fbf7340720a1b8ed8393",
    "time": "2012-04-13"
  },
  {
    "place": "Fast Food Restaurant4b5a7630f964a52093c628e3",
    "time": "2012-04-15"
  },
  {
    "place": "American Restaurant4b6e103bf964a520b4a72ce3",
    "time": "2012-04-18"
  },
  {
    "place": "Food & Drink Shop4c255523c11dc9b6c3182724",
    "time": "2012-04-20"
  },
  {
    "place": "Steakhouse4bd8c5bb2e6f0f47d8880808",
    "time": "2012-04-20"
  },
  {
    "place": "Bakery4b338c20f964a520981a25e3",
    "time": "2012-04-20"
  },
  {
    "place": "Asian Restaurant4c448378429a0f4726d4481e",
    "time": "2012-04-21"
  },
  {
    "place": "Electronics Store4b4b3de3f964a520519526e3",
    "time": "2012-04-27"
  },
  {
    "place": "Art Museum427d5680f964a520a8211fe3",
    "time": "2012-04-28"
  },
  {
    "place": "Garden42717900f964a5206f211fe3",
    "time": "2012-04-28"
  },
  {
    "place": "Seafood Restaurant4a9ad800f964a5201c3320e3",
    "time": "2012-04-28"
  },
  {
    "place": "Seafood Restaurant4ba53e04f964a520a7f038e3",
    "time": "2012-04-29"
  },
  {
    "place": "American Restaurant4bce205b937ca5938ffaad92",
    "time": "2012-04-29"
  },
  {
    "place": "Drugstore / Pharmacy4fa02b2ae4b03a80579041c0",
    "time": "2012-05-01"
  },
  {
    "place": "Drugstore / Pharmacy4fa02b2ae4b03a80579041c0",
    "time": "2012-05-04"
  },
  {
    "place": "Automotive Shop4f01eacf93adc8245a98180e",
    "time": "2012-05-04"
  },
  {
    "place": "Asian Restaurant4be462fd910020a102a4d114",
    "time": "2012-05-05"
  },
  {
    "place": "Food & Drink Shop4bd8459935aad13a8b6f90f3",
    "time": "2012-05-05"
  },
  {
    "place": "Asian Restaurant4c448378429a0f4726d4481e",
    "time": "2012-05-07"
  },
  {
    "place": "American Restaurant4b6e103bf964a520b4a72ce3",
    "time": "2012-05-12"
  },
  {
    "place": "Asian Restaurant4c448378429a0f4726d4481e",
    "time": "2012-05-14"
  },
  {
    "place": "Asian Restaurant4be462fd910020a102a4d114",
    "time": "2012-05-16"
  },
  {
    "place": "Spa / Massage4fb56cfbe4b01f0f6aa80f19",
    "time": "2012-05-17"
  },
  {
    "place": "Airport4459d2f1f964a520d7321fe3",
    "time": "2012-05-19"
  },
  {
    "place": "Pizza Place4b11ce1cf964a520038523e3",
    "time": "2012-05-19"
  },
  {
    "place": "Airport4459d2f1f964a520d7321fe3",
    "time": "2012-05-23"
  },
  {
    "place": "Mall4d0e427c257d6dcb8213a167",
    "time": "2012-05-23"
  },
  {
    "place": "Burger Joint4d06ade828926ea8d5b276c2",
    "time": "2012-05-23"
  },
  {
    "place": "Deli / Bodega4bc8422d0050b713e603ba3b",
    "time": "2012-05-24"
  },
  {
    "place": "Breakfast Spot4c13b06b77cea5936134cf60",
    "time": "2012-05-27"
  },
  {
    "place": "Airport4459d2f1f964a520d7321fe3",
    "time": "2012-05-31"
  },
  {
    "place": "Airport4459d2f1f964a520d7321fe3",
    "time": "2012-05-31"
  },
  {
    "place": "Korean Restaurant4a909d71f964a520c51820e3",
    "time": "2012-06-03"
  },
  {
    "place": "American Restaurant4a8ed014f964a520bd1220e3",
    "time": "2012-06-04"
  },
  {
    "place": "Electronics Store4b4b3de3f964a520519526e3",
    "time": "2012-06-07"
  },
  {
    "place": "Mall4a07ac6af964a5208f731fe3",
    "time": "2012-06-08"
  },
  {
    "place": "Ice Cream Shop4c22b72e13c00f47c40588de",
    "time": "2012-06-09"
  },
  {
    "place": "Snack Place4ed97a2a9adfe5cbde17fefb",
    "time": "2012-06-09"
  },
  {
    "place": "Deli / Bodega4bc8422d0050b713e603ba3b",
    "time": "2012-06-09"
  },
  {
    "place": "Electronics Store4b2fdedaf964a520a3f124e3",
    "time": "2012-06-11"
  },
  {
    "place": "Ice Cream Shop4ce16dc4ac908eec3e695a06",
    "time": "2012-06-12"
  },
  {
    "place": "Fried Chicken Joint4c8ab7081eafb1f700e67c35",
    "time": "2012-06-12"
  },
  {
    "place": "Restaurant4c44e247dcd61b8d30ff7b56",
    "time": "2012-06-12"
  },
  {
    "place": "Medical Center4c73f0d2ff1fb60cad0ef2a7",
    "time": "2012-06-26"
  },
  {
    "place": "Asian Restaurant4bc109302a89ef3b36b1f188",
    "time": "2012-06-26"
  },
  {
    "place": "American Restaurant4d669f4f05a7f04d12a5b48f",
    "time": "2012-07-02"
  },
  {
    "place": "Deli / Bodega4c5d89977735c9b6af448f72",
    "time": "2012-07-04"
  },
  {
    "place": "Bookstore4c08fbf7340720a1b8ed8393",
    "time": "2012-07-04"
  },
  {
    "place": "Deli / Bodega4c0babf57e3fc9286193f582",
    "time": "2012-07-07"
  },
  {
    "place": "Burger Joint4acf62caf964a52054d320e3",
    "time": "2012-07-09"
  },
  {
    "place": "Automotive Shop4bb8b73a314e9521deaa489d",
    "time": "2012-07-12"
  },
  {
    "place": "Food & Drink Shop4af0d533f964a52091df21e3",
    "time": "2012-07-14"
  },
  {
    "place": "Food & Drink Shop4af12cb7f964a520d3e021e3",
    "time": "2012-07-15"
  },
  {
    "place": "Sushi Restaurant4ade3061f964a520be7321e3",
    "time": "2012-07-16"
  },
  {
    "place": "Bar4aa4253cf964a520894520e3",
    "time": "2012-07-29"
  },
  {
    "place": "Pizza Place4e00e15f45dd1e4999dc2d05",
    "time": "2012-08-05"
  },
  {
    "place": "Vietnamese Restaurant4ba577b2f964a5201b0a39e3",
    "time": "2012-08-09"
  },
  {
    "place": "Medical Center4ae06d2df964a520347f21e3",
    "time": "2012-08-10"
  },
  {
    "place": "Bakery4a57820bf964a52046b61fe3",
    "time": "2012-08-13"
  },
  {
    "place": "Sushi Restaurant4ade3061f964a520be7321e3",
    "time": "2012-08-16"
  },
  {
    "place": "Sushi Restaurant4ade3061f964a520be7321e3",
    "time": "2012-08-19"
  },
  {
    "place": "Food & Drink Shop4af12cb7f964a520d3e021e3",
    "time": "2012-09-05"
  },
  {
    "place": "Gas Station / Garage4d447209befe236a18f7f4e2",
    "time": "2012-09-05"
  },
  {
    "place": "American Restaurant4d669f4f05a7f04d12a5b48f",
    "time": "2012-09-15"
  },
  {
    "place": "Asian Restaurant4c448378429a0f4726d4481e",
    "time": "2012-09-16"
  },
  {
    "place": "Asian Restaurant4b97bd9bf964a520cb1235e3",
    "time": "2012-10-08"
  },
  {
    "place": "American Restaurant4d669f4f05a7f04d12a5b48f",
    "time": "2012-10-09"
  },
  {
    "place": "Food & Drink Shop4af12cb7f964a520d3e021e3",
    "time": "2012-10-18"
  },
  {
    "place": "Building4e8b959ad22db1c42af44585",
    "time": "2012-10-22"
  },
  {
    "place": "Dessert Shop3fd66200f964a52008e81ee3",
    "time": "2012-10-22"
  },
  {
    "place": "Government Building4b4c918cf964a5205eb626e3",
    "time": "2012-10-23"
  },
  {
    "place": "Sporting Goods Shop4b86ddcff964a520b0a231e3",
    "time": "2012-10-23"
  },
  {
    "place": "Food & Drink Shop4bd8459935aad13a8b6f90f3",
    "time": "2012-10-24"
  },
  {
    "place": "Airport4459d2f1f964a520d7321fe3",
    "time": "2012-11-06"
  },
  {
    "place": "Korean Restaurant4a909d71f964a520c51820e3",
    "time": "2012-11-12"
  },
  {
    "place": "Coffee Shop4a785251f964a52063e51fe3",
    "time": "2012-11-13"
  },
  {
    "place": "Gas Station / Garage4d447209befe236a18f7f4e2",
    "time": "2012-11-16"
  },
  {
    "place": "Automotive Shop4bb8b73a314e9521deaa489d",
    "time": "2012-11-16"
  },
  {
    "place": "Pet Store4b54ecaef964a5205fd327e3",
    "time": "2012-11-19"
  },
  {
    "place": "Asian Restaurant4b97bd9bf964a520cb1235e3",
    "time": "2012-11-22"
  },
  {
    "place": "Sporting Goods Shop4c6c2389f2846dcbfb1262e9",
    "time": "2012-12-06"
  },
  {
    "place": "Asian Restaurant4c448378429a0f4726d4481e",
    "time": "2012-12-16"
  },
  {
    "place": "Church4bb87708cf2fc9b6398e9f02",
    "time": "2012-12-16"
  },
  {
    "place": "Dim Sum Restaurant4a8841fcf964a520950520e3",
    "time": "2012-12-16"
  },
  {
    "place": "Food & Drink Shop4af12cb7f964a520d3e021e3",
    "time": "2012-12-19"
  },
  {
    "place": "Asian Restaurant4a665984f964a52070c81fe3",
    "time": "2012-12-29"
  },
  {
    "place": "Food & Drink Shop49f85cbbf964a520f26c1fe3",
    "time": "2012-12-30"
  },
  {
    "place": "Park4db1a0904df03036e8d29275",
    "time": "2012-12-30"
  },
  {
    "place": "Mall4ba82484f964a52051ce39e3",
    "time": "2012-12-30"
  },
  {
    "place": "Seafood Restaurant4b00a2abf964a520264022e3",
    "time": "2013-01-14"
  },
  {
    "place": "Clothing Store4bc38d0874a9a5938cb5d4f6",
    "time": "2013-01-14"
  },
  {
    "place": "Vietnamese Restaurant4ba577b2f964a5201b0a39e3",
    "time": "2013-01-14"
  },
  {
    "place": "Asian Restaurant4c448378429a0f4726d4481e",
    "time": "2013-01-30"
  },
  {
    "place": "Breakfast Spot4a875f62f964a5201e0420e3",
    "time": "2013-01-30"
  },
  {
    "place": "Coffee Shop4d62ba5a1ee8721e6548c421",
    "time": "2013-01-31"
  },
  {
    "place": "Automotive Shop4b54e8a0f964a520afd227e3",
    "time": "2013-01-31"
  },
  {
    "place": "Movie Theater49db721df964a520d35e1fe3",
    "time": "2013-02-05"
  },
  {
    "place": "Bar4a90a5caf964a520f01820e3",
    "time": "2013-02-05"
  },
  {
    "place": "Bowling Alley4b37a946f964a520d44325e3",
    "time": "2013-02-11"
  },
  {
    "place": "Medical Center4bab7679f964a52042ab3ae3",
    "time": "2013-02-12"
  },
  {
    "place": "Coffee Shop4d62ba5a1ee8721e6548c421",
    "time": "2013-02-13"
  }
]