[
  {
    "place": "Home (private)4c19afcb6a21c9b60405cb97",
    "time": "2012-04-08"
  },
  {
    "place": "Home (private)4c19afcb6a21c9b60405cb97",
    "time": "2012-04-10"
  },
  {
    "place": "Stadium49d60947f964a520a85c1fe3",
    "time": "2012-04-10"
  },
  {
    "place": "American Restaurant4bba3c83b35776b092b0ca01",
    "time": "2012-04-10"
  },
  {
    "place": "Home (private)4c19afcb6a21c9b60405cb97",
    "time": "2012-04-12"
  },
  {
    "place": "Home (private)4c19afcb6a21c9b60405cb97",
    "time": "2012-04-14"
  },
  {
    "place": "Home (private)4c19afcb6a21c9b60405cb97",
    "time": "2012-04-15"
  },
  {
    "place": "Home (private)4c19afcb6a21c9b60405cb97",
    "time": "2012-04-16"
  },
  {
    "place": "Stadium3fd66200f964a520ddf01ee3",
    "time": "2012-04-17"
  },
  {
    "place": "Home (private)4c19afcb6a21c9b60405cb97",
    "time": "2012-04-19"
  },
  {
    "place": "Home (private)4c19afcb6a21c9b60405cb97",
    "time": "2012-04-20"
  },
  {
    "place": "Movie Theater4b4a486bf964a520368226e3",
    "time": "2012-04-22"
  },
  {
    "place": "Home (private)4c19afcb6a21c9b60405cb97",
    "time": "2012-04-22"
  },
  {
    "place": "Food & Drink Shop4aea3768f964a52044ba21e3",
    "time": "2012-04-24"
  },
  {
    "place": "Home (private)4c19afcb6a21c9b60405cb97",
    "time": "2012-04-24"
  },
  {
    "place": "Stadium49d60947f964a520a85c1fe3",
    "time": "2012-04-25"
  },
  {
    "place": "Home (private)4c19afcb6a21c9b60405cb97",
    "time": "2012-04-26"
  },
  {
    "place": "Home (private)4c19afcb6a21c9b60405cb97",
    "time": "2012-04-28"
  },
  {
    "place": "Mall4cd9cc77534c224bdd2e8bb9",
    "time": "2012-04-29"
  },
  {
    "place": "Electronics Store4bae9513f964a5202fc33be3",
    "time": "2012-04-29"
  },
  {
    "place": "Electronics Store4aff6f2bf964a520843822e3",
    "time": "2012-04-29"
  },
  {
    "place": "Mall4528a216f964a520173b1fe3",
    "time": "2012-04-29"
  },
  {
    "place": "Home (private)4c19afcb6a21c9b60405cb97",
    "time": "2012-05-05"
  },
  {
    "place": "Home (private)4c19afcb6a21c9b60405cb97",
    "time": "2012-05-05"
  },
  {
    "place": "Drugstore / Pharmacy4b8b3853f964a5201c9832e3",
    "time": "2012-05-06"
  },
  {
    "place": "Italian Restaurant4c93eb6a72dd224be41d9591",
    "time": "2012-05-06"
  },
  {
    "place": "Home (private)4c19afcb6a21c9b60405cb97",
    "time": "2012-05-07"
  },
  {
    "place": "Home (private)4c19afcb6a21c9b60405cb97",
    "time": "2012-05-09"
  },
  {
    "place": "Drugstore / Pharmacy4b8b3853f964a5201c9832e3",
    "time": "2012-05-09"
  },
  {
    "place": "Chinese Restaurant4c3d04d17d002d7ff449af18",
    "time": "2012-05-09"
  },
  {
    "place": "Coffee Shop4b524b96f964a520877527e3",
    "time": "2012-05-09"
  },
  {
    "place": "Office4ecbb92699119fe1ae5790b2",
    "time": "2012-05-11"
  },
  {
    "place": "Bakery4bc2127174a9a5930daed2f6",
    "time": "2012-05-11"
  },
  {
    "place": "Diner4aedb292f964a52033ce21e3",
    "time": "2012-05-11"
  },
  {
    "place": "Home (private)4c19afcb6a21c9b60405cb97",
    "time": "2012-05-12"
  },
  {
    "place": "Park4c4b6bc7712ac928ccdedc6c",
    "time": "2012-05-13"
  },
  {
    "place": "Italian Restaurant4c93eb6a72dd224be41d9591",
    "time": "2012-05-13"
  },
  {
    "place": "Home (private)4c19afcb6a21c9b60405cb97",
    "time": "2012-05-14"
  },
  {
    "place": "Home (private)4c19afcb6a21c9b60405cb97",
    "time": "2012-05-15"
  },
  {
    "place": "Subway4b844030f964a520622a31e3",
    "time": "2012-05-16"
  },
  {
    "place": "Church4a3d4aecf964a52012a21fe3",
    "time": "2012-05-16"
  },
  {
    "place": "Sporting Goods Shop4ac65f49f964a52001b420e3",
    "time": "2012-05-16"
  },
  {
    "place": "Home (private)4c19afcb6a21c9b60405cb97",
    "time": "2012-05-16"
  },
  {
    "place": "Food & Drink Shop4aea3768f964a52044ba21e3",
    "time": "2012-05-17"
  },
  {
    "place": "Home (private)4c19afcb6a21c9b60405cb97",
    "time": "2012-05-17"
  },
  {
    "place": "Home (private)4c19afcb6a21c9b60405cb97",
    "time": "2012-05-18"
  },
  {
    "place": "Drugstore / Pharmacy4c8e2ca21992a1cda64ddbfb",
    "time": "2012-05-21"
  },
  {
    "place": "Library4c4dfafbd667d13a374eb29f",
    "time": "2012-05-22"
  },
  {
    "place": "Financial or Legal Service4ae0a338f964a520278121e3",
    "time": "2012-05-22"
  },
  {
    "place": "Home (private)4c19afcb6a21c9b60405cb97",
    "time": "2012-05-23"
  },
  {
    "place": "Movie Theater4b4a486bf964a520368226e3",
    "time": "2012-05-25"
  },
  {
    "place": "Wings Joint49fa42e7f964a520e26d1fe3",
    "time": "2012-05-25"
  },
  {
    "place": "Home (private)4c19afcb6a21c9b60405cb97",
    "time": "2012-05-25"
  },
  {
    "place": "Home (private)4c19afcb6a21c9b60405cb97",
    "time": "2012-05-27"
  },
  {
    "place": "Bar4acbf386f964a5206fc820e3",
    "time": "2012-05-27"
  },
  {
    "place": "Neighborhood4c1521a577cea593aaacd160",
    "time": "2012-05-28"
  },
  {
    "place": "Home (private)4c19afcb6a21c9b60405cb97",
    "time": "2012-05-29"
  },
  {
    "place": "Office4ecbb92699119fe1ae5790b2",
    "time": "2012-05-29"
  },
  {
    "place": "Other Great Outdoors4d6af6052ea9b1f73794cb28",
    "time": "2012-05-29"
  },
  {
    "place": "Bar40e0b100f964a52099011fe3",
    "time": "2012-05-31"
  },
  {
    "place": "Bar46c4e78af964a520004a1fe3",
    "time": "2012-05-31"
  },
  {
    "place": "Furniture / Home Store4cf180a0899c6ea8be01f1c1",
    "time": "2012-06-01"
  },
  {
    "place": "Sporting Goods Shop4c57177bb1369521f253735a",
    "time": "2012-06-01"
  },
  {
    "place": "Home (private)4c19afcb6a21c9b60405cb97",
    "time": "2012-06-02"
  },
  {
    "place": "Home (private)4c19afcb6a21c9b60405cb97",
    "time": "2012-06-06"
  },
  {
    "place": "Home (private)4c19afcb6a21c9b60405cb97",
    "time": "2012-06-07"
  },
  {
    "place": "Burger Joint4a81ed04f964a520fff71fe3",
    "time": "2012-06-08"
  },
  {
    "place": "Home (private)4c19afcb6a21c9b60405cb97",
    "time": "2012-06-08"
  },
  {
    "place": "Library4c4dfafbd667d13a374eb29f",
    "time": "2012-06-11"
  },
  {
    "place": "Home (private)4c19afcb6a21c9b60405cb97",
    "time": "2012-06-12"
  },
  {
    "place": "Other Great Outdoors4bda05e663c5c9b6c24f2268",
    "time": "2012-06-13"
  },
  {
    "place": "Home (private)4c19afcb6a21c9b60405cb97",
    "time": "2012-06-14"
  },
  {
    "place": "Subway4b844030f964a520622a31e3",
    "time": "2012-06-15"
  },
  {
    "place": "Train Station4aa5c657f964a5206d4920e3",
    "time": "2012-06-18"
  },
  {
    "place": "Train Station4a513b17f964a520d2b01fe3",
    "time": "2012-06-18"
  },
  {
    "place": "Home (private)4c19afcb6a21c9b60405cb97",
    "time": "2012-06-18"
  },
  {
    "place": "Home (private)4c19afcb6a21c9b60405cb97",
    "time": "2012-06-21"
  },
  {
    "place": "Government Building4e540a911495a46b65bf41d1",
    "time": "2012-06-21"
  },
  {
    "place": "Fast Food Restaurant4ba42ce3f964a520248938e3",
    "time": "2012-06-26"
  },
  {
    "place": "Home (private)4c19afcb6a21c9b60405cb97",
    "time": "2012-06-27"
  },
  {
    "place": "Greek Restaurant4ef23776f7905f06eff2b702",
    "time": "2012-06-27"
  },
  {
    "place": "Greek Restaurant4b550916f964a520bad827e3",
    "time": "2012-06-30"
  },
  {
    "place": "Home (private)4c19afcb6a21c9b60405cb97",
    "time": "2012-07-03"
  },
  {
    "place": "Home (private)4c19afcb6a21c9b60405cb97",
    "time": "2012-07-05"
  },
  {
    "place": "Bagel Shop4b607f48f964a520cbe929e3",
    "time": "2012-07-07"
  },
  {
    "place": "Home (private)4c19afcb6a21c9b60405cb97",
    "time": "2012-07-09"
  },
  {
    "place": "Government Building4c867868d8086dcb8cb79a52",
    "time": "2012-07-09"
  },
  {
    "place": "Home (private)4c19afcb6a21c9b60405cb97",
    "time": "2012-07-10"
  },
  {
    "place": "Food & Drink Shop4aea3768f964a52044ba21e3",
    "time": "2012-07-11"
  },
  {
    "place": "Home (private)4c19afcb6a21c9b60405cb97",
    "time": "2012-07-12"
  },
  {
    "place": "Home (private)4c19afcb6a21c9b60405cb97",
    "time": "2012-07-13"
  },
  {
    "place": "Home (private)4c19afcb6a21c9b60405cb97",
    "time": "2012-07-14"
  },
  {
    "place": "Drugstore / Pharmacy4b8b3853f964a5201c9832e3",
    "time": "2012-07-15"
  },
  {
    "place": "Hardware Store4b5f9d6bf964a520bec429e3",
    "time": "2012-07-16"
  },
  {
    "place": "Home (private)4c19afcb6a21c9b60405cb97",
    "time": "2012-07-16"
  },
  {
    "place": "Sporting Goods Shop4ac65f49f964a52001b420e3",
    "time": "2012-07-17"
  },
  {
    "place": "Home (private)4c19afcb6a21c9b60405cb97",
    "time": "2012-07-17"
  },
  {
    "place": "Home (private)4c19afcb6a21c9b60405cb97",
    "time": "2012-07-18"
  },
  {
    "place": "General Travel5005f610e4b0094cc544a6d7",
    "time": "2012-07-20"
  },
  {
    "place": "Home (private)4c19afcb6a21c9b60405cb97",
    "time": "2012-07-29"
  },
  {
    "place": "Home (private)4c19afcb6a21c9b60405cb97",
    "time": "2012-07-30"
  },
  {
    "place": "Drugstore / Pharmacy4c8e2ca21992a1cda64ddbfb",
    "time": "2012-08-05"
  },
  {
    "place": "Home (private)4c19afcb6a21c9b60405cb97",
    "time": "2012-08-05"
  },
  {
    "place": "Home (private)4c19afcb6a21c9b60405cb97",
    "time": "2012-08-09"
  },
  {
    "place": "High School4e71c7eec65bae3784439ff1",
    "time": "2012-08-10"
  },
  {
    "place": "Italian Restaurant4c93eb6a72dd224be41d9591",
    "time": "2012-08-10"
  },
  {
    "place": "Park49ebfb9df964a5204d671fe3",
    "time": "2012-08-12"
  },
  {
    "place": "Home (private)4c19afcb6a21c9b60405cb97",
    "time": "2012-08-12"
  },
  {
    "place": "Food & Drink Shop4bfc516bf4dc9c74ee989e3f",
    "time": "2012-08-12"
  },
  {
    "place": "Bagel Shop4b607f48f964a520cbe929e3",
    "time": "2012-08-12"
  },
  {
    "place": "Home (private)4c19afcb6a21c9b60405cb97",
    "time": "2012-08-12"
  },
  {
    "place": "Subway4b844030f964a520622a31e3",
    "time": "2012-08-14"
  },
  {
    "place": "Sporting Goods Shop4ac65f49f964a52001b420e3",
    "time": "2012-08-14"
  },
  {
    "place": "Drugstore / Pharmacy4b8b3853f964a5201c9832e3",
    "time": "2012-08-16"
  },
  {
    "place": "Home (private)4c19afcb6a21c9b60405cb97",
    "time": "2012-08-19"
  },
  {
    "place": "Home (private)4c19afcb6a21c9b60405cb97",
    "time": "2012-08-20"
  },
  {
    "place": "Department Store4e369eeb7d8b0c62b2e02138",
    "time": "2012-08-18"
  },
  {
    "place": "Bank4c48338f96abd13ab0687301",
    "time": "2012-08-18"
  },
  {
    "place": "Fast Food Restaurant4ba58308f964a5201c0e39e3",
    "time": "2012-09-05"
  },
  {
    "place": "Subway4b844030f964a520622a31e3",
    "time": "2012-09-09"
  },
  {
    "place": "Train Station4c8e1808d68c6dcbf5f4f8a1",
    "time": "2012-09-09"
  },
  {
    "place": "Train Station4e3ab921b3ade614e1275a0c",
    "time": "2012-09-09"
  },
  {
    "place": "Home (private)4c19afcb6a21c9b60405cb97",
    "time": "2012-09-10"
  },
  {
    "place": "Neighborhood4b996536f964a520467835e3",
    "time": "2012-09-15"
  },
  {
    "place": "BBQ Joint4d051e8128926ea8c31e6fc2",
    "time": "2012-10-11"
  },
  {
    "place": "Ice Cream Shop4c02f878f423a59326a0cf16",
    "time": "2012-10-18"
  },
  {
    "place": "Automotive Shop4bbf23f8f353d13a7a157e10",
    "time": "2012-10-22"
  },
  {
    "place": "Automotive Shop4bbf23f8f353d13a7a157e10",
    "time": "2012-10-23"
  },
  {
    "place": "Comedy Club3fd66200f964a520efe71ee3",
    "time": "2012-10-25"
  },
  {
    "place": "Food & Drink Shop4aea3768f964a52044ba21e3",
    "time": "2012-10-28"
  },
  {
    "place": "Burger Joint4a81ed04f964a520fff71fe3",
    "time": "2012-11-05"
  },
  {
    "place": "Deli / Bodega4c563ff4b7a31b8dacc14dda",
    "time": "2012-11-07"
  },
  {
    "place": "Airport49c046f1f964a5205b551fe3",
    "time": "2012-11-09"
  },
  {
    "place": "Bagel Shop4ca726b614c33704816fc63b",
    "time": "2012-11-13"
  },
  {
    "place": "Drugstore / Pharmacy4b8b3853f964a5201c9832e3",
    "time": "2012-11-15"
  },
  {
    "place": "Laundry Service4d100eda7177b1f720434f22",
    "time": "2012-11-15"
  },
  {
    "place": "Bagel Shop4ca726b614c33704816fc63b",
    "time": "2012-11-16"
  },
  {
    "place": "Sandwich Place4b4b80aff964a520469e26e3",
    "time": "2012-11-24"
  },
  {
    "place": "Deli / Bodega4bd47db329eb9c74c3ac91e1",
    "time": "2012-11-26"
  },
  {
    "place": "Automotive Shop4bbf23f8f353d13a7a157e10",
    "time": "2012-11-28"
  },
  {
    "place": "Bank4c178cf3c2dfc9286e29a869",
    "time": "2012-12-06"
  },
  {
    "place": "Breakfast Spot4da4337d9aa4721e341e321a",
    "time": "2012-12-07"
  },
  {
    "place": "Deli / Bodega4a935e84f964a520a61f20e3",
    "time": "2012-12-09"
  },
  {
    "place": "Furniture / Home Store4cf180a0899c6ea8be01f1c1",
    "time": "2012-12-10"
  },
  {
    "place": "Other Great Outdoors50c811dbe4b0d585092b704f",
    "time": "2012-12-13"
  },
  {
    "place": "Fast Food Restaurant4bfec177ca1920a1b9c9eb81",
    "time": "2012-12-13"
  },
  {
    "place": "Gas Station / Garage4b9c4a3ff964a520675c36e3",
    "time": "2012-12-16"
  },
  {
    "place": "Sporting Goods Shop4b688870f964a520507e2be3",
    "time": "2012-12-18"
  },
  {
    "place": "Neighborhood4bf212943506ef3bb679bd22",
    "time": "2012-12-31"
  },
  {
    "place": "Other Great Outdoors4effec14722e0f0772230d4b",
    "time": "2012-12-31"
  },
  {
    "place": "American Restaurant4d77949d926a6dcb9b2d4b00",
    "time": "2013-01-01"
  },
  {
    "place": "Airport49c046f1f964a5205b551fe3",
    "time": "2013-01-05"
  },
  {
    "place": "Furniture / Home Store4cf180a0899c6ea8be01f1c1",
    "time": "2013-01-06"
  },
  {
    "place": "Deli / Bodega4a935e84f964a520a61f20e3",
    "time": "2013-01-10"
  }
]