[
  {
    "place": "Park4bd89b6ec9a4ef3b9f771a81",
    "time": "2012-04-04"
  },
  {
    "place": "Neighborhood4c3d106fb169c9b6d3a24668",
    "time": "2012-04-07"
  },
  {
    "place": "Bank4c12900c82a3c9b629f4f9f8",
    "time": "2012-04-07"
  },
  {
    "place": "Home (private)4f0007b40e618ea766e65fed",
    "time": "2012-04-07"
  },
  {
    "place": "Light Rail4c6ad75a9c76d13a452a4d0f",
    "time": "2012-04-09"
  },
  {
    "place": "College Academic Building4e6ce1ab1495f34925b9caf4",
    "time": "2012-04-09"
  },
  {
    "place": "Bar4d02666edc18b1f73c0eec10",
    "time": "2012-04-09"
  },
  {
    "place": "Other Great Outdoors4e6e47ee483bf1052170f568",
    "time": "2012-04-12"
  },
  {
    "place": "Trade School4f85767ce4b0be4a11e4ad92",
    "time": "2012-04-12"
  },
  {
    "place": "Home (private)4dc83583d22dad7970c7a884",
    "time": "2012-04-13"
  },
  {
    "place": "Park4bb8ba90cf2fc9b66ec69f02",
    "time": "2012-04-13"
  },
  {
    "place": "Park4bb8ba90cf2fc9b66ec69f02",
    "time": "2012-04-14"
  },
  {
    "place": "Residential Building (Apartment / Condo)4c351b773896e21e49c1ec90",
    "time": "2012-04-14"
  },
  {
    "place": "Train Station42911d00f964a520f5231fe3",
    "time": "2012-04-14"
  },
  {
    "place": "Drugstore / Pharmacy4be047c66af676b02a3c51d4",
    "time": "2012-04-14"
  },
  {
    "place": "Burger Joint4db563ceec8e571a35db9d64",
    "time": "2012-04-14"
  },
  {
    "place": "Clothing Store4ab7e0d7f964a520417b20e3",
    "time": "2012-04-14"
  },
  {
    "place": "Train Station4da8feeb93a04642f05c7841",
    "time": "2012-04-14"
  },
  {
    "place": "Home (private)4e9f42edd22d6eead7bae009",
    "time": "2012-04-14"
  },
  {
    "place": "Diner4c0bba3b6071a593899de132",
    "time": "2012-04-15"
  },
  {
    "place": "Park4bb8ba90cf2fc9b66ec69f02",
    "time": "2012-04-16"
  },
  {
    "place": "Light Rail4c6ad75a9c76d13a452a4d0f",
    "time": "2012-04-16"
  },
  {
    "place": "Other Great Outdoors4e6e47ee483bf1052170f568",
    "time": "2012-04-16"
  },
  {
    "place": "Trade School4f85767ce4b0be4a11e4ad92",
    "time": "2012-04-16"
  },
  {
    "place": "Building4f8d7fc7e4b070473349b115",
    "time": "2012-04-17"
  },
  {
    "place": "Hardware Store4bef137c2ff520a13216e8a2",
    "time": "2012-04-17"
  },
  {
    "place": "Home (private)4dc83583d22dad7970c7a884",
    "time": "2012-04-19"
  },
  {
    "place": "Light Rail4c6ad75a9c76d13a452a4d0f",
    "time": "2012-04-19"
  },
  {
    "place": "Salon / Barbershop4dcdb55ab0fb25f6e3317f96",
    "time": "2012-04-19"
  },
  {
    "place": "Government Building4b63288cf964a52033672ae3",
    "time": "2012-04-20"
  },
  {
    "place": "Automotive Shop4e1f4100ae60cd553def4983",
    "time": "2012-04-20"
  },
  {
    "place": "Neighborhood4c3d106fb169c9b6d3a24668",
    "time": "2012-04-20"
  },
  {
    "place": "Office4bd6ed0929eb9c7404cd95e1",
    "time": "2012-04-20"
  },
  {
    "place": "Neighborhood4c3d106fb169c9b6d3a24668",
    "time": "2012-04-20"
  },
  {
    "place": "River4bab56aff964a5209ea13ae3",
    "time": "2012-04-20"
  },
  {
    "place": "Neighborhood4bc72ae7af07a593909c7e2d",
    "time": "2012-04-20"
  },
  {
    "place": "Diner4c0bba3b6071a593899de132",
    "time": "2012-04-21"
  },
  {
    "place": "Bank4c12900c82a3c9b629f4f9f8",
    "time": "2012-04-21"
  },
  {
    "place": "School4ea2c3236da1455cac7bc8d2",
    "time": "2012-04-21"
  },
  {
    "place": "Movie Theater4a7e033df964a5209ff01fe3",
    "time": "2012-04-23"
  },
  {
    "place": "College Academic Building4e6ce1ab1495f34925b9caf4",
    "time": "2012-04-24"
  },
  {
    "place": "Drugstore / Pharmacy4bd8a73ef645c9b6a4a0a8e0",
    "time": "2012-04-25"
  },
  {
    "place": "College Academic Building4e6ce1ab1495f34925b9caf4",
    "time": "2012-04-25"
  },
  {
    "place": "Light Rail4c6ad75a9c76d13a452a4d0f",
    "time": "2012-04-25"
  },
  {
    "place": "Food & Drink Shop4b76d65df964a520f6622ee3",
    "time": "2012-04-25"
  },
  {
    "place": "Home (private)4e9f42edd22d6eead7bae009",
    "time": "2012-04-26"
  },
  {
    "place": "Government Building4bd32a4cb221c9b65d02d9d0",
    "time": "2012-04-26"
  },
  {
    "place": "Other Great Outdoors4e6e47ee483bf1052170f568",
    "time": "2012-04-26"
  },
  {
    "place": "College Academic Building4e6ce1ab1495f34925b9caf4",
    "time": "2012-04-26"
  },
  {
    "place": "Mall4ba82484f964a52051ce39e3",
    "time": "2012-04-27"
  },
  {
    "place": "Furniture / Home Store4a9ad923f964a520253320e3",
    "time": "2012-04-27"
  },
  {
    "place": "Mall4ba82484f964a52051ce39e3",
    "time": "2012-04-27"
  },
  {
    "place": "Drugstore / Pharmacy4bfd75f4bf6576b01250adb8",
    "time": "2012-04-27"
  },
  {
    "place": "Chinese Restaurant4ee162c00e01e3534fa88b92",
    "time": "2012-04-27"
  },
  {
    "place": "Furniture / Home Store4c8250f4e602b1f78cc89a7a",
    "time": "2012-04-29"
  },
  {
    "place": "Department Store4a6f8c85f964a52079d61fe3",
    "time": "2012-04-29"
  },
  {
    "place": "Department Store4b9401b6f964a520ae6034e3",
    "time": "2012-05-01"
  },
  {
    "place": "Home (private)4dc83583d22dad7970c7a884",
    "time": "2012-05-01"
  },
  {
    "place": "Light Rail4c6ad75a9c76d13a452a4d0f",
    "time": "2012-05-02"
  },
  {
    "place": "Light Rail4b672e79f964a520dc3f2be3",
    "time": "2012-05-03"
  },
  {
    "place": "College Academic Building4e6ce1ab1495f34925b9caf4",
    "time": "2012-05-03"
  },
  {
    "place": "Park4bd89b6ec9a4ef3b9f771a81",
    "time": "2012-05-03"
  },
  {
    "place": "Home (private)4dc83583d22dad7970c7a884",
    "time": "2012-05-03"
  },
  {
    "place": "Food & Drink Shop4b76d65df964a520f6622ee3",
    "time": "2012-05-04"
  },
  {
    "place": "Park4bb8ba90cf2fc9b66ec69f02",
    "time": "2012-05-04"
  },
  {
    "place": "Drugstore / Pharmacy4c22630e11de20a117ca84ce",
    "time": "2012-05-06"
  },
  {
    "place": "Fast Food Restaurant4bc352bd920eb71333441d2c",
    "time": "2012-05-06"
  },
  {
    "place": "Light Rail4c6ad75a9c76d13a452a4d0f",
    "time": "2012-05-07"
  },
  {
    "place": "Other Great Outdoors4b817b9af964a52038a930e3",
    "time": "2012-05-08"
  },
  {
    "place": "Light Rail4c6ad75a9c76d13a452a4d0f",
    "time": "2012-05-09"
  },
  {
    "place": "College Academic Building4e6ce1ab1495f34925b9caf4",
    "time": "2012-05-09"
  },
  {
    "place": "Home (private)4e9f42edd22d6eead7bae009",
    "time": "2012-05-11"
  },
  {
    "place": "Hotel4c3e54c3b8b4be9a2a09ccef",
    "time": "2012-05-12"
  },
  {
    "place": "Department Store4ad48c46f964a52028e820e3",
    "time": "2012-05-13"
  },
  {
    "place": "Chinese Restaurant4ee162c00e01e3534fa88b92",
    "time": "2012-05-13"
  },
  {
    "place": "Park4bb8ba90cf2fc9b66ec69f02",
    "time": "2012-05-13"
  },
  {
    "place": "Diner4c0bba3b6071a593899de132",
    "time": "2012-05-13"
  },
  {
    "place": "Home (private)4dc83583d22dad7970c7a884",
    "time": "2012-05-13"
  },
  {
    "place": "Light Rail4c6ad75a9c76d13a452a4d0f",
    "time": "2012-05-14"
  },
  {
    "place": "City4e628332d22d509a39a9a788",
    "time": "2012-05-15"
  },
  {
    "place": "College Academic Building4e6ce1ab1495f34925b9caf4",
    "time": "2012-05-16"
  },
  {
    "place": "American Restaurant4f9207cae4b0fa7cd0365655",
    "time": "2012-05-16"
  },
  {
    "place": "Miscellaneous Shop4de171d1d22d2a4ecdae2f7a",
    "time": "2012-05-16"
  },
  {
    "place": "Gas Station / Garage4e014d1c7d8beaa1649f6957",
    "time": "2012-05-17"
  },
  {
    "place": "Light Rail4b672e79f964a520dc3f2be3",
    "time": "2012-05-17"
  },
  {
    "place": "College Academic Building4e6ce1ab1495f34925b9caf4",
    "time": "2012-05-17"
  },
  {
    "place": "Trade School4f85767ce4b0be4a11e4ad92",
    "time": "2012-05-17"
  },
  {
    "place": "Home (private)4dc83583d22dad7970c7a884",
    "time": "2012-05-18"
  },
  {
    "place": "Mall4ba82484f964a52051ce39e3",
    "time": "2012-05-18"
  },
  {
    "place": "Drugstore / Pharmacy4d0cdb933905b1f748d7964b",
    "time": "2012-05-19"
  },
  {
    "place": "Government Building4bd32a4cb221c9b65d02d9d0",
    "time": "2012-05-21"
  },
  {
    "place": "Light Rail4c6ad75a9c76d13a452a4d0f",
    "time": "2012-05-21"
  },
  {
    "place": "Shop & Service4e525f11c65ba127fb30bfa0",
    "time": "2012-05-22"
  },
  {
    "place": "Light Rail4b672e79f964a520dc3f2be3",
    "time": "2012-05-22"
  },
  {
    "place": "City4e628332d22d509a39a9a788",
    "time": "2012-05-25"
  },
  {
    "place": "Seafood Restaurant4db231b15da3e9788cc01c88",
    "time": "2012-05-25"
  },
  {
    "place": "Paper / Office Supplies Store4bae5ea1f964a5202ba93be3",
    "time": "2012-05-27"
  },
  {
    "place": "Park4bb8ba90cf2fc9b66ec69f02",
    "time": "2012-05-28"
  },
  {
    "place": "Fast Food Restaurant4c07c6e7c69aa59329c29ba2",
    "time": "2012-05-28"
  },
  {
    "place": "Light Rail4c6ad75a9c76d13a452a4d0f",
    "time": "2012-05-29"
  },
  {
    "place": "City4e628332d22d509a39a9a788",
    "time": "2012-06-01"
  },
  {
    "place": "Movie Theater4b300112f964a52040f424e3",
    "time": "2012-06-01"
  },
  {
    "place": "Food & Drink Shop4b5b5abdf964a5202cf728e3",
    "time": "2012-06-03"
  },
  {
    "place": "Home (private)4f0007b40e618ea766e65fed",
    "time": "2012-06-03"
  },
  {
    "place": "Light Rail4b672e79f964a520dc3f2be3",
    "time": "2012-06-04"
  },
  {
    "place": "Light Rail4c6ad75a9c76d13a452a4d0f",
    "time": "2012-06-06"
  },
  {
    "place": "College Academic Building4e6ce1ab1495f34925b9caf4",
    "time": "2012-06-06"
  },
  {
    "place": "Shop & Service4e525f11c65ba127fb30bfa0",
    "time": "2012-06-07"
  },
  {
    "place": "Drugstore / Pharmacy4bd8a73ef645c9b6a4a0a8e0",
    "time": "2012-06-07"
  },
  {
    "place": "Breakfast Spot4bc28f702a89ef3bed06f488",
    "time": "2012-06-08"
  },
  {
    "place": "Bar4d02666edc18b1f73c0eec10",
    "time": "2012-06-09"
  },
  {
    "place": "Park4bb8ba90cf2fc9b66ec69f02",
    "time": "2012-06-09"
  },
  {
    "place": "Home (private)4dc83583d22dad7970c7a884",
    "time": "2012-06-09"
  },
  {
    "place": "General Entertainment4dc7fcd36365a9e8a5ca8ccf",
    "time": "2012-06-09"
  },
  {
    "place": "Neighborhood4bc72ae7af07a593909c7e2d",
    "time": "2012-06-10"
  },
  {
    "place": "Athletic & Sport4b55cc3bf964a5207bf027e3",
    "time": "2012-06-10"
  },
  {
    "place": "Light Rail4c6ad75a9c76d13a452a4d0f",
    "time": "2012-10-16"
  },
  {
    "place": "Snack Place4c3150c166e40f473feac48b",
    "time": "2012-10-17"
  },
  {
    "place": "Trade School4f85767ce4b0be4a11e4ad92",
    "time": "2012-10-17"
  },
  {
    "place": "Home (private)4dc83583d22dad7970c7a884",
    "time": "2012-10-24"
  },
  {
    "place": "Donut Shop4c393d4bedba9521bc49d625",
    "time": "2012-10-25"
  },
  {
    "place": "Home (private)4dc83583d22dad7970c7a884",
    "time": "2012-10-25"
  },
  {
    "place": "Laundry Service4c60d280891bef3b67d5304b",
    "time": "2012-10-27"
  },
  {
    "place": "Home (private)4dc83583d22dad7970c7a884",
    "time": "2012-10-28"
  },
  {
    "place": "Home (private)4dc83583d22dad7970c7a884",
    "time": "2012-11-01"
  },
  {
    "place": "Light Rail4c6ad75a9c76d13a452a4d0f",
    "time": "2012-11-05"
  },
  {
    "place": "Light Rail4c599df7d3aee21ee4a26855",
    "time": "2012-11-09"
  },
  {
    "place": "Park4bd89b6ec9a4ef3b9f771a81",
    "time": "2012-11-11"
  },
  {
    "place": "Light Rail4c6ad75a9c76d13a452a4d0f",
    "time": "2012-11-13"
  },
  {
    "place": "Trade School4f85767ce4b0be4a11e4ad92",
    "time": "2012-11-13"
  },
  {
    "place": "Light Rail4c6ad75a9c76d13a452a4d0f",
    "time": "2012-11-16"
  },
  {
    "place": "Residential Building (Apartment / Condo)4c7549295db9bfb713f94113",
    "time": "2012-11-18"
  },
  {
    "place": "Residential Building (Apartment / Condo)4c351b773896e21e49c1ec90",
    "time": "2012-11-18"
  },
  {
    "place": "Bus Station4f0adfe7e4b0ef60eff744d9",
    "time": "2012-11-20"
  },
  {
    "place": "Light Rail4c6ad75a9c76d13a452a4d0f",
    "time": "2012-11-20"
  },
  {
    "place": "Light Rail4cadb840628cb1f74baa2d15",
    "time": "2012-11-23"
  },
  {
    "place": "Home (private)4f0007b40e618ea766e65fed",
    "time": "2012-11-24"
  },
  {
    "place": "Zoo4e9c94a802d5df1b511486af",
    "time": "2012-11-24"
  },
  {
    "place": "Home (private)4dc83583d22dad7970c7a884",
    "time": "2012-11-24"
  },
  {
    "place": "Medical Center4ad48c46f964a52028e820e3",
    "time": "2012-11-24"
  },
  {
    "place": "Diner4c0bba3b6071a593899de132",
    "time": "2012-11-24"
  },
  {
    "place": "Train Station4a9fc4fbf964a520493d20e3",
    "time": "2012-11-25"
  },
  {
    "place": "Home (private)4e9f42edd22d6eead7bae009",
    "time": "2012-11-25"
  },
  {
    "place": "Home (private)4dc83583d22dad7970c7a884",
    "time": "2012-11-29"
  },
  {
    "place": "Fast Food Restaurant4c07c6e7c69aa59329c29ba2",
    "time": "2012-11-30"
  },
  {
    "place": "Cosmetics Shop4c80329647cc224b3306719f",
    "time": "2012-12-02"
  },
  {
    "place": "Mall4dd148cc88778512443b2173",
    "time": "2012-12-02"
  },
  {
    "place": "Home (private)4dc83583d22dad7970c7a884",
    "time": "2012-12-02"
  },
  {
    "place": "Snack Place4c3150c166e40f473feac48b",
    "time": "2012-12-03"
  },
  {
    "place": "College Academic Building4e6ce1ab1495f34925b9caf4",
    "time": "2012-12-05"
  },
  {
    "place": "Medical Center4ad48c46f964a52028e820e3",
    "time": "2012-12-05"
  },
  {
    "place": "Home (private)4dc83583d22dad7970c7a884",
    "time": "2012-12-05"
  },
  {
    "place": "Mall4ba82484f964a52051ce39e3",
    "time": "2012-12-06"
  },
  {
    "place": "Light Rail4c6ad75a9c76d13a452a4d0f",
    "time": "2012-12-07"
  },
  {
    "place": "Light Rail4b672e79f964a520dc3f2be3",
    "time": "2012-12-07"
  },
  {
    "place": "Movie Theater4b802f81f964a520515a30e3",
    "time": "2012-12-08"
  },
  {
    "place": "Fast Food Restaurant4c07c6e7c69aa59329c29ba2",
    "time": "2012-12-13"
  }
]