[
  {
    "place": "Salon / Barbershop4e343a39fa76f00388ca00f2",
    "time": "2012-04-22"
  },
  {
    "place": "Government Building4f05d6a1e3002adb76a57deb",
    "time": "2012-04-22"
  },
  {
    "place": "Bar4db42e255da3a76f4438ccd8",
    "time": "2012-04-22"
  },
  {
    "place": "Athletic & Sport4b549e0cf964a520f6c227e3",
    "time": "2012-04-22"
  },
  {
    "place": "Athletic & Sport4b549e0cf964a520f6c227e3",
    "time": "2012-04-22"
  },
  {
    "place": "Other Great Outdoors4cec10030f196dcb277d5bae",
    "time": "2012-04-22"
  },
  {
    "place": "Food & Drink Shop4a7cbbf4f964a52064ed1fe3",
    "time": "2012-04-22"
  },
  {
    "place": "Food & Drink Shop4f7472e8e4b026e791b441f5",
    "time": "2012-04-22"
  },
  {
    "place": "Food & Drink Shop4f7472e8e4b026e791b441f5",
    "time": "2012-04-22"
  },
  {
    "place": "School4ed69bf5775b4437a94c7fcd",
    "time": "2012-04-22"
  },
  {
    "place": "Bus Station4caf777adb32f04d26a4b74d",
    "time": "2012-04-22"
  },
  {
    "place": "Residential Building (Apartment / Condo)4ddf276e227140b904fb4970",
    "time": "2012-04-22"
  },
  {
    "place": "Coffee Shop4ab8121ef964a520117c20e3",
    "time": "2012-04-22"
  },
  {
    "place": "Subway4d8512acd5fab60c65eaef9b",
    "time": "2012-04-23"
  },
  {
    "place": "Home (private)4dce4acd8877851243f3d0ef",
    "time": "2012-04-23"
  },
  {
    "place": "Government Building4f05d6a1e3002adb76a57deb",
    "time": "2012-04-23"
  },
  {
    "place": "Library4ac2529ef964a520b69820e3",
    "time": "2012-04-23"
  },
  {
    "place": "Medical Center4f95b4d4e4b0a20c2806f066",
    "time": "2012-04-23"
  },
  {
    "place": "Coffee Shop46712cd5f964a520c8471fe3",
    "time": "2012-04-23"
  },
  {
    "place": "Park4aba1a80f964a5205f8020e3",
    "time": "2012-04-23"
  },
  {
    "place": "Deli / Bodega4e0a03a5fa767637fd3c47f1",
    "time": "2012-04-23"
  },
  {
    "place": "Home (private)4dce4acd8877851243f3d0ef",
    "time": "2012-04-23"
  },
  {
    "place": "Bus Station4caf777adb32f04d26a4b74d",
    "time": "2012-04-24"
  },
  {
    "place": "Home (private)4f9616e8e4b0e8af220715e0",
    "time": "2012-04-24"
  },
  {
    "place": "Other Great Outdoors4cec10030f196dcb277d5bae",
    "time": "2012-05-12"
  },
  {
    "place": "Coffee Shop46712cd5f964a520c8471fe3",
    "time": "2012-05-14"
  },
  {
    "place": "Medical Center4f95b4d4e4b0a20c2806f066",
    "time": "2012-05-14"
  },
  {
    "place": "Coffee Shop46712cd5f964a520c8471fe3",
    "time": "2012-05-15"
  },
  {
    "place": "College Academic Building4c7d0f11744d8cfa044dbc37",
    "time": "2012-05-15"
  },
  {
    "place": "College Academic Building4c7d0f11744d8cfa044dbc37",
    "time": "2012-05-16"
  },
  {
    "place": "Coffee Shop46712cd5f964a520c8471fe3",
    "time": "2012-05-16"
  },
  {
    "place": "Bus Station4d20f8680901721e4a1697a5",
    "time": "2012-05-17"
  },
  {
    "place": "Coffee Shop46712cd5f964a520c8471fe3",
    "time": "2012-05-21"
  },
  {
    "place": "College Academic Building4c7d0f11744d8cfa044dbc37",
    "time": "2012-05-22"
  },
  {
    "place": "Medical Center50337486e4b0717d1319988f",
    "time": "2012-05-28"
  },
  {
    "place": "Residential Building (Apartment / Condo)4f9e4a03e4b03d83ee1420e1",
    "time": "2012-06-17"
  },
  {
    "place": "Salon / Barbershop4fc3819ce4b0a503aeb48f94",
    "time": "2012-06-17"
  },
  {
    "place": "Other Great Outdoors4e28d737149554c7743e489a",
    "time": "2012-06-17"
  },
  {
    "place": "Salon / Barbershop4fc3819ce4b0a503aeb48f94",
    "time": "2012-06-17"
  },
  {
    "place": "General Entertainment4eb7161fb634a04860decc6c",
    "time": "2012-06-17"
  },
  {
    "place": "College Academic Building4cbdc3f9a33bb1f79f10a1fd",
    "time": "2012-06-17"
  },
  {
    "place": "Government Building4df1554dd1649c8a28d9b7f2",
    "time": "2012-06-17"
  },
  {
    "place": "Residential Building (Apartment / Condo)4e1272e2e4cdef074b7cc9ed",
    "time": "2012-06-17"
  },
  {
    "place": "Food & Drink Shop4c2bcf718ef52d7f19ff31ba",
    "time": "2012-06-17"
  },
  {
    "place": "Residential Building (Apartment / Condo)4fb2bec2e4b034ff66f3609a",
    "time": "2012-06-17"
  },
  {
    "place": "Other Nightlife4f66c28be4b0746bea8cfba2",
    "time": "2012-06-17"
  },
  {
    "place": "Animal Shelter4eaebdac30f855f5b3d9dc19",
    "time": "2012-06-17"
  },
  {
    "place": "Residential Building (Apartment / Condo)4e1f806c628469a57401de5b",
    "time": "2012-06-17"
  },
  {
    "place": "Bridge4f4d6192e4b05dbceb416440",
    "time": "2012-06-17"
  },
  {
    "place": "Airport4ace6c89f964a52078d020e3",
    "time": "2012-06-17"
  },
  {
    "place": "Gym / Fitness Center4cd276352b52a093d0f61e39",
    "time": "2012-06-17"
  },
  {
    "place": "Airport43a52546f964a520532c1fe3",
    "time": "2012-06-17"
  },
  {
    "place": "Residential Building (Apartment / Condo)4f9e4a03e4b03d83ee1420e1",
    "time": "2012-06-18"
  },
  {
    "place": "Salon / Barbershop4fc3819ce4b0a503aeb48f94",
    "time": "2012-06-18"
  },
  {
    "place": "Neighborhood4eaa765d4fc6d0cb8bba78fd",
    "time": "2012-06-18"
  },
  {
    "place": "Music Venue4eba1a969adfe14d0427dee3",
    "time": "2012-06-18"
  },
  {
    "place": "Medical Center4e330c921838df3b5f69800e",
    "time": "2012-06-18"
  },
  {
    "place": "Building4e616380483bd9a973df84a0",
    "time": "2012-06-18"
  },
  {
    "place": "Building4d58ba5124466ea8f0dd6f9f",
    "time": "2012-06-18"
  },
  {
    "place": "Government Building4f05d6a1e3002adb76a57deb",
    "time": "2012-06-18"
  },
  {
    "place": "General Travel4bf0aedc1f17ef3b59d29bc8",
    "time": "2012-06-18"
  },
  {
    "place": "Residential Building (Apartment / Condo)4c76a0eb66be6dcb55afc30f",
    "time": "2012-06-18"
  },
  {
    "place": "Athletic & Sport4b549e0cf964a520f6c227e3",
    "time": "2012-06-18"
  },
  {
    "place": "Train Station4d8fb54a6174a0932c9ae4e3",
    "time": "2012-06-18"
  },
  {
    "place": "Food & Drink Shop4a7cbbf4f964a52064ed1fe3",
    "time": "2012-06-18"
  },
  {
    "place": "Other Great Outdoors4cec10030f196dcb277d5bae",
    "time": "2012-06-18"
  },
  {
    "place": "Building4d58ba5124466ea8f0dd6f9f",
    "time": "2012-06-18"
  },
  {
    "place": "Train Station4d8fb54a6174a0932c9ae4e3",
    "time": "2012-06-18"
  },
  {
    "place": "Art Gallery4c6aa84c35d3be9a26612206",
    "time": "2012-06-18"
  },
  {
    "place": "Bar4fe207d6e4b02702d7c9d290",
    "time": "2012-06-20"
  },
  {
    "place": "Government Building4f05d6a1e3002adb76a57deb",
    "time": "2012-06-20"
  },
  {
    "place": "Museum4cf3f4441d18a143b32263ec",
    "time": "2012-06-20"
  },
  {
    "place": "Tea Room4a023f1df964a52040711fe3",
    "time": "2012-06-20"
  },
  {
    "place": "Moving Target4fb62e7ee4b06643fff757d4",
    "time": "2012-06-20"
  },
  {
    "place": "Building4d58ba5124466ea8f0dd6f9f",
    "time": "2012-06-20"
  },
  {
    "place": "Athletic & Sport4b549e0cf964a520f6c227e3",
    "time": "2012-06-20"
  },
  {
    "place": "Theater4ed6d9190aaf7ccfdb70d9f1",
    "time": "2012-06-21"
  },
  {
    "place": "Food Truck4cb72426f6616dcb3b8fe408",
    "time": "2012-06-21"
  },
  {
    "place": "Chinese Restaurant4e2e08021838f1c552b6b8eb",
    "time": "2012-06-21"
  },
  {
    "place": "Food & Drink Shop4a7cbbf4f964a52064ed1fe3",
    "time": "2012-06-21"
  },
  {
    "place": "Government Building4f05d6a1e3002adb76a57deb",
    "time": "2012-06-21"
  },
  {
    "place": "Bar4fe207d6e4b02702d7c9d290",
    "time": "2012-06-21"
  },
  {
    "place": "Athletic & Sport4b549e0cf964a520f6c227e3",
    "time": "2012-06-21"
  },
  {
    "place": "College Academic Building4c7d0f11744d8cfa044dbc37",
    "time": "2012-06-21"
  },
  {
    "place": "Food & Drink Shop4a5be707f964a520f5bb1fe3",
    "time": "2012-06-21"
  },
  {
    "place": "Salon / Barbershop4f039ff02c5b145d08bc63ef",
    "time": "2012-06-21"
  },
  {
    "place": "Movie Theater43d3a659f964a520212e1fe3",
    "time": "2012-06-21"
  },
  {
    "place": "Residential Building (Apartment / Condo)4f9e4a03e4b03d83ee1420e1",
    "time": "2012-06-25"
  },
  {
    "place": "Clothing Store4d8d07cad4ec8cfa6c434f89",
    "time": "2012-06-25"
  },
  {
    "place": "Salon / Barbershop4fc3819ce4b0a503aeb48f94",
    "time": "2012-06-25"
  },
  {
    "place": "Other Great Outdoors4e28d737149554c7743e489a",
    "time": "2012-06-25"
  },
  {
    "place": "African Restaurant4cb2beaadedbef3bca7c9d40",
    "time": "2012-06-25"
  },
  {
    "place": "Bar4ec468dd6c254debead9b3d0",
    "time": "2012-06-25"
  },
  {
    "place": "Other Great Outdoors4dbac27ca86ede8c0fa1b1e8",
    "time": "2012-06-26"
  },
  {
    "place": "Building4d58ba5124466ea8f0dd6f9f",
    "time": "2012-06-26"
  },
  {
    "place": "Art Gallery4ee2b967490138df8b8adfad",
    "time": "2012-06-26"
  },
  {
    "place": "Building4f27222ae4b0b653a63c975e",
    "time": "2012-06-26"
  },
  {
    "place": "Food & Drink Shop4f7472e8e4b026e791b441f5",
    "time": "2012-06-26"
  },
  {
    "place": "Park4d9374de52ed224b0ee51dac",
    "time": "2012-06-26"
  },
  {
    "place": "Food & Drink Shop4b5b6ddcf964a5205ffd28e3",
    "time": "2012-06-26"
  },
  {
    "place": "Hotel4aa4f236f964a5204d4720e3",
    "time": "2012-06-26"
  },
  {
    "place": "Salon / Barbershop4fc3819ce4b0a503aeb48f94",
    "time": "2012-06-27"
  },
  {
    "place": "African Restaurant4cb2beaadedbef3bca7c9d40",
    "time": "2012-06-27"
  },
  {
    "place": "Fried Chicken Joint4e4decf3bd4101d0d79e5a93",
    "time": "2012-06-27"
  },
  {
    "place": "Mexican Restaurant4eb715fddab4fe51125d320e",
    "time": "2012-06-27"
  },
  {
    "place": "Mexican Restaurant4eb715fddab4fe51125d320e",
    "time": "2012-06-27"
  },
  {
    "place": "Flower Shop4f1757d2e4b062dab8da9ad1",
    "time": "2012-06-27"
  },
  {
    "place": "Community College4bdebca26198c9b61fa114ff",
    "time": "2012-06-27"
  },
  {
    "place": "College Academic Building4ca11b6479d9b1f7d5a9bc99",
    "time": "2012-06-27"
  },
  {
    "place": "Miscellaneous Shop4ee2c41177c8e89316832d54",
    "time": "2012-06-27"
  },
  {
    "place": "College Academic Building4c7d0f11744d8cfa044dbc37",
    "time": "2012-06-27"
  },
  {
    "place": "Mexican Restaurant42c09300f964a520bc251fe3",
    "time": "2012-06-27"
  },
  {
    "place": "Gym / Fitness Center4ef4fa7c7ee5ccd8e3e88383",
    "time": "2012-06-27"
  },
  {
    "place": "American Restaurant4fe350b6e4b0f9f750a26eaa",
    "time": "2012-06-27"
  },
  {
    "place": "Food & Drink Shop4a7cbbf4f964a52064ed1fe3",
    "time": "2012-06-30"
  },
  {
    "place": "Bar4fe207d6e4b02702d7c9d290",
    "time": "2012-07-01"
  },
  {
    "place": "Residential Building (Apartment / Condo)4c76a0eb66be6dcb55afc30f",
    "time": "2012-07-01"
  },
  {
    "place": "Athletic & Sport4b549e0cf964a520f6c227e3",
    "time": "2012-07-01"
  },
  {
    "place": "Deli / Bodega4f090ed5e4b071c57637b7ca",
    "time": "2012-07-02"
  },
  {
    "place": "Home (private)4dce4acd8877851243f3d0ef",
    "time": "2012-07-02"
  },
  {
    "place": "Church4f4a6faae4b08334fc300edb",
    "time": "2012-07-02"
  },
  {
    "place": "African Restaurant4cb2beaadedbef3bca7c9d40",
    "time": "2012-07-02"
  },
  {
    "place": "Government Building4df1554dd1649c8a28d9b7f2",
    "time": "2012-07-03"
  },
  {
    "place": "Other Great Outdoors4e28d737149554c7743e489a",
    "time": "2012-07-03"
  },
  {
    "place": "Fried Chicken Joint4e4decf3bd4101d0d79e5a93",
    "time": "2012-07-03"
  },
  {
    "place": "Bar4ec468dd6c254debead9b3d0",
    "time": "2012-07-03"
  },
  {
    "place": "Fried Chicken Joint4e4decf3bd4101d0d79e5a93",
    "time": "2012-07-03"
  },
  {
    "place": "Food & Drink Shop4a7cbbf4f964a52064ed1fe3",
    "time": "2012-07-03"
  },
  {
    "place": "College Academic Building4b7b09a4f964a520c44d2fe3",
    "time": "2012-07-03"
  },
  {
    "place": "French Restaurant3fd66200f964a52044e91ee3",
    "time": "2012-07-03"
  },
  {
    "place": "College Academic Building4b7b09a4f964a520c44d2fe3",
    "time": "2012-07-03"
  },
  {
    "place": "Train Station42911d00f964a520f5231fe3",
    "time": "2012-07-03"
  },
  {
    "place": "Hardware Store3fd66200f964a52091e71ee3",
    "time": "2012-07-03"
  },
  {
    "place": "Theater4c24cbd9136d20a17d61e261",
    "time": "2012-07-03"
  },
  {
    "place": "Breakfast Spot4e0530f6ae60a90eabbacc01",
    "time": "2012-07-04"
  },
  {
    "place": "Sushi Restaurant4a3d65b7f964a52037a21fe3",
    "time": "2012-07-04"
  },
  {
    "place": "Spa / Massage4bf1e41f52bda593791fb2b7",
    "time": "2012-07-04"
  },
  {
    "place": "Food & Drink Shop4a4546cef964a520fca71fe3",
    "time": "2012-07-04"
  },
  {
    "place": "Vegetarian / Vegan Restaurant3fd66200f964a5206ee91ee3",
    "time": "2012-07-04"
  },
  {
    "place": "Office4b644143f964a520a3a62ae3",
    "time": "2012-07-04"
  },
  {
    "place": "Seafood Restaurant4d67e6248f70a0931c7b1835",
    "time": "2012-07-04"
  },
  {
    "place": "Salon / Barbershop4c005b379cf52d7fe5a713e7",
    "time": "2012-07-04"
  },
  {
    "place": "Food Truck4cb72426f6616dcb3b8fe408",
    "time": "2012-07-04"
  },
  {
    "place": "Food & Drink Shop4b646d00f964a5202ab22ae3",
    "time": "2012-07-04"
  },
  {
    "place": "School4e26ef40a809510950dbce03",
    "time": "2012-07-04"
  },
  {
    "place": "Gas Station / Garage4c327a8f7cc0c9b6bf6bf09a",
    "time": "2012-07-04"
  },
  {
    "place": "Food Truck4e87b37cf5b94bd578465165",
    "time": "2012-07-05"
  },
  {
    "place": "BBQ Joint4a1618b7f964a520f3781fe3",
    "time": "2012-07-05"
  },
  {
    "place": "Food Truck4cf50a4f7e0da1cd7a3ea597",
    "time": "2012-07-05"
  },
  {
    "place": "Residential Building (Apartment / Condo)4f9e4a03e4b03d83ee1420e1",
    "time": "2012-07-05"
  },
  {
    "place": "Deli / Bodega4fec4330e4b0cfb8796a4344",
    "time": "2012-07-05"
  },
  {
    "place": "Salon / Barbershop4fc3819ce4b0a503aeb48f94",
    "time": "2012-07-05"
  },
  {
    "place": "Gym / Fitness Center4d23bdbefdfb236a054d7367",
    "time": "2012-07-05"
  },
  {
    "place": "Electronics Store4b58b8a6f964a520686728e3",
    "time": "2012-07-06"
  },
  {
    "place": "Paper / Office Supplies Store4b7b0aaef964a520064e2fe3",
    "time": "2012-07-06"
  },
  {
    "place": "Mexican Restaurant4eb715fddab4fe51125d320e",
    "time": "2012-07-06"
  },
  {
    "place": "Pizza Place4ca680d1b7106dcba0d35ea5",
    "time": "2012-07-06"
  },
  {
    "place": "Other Great Outdoors4e28d737149554c7743e489a",
    "time": "2012-07-06"
  },
  {
    "place": "Ice Cream Shop4f738ec4e4b0a4b28a9f9978",
    "time": "2012-07-06"
  },
  {
    "place": "Bus Station4d7628d02140721e2eddcc3d",
    "time": "2012-07-06"
  },
  {
    "place": "Clothing Store4d8d07cad4ec8cfa6c434f89",
    "time": "2012-07-06"
  },
  {
    "place": "Deli / Bodega4fec4330e4b0cfb8796a4344",
    "time": "2012-07-06"
  },
  {
    "place": "Building4e43bcb5fa76eeb2daba3147",
    "time": "2012-07-06"
  },
  {
    "place": "Fried Chicken Joint4e4decf3bd4101d0d79e5a93",
    "time": "2012-07-06"
  },
  {
    "place": "Flower Shop4f1757d2e4b062dab8da9ad1",
    "time": "2012-07-06"
  },
  {
    "place": "Temple4ff79cd9e4b0fecb25f2e6e6",
    "time": "2012-07-07"
  },
  {
    "place": "Government Building4dd128aa22718eed7a7926a1",
    "time": "2012-07-07"
  },
  {
    "place": "Residential Building (Apartment / Condo)4e1f806c628469a57401de5b",
    "time": "2012-07-07"
  },
  {
    "place": "Scenic Lookout4be9e801a9900f4789ed1540",
    "time": "2012-07-07"
  },
  {
    "place": "Animal Shelter4eaebdac30f855f5b3d9dc19",
    "time": "2012-07-07"
  },
  {
    "place": "Building4f27222ae4b0b653a63c975e",
    "time": "2012-07-07"
  },
  {
    "place": "Government Building4f05d6a1e3002adb76a57deb",
    "time": "2012-07-07"
  },
  {
    "place": "Moving Target4fb62e7ee4b06643fff757d4",
    "time": "2012-07-07"
  },
  {
    "place": "Food & Drink Shop4a7cbbf4f964a52064ed1fe3",
    "time": "2012-07-07"
  },
  {
    "place": "Building4d58ba5124466ea8f0dd6f9f",
    "time": "2012-07-07"
  },
  {
    "place": "Deli / Bodega4f090ed5e4b071c57637b7ca",
    "time": "2012-07-07"
  },
  {
    "place": "Fast Food Restaurant4c20227fbd9d9521cd66983f",
    "time": "2012-07-08"
  },
  {
    "place": "Residential Building (Apartment / Condo)4e1f806c628469a57401de5b",
    "time": "2012-07-08"
  },
  {
    "place": "Temple4ff79cd9e4b0fecb25f2e6e6",
    "time": "2012-07-08"
  },
  {
    "place": "Animal Shelter4eaebdac30f855f5b3d9dc19",
    "time": "2012-07-08"
  },
  {
    "place": "Scenic Lookout4be9e801a9900f4789ed1540",
    "time": "2012-07-08"
  },
  {
    "place": "Fried Chicken Joint4e4decf3bd4101d0d79e5a93",
    "time": "2012-07-08"
  },
  {
    "place": "Gym / Fitness Center4d23bdbefdfb236a054d7367",
    "time": "2012-07-08"
  },
  {
    "place": "Pizza Place4ca680d1b7106dcba0d35ea5",
    "time": "2012-07-08"
  },
  {
    "place": "Deli / Bodega4fec4330e4b0cfb8796a4344",
    "time": "2012-07-08"
  },
  {
    "place": "Fried Chicken Joint4e4decf3bd4101d0d79e5a93",
    "time": "2012-07-08"
  },
  {
    "place": "Other Great Outdoors4e28d737149554c7743e489a",
    "time": "2012-07-08"
  },
  {
    "place": "Residential Building (Apartment / Condo)4e360de3d22d86185a733f47",
    "time": "2012-07-08"
  },
  {
    "place": "Gym / Fitness Center4d23bdbefdfb236a054d7367",
    "time": "2012-07-08"
  },
  {
    "place": "Bus Station4dd419c745ddd703550eeaba",
    "time": "2012-07-08"
  },
  {
    "place": "General College & University4f03717ad3e364d5ffcb72c3",
    "time": "2012-07-08"
  },
  {
    "place": "Library4cf029daf98ba090e19bc673",
    "time": "2012-07-08"
  },
  {
    "place": "Bus Station4d7628d02140721e2eddcc3d",
    "time": "2012-07-09"
  },
  {
    "place": "Pizza Place4ca680d1b7106dcba0d35ea5",
    "time": "2012-07-09"
  },
  {
    "place": "Other Great Outdoors4e28d737149554c7743e489a",
    "time": "2012-07-09"
  },
  {
    "place": "Fried Chicken Joint4e4decf3bd4101d0d79e5a93",
    "time": "2012-07-09"
  },
  {
    "place": "Clothing Store4d8d07cad4ec8cfa6c434f89",
    "time": "2012-07-09"
  },
  {
    "place": "Gym / Fitness Center4d23bdbefdfb236a054d7367",
    "time": "2012-07-09"
  },
  {
    "place": "Salon / Barbershop4fc3819ce4b0a503aeb48f94",
    "time": "2012-07-09"
  },
  {
    "place": "Residential Building (Apartment / Condo)4f9e4a03e4b03d83ee1420e1",
    "time": "2012-07-09"
  },
  {
    "place": "General Entertainment4eb7161fb634a04860decc6c",
    "time": "2012-07-09"
  },
  {
    "place": "Ice Cream Shop4f738ec4e4b0a4b28a9f9978",
    "time": "2012-07-09"
  },
  {
    "place": "Flower Shop4f1757d2e4b062dab8da9ad1",
    "time": "2012-07-09"
  },
  {
    "place": "School4f2319cbe4b04f6e67cb35de",
    "time": "2012-07-09"
  },
  {
    "place": "Residential Building (Apartment / Condo)4fc5802de4b00d555961b581",
    "time": "2012-07-09"
  },
  {
    "place": "Library4cf029daf98ba090e19bc673",
    "time": "2012-07-09"
  },
  {
    "place": "Bar4cdf2d167e2e236adc12841b",
    "time": "2012-07-09"
  },
  {
    "place": "High School4bc7a1a3af07a5932d987f2d",
    "time": "2012-07-09"
  },
  {
    "place": "Bar4905cb1af964a5205e521fe3",
    "time": "2012-07-09"
  },
  {
    "place": "Theater4e7a04321fc70662a66fb2c7",
    "time": "2012-07-09"
  },
  {
    "place": "Office4b8b17bdf964a520889232e3",
    "time": "2012-07-09"
  },
  {
    "place": "Clothing Store4e6bd2d32271d308c7afeae1",
    "time": "2012-07-09"
  },
  {
    "place": "Coffee Shop4ab8121ef964a520117c20e3",
    "time": "2012-07-09"
  },
  {
    "place": "Scenic Lookout4fcb9a89e4b06d9b85e53418",
    "time": "2012-07-09"
  },
  {
    "place": "Building4f27222ae4b0b653a63c975e",
    "time": "2012-07-09"
  },
  {
    "place": "Government Building4f05d6a1e3002adb76a57deb",
    "time": "2012-07-09"
  },
  {
    "place": "Moving Target4fb62e7ee4b06643fff757d4",
    "time": "2012-07-09"
  },
  {
    "place": "Museum4b37a3c9f964a5207e4325e3",
    "time": "2012-07-09"
  },
  {
    "place": "Athletic & Sport4b549e0cf964a520f6c227e3",
    "time": "2012-07-09"
  },
  {
    "place": "Government Building4f05d6a1e3002adb76a57deb",
    "time": "2012-07-09"
  },
  {
    "place": "Neighborhood4e307390c65bcc8d7754de9d",
    "time": "2012-07-09"
  },
  {
    "place": "Ferry4bbfe9a874a9a5939c67cff6",
    "time": "2012-07-09"
  },
  {
    "place": "Neighborhood4eaa765d4fc6d0cb8bba78fd",
    "time": "2012-07-09"
  },
  {
    "place": "Park4ac8d090f964a520b1bc20e3",
    "time": "2012-07-09"
  },
  {
    "place": "Athletic & Sport4fca1273e4b00e6846199c32",
    "time": "2012-07-09"
  },
  {
    "place": "Playground4ff8a496e4b01a84ee45068e",
    "time": "2012-07-09"
  },
  {
    "place": "Deli / Bodega4fec4330e4b0cfb8796a4344",
    "time": "2012-07-09"
  },
  {
    "place": "Fried Chicken Joint4e4decf3bd4101d0d79e5a93",
    "time": "2012-07-10"
  },
  {
    "place": "Art Gallery4c6aa84c35d3be9a26612206",
    "time": "2012-07-11"
  },
  {
    "place": "Residential Building (Apartment / Condo)4c76a0eb66be6dcb55afc30f",
    "time": "2012-07-11"
  },
  {
    "place": "Athletic & Sport4b549e0cf964a520f6c227e3",
    "time": "2012-07-11"
  },
  {
    "place": "Athletic & Sport4b549e0cf964a520f6c227e3",
    "time": "2012-07-11"
  },
  {
    "place": "Deli / Bodega4f090ed5e4b071c57637b7ca",
    "time": "2012-07-11"
  },
  {
    "place": "Athletic & Sport4b549e0cf964a520f6c227e3",
    "time": "2012-07-11"
  },
  {
    "place": "Medical Center4b72de81f964a5207d8c2de3",
    "time": "2012-07-11"
  },
  {
    "place": "Bar4cc35db6d43ba14387a35ff8",
    "time": "2012-07-11"
  },
  {
    "place": "Candy Store3fd66200f964a520f0e31ee3",
    "time": "2012-07-11"
  },
  {
    "place": "Food & Drink Shop4a7cbbf4f964a52064ed1fe3",
    "time": "2012-07-11"
  },
  {
    "place": "Neighborhood4e307390c65bcc8d7754de9d",
    "time": "2012-07-11"
  },
  {
    "place": "BBQ Joint4a1618b7f964a520f3781fe3",
    "time": "2012-07-11"
  },
  {
    "place": "Salon / Barbershop4fc3819ce4b0a503aeb48f94",
    "time": "2012-07-11"
  },
  {
    "place": "Pizza Place4ca680d1b7106dcba0d35ea5",
    "time": "2012-07-12"
  },
  {
    "place": "Breakfast Spot4b8fac51f964a5205f5c33e3",
    "time": "2012-07-12"
  },
  {
    "place": "Food Truck4cdfb01ff8a4a143c432e0bc",
    "time": "2012-07-12"
  },
  {
    "place": "High School4bc7a1a3af07a5932d987f2d",
    "time": "2012-07-12"
  },
  {
    "place": "Athletic & Sport4b549e0cf964a520f6c227e3",
    "time": "2012-07-12"
  },
  {
    "place": "Clothing Store4e6bd2d32271d308c7afeae1",
    "time": "2012-07-13"
  },
  {
    "place": "Fast Food Restaurant4a1467b2f964a52034781fe3",
    "time": "2012-07-13"
  },
  {
    "place": "Jewelry Store4df91de3d4c064db03a82358",
    "time": "2012-07-13"
  },
  {
    "place": "Moving Target4fb62e7ee4b06643fff757d4",
    "time": "2012-07-13"
  },
  {
    "place": "Bridge4e4df14b81308c328c6774ad",
    "time": "2012-07-13"
  },
  {
    "place": "Stadium3fd66200f964a520ddf01ee3",
    "time": "2012-07-14"
  },
  {
    "place": "Theater4efa8c68e5fa4f286e297901",
    "time": "2012-07-14"
  },
  {
    "place": "Temple4ff79cd9e4b0fecb25f2e6e6",
    "time": "2012-07-15"
  },
  {
    "place": "Residential Building (Apartment / Condo)4e1f806c628469a57401de5b",
    "time": "2012-07-16"
  },
  {
    "place": "Temple4ff79cd9e4b0fecb25f2e6e6",
    "time": "2012-07-16"
  },
  {
    "place": "Park4bc9c809937ca593dd46a692",
    "time": "2012-07-16"
  },
  {
    "place": "Temple4ff79cd9e4b0fecb25f2e6e6",
    "time": "2012-07-16"
  },
  {
    "place": "Residential Building (Apartment / Condo)4fb2bec2e4b034ff66f3609a",
    "time": "2012-07-16"
  },
  {
    "place": "Residential Building (Apartment / Condo)4e1f806c628469a57401de5b",
    "time": "2012-07-16"
  },
  {
    "place": "Moving Target4fb62e7ee4b06643fff757d4",
    "time": "2012-07-17"
  },
  {
    "place": "Park4ceff0c6f368b1f7037288f7",
    "time": "2012-07-17"
  },
  {
    "place": "Bus Station4a2d2073f964a52083971fe3",
    "time": "2012-07-17"
  },
  {
    "place": "Bar4fe207d6e4b02702d7c9d290",
    "time": "2012-07-17"
  },
  {
    "place": "Food & Drink Shop465597a5f964a52000471fe3",
    "time": "2012-07-17"
  },
  {
    "place": "Food & Drink Shop4f7472e8e4b026e791b441f5",
    "time": "2012-07-17"
  },
  {
    "place": "BBQ Joint49c39ed6f964a52066561fe3",
    "time": "2012-07-17"
  },
  {
    "place": "Athletic & Sport4b549e0cf964a520f6c227e3",
    "time": "2012-07-24"
  }
]