[
  {
    "place": "Home (private)4ef7ce55c512f22778e7e0a4",
    "time": "2012-04-04"
  },
  {
    "place": "Home (private)4ec34517722e5b8e03d67d9c",
    "time": "2012-04-04"
  },
  {
    "place": "Home (private)4e8dc55bf790e886ae0fd1c6",
    "time": "2012-04-04"
  },
  {
    "place": "Residential Building (Apartment / Condo)4e18dbedae6092c27656cead",
    "time": "2012-04-04"
  },
  {
    "place": "Miscellaneous Shop4dff64a9a809baedbd915521",
    "time": "2012-04-04"
  },
  {
    "place": "Subway4b6cba4cf964a5209e4f2ce3",
    "time": "2012-04-04"
  },
  {
    "place": "Subway4cbfbedea0c4f04d1e085731",
    "time": "2012-04-04"
  },
  {
    "place": "Neighborhood4bdc9fb73904a59345084f9e",
    "time": "2012-04-04"
  },
  {
    "place": "Subway4ad8add6f964a520a61321e3",
    "time": "2012-04-04"
  },
  {
    "place": "Bookstore4a8cc1d4f964a520130f20e3",
    "time": "2012-04-04"
  },
  {
    "place": "Train Station4a6d2857f964a5209fd21fe3",
    "time": "2012-04-04"
  },
  {
    "place": "Subway4ad8add6f964a520a61321e3",
    "time": "2012-04-06"
  },
  {
    "place": "Bookstore4a8cc1d4f964a520130f20e3",
    "time": "2012-04-06"
  },
  {
    "place": "Subway4b6cba4cf964a5209e4f2ce3",
    "time": "2012-04-07"
  },
  {
    "place": "Miscellaneous Shop4dff64a9a809baedbd915521",
    "time": "2012-04-07"
  },
  {
    "place": "Neighborhood4bdc9fb73904a59345084f9e",
    "time": "2012-04-07"
  },
  {
    "place": "Neighborhood4bdc9fb73904a59345084f9e",
    "time": "2012-04-07"
  },
  {
    "place": "Subway4cbfbedea0c4f04d1e085731",
    "time": "2012-04-07"
  },
  {
    "place": "Subway4ad8add6f964a520a61321e3",
    "time": "2012-04-07"
  },
  {
    "place": "Bookstore4a8cc1d4f964a520130f20e3",
    "time": "2012-04-07"
  },
  {
    "place": "General Entertainment4f7c218ba17c0aa6dd3d921a",
    "time": "2012-04-08"
  },
  {
    "place": "Car Dealership4da3388500a92d4365d0b17d",
    "time": "2012-04-08"
  },
  {
    "place": "Arcade44510be3f964a520a0321fe3",
    "time": "2012-04-08"
  },
  {
    "place": "Subway4b03242cf964a520f94c22e3",
    "time": "2012-04-08"
  },
  {
    "place": "Subway4b03242cf964a520f94c22e3",
    "time": "2012-04-08"
  },
  {
    "place": "Other Great Outdoors4f2ea82fe4b09d49e97faf80",
    "time": "2012-04-08"
  },
  {
    "place": "Subway4baea035f964a52033c83be3",
    "time": "2012-04-08"
  },
  {
    "place": "Neighborhood4bdc9fb73904a59345084f9e",
    "time": "2012-04-08"
  },
  {
    "place": "Residential Building (Apartment / Condo)4e18dbedae6092c27656cead",
    "time": "2012-04-08"
  },
  {
    "place": "Neighborhood4bdc9fb73904a59345084f9e",
    "time": "2012-04-08"
  },
  {
    "place": "Subway4b03242cf964a520f94c22e3",
    "time": "2012-04-08"
  },
  {
    "place": "Subway4baea035f964a52033c83be3",
    "time": "2012-04-08"
  },
  {
    "place": "Subway4a96a056f964a520672620e3",
    "time": "2012-04-08"
  },
  {
    "place": "American Restaurant4b9413ecf964a520656634e3",
    "time": "2012-04-08"
  },
  {
    "place": "Subway4b53da66f964a5203cad27e3",
    "time": "2012-04-08"
  },
  {
    "place": "Arcade44510be3f964a520a0321fe3",
    "time": "2012-04-08"
  },
  {
    "place": "Bridge49ecd458f964a52099671fe3",
    "time": "2012-04-08"
  },
  {
    "place": "General Entertainment4db44994cda1c57c82583709",
    "time": "2012-04-08"
  },
  {
    "place": "Neighborhood4bdc9fb73904a59345084f9e",
    "time": "2012-04-08"
  },
  {
    "place": "Train Station4a6d2857f964a5209fd21fe3",
    "time": "2012-04-08"
  },
  {
    "place": "Subway4bad3de2f964a520233d3be3",
    "time": "2012-04-08"
  },
  {
    "place": "Residential Building (Apartment / Condo)4e18dbedae6092c27656cead",
    "time": "2012-04-09"
  },
  {
    "place": "Home (private)4e8dc55bf790e886ae0fd1c6",
    "time": "2012-04-09"
  },
  {
    "place": "Residential Building (Apartment / Condo)4e18dbedae6092c27656cead",
    "time": "2012-04-09"
  },
  {
    "place": "Train Station4a6d2857f964a5209fd21fe3",
    "time": "2012-04-09"
  },
  {
    "place": "Subway4cbfbedea0c4f04d1e085731",
    "time": "2012-04-09"
  },
  {
    "place": "Neighborhood4bdc9fb73904a59345084f9e",
    "time": "2012-04-09"
  },
  {
    "place": "Other Great Outdoors4f2ea82fe4b09d49e97faf80",
    "time": "2012-04-09"
  },
  {
    "place": "Bookstore4a8cc1d4f964a520130f20e3",
    "time": "2012-04-09"
  },
  {
    "place": "Gym / Fitness Center4b6234d9f964a520333c2ae3",
    "time": "2012-04-09"
  },
  {
    "place": "Home (private)4e8dc55bf790e886ae0fd1c6",
    "time": "2012-04-10"
  },
  {
    "place": "Train Station4a6d2857f964a5209fd21fe3",
    "time": "2012-04-10"
  },
  {
    "place": "Bridge49ecd458f964a52099671fe3",
    "time": "2012-04-10"
  },
  {
    "place": "Other Great Outdoors4f2ea82fe4b09d49e97faf80",
    "time": "2012-04-10"
  },
  {
    "place": "Gym / Fitness Center4b6234d9f964a520333c2ae3",
    "time": "2012-04-10"
  },
  {
    "place": "Bar4f2f4653e4b0c1a81ab1824a",
    "time": "2012-04-10"
  },
  {
    "place": "Residential Building (Apartment / Condo)4e9a7472be7bc875aa830395",
    "time": "2012-04-10"
  },
  {
    "place": "Coffee Shop4a75f517f964a520cbe11fe3",
    "time": "2012-04-10"
  },
  {
    "place": "Arcade44510be3f964a520a0321fe3",
    "time": "2012-04-10"
  },
  {
    "place": "Subway4de23e57e4cd056f743ea6f3",
    "time": "2012-04-11"
  },
  {
    "place": "Train Station43fa07c9f964a520d92f1fe3",
    "time": "2012-04-11"
  },
  {
    "place": "Coffee Shop4bc9ee9468f976b0032a5e83",
    "time": "2012-04-11"
  },
  {
    "place": "Subway4b03242cf964a520f94c22e3",
    "time": "2012-04-11"
  },
  {
    "place": "Subway4b03242cf964a520f94c22e3",
    "time": "2012-04-11"
  },
  {
    "place": "Neighborhood4bdc9fb73904a59345084f9e",
    "time": "2012-04-11"
  },
  {
    "place": "Bookstore4a8cc1d4f964a520130f20e3",
    "time": "2012-04-11"
  },
  {
    "place": "Bar4f2f4653e4b0c1a81ab1824a",
    "time": "2012-04-11"
  },
  {
    "place": "Bridge4a32c3f9f964a5208c9a1fe3",
    "time": "2012-04-11"
  },
  {
    "place": "Stadium3fd66200f964a520ddf01ee3",
    "time": "2012-04-11"
  },
  {
    "place": "Stadium3fd66200f964a520ddf01ee3",
    "time": "2012-04-11"
  },
  {
    "place": "Bookstore4a8cc1d4f964a520130f20e3",
    "time": "2012-04-11"
  },
  {
    "place": "Bar4f2f4653e4b0c1a81ab1824a",
    "time": "2012-04-11"
  },
  {
    "place": "Stadium3fd66200f964a520ddf01ee3",
    "time": "2012-04-11"
  },
  {
    "place": "Gym / Fitness Center4b422afbf964a5200bce25e3",
    "time": "2012-04-11"
  },
  {
    "place": "Food & Drink Shop4b25bafaf964a520c27524e3",
    "time": "2012-04-11"
  },
  {
    "place": "Subway4b03242cf964a520f94c22e3",
    "time": "2012-04-12"
  },
  {
    "place": "Home (private)4ec34517722e5b8e03d67d9c",
    "time": "2012-04-12"
  },
  {
    "place": "Home (private)4e8dc55bf790e886ae0fd1c6",
    "time": "2012-04-12"
  },
  {
    "place": "Residential Building (Apartment / Condo)4e18dbedae6092c27656cead",
    "time": "2012-04-12"
  },
  {
    "place": "Neighborhood4bdc9fb73904a59345084f9e",
    "time": "2012-04-12"
  },
  {
    "place": "Miscellaneous Shop4dff64a9a809baedbd915521",
    "time": "2012-04-12"
  },
  {
    "place": "Subway4b6cba4cf964a5209e4f2ce3",
    "time": "2012-04-12"
  },
  {
    "place": "Subway4cbfbedea0c4f04d1e085731",
    "time": "2012-04-12"
  },
  {
    "place": "Gym / Fitness Center4b6234d9f964a520333c2ae3",
    "time": "2012-04-12"
  },
  {
    "place": "Residential Building (Apartment / Condo)4e18dbedae6092c27656cead",
    "time": "2012-04-13"
  },
  {
    "place": "Home (private)4ec34517722e5b8e03d67d9c",
    "time": "2012-04-13"
  },
  {
    "place": "Neighborhood4bdc9fb73904a59345084f9e",
    "time": "2012-04-13"
  },
  {
    "place": "Residential Building (Apartment / Condo)4e18dbedae6092c27656cead",
    "time": "2012-04-14"
  },
  {
    "place": "Home (private)4e8dc55bf790e886ae0fd1c6",
    "time": "2012-04-14"
  },
  {
    "place": "Home (private)4ec34517722e5b8e03d67d9c",
    "time": "2012-04-14"
  },
  {
    "place": "Miscellaneous Shop4dff64a9a809baedbd915521",
    "time": "2012-04-14"
  },
  {
    "place": "Subway4b6cba4cf964a5209e4f2ce3",
    "time": "2012-04-14"
  },
  {
    "place": "Subway4cbfbedea0c4f04d1e085731",
    "time": "2012-04-14"
  },
  {
    "place": "Neighborhood4bdc9fb73904a59345084f9e",
    "time": "2012-04-14"
  },
  {
    "place": "Subway4ad8add6f964a520a61321e3",
    "time": "2012-04-14"
  },
  {
    "place": "General Entertainment4da307d5e7b8a09077802121",
    "time": "2012-04-15"
  },
  {
    "place": "Fast Food Restaurant4c3a3c723849c928eda3c2b1",
    "time": "2012-04-15"
  },
  {
    "place": "Home (private)4f1c307ee4b064e65cbf382c",
    "time": "2012-04-15"
  },
  {
    "place": "Bridge49ecd458f964a52099671fe3",
    "time": "2012-04-15"
  },
  {
    "place": "Neighborhood4bdc9fb73904a59345084f9e",
    "time": "2012-04-15"
  },
  {
    "place": "Other Great Outdoors4f2ea82fe4b09d49e97faf80",
    "time": "2012-04-15"
  },
  {
    "place": "Train Station4a6d2857f964a5209fd21fe3",
    "time": "2012-04-15"
  },
  {
    "place": "Home (private)4ef7ce55c512f22778e7e0a4",
    "time": "2012-04-15"
  },
  {
    "place": "Subway4b03242cf964a520f94c22e3",
    "time": "2012-04-15"
  },
  {
    "place": "Subway4b03242cf964a520f94c22e3",
    "time": "2012-04-15"
  },
  {
    "place": "Subway4baea035f964a52033c83be3",
    "time": "2012-04-15"
  },
  {
    "place": "Neighborhood4bdc9fb73904a59345084f9e",
    "time": "2012-04-15"
  },
  {
    "place": "General Entertainment4da307d5e7b8a09077802121",
    "time": "2012-04-15"
  },
  {
    "place": "General Entertainment4da307d5e7b8a09077802121",
    "time": "2012-04-15"
  },
  {
    "place": "Convention Center4f5a0c59e4b0abc30d87c42f",
    "time": "2012-04-15"
  },
  {
    "place": "General Entertainment4f7f238fe4b079381bdf5e05",
    "time": "2012-04-15"
  },
  {
    "place": "Residential Building (Apartment / Condo)4e18dbedae6092c27656cead",
    "time": "2012-04-16"
  },
  {
    "place": "Neighborhood4bdc9fb73904a59345084f9e",
    "time": "2012-04-16"
  },
  {
    "place": "Subway4ad8add6f964a520a61321e3",
    "time": "2012-04-16"
  },
  {
    "place": "Bookstore4a8cc1d4f964a520130f20e3",
    "time": "2012-04-16"
  },
  {
    "place": "Park3fd66200f964a520def11ee3",
    "time": "2012-04-16"
  },
  {
    "place": "Bookstore4a8cc1d4f964a520130f20e3",
    "time": "2012-04-16"
  },
  {
    "place": "Residential Building (Apartment / Condo)4e18dbedae6092c27656cead",
    "time": "2012-04-17"
  },
  {
    "place": "Home (private)4ef7ce55c512f22778e7e0a4",
    "time": "2012-04-17"
  },
  {
    "place": "Home (private)4ec34517722e5b8e03d67d9c",
    "time": "2012-04-17"
  },
  {
    "place": "Neighborhood4bdc9fb73904a59345084f9e",
    "time": "2012-04-17"
  },
  {
    "place": "Miscellaneous Shop4dff64a9a809baedbd915521",
    "time": "2012-04-17"
  },
  {
    "place": "Subway4b6cba4cf964a5209e4f2ce3",
    "time": "2012-04-17"
  },
  {
    "place": "Subway4ad8add6f964a520a61321e3",
    "time": "2012-04-17"
  },
  {
    "place": "Bookstore4a8cc1d4f964a520130f20e3",
    "time": "2012-04-17"
  },
  {
    "place": "Bookstore4a8cc1d4f964a520130f20e3",
    "time": "2012-04-17"
  },
  {
    "place": "Bookstore4a8cc1d4f964a520130f20e3",
    "time": "2012-04-18"
  },
  {
    "place": "Sandwich Place4b1d351ff964a520fd0c24e3",
    "time": "2012-04-18"
  },
  {
    "place": "Residential Building (Apartment / Condo)4e18dbedae6092c27656cead",
    "time": "2012-04-18"
  },
  {
    "place": "Home (private)4e8dc55bf790e886ae0fd1c6",
    "time": "2012-04-18"
  },
  {
    "place": "Bridge49ecd458f964a52099671fe3",
    "time": "2012-04-18"
  },
  {
    "place": "Gym / Fitness Center4a426f82f964a520dca51fe3",
    "time": "2012-04-18"
  },
  {
    "place": "Subway4ad7a8d9f964a520640d21e3",
    "time": "2012-04-18"
  },
  {
    "place": "Plaza49e36914f964a5207b621fe3",
    "time": "2012-04-18"
  },
  {
    "place": "Bookstore4a8cc1d4f964a520130f20e3",
    "time": "2012-04-18"
  },
  {
    "place": "Bookstore4a8cc1d4f964a520130f20e3",
    "time": "2012-04-18"
  },
  {
    "place": "Neighborhood4bdc9fb73904a59345084f9e",
    "time": "2012-04-19"
  },
  {
    "place": "Residential Building (Apartment / Condo)4e18dbedae6092c27656cead",
    "time": "2012-04-19"
  },
  {
    "place": "Home (private)4ec34517722e5b8e03d67d9c",
    "time": "2012-04-19"
  },
  {
    "place": "Home (private)4e8dc55bf790e886ae0fd1c6",
    "time": "2012-04-19"
  },
  {
    "place": "Home (private)4ef7ce55c512f22778e7e0a4",
    "time": "2012-04-19"
  },
  {
    "place": "Campground4eadae0677c8cdc66d6d1e56",
    "time": "2012-04-19"
  },
  {
    "place": "Arcade44510be3f964a520a0321fe3",
    "time": "2012-04-20"
  },
  {
    "place": "Plaza49b7ed6df964a52030531fe3",
    "time": "2012-04-20"
  },
  {
    "place": "Coffee Shop49de2becf964a5202b601fe3",
    "time": "2012-04-20"
  },
  {
    "place": "Coffee Shop4b0835acf964a520540623e3",
    "time": "2012-04-20"
  },
  {
    "place": "Fast Food Restaurant4c3a3c723849c928eda3c2b1",
    "time": "2012-04-20"
  },
  {
    "place": "Home (private)4f1c307ee4b064e65cbf382c",
    "time": "2012-04-20"
  },
  {
    "place": "General Entertainment4f235e5fe4b063d4ff6fa2a6",
    "time": "2012-04-20"
  },
  {
    "place": "Home (private)4f1c307ee4b064e65cbf382c",
    "time": "2012-04-20"
  },
  {
    "place": "Neighborhood4c97edbdf419a09395806b88",
    "time": "2012-04-20"
  },
  {
    "place": "Residential Building (Apartment / Condo)4e18dbedae6092c27656cead",
    "time": "2012-04-20"
  },
  {
    "place": "Subway4b03242cf964a520f94c22e3",
    "time": "2012-04-20"
  },
  {
    "place": "Subway4b03242cf964a520f94c22e3",
    "time": "2012-04-20"
  },
  {
    "place": "Subway4baea035f964a52033c83be3",
    "time": "2012-04-20"
  },
  {
    "place": "Neighborhood4bdc9fb73904a59345084f9e",
    "time": "2012-04-20"
  },
  {
    "place": "Coffee Shop4b242ae5f964a520b76224e3",
    "time": "2012-04-20"
  },
  {
    "place": "Residential Building (Apartment / Condo)4e18dbedae6092c27656cead",
    "time": "2012-04-21"
  },
  {
    "place": "Neighborhood4bdc9fb73904a59345084f9e",
    "time": "2012-04-21"
  },
  {
    "place": "Residential Building (Apartment / Condo)4e18dbedae6092c27656cead",
    "time": "2012-04-21"
  },
  {
    "place": "Home (private)4e8dc55bf790e886ae0fd1c6",
    "time": "2012-04-21"
  },
  {
    "place": "Miscellaneous Shop4dff64a9a809baedbd915521",
    "time": "2012-04-21"
  },
  {
    "place": "Subway4b6cba4cf964a5209e4f2ce3",
    "time": "2012-04-21"
  },
  {
    "place": "Home (private)4ec34517722e5b8e03d67d9c",
    "time": "2012-04-21"
  },
  {
    "place": "Campground4eadae0677c8cdc66d6d1e56",
    "time": "2012-04-21"
  },
  {
    "place": "Home (private)4ef7ce55c512f22778e7e0a4",
    "time": "2012-04-21"
  },
  {
    "place": "Neighborhood4bdc9fb73904a59345084f9e",
    "time": "2012-04-21"
  },
  {
    "place": "Subway4b6cba4cf964a5209e4f2ce3",
    "time": "2012-04-21"
  },
  {
    "place": "Subway4cbfbedea0c4f04d1e085731",
    "time": "2012-04-21"
  },
  {
    "place": "Subway4ad8add6f964a520a61321e3",
    "time": "2012-04-21"
  },
  {
    "place": "Bookstore4a8cc1d4f964a520130f20e3",
    "time": "2012-04-21"
  },
  {
    "place": "Pizza Place4b101bcdf964a520346923e3",
    "time": "2012-04-22"
  },
  {
    "place": "Bar40fb0f00f964a520d90a1fe3",
    "time": "2012-04-22"
  },
  {
    "place": "Bar4f934b42e4b0d0d988edb72a",
    "time": "2012-04-22"
  },
  {
    "place": "Bar40fb0f00f964a520d90a1fe3",
    "time": "2012-04-22"
  },
  {
    "place": "Home (private)4f1c307ee4b064e65cbf382c",
    "time": "2012-04-22"
  },
  {
    "place": "Bank4c24b40d905a0f4719256060",
    "time": "2012-04-22"
  },
  {
    "place": "Neighborhood4c97edbdf419a09395806b88",
    "time": "2012-04-22"
  },
  {
    "place": "Other Great Outdoors4f2ea82fe4b09d49e97faf80",
    "time": "2012-04-22"
  },
  {
    "place": "Home (private)4ec34517722e5b8e03d67d9c",
    "time": "2012-04-22"
  },
  {
    "place": "Home (private)4e8dc55bf790e886ae0fd1c6",
    "time": "2012-04-22"
  },
  {
    "place": "Residential Building (Apartment / Condo)4e18dbedae6092c27656cead",
    "time": "2012-04-22"
  },
  {
    "place": "Campground4eadae0677c8cdc66d6d1e56",
    "time": "2012-04-22"
  },
  {
    "place": "Miscellaneous Shop4dff64a9a809baedbd915521",
    "time": "2012-04-22"
  },
  {
    "place": "Subway4b6cba4cf964a5209e4f2ce3",
    "time": "2012-04-22"
  },
  {
    "place": "Subway4cbfbedea0c4f04d1e085731",
    "time": "2012-04-22"
  },
  {
    "place": "Brewery3fd66200f964a5205deb1ee3",
    "time": "2012-04-22"
  },
  {
    "place": "Department Store4a9e7e1af964a5204c3a20e3",
    "time": "2012-04-22"
  },
  {
    "place": "Sandwich Place4b45319df964a520940726e3",
    "time": "2012-04-22"
  },
  {
    "place": "Subway4d8fb54a6174a0932c9ae4e3",
    "time": "2012-04-22"
  },
  {
    "place": "Subway4bad3de2f964a520233d3be3",
    "time": "2012-04-22"
  },
  {
    "place": "Home (private)4f1c307ee4b064e65cbf382c",
    "time": "2012-04-22"
  },
  {
    "place": "Neighborhood4bdc9fb73904a59345084f9e",
    "time": "2012-04-22"
  },
  {
    "place": "Miscellaneous Shop4dff64a9a809baedbd915521",
    "time": "2012-04-23"
  },
  {
    "place": "Residential Building (Apartment / Condo)4e18dbedae6092c27656cead",
    "time": "2012-04-23"
  },
  {
    "place": "Subway4b6cba4cf964a5209e4f2ce3",
    "time": "2012-04-23"
  },
  {
    "place": "Subway4cbfbedea0c4f04d1e085731",
    "time": "2012-04-23"
  },
  {
    "place": "Home (private)4ec34517722e5b8e03d67d9c",
    "time": "2012-04-23"
  },
  {
    "place": "Subway4ad8add6f964a520a61321e3",
    "time": "2012-04-23"
  },
  {
    "place": "Bookstore4a8cc1d4f964a520130f20e3",
    "time": "2012-04-23"
  },
  {
    "place": "Food Truck4d7d7d978f89224b46f0b726",
    "time": "2012-04-23"
  },
  {
    "place": "Bookstore4a8cc1d4f964a520130f20e3",
    "time": "2012-04-23"
  },
  {
    "place": "Gym / Fitness Center4b6234d9f964a520333c2ae3",
    "time": "2012-04-23"
  },
  {
    "place": "Scenic Lookout4cf15597899c6ea8f1f1efc1",
    "time": "2012-04-24"
  },
  {
    "place": "Movie Theater40afe980f964a5203bf31ee3",
    "time": "2012-04-24"
  },
  {
    "place": "Clothing Store4bd6083ccfa7b71366e526da",
    "time": "2012-04-24"
  },
  {
    "place": "Home (private)4f1c307ee4b064e65cbf382c",
    "time": "2012-04-24"
  },
  {
    "place": "Other Great Outdoors4f2ea82fe4b09d49e97faf80",
    "time": "2012-04-24"
  },
  {
    "place": "Neighborhood4bdc9fb73904a59345084f9e",
    "time": "2012-04-24"
  },
  {
    "place": "Home (private)4e8dc55bf790e886ae0fd1c6",
    "time": "2012-04-24"
  },
  {
    "place": "Home (private)4ec34517722e5b8e03d67d9c",
    "time": "2012-04-24"
  },
  {
    "place": "Home (private)4ef7ce55c512f22778e7e0a4",
    "time": "2012-04-24"
  },
  {
    "place": "Campground4eadae0677c8cdc66d6d1e56",
    "time": "2012-04-24"
  },
  {
    "place": "Subway4b6cba4cf964a5209e4f2ce3",
    "time": "2012-04-24"
  },
  {
    "place": "Subway4cbfbedea0c4f04d1e085731",
    "time": "2012-04-24"
  },
  {
    "place": "Subway4ad8add6f964a520a61321e3",
    "time": "2012-04-24"
  },
  {
    "place": "Residential Building (Apartment / Condo)4e18dbedae6092c27656cead",
    "time": "2012-04-25"
  },
  {
    "place": "Neighborhood4bdc9fb73904a59345084f9e",
    "time": "2012-04-25"
  },
  {
    "place": "Bridge49ecd458f964a52099671fe3",
    "time": "2012-04-25"
  },
  {
    "place": "Gym / Fitness Center4b6234d9f964a520333c2ae3",
    "time": "2012-04-25"
  },
  {
    "place": "Mall4a19bdd6f964a520477a1fe3",
    "time": "2012-04-25"
  },
  {
    "place": "Subway4ad7a8d9f964a520640d21e3",
    "time": "2012-04-25"
  },
  {
    "place": "Gym / Fitness Center4a426f82f964a520dca51fe3",
    "time": "2012-04-25"
  },
  {
    "place": "Bookstore4a8cc1d4f964a520130f20e3",
    "time": "2012-04-25"
  },
  {
    "place": "Sushi Restaurant3fd66200f964a520bde91ee3",
    "time": "2012-04-25"
  },
  {
    "place": "Bookstore4a8cc1d4f964a520130f20e3",
    "time": "2012-04-25"
  },
  {
    "place": "Arcade44510be3f964a520a0321fe3",
    "time": "2012-04-26"
  },
  {
    "place": "Train Station4a6d2857f964a5209fd21fe3",
    "time": "2012-04-26"
  },
  {
    "place": "Residential Building (Apartment / Condo)4e18dbedae6092c27656cead",
    "time": "2012-04-27"
  },
  {
    "place": "Campground4eadae0677c8cdc66d6d1e56",
    "time": "2012-04-27"
  },
  {
    "place": "Home (private)4ec34517722e5b8e03d67d9c",
    "time": "2012-04-27"
  },
  {
    "place": "Neighborhood4bdc9fb73904a59345084f9e",
    "time": "2012-04-27"
  },
  {
    "place": "Subway4b03242cf964a520f94c22e3",
    "time": "2012-04-27"
  },
  {
    "place": "Subway4b03242cf964a520f94c22e3",
    "time": "2012-04-27"
  },
  {
    "place": "Gym / Fitness Center4b68901ff964a5201c802be3",
    "time": "2012-04-27"
  },
  {
    "place": "Sandwich Place4c6191e6eb82d13a394a03d6",
    "time": "2012-04-27"
  },
  {
    "place": "Sandwich Place4ba93cd7f964a5200e173ae3",
    "time": "2012-04-27"
  },
  {
    "place": "Sandwich Place4ba93cd7f964a5200e173ae3",
    "time": "2012-04-27"
  },
  {
    "place": "Mall4528a216f964a520173b1fe3",
    "time": "2012-04-28"
  },
  {
    "place": "Department Store4aff5980f964a5209c3722e3",
    "time": "2012-04-28"
  },
  {
    "place": "Residential Building (Apartment / Condo)4e18dbedae6092c27656cead",
    "time": "2012-04-28"
  },
  {
    "place": "Home (private)4ef7ce55c512f22778e7e0a4",
    "time": "2012-04-28"
  },
  {
    "place": "Home (private)4ec34517722e5b8e03d67d9c",
    "time": "2012-04-28"
  },
  {
    "place": "Campground4eadae0677c8cdc66d6d1e56",
    "time": "2012-04-28"
  },
  {
    "place": "Miscellaneous Shop4dff64a9a809baedbd915521",
    "time": "2012-04-28"
  },
  {
    "place": "Subway4b6cba4cf964a5209e4f2ce3",
    "time": "2012-04-28"
  },
  {
    "place": "Subway4cbfbedea0c4f04d1e085731",
    "time": "2012-04-28"
  },
  {
    "place": "Bank4b252c9bf964a520616d24e3",
    "time": "2012-04-28"
  },
  {
    "place": "Arcade44510be3f964a520a0321fe3",
    "time": "2012-04-28"
  },
  {
    "place": "Fast Food Restaurant4c3a3c723849c928eda3c2b1",
    "time": "2012-04-28"
  },
  {
    "place": "Bridge49ecd458f964a52099671fe3",
    "time": "2012-04-29"
  },
  {
    "place": "Home (private)4f1c307ee4b064e65cbf382c",
    "time": "2012-04-29"
  },
  {
    "place": "Neighborhood4bdc9fb73904a59345084f9e",
    "time": "2012-04-29"
  },
  {
    "place": "Other Great Outdoors4f2ea82fe4b09d49e97faf80",
    "time": "2012-04-29"
  },
  {
    "place": "Train Station4a6d2857f964a5209fd21fe3",
    "time": "2012-04-29"
  },
  {
    "place": "Residential Building (Apartment / Condo)4e18dbedae6092c27656cead",
    "time": "2012-04-29"
  },
  {
    "place": "Home (private)4e8dc55bf790e886ae0fd1c6",
    "time": "2012-04-29"
  },
  {
    "place": "Home (private)4ec34517722e5b8e03d67d9c",
    "time": "2012-04-29"
  },
  {
    "place": "Home (private)4ef7ce55c512f22778e7e0a4",
    "time": "2012-04-29"
  },
  {
    "place": "Campground4eadae0677c8cdc66d6d1e56",
    "time": "2012-04-29"
  },
  {
    "place": "Neighborhood4bdc9fb73904a59345084f9e",
    "time": "2012-04-29"
  },
  {
    "place": "Subway4b03242cf964a520f94c22e3",
    "time": "2012-04-29"
  },
  {
    "place": "Subway4b03242cf964a520f94c22e3",
    "time": "2012-04-29"
  },
  {
    "place": "Subway4baea035f964a52033c83be3",
    "time": "2012-04-29"
  },
  {
    "place": "Garden42717900f964a5206f211fe3",
    "time": "2012-04-29"
  },
  {
    "place": "Garden42717900f964a5206f211fe3",
    "time": "2012-04-29"
  },
  {
    "place": "Garden42717900f964a5206f211fe3",
    "time": "2012-04-29"
  },
  {
    "place": "Donut Shop4b2e59caf964a520a9de24e3",
    "time": "2012-04-29"
  },
  {
    "place": "Residential Building (Apartment / Condo)4e18dbedae6092c27656cead",
    "time": "2012-05-01"
  },
  {
    "place": "Home (private)4ec34517722e5b8e03d67d9c",
    "time": "2012-05-01"
  },
  {
    "place": "Miscellaneous Shop4dff64a9a809baedbd915521",
    "time": "2012-05-01"
  },
  {
    "place": "Subway4b6cba4cf964a5209e4f2ce3",
    "time": "2012-05-01"
  },
  {
    "place": "Subway4cbfbedea0c4f04d1e085731",
    "time": "2012-05-01"
  },
  {
    "place": "Neighborhood4bdc9fb73904a59345084f9e",
    "time": "2012-05-01"
  },
  {
    "place": "Bookstore4a8cc1d4f964a520130f20e3",
    "time": "2012-05-01"
  },
  {
    "place": "Home (private)4f1c307ee4b064e65cbf382c",
    "time": "2012-05-02"
  },
  {
    "place": "Neighborhood4bdc9fb73904a59345084f9e",
    "time": "2012-05-02"
  },
  {
    "place": "Other Great Outdoors4f2ea82fe4b09d49e97faf80",
    "time": "2012-05-02"
  },
  {
    "place": "Neighborhood4c97edbdf419a09395806b88",
    "time": "2012-05-02"
  },
  {
    "place": "Residential Building (Apartment / Condo)4e18dbedae6092c27656cead",
    "time": "2012-05-03"
  },
  {
    "place": "Home (private)4e8dc55bf790e886ae0fd1c6",
    "time": "2012-05-03"
  },
  {
    "place": "Miscellaneous Shop4dff64a9a809baedbd915521",
    "time": "2012-05-03"
  },
  {
    "place": "Subway4b6cba4cf964a5209e4f2ce3",
    "time": "2012-05-03"
  },
  {
    "place": "Subway4cbfbedea0c4f04d1e085731",
    "time": "2012-05-03"
  },
  {
    "place": "Bookstore4a8cc1d4f964a520130f20e3",
    "time": "2012-05-03"
  },
  {
    "place": "General Entertainment4f235e5fe4b063d4ff6fa2a6",
    "time": "2012-05-04"
  },
  {
    "place": "Bridge49ecd458f964a52099671fe3",
    "time": "2012-05-04"
  },
  {
    "place": "Residential Building (Apartment / Condo)4e18dbedae6092c27656cead",
    "time": "2012-05-04"
  },
  {
    "place": "Home (private)4ec34517722e5b8e03d67d9c",
    "time": "2012-05-04"
  },
  {
    "place": "Train Station4a6d2857f964a5209fd21fe3",
    "time": "2012-05-04"
  },
  {
    "place": "Other Great Outdoors4f2ea82fe4b09d49e97faf80",
    "time": "2012-05-04"
  },
  {
    "place": "Neighborhood4bdc9fb73904a59345084f9e",
    "time": "2012-05-04"
  },
  {
    "place": "Bridge49ecd458f964a52099671fe3",
    "time": "2012-05-04"
  },
  {
    "place": "Neighborhood4c97edbdf419a09395806b88",
    "time": "2012-05-04"
  },
  {
    "place": "Subway4a6fb84df964a520e4d61fe3",
    "time": "2012-05-04"
  },
  {
    "place": "Train Station4abbe19ef964a520548520e3",
    "time": "2012-05-04"
  },
  {
    "place": "Gym / Fitness Center4b6ee0dcf964a520a9ce2ce3",
    "time": "2012-05-04"
  },
  {
    "place": "Gym / Fitness Center4abba9f1f964a520498420e3",
    "time": "2012-05-04"
  },
  {
    "place": "Plaza4ad0eac3f964a52013db20e3",
    "time": "2012-05-04"
  },
  {
    "place": "Building4e2eb7a91495329632fc9dcd",
    "time": "2012-05-04"
  },
  {
    "place": "Movie Theater40afe980f964a5203bf31ee3",
    "time": "2012-05-04"
  },
  {
    "place": "Subway4b03242cf964a520f94c22e3",
    "time": "2012-05-05"
  },
  {
    "place": "Subway4b03242cf964a520f94c22e3",
    "time": "2012-05-05"
  },
  {
    "place": "Neighborhood4bdc9fb73904a59345084f9e",
    "time": "2012-05-05"
  },
  {
    "place": "Residential Building (Apartment / Condo)4e18dbedae6092c27656cead",
    "time": "2012-05-05"
  },
  {
    "place": "Home (private)4ec34517722e5b8e03d67d9c",
    "time": "2012-05-05"
  },
  {
    "place": "Miscellaneous Shop4dff64a9a809baedbd915521",
    "time": "2012-05-05"
  },
  {
    "place": "Subway4b6cba4cf964a5209e4f2ce3",
    "time": "2012-05-05"
  },
  {
    "place": "Subway4cbfbedea0c4f04d1e085731",
    "time": "2012-05-05"
  },
  {
    "place": "Neighborhood4bdc9fb73904a59345084f9e",
    "time": "2012-05-05"
  },
  {
    "place": "Bookstore4a8cc1d4f964a520130f20e3",
    "time": "2012-05-05"
  },
  {
    "place": "Mexican Restaurant4fa4a231e4b09571de93b9a7",
    "time": "2012-05-05"
  },
  {
    "place": "Wings Joint3fd66200f964a5209fe71ee3",
    "time": "2012-05-05"
  },
  {
    "place": "Bus Station4ea2c27761af76b39cab8a16",
    "time": "2012-05-07"
  },
  {
    "place": "Neighborhood4bdc9fb73904a59345084f9e",
    "time": "2012-05-07"
  },
  {
    "place": "Residential Building (Apartment / Condo)4e18dbedae6092c27656cead",
    "time": "2012-05-07"
  },
  {
    "place": "Home (private)4ef7ce55c512f22778e7e0a4",
    "time": "2012-05-07"
  },
  {
    "place": "Home (private)4ec34517722e5b8e03d67d9c",
    "time": "2012-05-07"
  },
  {
    "place": "Miscellaneous Shop4dff64a9a809baedbd915521",
    "time": "2012-05-07"
  },
  {
    "place": "Subway4b6cba4cf964a5209e4f2ce3",
    "time": "2012-05-07"
  },
  {
    "place": "Subway4cbfbedea0c4f04d1e085731",
    "time": "2012-05-07"
  },
  {
    "place": "Neighborhood4bdc9fb73904a59345084f9e",
    "time": "2012-05-07"
  },
  {
    "place": "Bookstore4a8cc1d4f964a520130f20e3",
    "time": "2012-05-07"
  },
  {
    "place": "Residential Building (Apartment / Condo)4e18dbedae6092c27656cead",
    "time": "2012-05-08"
  },
  {
    "place": "Home (private)4ef7ce55c512f22778e7e0a4",
    "time": "2012-05-08"
  },
  {
    "place": "Home (private)4e8dc55bf790e886ae0fd1c6",
    "time": "2012-05-08"
  },
  {
    "place": "Campground4eadae0677c8cdc66d6d1e56",
    "time": "2012-05-08"
  },
  {
    "place": "Miscellaneous Shop4dff64a9a809baedbd915521",
    "time": "2012-05-08"
  },
  {
    "place": "Subway4b6cba4cf964a5209e4f2ce3",
    "time": "2012-05-08"
  },
  {
    "place": "Subway4cbfbedea0c4f04d1e085731",
    "time": "2012-05-08"
  },
  {
    "place": "Bookstore4a8cc1d4f964a520130f20e3",
    "time": "2012-05-08"
  },
  {
    "place": "Home (private)4f1c307ee4b064e65cbf382c",
    "time": "2012-05-09"
  },
  {
    "place": "Other Great Outdoors4f2ea82fe4b09d49e97faf80",
    "time": "2012-05-09"
  },
  {
    "place": "Neighborhood4bdc9fb73904a59345084f9e",
    "time": "2012-05-09"
  },
  {
    "place": "Residential Building (Apartment / Condo)4e18dbedae6092c27656cead",
    "time": "2012-05-09"
  },
  {
    "place": "Campground4eadae0677c8cdc66d6d1e56",
    "time": "2012-05-09"
  },
  {
    "place": "Miscellaneous Shop4dff64a9a809baedbd915521",
    "time": "2012-05-09"
  },
  {
    "place": "Subway4b6cba4cf964a5209e4f2ce3",
    "time": "2012-05-09"
  },
  {
    "place": "Subway4cbfbedea0c4f04d1e085731",
    "time": "2012-05-09"
  },
  {
    "place": "Miscellaneous Shop4dff64a9a809baedbd915521",
    "time": "2012-05-10"
  },
  {
    "place": "Subway4b6cba4cf964a5209e4f2ce3",
    "time": "2012-05-10"
  },
  {
    "place": "Bookstore4a8cc1d4f964a520130f20e3",
    "time": "2012-05-10"
  },
  {
    "place": "General Entertainment4f235e5fe4b063d4ff6fa2a6",
    "time": "2012-05-11"
  },
  {
    "place": "Home (private)4f1c307ee4b064e65cbf382c",
    "time": "2012-05-11"
  },
  {
    "place": "Neighborhood4bdc9fb73904a59345084f9e",
    "time": "2012-05-11"
  },
  {
    "place": "Athletic & Sport4faa88a8e4b0dc75ba3d9f02",
    "time": "2012-05-11"
  },
  {
    "place": "Residential Building (Apartment / Condo)4e18dbedae6092c27656cead",
    "time": "2012-05-11"
  },
  {
    "place": "Home (private)4ef7ce55c512f22778e7e0a4",
    "time": "2012-05-11"
  },
  {
    "place": "Subway4d262ad8b7d5236a10401009",
    "time": "2012-05-11"
  },
  {
    "place": "Neighborhood4bdc9fb73904a59345084f9e",
    "time": "2012-05-11"
  },
  {
    "place": "Bridge49ecd458f964a52099671fe3",
    "time": "2012-05-11"
  },
  {
    "place": "Home (private)4f1c307ee4b064e65cbf382c",
    "time": "2012-05-11"
  },
  {
    "place": "Subway4a6fb84df964a520e4d61fe3",
    "time": "2012-05-11"
  },
  {
    "place": "Snack Place4b49f242f964a520847626e3",
    "time": "2012-05-11"
  },
  {
    "place": "Train Station4abbe19ef964a520548520e3",
    "time": "2012-05-11"
  },
  {
    "place": "Subway4e84b7b530f84cdd79adfed0",
    "time": "2012-05-11"
  },
  {
    "place": "Sandwich Place4e4ce4debd413c4cc66d05d0",
    "time": "2012-05-11"
  },
  {
    "place": "Gym / Fitness Center4b43d659f964a52091eb25e3",
    "time": "2012-05-11"
  },
  {
    "place": "Department Store4a0eb511f964a520ea751fe3",
    "time": "2012-05-11"
  },
  {
    "place": "Electronics Store4a883971f964a5207b0520e3",
    "time": "2012-05-11"
  },
  {
    "place": "Bridge49ecd458f964a52099671fe3",
    "time": "2012-05-12"
  },
  {
    "place": "General Entertainment4f235e5fe4b063d4ff6fa2a6",
    "time": "2012-05-12"
  },
  {
    "place": "Neighborhood4bdc9fb73904a59345084f9e",
    "time": "2012-05-12"
  },
  {
    "place": "Neighborhood4c97edbdf419a09395806b88",
    "time": "2012-05-12"
  },
  {
    "place": "Residential Building (Apartment / Condo)4e18dbedae6092c27656cead",
    "time": "2012-05-12"
  },
  {
    "place": "Miscellaneous Shop4dff64a9a809baedbd915521",
    "time": "2012-05-12"
  },
  {
    "place": "Subway4b6cba4cf964a5209e4f2ce3",
    "time": "2012-05-12"
  },
  {
    "place": "Subway4cbfbedea0c4f04d1e085731",
    "time": "2012-05-12"
  },
  {
    "place": "Neighborhood4bdc9fb73904a59345084f9e",
    "time": "2012-05-12"
  },
  {
    "place": "Stadium4faf0be1e4b091b462f298c8",
    "time": "2012-05-13"
  },
  {
    "place": "Train Station42911d00f964a520f5231fe3",
    "time": "2012-05-13"
  },
  {
    "place": "General Entertainment4f235e5fe4b063d4ff6fa2a6",
    "time": "2012-05-13"
  },
  {
    "place": "Home (private)4f1c307ee4b064e65cbf382c",
    "time": "2012-05-13"
  },
  {
    "place": "Residential Building (Apartment / Condo)4e18dbedae6092c27656cead",
    "time": "2012-05-13"
  },
  {
    "place": "Home (private)4ef7ce55c512f22778e7e0a4",
    "time": "2012-05-13"
  },
  {
    "place": "Home (private)4e8dc55bf790e886ae0fd1c6",
    "time": "2012-05-13"
  },
  {
    "place": "Campground4eadae0677c8cdc66d6d1e56",
    "time": "2012-05-13"
  },
  {
    "place": "Neighborhood4bdc9fb73904a59345084f9e",
    "time": "2012-05-13"
  },
  {
    "place": "Cemetery4ab53d41f964a520807320e3",
    "time": "2012-05-13"
  },
  {
    "place": "Road4bae1d87f964a52011863be3",
    "time": "2012-05-13"
  },
  {
    "place": "Campground4eadae0677c8cdc66d6d1e56",
    "time": "2012-05-14"
  },
  {
    "place": "Athletic & Sport4faa88a8e4b0dc75ba3d9f02",
    "time": "2012-05-14"
  },
  {
    "place": "Residential Building (Apartment / Condo)4e18dbedae6092c27656cead",
    "time": "2012-05-14"
  },
  {
    "place": "Miscellaneous Shop4dff64a9a809baedbd915521",
    "time": "2012-05-14"
  },
  {
    "place": "Subway4b6cba4cf964a5209e4f2ce3",
    "time": "2012-05-14"
  },
  {
    "place": "Subway4cbfbedea0c4f04d1e085731",
    "time": "2012-05-14"
  },
  {
    "place": "Neighborhood4bdc9fb73904a59345084f9e",
    "time": "2012-05-14"
  },
  {
    "place": "Train Station42911d00f964a520f5231fe3",
    "time": "2012-05-14"
  },
  {
    "place": "Stadium4ae6363ef964a520aba521e3",
    "time": "2012-05-14"
  },
  {
    "place": "Mall4a19bdd6f964a520477a1fe3",
    "time": "2012-05-14"
  },
  {
    "place": "Bridge49ecd458f964a52099671fe3",
    "time": "2012-05-15"
  },
  {
    "place": "Other Great Outdoors4f2ea82fe4b09d49e97faf80",
    "time": "2012-05-15"
  },
  {
    "place": "Athletic & Sport4faa88a8e4b0dc75ba3d9f02",
    "time": "2012-05-15"
  },
  {
    "place": "Subway4b6cba4cf964a5209e4f2ce3",
    "time": "2012-05-15"
  },
  {
    "place": "Neighborhood4bdc9fb73904a59345084f9e",
    "time": "2012-05-15"
  },
  {
    "place": "Movie Theater43a72ba0f964a520672c1fe3",
    "time": "2012-05-16"
  },
  {
    "place": "Home (private)4f1c307ee4b064e65cbf382c",
    "time": "2012-05-16"
  },
  {
    "place": "Bridge49ecd458f964a52099671fe3",
    "time": "2012-05-16"
  },
  {
    "place": "Neighborhood4bdc9fb73904a59345084f9e",
    "time": "2012-05-16"
  },
  {
    "place": "Home (private)4ef7ce55c512f22778e7e0a4",
    "time": "2012-05-16"
  },
  {
    "place": "Home (private)4e8dc55bf790e886ae0fd1c6",
    "time": "2012-05-16"
  },
  {
    "place": "Residential Building (Apartment / Condo)4e18dbedae6092c27656cead",
    "time": "2012-05-16"
  },
  {
    "place": "Athletic & Sport4faa88a8e4b0dc75ba3d9f02",
    "time": "2012-05-16"
  },
  {
    "place": "Subway4b6cba4cf964a5209e4f2ce3",
    "time": "2012-05-16"
  },
  {
    "place": "Miscellaneous Shop4dff64a9a809baedbd915521",
    "time": "2012-05-16"
  },
  {
    "place": "Train Station4cbfbedea0c4f04d1e085731",
    "time": "2012-05-16"
  },
  {
    "place": "Neighborhood4bdc9fb73904a59345084f9e",
    "time": "2012-05-16"
  },
  {
    "place": "Subway4ad8add6f964a520a61321e3",
    "time": "2012-05-16"
  },
  {
    "place": "Bookstore4a8cc1d4f964a520130f20e3",
    "time": "2012-05-16"
  },
  {
    "place": "Arcade44510be3f964a520a0321fe3",
    "time": "2012-05-17"
  },
  {
    "place": "Stadium4faf0be1e4b091b462f298c8",
    "time": "2012-05-17"
  },
  {
    "place": "Home (private)4f1c307ee4b064e65cbf382c",
    "time": "2012-05-17"
  },
  {
    "place": "Bridge49ecd458f964a52099671fe3",
    "time": "2012-05-17"
  },
  {
    "place": "General Entertainment4e7e0c5e8231e88c0cd1ff97",
    "time": "2012-05-17"
  },
  {
    "place": "Home (private)4ef7ce55c512f22778e7e0a4",
    "time": "2012-05-17"
  },
  {
    "place": "Residential Building (Apartment / Condo)4e18dbedae6092c27656cead",
    "time": "2012-05-17"
  },
  {
    "place": "Athletic & Sport4faa88a8e4b0dc75ba3d9f02",
    "time": "2012-05-17"
  },
  {
    "place": "Train Station4a6d2857f964a5209fd21fe3",
    "time": "2012-05-17"
  },
  {
    "place": "Neighborhood4bdc9fb73904a59345084f9e",
    "time": "2012-05-17"
  },
  {
    "place": "Other Great Outdoors4f2ea82fe4b09d49e97faf80",
    "time": "2012-05-17"
  },
  {
    "place": "Home (private)4f1c307ee4b064e65cbf382c",
    "time": "2012-05-17"
  },
  {
    "place": "Gym / Fitness Center4b05f2bcf964a52063e622e3",
    "time": "2012-05-17"
  },
  {
    "place": "Subway4ad8add6f964a520a61321e3",
    "time": "2012-05-17"
  },
  {
    "place": "Train Station4e6a93eb62e1cd1d54c419f7",
    "time": "2012-05-17"
  },
  {
    "place": "Bookstore4a8cc1d4f964a520130f20e3",
    "time": "2012-05-17"
  },
  {
    "place": "Residential Building (Apartment / Condo)4e18dbedae6092c27656cead",
    "time": "2012-05-18"
  },
  {
    "place": "Athletic & Sport4faa88a8e4b0dc75ba3d9f02",
    "time": "2012-05-18"
  },
  {
    "place": "Neighborhood4bdc9fb73904a59345084f9e",
    "time": "2012-05-18"
  },
  {
    "place": "Bridge49ecd458f964a52099671fe3",
    "time": "2012-05-18"
  },
  {
    "place": "General Entertainment4f235e5fe4b063d4ff6fa2a6",
    "time": "2012-05-18"
  },
  {
    "place": "Movie Theater45b893e3f964a520cf411fe3",
    "time": "2012-05-18"
  },
  {
    "place": "Bar3fd66200f964a520b8e31ee3",
    "time": "2012-05-19"
  },
  {
    "place": "Neighborhood4bdc9fb73904a59345084f9e",
    "time": "2012-05-19"
  },
  {
    "place": "Residential Building (Apartment / Condo)4e18dbedae6092c27656cead",
    "time": "2012-05-19"
  },
  {
    "place": "Campground4eadae0677c8cdc66d6d1e56",
    "time": "2012-05-19"
  },
  {
    "place": "Subway4ad8add6f964a520a61321e3",
    "time": "2012-05-19"
  },
  {
    "place": "Bookstore4a8cc1d4f964a520130f20e3",
    "time": "2012-05-19"
  },
  {
    "place": "Clothing Store4c421e1fda3dc9280301cab9",
    "time": "2012-05-19"
  },
  {
    "place": "Residential Building (Apartment / Condo)4e18dbedae6092c27656cead",
    "time": "2012-05-21"
  },
  {
    "place": "Miscellaneous Shop4dff64a9a809baedbd915521",
    "time": "2012-05-21"
  },
  {
    "place": "Subway4b6cba4cf964a5209e4f2ce3",
    "time": "2012-05-21"
  },
  {
    "place": "Train Station4cbfbedea0c4f04d1e085731",
    "time": "2012-05-21"
  },
  {
    "place": "Neighborhood4bdc9fb73904a59345084f9e",
    "time": "2012-05-21"
  },
  {
    "place": "Subway4ad8add6f964a520a61321e3",
    "time": "2012-05-21"
  },
  {
    "place": "Bookstore4a8cc1d4f964a520130f20e3",
    "time": "2012-05-21"
  },
  {
    "place": "Electronics Store4afd738bf964a520e92722e3",
    "time": "2012-05-21"
  },
  {
    "place": "Bar49f20287f964a520ce691fe3",
    "time": "2012-05-21"
  },
  {
    "place": "Home (private)4f1c307ee4b064e65cbf382c",
    "time": "2012-05-22"
  },
  {
    "place": "General Entertainment4f235e5fe4b063d4ff6fa2a6",
    "time": "2012-05-22"
  },
  {
    "place": "Bridge49ecd458f964a52099671fe3",
    "time": "2012-05-22"
  },
  {
    "place": "Residential Building (Apartment / Condo)4e18dbedae6092c27656cead",
    "time": "2012-05-22"
  },
  {
    "place": "Home (private)4ef7ce55c512f22778e7e0a4",
    "time": "2012-05-22"
  },
  {
    "place": "Subway4b6cba4cf964a5209e4f2ce3",
    "time": "2012-05-23"
  },
  {
    "place": "Train Station4cbfbedea0c4f04d1e085731",
    "time": "2012-05-23"
  },
  {
    "place": "Bookstore4a8cc1d4f964a520130f20e3",
    "time": "2012-05-23"
  },
  {
    "place": "Arcade44510be3f964a520a0321fe3",
    "time": "2012-05-24"
  },
  {
    "place": "Home (private)4f1c307ee4b064e65cbf382c",
    "time": "2012-05-24"
  },
  {
    "place": "Bridge49ecd458f964a52099671fe3",
    "time": "2012-05-24"
  },
  {
    "place": "Home (private)4ec34517722e5b8e03d67d9c",
    "time": "2012-05-26"
  },
  {
    "place": "Home (private)4ec34517722e5b8e03d67d9c",
    "time": "2012-05-27"
  },
  {
    "place": "Athletic & Sport4faa88a8e4b0dc75ba3d9f02",
    "time": "2012-05-27"
  },
  {
    "place": "Miscellaneous Shop4dff64a9a809baedbd915521",
    "time": "2012-05-27"
  },
  {
    "place": "Subway4b6cba4cf964a5209e4f2ce3",
    "time": "2012-05-27"
  },
  {
    "place": "Train Station4cbfbedea0c4f04d1e085731",
    "time": "2012-05-27"
  },
  {
    "place": "Neighborhood4bdc9fb73904a59345084f9e",
    "time": "2012-05-27"
  },
  {
    "place": "Movie Theater40afe980f964a5203bf31ee3",
    "time": "2012-05-27"
  },
  {
    "place": "Bar41044980f964a520780b1fe3",
    "time": "2012-05-27"
  },
  {
    "place": "Stadium4fc0574ee4b0c9a9f0f5b462",
    "time": "2012-05-27"
  },
  {
    "place": "Bus Station4840fe6bf964a52030501fe3",
    "time": "2012-05-28"
  },
  {
    "place": "Arcade44510be3f964a520a0321fe3",
    "time": "2012-05-28"
  },
  {
    "place": "Train Station4de23e57e4cd056f743ea6f3",
    "time": "2012-05-28"
  },
  {
    "place": "Train Station4bad3de2f964a520233d3be3",
    "time": "2012-05-28"
  },
  {
    "place": "Other Great Outdoors4f2ea82fe4b09d49e97faf80",
    "time": "2012-05-28"
  },
  {
    "place": "Neighborhood4bdc9fb73904a59345084f9e",
    "time": "2012-05-28"
  },
  {
    "place": "Residential Building (Apartment / Condo)4e18dbedae6092c27656cead",
    "time": "2012-05-28"
  },
  {
    "place": "Moving Target4fbfe16ae4b05190680fe0b1",
    "time": "2012-05-28"
  },
  {
    "place": "Campground4eadae0677c8cdc66d6d1e56",
    "time": "2012-05-28"
  },
  {
    "place": "Neighborhood4bdc9fb73904a59345084f9e",
    "time": "2012-05-28"
  },
  {
    "place": "Residential Building (Apartment / Condo)4e18dbedae6092c27656cead",
    "time": "2012-05-29"
  },
  {
    "place": "Subway4b03242cf964a520f94c22e3",
    "time": "2012-05-29"
  },
  {
    "place": "Train Station4baea035f964a52033c83be3",
    "time": "2012-05-29"
  },
  {
    "place": "Subway4b03242cf964a520f94c22e3",
    "time": "2012-05-29"
  },
  {
    "place": "Neighborhood4bdc9fb73904a59345084f9e",
    "time": "2012-05-29"
  },
  {
    "place": "Train Station4d1e9fa916cfb60c4e944a61",
    "time": "2012-05-29"
  },
  {
    "place": "Subway4b74f496f964a52047f92de3",
    "time": "2012-05-29"
  },
  {
    "place": "Garden42717900f964a5206f211fe3",
    "time": "2012-05-29"
  },
  {
    "place": "Garden42717900f964a5206f211fe3",
    "time": "2012-05-29"
  },
  {
    "place": "Train Station4de23e57e4cd056f743ea6f3",
    "time": "2012-05-29"
  },
  {
    "place": "Subway4ad8add6f964a520a61321e3",
    "time": "2012-05-29"
  },
  {
    "place": "Other Great Outdoors4c10f03981e976b051e40feb",
    "time": "2012-05-29"
  },
  {
    "place": "Park3fd66200f964a520def11ee3",
    "time": "2012-05-29"
  },
  {
    "place": "Subway4b6cba4cf964a5209e4f2ce3",
    "time": "2012-05-30"
  },
  {
    "place": "Train Station4cbfbedea0c4f04d1e085731",
    "time": "2012-05-30"
  },
  {
    "place": "Residential Building (Apartment / Condo)4e18dbedae6092c27656cead",
    "time": "2012-05-31"
  },
  {
    "place": "Miscellaneous Shop4dff64a9a809baedbd915521",
    "time": "2012-05-31"
  },
  {
    "place": "Train Station4cbfbedea0c4f04d1e085731",
    "time": "2012-05-31"
  },
  {
    "place": "Subway4ad8add6f964a520a61321e3",
    "time": "2012-05-31"
  },
  {
    "place": "Bank4b252c9bf964a520616d24e3",
    "time": "2012-05-31"
  },
  {
    "place": "Bookstore4a8cc1d4f964a520130f20e3",
    "time": "2012-05-31"
  },
  {
    "place": "Park3fd66200f964a520def11ee3",
    "time": "2012-05-31"
  },
  {
    "place": "Park3fd66200f964a520def11ee3",
    "time": "2012-05-31"
  },
  {
    "place": "Bookstore4a8cc1d4f964a520130f20e3",
    "time": "2012-05-31"
  },
  {
    "place": "Residential Building (Apartment / Condo)4e18dbedae6092c27656cead",
    "time": "2012-06-01"
  },
  {
    "place": "Home (private)4ec34517722e5b8e03d67d9c",
    "time": "2012-06-01"
  },
  {
    "place": "Athletic & Sport4faa88a8e4b0dc75ba3d9f02",
    "time": "2012-06-01"
  },
  {
    "place": "Train Station4cbfbedea0c4f04d1e085731",
    "time": "2012-06-01"
  },
  {
    "place": "Neighborhood4bdc9fb73904a59345084f9e",
    "time": "2012-06-01"
  },
  {
    "place": "Movie Theater453cacc7f964a520153c1fe3",
    "time": "2012-06-02"
  },
  {
    "place": "Bar49caa5a0f964a520d0581fe3",
    "time": "2012-06-03"
  },
  {
    "place": "Neighborhood4bdc9fb73904a59345084f9e",
    "time": "2012-06-03"
  },
  {
    "place": "Train Station4e6a93eb62e1cd1d54c419f7",
    "time": "2012-06-03"
  },
  {
    "place": "Stadium4faf0be1e4b091b462f298c8",
    "time": "2012-06-03"
  },
  {
    "place": "Residential Building (Apartment / Condo)4e18dbedae6092c27656cead",
    "time": "2012-06-03"
  },
  {
    "place": "Home (private)4ec34517722e5b8e03d67d9c",
    "time": "2012-06-03"
  },
  {
    "place": "Home (private)4ef7ce55c512f22778e7e0a4",
    "time": "2012-06-03"
  },
  {
    "place": "Residential Building (Apartment / Condo)4e18dbedae6092c27656cead",
    "time": "2012-06-04"
  },
  {
    "place": "Athletic & Sport4fc8066ce4b0896b9f15b797",
    "time": "2012-06-04"
  },
  {
    "place": "Subway4ad8add6f964a520a61321e3",
    "time": "2012-06-04"
  },
  {
    "place": "Bookstore4a8cc1d4f964a520130f20e3",
    "time": "2012-06-04"
  },
  {
    "place": "Electronics Store4afd738bf964a520e92722e3",
    "time": "2012-06-04"
  },
  {
    "place": "Bridge4a32c3f9f964a5208c9a1fe3",
    "time": "2012-06-04"
  },
  {
    "place": "Neighborhood4c97edbdf419a09395806b88",
    "time": "2012-06-04"
  },
  {
    "place": "Train Station43fa07c9f964a520d92f1fe3",
    "time": "2012-06-04"
  },
  {
    "place": "Department Store4a9e7e1af964a5204c3a20e3",
    "time": "2012-06-04"
  },
  {
    "place": "Stadium4b992b04f964a520726635e3",
    "time": "2012-06-04"
  },
  {
    "place": "Train Station4baea035f964a52033c83be3",
    "time": "2012-06-04"
  },
  {
    "place": "Subway4b03242cf964a520f94c22e3",
    "time": "2012-06-05"
  },
  {
    "place": "Subway4b03242cf964a520f94c22e3",
    "time": "2012-06-05"
  },
  {
    "place": "Residential Building (Apartment / Condo)4e18dbedae6092c27656cead",
    "time": "2012-06-05"
  },
  {
    "place": "Home (private)4ec34517722e5b8e03d67d9c",
    "time": "2012-06-05"
  },
  {
    "place": "Home (private)4ef7ce55c512f22778e7e0a4",
    "time": "2012-06-05"
  },
  {
    "place": "Subway4b03242cf964a520f94c22e3",
    "time": "2012-06-05"
  },
  {
    "place": "Subway4b03242cf964a520f94c22e3",
    "time": "2012-06-05"
  },
  {
    "place": "Train Station4eda9f125c5c96a2fe912f0b",
    "time": "2012-06-05"
  },
  {
    "place": "Subway4b74f496f964a52047f92de3",
    "time": "2012-06-05"
  },
  {
    "place": "Train Station4d1e9fa916cfb60c4e944a61",
    "time": "2012-06-05"
  },
  {
    "place": "Subway4bc10660920eb71333151a2c",
    "time": "2012-06-05"
  },
  {
    "place": "Subway4ecbb4d993adb4bd1b32cc39",
    "time": "2012-06-05"
  },
  {
    "place": "Subway4b636f5df964a5209d792ae3",
    "time": "2012-06-05"
  },
  {
    "place": "Garden42717900f964a5206f211fe3",
    "time": "2012-06-05"
  },
  {
    "place": "Garden4ee11b8477c804cac6fe9c50",
    "time": "2012-06-05"
  },
  {
    "place": "Garden42717900f964a5206f211fe3",
    "time": "2012-06-05"
  },
  {
    "place": "Residential Building (Apartment / Condo)4e18dbedae6092c27656cead",
    "time": "2012-06-06"
  },
  {
    "place": "Neighborhood4bdc9fb73904a59345084f9e",
    "time": "2012-06-06"
  },
  {
    "place": "Bridge49ecd458f964a52099671fe3",
    "time": "2012-06-06"
  },
  {
    "place": "Gym / Fitness Center4bf56dceff90c9b6065c5628",
    "time": "2012-06-06"
  },
  {
    "place": "Bus Station4e56df3952b1d8d4e3117bda",
    "time": "2012-06-06"
  },
  {
    "place": "Subway4aeca43cf964a520c9c921e3",
    "time": "2012-06-06"
  },
  {
    "place": "Subway4ad8add6f964a520a61321e3",
    "time": "2012-06-06"
  },
  {
    "place": "Athletic & Sport4fc8066ce4b0896b9f15b797",
    "time": "2012-06-06"
  },
  {
    "place": "Bookstore4a8cc1d4f964a520130f20e3",
    "time": "2012-06-06"
  },
  {
    "place": "Bank4b252c9bf964a520616d24e3",
    "time": "2012-06-06"
  },
  {
    "place": "Park3fd66200f964a520def11ee3",
    "time": "2012-06-06"
  },
  {
    "place": "Other Great Outdoors4c10f03981e976b051e40feb",
    "time": "2012-06-06"
  },
  {
    "place": "Arcade44510be3f964a520a0321fe3",
    "time": "2012-06-07"
  },
  {
    "place": "General Entertainment4f6fb931e4b0620833a10995",
    "time": "2012-06-07"
  },
  {
    "place": "Neighborhood4bdc9fb73904a59345084f9e",
    "time": "2012-06-07"
  },
  {
    "place": "Neighborhood4c97edbdf419a09395806b88",
    "time": "2012-06-07"
  },
  {
    "place": "Residential Building (Apartment / Condo)4e18dbedae6092c27656cead",
    "time": "2012-06-07"
  },
  {
    "place": "Campground4eadae0677c8cdc66d6d1e56",
    "time": "2012-06-07"
  },
  {
    "place": "Miscellaneous Shop4dff64a9a809baedbd915521",
    "time": "2012-06-07"
  },
  {
    "place": "Train Station4cbfbedea0c4f04d1e085731",
    "time": "2012-06-07"
  },
  {
    "place": "Subway4b6cba4cf964a5209e4f2ce3",
    "time": "2012-06-07"
  },
  {
    "place": "Neighborhood4bdc9fb73904a59345084f9e",
    "time": "2012-06-07"
  },
  {
    "place": "Subway4ad8add6f964a520a61321e3",
    "time": "2012-06-07"
  },
  {
    "place": "Athletic & Sport4fc8066ce4b0896b9f15b797",
    "time": "2012-06-07"
  },
  {
    "place": "Bank4b252c9bf964a520616d24e3",
    "time": "2012-06-07"
  },
  {
    "place": "Home (private)4ec34517722e5b8e03d67d9c",
    "time": "2012-10-24"
  },
  {
    "place": "Miscellaneous Shop4dff64a9a809baedbd915521",
    "time": "2012-10-24"
  },
  {
    "place": "Bookstore4a8cc1d4f964a520130f20e3",
    "time": "2012-10-24"
  },
  {
    "place": "Residential Building (Apartment / Condo)4e18dbedae6092c27656cead",
    "time": "2012-10-25"
  },
  {
    "place": "Home (private)4e8dc55bf790e886ae0fd1c6",
    "time": "2012-10-25"
  },
  {
    "place": "Home (private)4ec34517722e5b8e03d67d9c",
    "time": "2012-10-25"
  },
  {
    "place": "Neighborhood4bdc9fb73904a59345084f9e",
    "time": "2012-10-25"
  },
  {
    "place": "Train Station4cbfbedea0c4f04d1e085731",
    "time": "2012-10-25"
  },
  {
    "place": "Home (private)4ec34517722e5b8e03d67d9c",
    "time": "2012-10-31"
  },
  {
    "place": "Neighborhood4bdc9fb73904a59345084f9e",
    "time": "2012-10-31"
  },
  {
    "place": "Home (private)4ec34517722e5b8e03d67d9c",
    "time": "2012-10-31"
  },
  {
    "place": "Campground4eadae0677c8cdc66d6d1e56",
    "time": "2012-10-31"
  },
  {
    "place": "Other Great Outdoors508eeca4e4b095c5d70b9a32",
    "time": "2012-10-31"
  },
  {
    "place": "Home (private)4e8dc55bf790e886ae0fd1c6",
    "time": "2012-11-01"
  },
  {
    "place": "Residential Building (Apartment / Condo)4e18dbedae6092c27656cead",
    "time": "2012-11-01"
  },
  {
    "place": "Movie Theater4f07e5d9e4b0d6422a552a5b",
    "time": "2012-11-01"
  },
  {
    "place": "Neighborhood4bdc9fb73904a59345084f9e",
    "time": "2012-11-01"
  },
  {
    "place": "Residential Building (Apartment / Condo)4e18dbedae6092c27656cead",
    "time": "2012-11-05"
  },
  {
    "place": "Campground4eadae0677c8cdc66d6d1e56",
    "time": "2012-11-05"
  },
  {
    "place": "Subway4d262ad8b7d5236a10401009",
    "time": "2012-11-05"
  },
  {
    "place": "Home (private)4f1c307ee4b064e65cbf382c",
    "time": "2012-11-05"
  },
  {
    "place": "Spiritual Center4d8741fd7e8ef04d2b6643be",
    "time": "2012-11-06"
  },
  {
    "place": "Residential Building (Apartment / Condo)4e18dbedae6092c27656cead",
    "time": "2012-11-06"
  },
  {
    "place": "Home (private)4e8dc55bf790e886ae0fd1c6",
    "time": "2012-11-06"
  },
  {
    "place": "Home (private)4ef7ce55c512f22778e7e0a4",
    "time": "2012-11-06"
  },
  {
    "place": "Campground4eadae0677c8cdc66d6d1e56",
    "time": "2012-11-06"
  },
  {
    "place": "Home (private)4ec34517722e5b8e03d67d9c",
    "time": "2012-11-06"
  },
  {
    "place": "Neighborhood4bdc9fb73904a59345084f9e",
    "time": "2012-11-06"
  },
  {
    "place": "Movie Theater4f07e5d9e4b0d6422a552a5b",
    "time": "2012-11-06"
  },
  {
    "place": "Post Office4a8d90c6f964a520121020e3",
    "time": "2012-11-06"
  },
  {
    "place": "Subway4d262ad8b7d5236a10401009",
    "time": "2012-11-06"
  },
  {
    "place": "Train Station4bad3de2f964a520233d3be3",
    "time": "2012-11-06"
  },
  {
    "place": "Home (private)4f1c307ee4b064e65cbf382c",
    "time": "2012-11-06"
  },
  {
    "place": "Electronics Store4afd738bf964a520e92722e3",
    "time": "2012-11-07"
  },
  {
    "place": "Athletic & Sport4faa88a8e4b0dc75ba3d9f02",
    "time": "2012-11-07"
  },
  {
    "place": "Home (private)4ef7ce55c512f22778e7e0a4",
    "time": "2012-11-07"
  },
  {
    "place": "Subway4d262ad8b7d5236a10401009",
    "time": "2012-11-07"
  },
  {
    "place": "Coffee Shop4a20b852f964a520b97c1fe3",
    "time": "2012-11-07"
  },
  {
    "place": "Bookstore4a8cc1d4f964a520130f20e3",
    "time": "2012-11-07"
  },
  {
    "place": "Home (private)4ef7ce55c512f22778e7e0a4",
    "time": "2012-11-11"
  },
  {
    "place": "Campground4eadae0677c8cdc66d6d1e56",
    "time": "2012-11-11"
  },
  {
    "place": "Athletic & Sport4faa88a8e4b0dc75ba3d9f02",
    "time": "2012-11-11"
  },
  {
    "place": "Home (private)4f1c307ee4b064e65cbf382c",
    "time": "2012-11-11"
  },
  {
    "place": "Bar44301625f964a520e7311fe3",
    "time": "2012-11-11"
  },
  {
    "place": "Movie Theater4f07e5d9e4b0d6422a552a5b",
    "time": "2012-11-12"
  },
  {
    "place": "Sandwich Place5048dba4e4b0c08f6d08eea8",
    "time": "2012-11-12"
  },
  {
    "place": "Movie Theater4f07e5d9e4b0d6422a552a5b",
    "time": "2012-11-13"
  },
  {
    "place": "Home (private)4ef7ce55c512f22778e7e0a4",
    "time": "2012-11-14"
  },
  {
    "place": "Campground4eadae0677c8cdc66d6d1e56",
    "time": "2012-11-14"
  },
  {
    "place": "Stadium4b992b04f964a520726635e3",
    "time": "2012-11-19"
  },
  {
    "place": "Movie Theater4f07e5d9e4b0d6422a552a5b",
    "time": "2012-11-20"
  },
  {
    "place": "Home (private)4e8dc55bf790e886ae0fd1c6",
    "time": "2012-11-20"
  },
  {
    "place": "Home (private)4ef7ce55c512f22778e7e0a4",
    "time": "2012-11-20"
  },
  {
    "place": "Home (private)4f1c307ee4b064e65cbf382c",
    "time": "2012-11-20"
  },
  {
    "place": "Home (private)4e8dc55bf790e886ae0fd1c6",
    "time": "2012-11-21"
  },
  {
    "place": "Home (private)4ec34517722e5b8e03d67d9c",
    "time": "2012-11-21"
  },
  {
    "place": "Home (private)4ef7ce55c512f22778e7e0a4",
    "time": "2012-11-22"
  },
  {
    "place": "Home (private)4ec34517722e5b8e03d67d9c",
    "time": "2012-11-22"
  },
  {
    "place": "Other Great Outdoors50abeb91e4b04d7b173c0466",
    "time": "2012-11-22"
  },
  {
    "place": "Home (private)4ecee61de5faa5ec010dcfef",
    "time": "2012-11-22"
  },
  {
    "place": "Campground4eadae0677c8cdc66d6d1e56",
    "time": "2012-11-23"
  },
  {
    "place": "Home (private)4ec34517722e5b8e03d67d9c",
    "time": "2012-11-23"
  },
  {
    "place": "Home (private)4ef7ce55c512f22778e7e0a4",
    "time": "2012-11-25"
  },
  {
    "place": "Home (private)4e8dc55bf790e886ae0fd1c6",
    "time": "2012-11-25"
  },
  {
    "place": "Movie Theater4f07e5d9e4b0d6422a552a5b",
    "time": "2012-11-25"
  },
  {
    "place": "Home (private)4f1c307ee4b064e65cbf382c",
    "time": "2012-11-25"
  },
  {
    "place": "Home (private)4e8dc55bf790e886ae0fd1c6",
    "time": "2012-11-26"
  },
  {
    "place": "Campground4eadae0677c8cdc66d6d1e56",
    "time": "2012-11-26"
  },
  {
    "place": "Home (private)4ef7ce55c512f22778e7e0a4",
    "time": "2012-11-26"
  },
  {
    "place": "Plaza49c64842f964a5202e571fe3",
    "time": "2012-11-27"
  },
  {
    "place": "Other Great Outdoors51140198e4b0874a568cde81",
    "time": "2012-11-27"
  },
  {
    "place": "Home (private)4e8dc55bf790e886ae0fd1c6",
    "time": "2012-11-27"
  },
  {
    "place": "Home (private)4f1c307ee4b064e65cbf382c",
    "time": "2012-11-27"
  },
  {
    "place": "Miscellaneous Shop4dff64a9a809baedbd915521",
    "time": "2012-11-27"
  },
  {
    "place": "Movie Theater4f07e5d9e4b0d6422a552a5b",
    "time": "2012-11-30"
  },
  {
    "place": "Home (private)4e8dc55bf790e886ae0fd1c6",
    "time": "2012-12-01"
  },
  {
    "place": "Home (private)4ef7ce55c512f22778e7e0a4",
    "time": "2012-12-01"
  },
  {
    "place": "Home (private)4e8dc55bf790e886ae0fd1c6",
    "time": "2012-12-02"
  },
  {
    "place": "Campground4eadae0677c8cdc66d6d1e56",
    "time": "2012-12-02"
  },
  {
    "place": "Home (private)4ef7ce55c512f22778e7e0a4",
    "time": "2012-12-02"
  },
  {
    "place": "Neighborhood4bdc9fb73904a59345084f9e",
    "time": "2012-12-02"
  },
  {
    "place": "Home (private)4e8dc55bf790e886ae0fd1c6",
    "time": "2012-12-03"
  },
  {
    "place": "Campground4eadae0677c8cdc66d6d1e56",
    "time": "2012-12-03"
  },
  {
    "place": "Home (private)4ec34517722e5b8e03d67d9c",
    "time": "2012-12-03"
  },
  {
    "place": "Train Station4cbfbedea0c4f04d1e085731",
    "time": "2012-12-03"
  },
  {
    "place": "Caf\u00c3\u00a949da416ff964a520665e1fe3",
    "time": "2012-12-03"
  },
  {
    "place": "Coffee Shop4b898555f964a520683e32e3",
    "time": "2012-12-03"
  },
  {
    "place": "Home (private)4ef7ce55c512f22778e7e0a4",
    "time": "2012-12-04"
  },
  {
    "place": "Home (private)4ec34517722e5b8e03d67d9c",
    "time": "2012-12-04"
  },
  {
    "place": "Home (private)4ef7ce55c512f22778e7e0a4",
    "time": "2012-12-05"
  },
  {
    "place": "Home (private)4f1c307ee4b064e65cbf382c",
    "time": "2012-12-05"
  },
  {
    "place": "Movie Theater4f07e5d9e4b0d6422a552a5b",
    "time": "2012-12-05"
  },
  {
    "place": "Bookstore4a8cc1d4f964a520130f20e3",
    "time": "2012-12-05"
  },
  {
    "place": "Electronics Store4afd738bf964a520e92722e3",
    "time": "2012-12-06"
  },
  {
    "place": "Home (private)4ec34517722e5b8e03d67d9c",
    "time": "2012-12-06"
  },
  {
    "place": "Coffee Shop49da74aef964a5208b5e1fe3",
    "time": "2012-12-07"
  },
  {
    "place": "Subway4b2d8479f964a5203dd824e3",
    "time": "2012-12-07"
  },
  {
    "place": "Residential Building (Apartment / Condo)4e18dbedae6092c27656cead",
    "time": "2012-12-07"
  },
  {
    "place": "Home (private)4ec34517722e5b8e03d67d9c",
    "time": "2012-12-07"
  },
  {
    "place": "Movie Theater4f07e5d9e4b0d6422a552a5b",
    "time": "2012-12-08"
  },
  {
    "place": "Athletic & Sport4cc0a3bb31bf952183991ccc",
    "time": "2012-12-08"
  },
  {
    "place": "Bar4d97e39c0caaa1435aad9fb3",
    "time": "2012-12-09"
  },
  {
    "place": "Home (private)4ec34517722e5b8e03d67d9c",
    "time": "2012-12-09"
  },
  {
    "place": "Home (private)4e8dc55bf790e886ae0fd1c6",
    "time": "2012-12-09"
  },
  {
    "place": "Home (private)4ef7ce55c512f22778e7e0a4",
    "time": "2012-12-09"
  },
  {
    "place": "Home (private)4f1c307ee4b064e65cbf382c",
    "time": "2012-12-09"
  },
  {
    "place": "Bookstore4a8cc1d4f964a520130f20e3",
    "time": "2012-12-10"
  },
  {
    "place": "Campground4eadae0677c8cdc66d6d1e56",
    "time": "2012-12-11"
  },
  {
    "place": "Home (private)4ef7ce55c512f22778e7e0a4",
    "time": "2012-12-11"
  },
  {
    "place": "Electronics Store4afd738bf964a520e92722e3",
    "time": "2012-12-12"
  },
  {
    "place": "Home (private)4ef7ce55c512f22778e7e0a4",
    "time": "2012-12-13"
  },
  {
    "place": "Home (private)4f1c307ee4b064e65cbf382c",
    "time": "2012-12-13"
  },
  {
    "place": "Home (private)4e8dc55bf790e886ae0fd1c6",
    "time": "2012-12-14"
  },
  {
    "place": "Campground4eadae0677c8cdc66d6d1e56",
    "time": "2012-12-14"
  },
  {
    "place": "Road4cf15597899c6ea8f1f1efc1",
    "time": "2012-12-15"
  },
  {
    "place": "Plaza49b7ed6df964a52030531fe3",
    "time": "2012-12-15"
  },
  {
    "place": "Coffee Shop4b0835acf964a520540623e3",
    "time": "2012-12-15"
  },
  {
    "place": "Movie Theater4f07e5d9e4b0d6422a552a5b",
    "time": "2012-12-15"
  },
  {
    "place": "Home (private)4e8dc55bf790e886ae0fd1c6",
    "time": "2012-12-16"
  },
  {
    "place": "Home (private)4ec34517722e5b8e03d67d9c",
    "time": "2012-12-17"
  },
  {
    "place": "Plaza4caf1ae81168a093485f1f23",
    "time": "2012-12-18"
  },
  {
    "place": "Neighborhood4bdc9fb73904a59345084f9e",
    "time": "2012-12-18"
  },
  {
    "place": "Home (private)4ef7ce55c512f22778e7e0a4",
    "time": "2012-12-18"
  },
  {
    "place": "Campground4eadae0677c8cdc66d6d1e56",
    "time": "2012-12-18"
  },
  {
    "place": "Electronics Store4afd738bf964a520e92722e3",
    "time": "2012-12-19"
  },
  {
    "place": "Home (private)4ef7ce55c512f22778e7e0a4",
    "time": "2012-12-19"
  },
  {
    "place": "Home (private)4f1c307ee4b064e65cbf382c",
    "time": "2012-12-19"
  },
  {
    "place": "Home (private)4e8dc55bf790e886ae0fd1c6",
    "time": "2012-12-19"
  },
  {
    "place": "Train Station4cbfbedea0c4f04d1e085731",
    "time": "2012-12-19"
  },
  {
    "place": "Bookstore4a8cc1d4f964a520130f20e3",
    "time": "2012-12-19"
  },
  {
    "place": "Residential Building (Apartment / Condo)4e18dbedae6092c27656cead",
    "time": "2012-12-21"
  },
  {
    "place": "Campground4eadae0677c8cdc66d6d1e56",
    "time": "2012-12-21"
  },
  {
    "place": "Home (private)4ef7ce55c512f22778e7e0a4",
    "time": "2012-12-21"
  },
  {
    "place": "Home (private)4f1c307ee4b064e65cbf382c",
    "time": "2012-12-21"
  },
  {
    "place": "Home (private)4e8dc55bf790e886ae0fd1c6",
    "time": "2012-12-22"
  },
  {
    "place": "Home (private)4ef7ce55c512f22778e7e0a4",
    "time": "2012-12-22"
  },
  {
    "place": "Residential Building (Apartment / Condo)4e18dbedae6092c27656cead",
    "time": "2012-12-23"
  },
  {
    "place": "Home (private)4ef7ce55c512f22778e7e0a4",
    "time": "2012-12-23"
  },
  {
    "place": "Home (private)4e8dc55bf790e886ae0fd1c6",
    "time": "2012-12-23"
  },
  {
    "place": "Movie Theater4f07e5d9e4b0d6422a552a5b",
    "time": "2012-12-23"
  },
  {
    "place": "Home (private)4e8dc55bf790e886ae0fd1c6",
    "time": "2012-12-27"
  },
  {
    "place": "Campground4eadae0677c8cdc66d6d1e56",
    "time": "2012-12-27"
  },
  {
    "place": "Home (private)4ef7ce55c512f22778e7e0a4",
    "time": "2012-12-27"
  },
  {
    "place": "Movie Theater45b893e3f964a520cf411fe3",
    "time": "2012-12-28"
  },
  {
    "place": "Home (private)4e8dc55bf790e886ae0fd1c6",
    "time": "2012-12-28"
  },
  {
    "place": "Campground4eadae0677c8cdc66d6d1e56",
    "time": "2012-12-28"
  },
  {
    "place": "Campground4eadae0677c8cdc66d6d1e56",
    "time": "2012-12-29"
  },
  {
    "place": "Home (private)4e8dc55bf790e886ae0fd1c6",
    "time": "2012-12-29"
  },
  {
    "place": "Home (private)4ec34517722e5b8e03d67d9c",
    "time": "2012-12-29"
  },
  {
    "place": "Home (private)4f1c307ee4b064e65cbf382c",
    "time": "2012-12-29"
  },
  {
    "place": "Bookstore4a8cc1d4f964a520130f20e3",
    "time": "2012-12-29"
  },
  {
    "place": "Clothing Store4a9c5dbff964a520f43620e3",
    "time": "2012-12-30"
  },
  {
    "place": "Campground4eadae0677c8cdc66d6d1e56",
    "time": "2012-12-31"
  },
  {
    "place": "General Entertainment50e1fd84e4b0a6d1d5b431f9",
    "time": "2013-01-01"
  },
  {
    "place": "Campground4eadae0677c8cdc66d6d1e56",
    "time": "2013-01-01"
  },
  {
    "place": "Other Great Outdoors50e24527e4b0748c864c538b",
    "time": "2013-01-02"
  },
  {
    "place": "Home (private)4e8dc55bf790e886ae0fd1c6",
    "time": "2013-01-03"
  },
  {
    "place": "Movie Theater4f07e5d9e4b0d6422a552a5b",
    "time": "2013-01-04"
  },
  {
    "place": "Home (private)4e8dc55bf790e886ae0fd1c6",
    "time": "2013-01-05"
  },
  {
    "place": "Campground4eadae0677c8cdc66d6d1e56",
    "time": "2013-01-05"
  },
  {
    "place": "Home (private)4f1c307ee4b064e65cbf382c",
    "time": "2013-01-05"
  },
  {
    "place": "Bookstore4a8cc1d4f964a520130f20e3",
    "time": "2013-01-05"
  },
  {
    "place": "Neighborhood4b511a50f964a5208e4227e3",
    "time": "2013-01-05"
  },
  {
    "place": "Home (private)4e8dc55bf790e886ae0fd1c6",
    "time": "2013-01-06"
  },
  {
    "place": "Home (private)4f1c307ee4b064e65cbf382c",
    "time": "2013-01-07"
  },
  {
    "place": "Home (private)4ec34517722e5b8e03d67d9c",
    "time": "2013-01-07"
  },
  {
    "place": "Train Station4d262ad8b7d5236a10401009",
    "time": "2013-01-07"
  },
  {
    "place": "Home (private)4e8dc55bf790e886ae0fd1c6",
    "time": "2013-01-08"
  },
  {
    "place": "Home (private)4ec34517722e5b8e03d67d9c",
    "time": "2013-01-08"
  },
  {
    "place": "Home (private)4ec34517722e5b8e03d67d9c",
    "time": "2013-01-09"
  },
  {
    "place": "Home (private)4ef7ce55c512f22778e7e0a4",
    "time": "2013-01-10"
  },
  {
    "place": "Home (private)4ec34517722e5b8e03d67d9c",
    "time": "2013-01-10"
  },
  {
    "place": "Campground4eadae0677c8cdc66d6d1e56",
    "time": "2013-01-10"
  },
  {
    "place": "Home (private)4f1c307ee4b064e65cbf382c",
    "time": "2013-01-11"
  },
  {
    "place": "Home (private)4ec34517722e5b8e03d67d9c",
    "time": "2013-01-11"
  },
  {
    "place": "Home (private)4ef7ce55c512f22778e7e0a4",
    "time": "2013-01-11"
  },
  {
    "place": "Home (private)4ec34517722e5b8e03d67d9c",
    "time": "2013-01-12"
  },
  {
    "place": "Bookstore4a8cc1d4f964a520130f20e3",
    "time": "2013-01-12"
  },
  {
    "place": "Home (private)4ef7ce55c512f22778e7e0a4",
    "time": "2013-01-13"
  },
  {
    "place": "Home (private)4e8dc55bf790e886ae0fd1c6",
    "time": "2013-01-13"
  },
  {
    "place": "Home (private)4ec34517722e5b8e03d67d9c",
    "time": "2013-01-13"
  },
  {
    "place": "Coffee Shop4a6a2f2ff964a520c7cc1fe3",
    "time": "2013-01-13"
  },
  {
    "place": "Bar3fd66200f964a52044e81ee3",
    "time": "2013-01-13"
  },
  {
    "place": "Home (private)4e8dc55bf790e886ae0fd1c6",
    "time": "2013-01-14"
  },
  {
    "place": "Campground4eadae0677c8cdc66d6d1e56",
    "time": "2013-01-14"
  },
  {
    "place": "Home (private)4ef7ce55c512f22778e7e0a4",
    "time": "2013-01-14"
  },
  {
    "place": "Bookstore4a8cc1d4f964a520130f20e3",
    "time": "2013-01-14"
  },
  {
    "place": "Coffee Shop4a71e101f964a520c4d91fe3",
    "time": "2013-01-14"
  },
  {
    "place": "Movie Theater4f07e5d9e4b0d6422a552a5b",
    "time": "2013-01-15"
  },
  {
    "place": "Athletic & Sport4faa88a8e4b0dc75ba3d9f02",
    "time": "2013-01-16"
  },
  {
    "place": "Subway4b6cba4cf964a5209e4f2ce3",
    "time": "2013-01-16"
  },
  {
    "place": "Home (private)4ef7ce55c512f22778e7e0a4",
    "time": "2013-01-17"
  },
  {
    "place": "Home (private)4f1c307ee4b064e65cbf382c",
    "time": "2013-01-17"
  },
  {
    "place": "Home (private)4ec34517722e5b8e03d67d9c",
    "time": "2013-01-17"
  },
  {
    "place": "Home (private)4ef7ce55c512f22778e7e0a4",
    "time": "2013-01-17"
  },
  {
    "place": "Coffee Shop4a71e101f964a520c4d91fe3",
    "time": "2013-01-17"
  },
  {
    "place": "Residential Building (Apartment / Condo)4e18dbedae6092c27656cead",
    "time": "2013-01-18"
  },
  {
    "place": "Home (private)4ef7ce55c512f22778e7e0a4",
    "time": "2013-01-18"
  },
  {
    "place": "Home (private)4ec34517722e5b8e03d67d9c",
    "time": "2013-01-18"
  },
  {
    "place": "Home (private)4f1c307ee4b064e65cbf382c",
    "time": "2013-01-18"
  },
  {
    "place": "Bookstore4a8cc1d4f964a520130f20e3",
    "time": "2013-01-18"
  },
  {
    "place": "Home (private)4e8dc55bf790e886ae0fd1c6",
    "time": "2013-01-21"
  },
  {
    "place": "Campground4eadae0677c8cdc66d6d1e56",
    "time": "2013-01-21"
  },
  {
    "place": "Athletic & Sport4faa88a8e4b0dc75ba3d9f02",
    "time": "2013-01-21"
  },
  {
    "place": "Convenience Store504e0d67e4b08a5d4793a5ea",
    "time": "2013-01-24"
  },
  {
    "place": "Home (private)4ef7ce55c512f22778e7e0a4",
    "time": "2013-01-25"
  },
  {
    "place": "Residential Building (Apartment / Condo)4e18dbedae6092c27656cead",
    "time": "2013-01-26"
  },
  {
    "place": "Home (private)4e8dc55bf790e886ae0fd1c6",
    "time": "2013-01-26"
  },
  {
    "place": "Home (private)4ec34517722e5b8e03d67d9c",
    "time": "2013-01-26"
  },
  {
    "place": "Campground4eadae0677c8cdc66d6d1e56",
    "time": "2013-01-26"
  },
  {
    "place": "Home (private)4f1c307ee4b064e65cbf382c",
    "time": "2013-01-26"
  },
  {
    "place": "Neighborhood4bdc9fb73904a59345084f9e",
    "time": "2013-01-26"
  },
  {
    "place": "Bookstore4a8cc1d4f964a520130f20e3",
    "time": "2013-01-26"
  },
  {
    "place": "General Entertainment50f0abdde4b01e1150557fb4",
    "time": "2013-01-27"
  },
  {
    "place": "Movie Theater4f07e5d9e4b0d6422a552a5b",
    "time": "2013-01-27"
  },
  {
    "place": "Campground4eadae0677c8cdc66d6d1e56",
    "time": "2013-01-27"
  },
  {
    "place": "General Entertainment50f0abdde4b01e1150557fb4",
    "time": "2013-01-27"
  },
  {
    "place": "Movie Theater4f07e5d9e4b0d6422a552a5b",
    "time": "2013-01-27"
  },
  {
    "place": "Home (private)4ef7ce55c512f22778e7e0a4",
    "time": "2013-01-28"
  },
  {
    "place": "Campground4eadae0677c8cdc66d6d1e56",
    "time": "2013-01-28"
  },
  {
    "place": "Home (private)4ec34517722e5b8e03d67d9c",
    "time": "2013-01-28"
  },
  {
    "place": "Home (private)4f1c307ee4b064e65cbf382c",
    "time": "2013-01-28"
  },
  {
    "place": "Clothing Store4c4f555b79ffe21eb96d751a",
    "time": "2013-01-28"
  },
  {
    "place": "Clothing Store4be5b9d62468c92833720043",
    "time": "2013-01-28"
  },
  {
    "place": "Clothing Store4c264812a852c9284058e66c",
    "time": "2013-01-28"
  },
  {
    "place": "Clothing Store4b5b82d7f964a520a80329e3",
    "time": "2013-01-28"
  },
  {
    "place": "Donut Shop4aedc28af964a5209ece21e3",
    "time": "2013-01-29"
  },
  {
    "place": "Bookstore4a8cc1d4f964a520130f20e3",
    "time": "2013-01-29"
  },
  {
    "place": "Home (private)4e8dc55bf790e886ae0fd1c6",
    "time": "2013-01-30"
  },
  {
    "place": "Home (private)4ec34517722e5b8e03d67d9c",
    "time": "2013-01-30"
  },
  {
    "place": "Campground4eadae0677c8cdc66d6d1e56",
    "time": "2013-01-30"
  },
  {
    "place": "Home (private)4ef7ce55c512f22778e7e0a4",
    "time": "2013-01-30"
  },
  {
    "place": "Campground4eadae0677c8cdc66d6d1e56",
    "time": "2013-01-31"
  },
  {
    "place": "General Entertainment50f0abdde4b01e1150557fb4",
    "time": "2013-02-01"
  },
  {
    "place": "Movie Theater4f07e5d9e4b0d6422a552a5b",
    "time": "2013-02-01"
  },
  {
    "place": "Home (private)4f1c307ee4b064e65cbf382c",
    "time": "2013-02-01"
  },
  {
    "place": "Clothing Store4b589fd7f964a520006228e3",
    "time": "2013-02-02"
  },
  {
    "place": "Home (private)4ef7ce55c512f22778e7e0a4",
    "time": "2013-02-02"
  },
  {
    "place": "Home (private)4e8dc55bf790e886ae0fd1c6",
    "time": "2013-02-02"
  },
  {
    "place": "Campground4eadae0677c8cdc66d6d1e56",
    "time": "2013-02-02"
  },
  {
    "place": "Home (private)4ec34517722e5b8e03d67d9c",
    "time": "2013-02-02"
  },
  {
    "place": "Home (private)4f1c307ee4b064e65cbf382c",
    "time": "2013-02-02"
  },
  {
    "place": "Bookstore4a8cc1d4f964a520130f20e3",
    "time": "2013-02-02"
  },
  {
    "place": "Fast Food Restaurant4a06025cf964a520ab721fe3",
    "time": "2013-02-03"
  },
  {
    "place": "Subway4b03242cf964a520f94c22e3",
    "time": "2013-02-03"
  },
  {
    "place": "Train Station4baea035f964a52033c83be3",
    "time": "2013-02-03"
  },
  {
    "place": "Bar4e56c9c9483b0500f8ca6aa4",
    "time": "2013-02-03"
  },
  {
    "place": "Home (private)4f1c307ee4b064e65cbf382c",
    "time": "2013-02-04"
  },
  {
    "place": "Home (private)4ef7ce55c512f22778e7e0a4",
    "time": "2013-02-04"
  },
  {
    "place": "Movie Theater4f07e5d9e4b0d6422a552a5b",
    "time": "2013-02-04"
  },
  {
    "place": "Home (private)4ec34517722e5b8e03d67d9c",
    "time": "2013-02-05"
  },
  {
    "place": "Home (private)4ef7ce55c512f22778e7e0a4",
    "time": "2013-02-05"
  },
  {
    "place": "Campground4eadae0677c8cdc66d6d1e56",
    "time": "2013-02-05"
  },
  {
    "place": "Home (private)4f1c307ee4b064e65cbf382c",
    "time": "2013-02-05"
  },
  {
    "place": "Movie Theater4f07e5d9e4b0d6422a552a5b",
    "time": "2013-02-05"
  },
  {
    "place": "Home (private)4f1c307ee4b064e65cbf382c",
    "time": "2013-02-06"
  },
  {
    "place": "Gym / Fitness Center4b6234d9f964a520333c2ae3",
    "time": "2013-02-06"
  },
  {
    "place": "Home (private)4ec34517722e5b8e03d67d9c",
    "time": "2013-02-07"
  },
  {
    "place": "Home (private)4ef7ce55c512f22778e7e0a4",
    "time": "2013-02-07"
  },
  {
    "place": "Home (private)4f1c307ee4b064e65cbf382c",
    "time": "2013-02-07"
  },
  {
    "place": "Sandwich Place4aef35d7f964a52099d621e3",
    "time": "2013-02-10"
  },
  {
    "place": "Campground4eadae0677c8cdc66d6d1e56",
    "time": "2013-02-11"
  },
  {
    "place": "Neighborhood4bdc9fb73904a59345084f9e",
    "time": "2013-02-11"
  },
  {
    "place": "Medical Center4a90405bf964a520d21620e3",
    "time": "2013-02-11"
  },
  {
    "place": "Fast Food Restaurant4b44b15ef964a5209df925e3",
    "time": "2013-02-11"
  },
  {
    "place": "General Entertainment50f0abdde4b01e1150557fb4",
    "time": "2013-02-12"
  },
  {
    "place": "Movie Theater4f07e5d9e4b0d6422a552a5b",
    "time": "2013-02-12"
  },
  {
    "place": "Campground4eadae0677c8cdc66d6d1e56",
    "time": "2013-02-12"
  },
  {
    "place": "Home (private)4ef7ce55c512f22778e7e0a4",
    "time": "2013-02-12"
  },
  {
    "place": "General Entertainment50f0abdde4b01e1150557fb4",
    "time": "2013-02-12"
  },
  {
    "place": "Movie Theater4f07e5d9e4b0d6422a552a5b",
    "time": "2013-02-12"
  },
  {
    "place": "Miscellaneous Shop4dff64a9a809baedbd915521",
    "time": "2013-02-12"
  },
  {
    "place": "Bookstore4a8cc1d4f964a520130f20e3",
    "time": "2013-02-12"
  },
  {
    "place": "Neighborhood4bdc9fb73904a59345084f9e",
    "time": "2013-02-13"
  },
  {
    "place": "Home (private)4ec34517722e5b8e03d67d9c",
    "time": "2013-02-13"
  },
  {
    "place": "Home (private)4ef7ce55c512f22778e7e0a4",
    "time": "2013-02-13"
  },
  {
    "place": "Home (private)4e8dc55bf790e886ae0fd1c6",
    "time": "2013-02-13"
  },
  {
    "place": "Bookstore4a8cc1d4f964a520130f20e3",
    "time": "2013-02-13"
  }
]