[
  {
    "place": "Sandwich Place3fd66200f964a5206de71ee3",
    "time": "2012-04-04"
  },
  {
    "place": "Subway4c320866ed37a593da266b03",
    "time": "2012-04-05"
  },
  {
    "place": "Sandwich Place3fd66200f964a5206de71ee3",
    "time": "2012-04-05"
  },
  {
    "place": "Subway4c320866ed37a593da266b03",
    "time": "2012-04-07"
  },
  {
    "place": "Sandwich Place3fd66200f964a5206de71ee3",
    "time": "2012-04-07"
  },
  {
    "place": "Train Station42829c80f964a5206a221fe3",
    "time": "2012-04-07"
  },
  {
    "place": "Food & Drink Shop4b6f12faf964a5202ddb2ce3",
    "time": "2012-04-08"
  },
  {
    "place": "Home (private)4ee3be3b2c5b5fc6cbb84130",
    "time": "2012-04-08"
  },
  {
    "place": "Sandwich Place3fd66200f964a5206de71ee3",
    "time": "2012-04-09"
  },
  {
    "place": "Subway4c320866ed37a593da266b03",
    "time": "2012-04-10"
  },
  {
    "place": "Subway4c320866ed37a593da266b03",
    "time": "2012-04-11"
  },
  {
    "place": "Sandwich Place3fd66200f964a5206de71ee3",
    "time": "2012-04-11"
  },
  {
    "place": "Subway4c320866ed37a593da266b03",
    "time": "2012-04-12"
  },
  {
    "place": "Subway4c320866ed37a593da266b03",
    "time": "2012-04-13"
  },
  {
    "place": "Sandwich Place3fd66200f964a5206de71ee3",
    "time": "2012-04-13"
  },
  {
    "place": "Electronics Store3fd66200f964a5205fe41ee3",
    "time": "2012-04-13"
  },
  {
    "place": "Subway4c320866ed37a593da266b03",
    "time": "2012-04-14"
  },
  {
    "place": "Food & Drink Shop4be1b13b3ef676b0684fc0ca",
    "time": "2012-04-14"
  },
  {
    "place": "Subway4c320866ed37a593da266b03",
    "time": "2012-04-16"
  },
  {
    "place": "Sandwich Place3fd66200f964a5206de71ee3",
    "time": "2012-04-16"
  },
  {
    "place": "Subway4c320866ed37a593da266b03",
    "time": "2012-04-19"
  },
  {
    "place": "Sandwich Place3fd66200f964a5206de71ee3",
    "time": "2012-04-19"
  },
  {
    "place": "Subway4c320866ed37a593da266b03",
    "time": "2012-04-20"
  },
  {
    "place": "Sandwich Place3fd66200f964a5206de71ee3",
    "time": "2012-04-20"
  },
  {
    "place": "Subway4c320866ed37a593da266b03",
    "time": "2012-04-21"
  },
  {
    "place": "Food & Drink Shop4b6f12faf964a5202ddb2ce3",
    "time": "2012-04-22"
  },
  {
    "place": "Home (private)4ee3be3b2c5b5fc6cbb84130",
    "time": "2012-04-22"
  },
  {
    "place": "Subway4c320866ed37a593da266b03",
    "time": "2012-04-23"
  },
  {
    "place": "Sandwich Place3fd66200f964a5206de71ee3",
    "time": "2012-04-23"
  },
  {
    "place": "Subway4c320866ed37a593da266b03",
    "time": "2012-04-24"
  },
  {
    "place": "Sandwich Place3fd66200f964a5206de71ee3",
    "time": "2012-04-24"
  },
  {
    "place": "Subway4c320866ed37a593da266b03",
    "time": "2012-04-26"
  },
  {
    "place": "Sandwich Place3fd66200f964a5206de71ee3",
    "time": "2012-04-26"
  },
  {
    "place": "Subway4c320866ed37a593da266b03",
    "time": "2012-04-27"
  },
  {
    "place": "Residential Building (Apartment / Condo)4f2bedf0e4b0009b317febbf",
    "time": "2012-04-27"
  },
  {
    "place": "Subway4ab84166f964a520bd7c20e3",
    "time": "2012-04-27"
  },
  {
    "place": "Home (private)4d42418733268cfa3d2b5701",
    "time": "2012-04-28"
  },
  {
    "place": "Subway4c320866ed37a593da266b03",
    "time": "2012-04-29"
  },
  {
    "place": "Sandwich Place3fd66200f964a5206de71ee3",
    "time": "2012-04-29"
  },
  {
    "place": "Subway4c320866ed37a593da266b03",
    "time": "2012-05-02"
  },
  {
    "place": "Sandwich Place3fd66200f964a5206de71ee3",
    "time": "2012-05-02"
  },
  {
    "place": "Sandwich Place3fd66200f964a5206de71ee3",
    "time": "2012-05-03"
  },
  {
    "place": "Subway4c320866ed37a593da266b03",
    "time": "2012-05-04"
  },
  {
    "place": "Subway4c320866ed37a593da266b03",
    "time": "2012-05-05"
  },
  {
    "place": "Subway4c320866ed37a593da266b03",
    "time": "2012-05-06"
  },
  {
    "place": "Subway4c320866ed37a593da266b03",
    "time": "2012-05-07"
  },
  {
    "place": "Sandwich Place3fd66200f964a5206de71ee3",
    "time": "2012-05-07"
  },
  {
    "place": "Subway4c320866ed37a593da266b03",
    "time": "2012-05-09"
  },
  {
    "place": "Sandwich Place3fd66200f964a5206de71ee3",
    "time": "2012-05-09"
  },
  {
    "place": "Subway4c320866ed37a593da266b03",
    "time": "2012-05-12"
  },
  {
    "place": "Subway4c320866ed37a593da266b03",
    "time": "2012-05-14"
  },
  {
    "place": "Sandwich Place3fd66200f964a5206de71ee3",
    "time": "2012-05-14"
  },
  {
    "place": "Subway4c320866ed37a593da266b03",
    "time": "2012-05-15"
  },
  {
    "place": "Sandwich Place3fd66200f964a5206de71ee3",
    "time": "2012-05-15"
  },
  {
    "place": "Subway4c320866ed37a593da266b03",
    "time": "2012-05-16"
  },
  {
    "place": "Sandwich Place3fd66200f964a5206de71ee3",
    "time": "2012-05-16"
  },
  {
    "place": "Subway4c320866ed37a593da266b03",
    "time": "2012-05-17"
  },
  {
    "place": "Sandwich Place3fd66200f964a5206de71ee3",
    "time": "2012-05-17"
  },
  {
    "place": "Subway4c320866ed37a593da266b03",
    "time": "2012-05-18"
  },
  {
    "place": "Subway4c320866ed37a593da266b03",
    "time": "2012-05-19"
  },
  {
    "place": "Sandwich Place3fd66200f964a5206de71ee3",
    "time": "2012-05-19"
  },
  {
    "place": "Sandwich Place3fd66200f964a5206de71ee3",
    "time": "2012-05-21"
  },
  {
    "place": "Subway4c320866ed37a593da266b03",
    "time": "2012-05-22"
  },
  {
    "place": "Sandwich Place3fd66200f964a5206de71ee3",
    "time": "2012-05-22"
  },
  {
    "place": "Subway4c320866ed37a593da266b03",
    "time": "2012-05-23"
  },
  {
    "place": "Subway4c320866ed37a593da266b03",
    "time": "2012-05-24"
  },
  {
    "place": "Sandwich Place3fd66200f964a5206de71ee3",
    "time": "2012-05-24"
  },
  {
    "place": "Sandwich Place3fd66200f964a5206de71ee3",
    "time": "2012-05-25"
  },
  {
    "place": "Electronics Store3fd66200f964a5205fe41ee3",
    "time": "2012-05-25"
  },
  {
    "place": "Subway4c320866ed37a593da266b03",
    "time": "2012-05-28"
  },
  {
    "place": "Sandwich Place3fd66200f964a5206de71ee3",
    "time": "2012-05-28"
  },
  {
    "place": "Subway4c320866ed37a593da266b03",
    "time": "2012-05-29"
  },
  {
    "place": "Bridge49ecd458f964a52099671fe3",
    "time": "2012-05-29"
  },
  {
    "place": "Sandwich Place3fd66200f964a5206de71ee3",
    "time": "2012-05-29"
  },
  {
    "place": "Subway4c320866ed37a593da266b03",
    "time": "2012-05-30"
  },
  {
    "place": "Sandwich Place3fd66200f964a5206de71ee3",
    "time": "2012-06-01"
  },
  {
    "place": "Subway4c320866ed37a593da266b03",
    "time": "2012-06-04"
  },
  {
    "place": "Sandwich Place3fd66200f964a5206de71ee3",
    "time": "2012-06-04"
  },
  {
    "place": "Subway4c320866ed37a593da266b03",
    "time": "2012-06-05"
  },
  {
    "place": "Sandwich Place3fd66200f964a5206de71ee3",
    "time": "2012-06-05"
  },
  {
    "place": "Subway4c320866ed37a593da266b03",
    "time": "2012-06-06"
  },
  {
    "place": "Sandwich Place3fd66200f964a5206de71ee3",
    "time": "2012-06-06"
  },
  {
    "place": "Subway4c320866ed37a593da266b03",
    "time": "2012-06-07"
  },
  {
    "place": "Sandwich Place3fd66200f964a5206de71ee3",
    "time": "2012-06-07"
  },
  {
    "place": "Residential Building (Apartment / Condo)4f2bedf0e4b0009b317febbf",
    "time": "2012-06-08"
  },
  {
    "place": "Deli / Bodega4b60e7b3f964a520b8002ae3",
    "time": "2012-06-08"
  },
  {
    "place": "Subway4c320866ed37a593da266b03",
    "time": "2012-06-11"
  },
  {
    "place": "Sandwich Place3fd66200f964a5206de71ee3",
    "time": "2012-06-11"
  },
  {
    "place": "Subway4c320866ed37a593da266b03",
    "time": "2012-06-12"
  },
  {
    "place": "Sandwich Place3fd66200f964a5206de71ee3",
    "time": "2012-06-12"
  },
  {
    "place": "Subway4c320866ed37a593da266b03",
    "time": "2012-06-13"
  },
  {
    "place": "Sandwich Place3fd66200f964a5206de71ee3",
    "time": "2012-06-13"
  },
  {
    "place": "Subway4c320866ed37a593da266b03",
    "time": "2012-06-14"
  },
  {
    "place": "Sandwich Place3fd66200f964a5206de71ee3",
    "time": "2012-06-14"
  },
  {
    "place": "Sandwich Place3fd66200f964a5206de71ee3",
    "time": "2012-06-15"
  },
  {
    "place": "Subway4c320866ed37a593da266b03",
    "time": "2012-06-17"
  },
  {
    "place": "Subway4c320866ed37a593da266b03",
    "time": "2012-06-18"
  },
  {
    "place": "Sandwich Place3fd66200f964a5206de71ee3",
    "time": "2012-06-18"
  },
  {
    "place": "Subway4c320866ed37a593da266b03",
    "time": "2012-06-21"
  },
  {
    "place": "Sandwich Place3fd66200f964a5206de71ee3",
    "time": "2012-06-21"
  },
  {
    "place": "Subway4c320866ed37a593da266b03",
    "time": "2012-06-27"
  },
  {
    "place": "Sandwich Place3fd66200f964a5206de71ee3",
    "time": "2012-06-27"
  },
  {
    "place": "Subway4c320866ed37a593da266b03",
    "time": "2012-07-02"
  },
  {
    "place": "Sandwich Place3fd66200f964a5206de71ee3",
    "time": "2012-07-02"
  },
  {
    "place": "Subway4c320866ed37a593da266b03",
    "time": "2012-07-03"
  },
  {
    "place": "Sandwich Place3fd66200f964a5206de71ee3",
    "time": "2012-07-03"
  },
  {
    "place": "Subway4c320866ed37a593da266b03",
    "time": "2012-07-04"
  },
  {
    "place": "Subway4c320866ed37a593da266b03",
    "time": "2012-07-05"
  },
  {
    "place": "Drugstore / Pharmacy4a9a83daf964a520ca3120e3",
    "time": "2012-07-05"
  },
  {
    "place": "Train Station42829c80f964a5206a221fe3",
    "time": "2012-07-05"
  },
  {
    "place": "Subway4c320866ed37a593da266b03",
    "time": "2012-07-07"
  },
  {
    "place": "Residential Building (Apartment / Condo)4f2bedf0e4b0009b317febbf",
    "time": "2012-07-07"
  },
  {
    "place": "Subway4c320866ed37a593da266b03",
    "time": "2012-07-08"
  },
  {
    "place": "Residential Building (Apartment / Condo)4f2bedf0e4b0009b317febbf",
    "time": "2012-07-08"
  },
  {
    "place": "Subway4c320866ed37a593da266b03",
    "time": "2012-07-09"
  },
  {
    "place": "Sandwich Place3fd66200f964a5206de71ee3",
    "time": "2012-07-09"
  },
  {
    "place": "Subway4c320866ed37a593da266b03",
    "time": "2012-07-11"
  },
  {
    "place": "Sandwich Place3fd66200f964a5206de71ee3",
    "time": "2012-07-11"
  },
  {
    "place": "Subway4c320866ed37a593da266b03",
    "time": "2012-07-12"
  },
  {
    "place": "Residential Building (Apartment / Condo)4f2bedf0e4b0009b317febbf",
    "time": "2012-07-12"
  },
  {
    "place": "Subway4ab84166f964a520bd7c20e3",
    "time": "2012-07-12"
  },
  {
    "place": "Food & Drink Shop4be1b13b3ef676b0684fc0ca",
    "time": "2012-07-12"
  },
  {
    "place": "Subway4c320866ed37a593da266b03",
    "time": "2012-07-13"
  },
  {
    "place": "Sandwich Place3fd66200f964a5206de71ee3",
    "time": "2012-07-13"
  },
  {
    "place": "Subway4c320866ed37a593da266b03",
    "time": "2012-07-13"
  },
  {
    "place": "Subway4b5b08c9f964a520f9df28e3",
    "time": "2012-07-15"
  },
  {
    "place": "Subway4c320866ed37a593da266b03",
    "time": "2012-07-16"
  },
  {
    "place": "Subway4c320866ed37a593da266b03",
    "time": "2012-07-17"
  },
  {
    "place": "Cosmetics Shop4b6704b9f964a52056352be3",
    "time": "2012-07-18"
  },
  {
    "place": "Residential Building (Apartment / Condo)4f2bedf0e4b0009b317febbf",
    "time": "2012-07-18"
  },
  {
    "place": "Subway4c320866ed37a593da266b03",
    "time": "2012-07-22"
  },
  {
    "place": "Residential Building (Apartment / Condo)4f2bedf0e4b0009b317febbf",
    "time": "2012-07-22"
  },
  {
    "place": "Subway4c320866ed37a593da266b03",
    "time": "2012-07-24"
  },
  {
    "place": "Sandwich Place3fd66200f964a5206de71ee3",
    "time": "2012-07-24"
  },
  {
    "place": "Subway4c320866ed37a593da266b03",
    "time": "2012-07-28"
  },
  {
    "place": "Subway4b5b08c9f964a520f9df28e3",
    "time": "2012-07-30"
  },
  {
    "place": "Sandwich Place3fd66200f964a5206de71ee3",
    "time": "2012-07-30"
  },
  {
    "place": "Subway4c320866ed37a593da266b03",
    "time": "2012-08-06"
  },
  {
    "place": "Sandwich Place3fd66200f964a5206de71ee3",
    "time": "2012-08-06"
  },
  {
    "place": "Sandwich Place3fd66200f964a5206de71ee3",
    "time": "2012-08-09"
  },
  {
    "place": "Subway4ab84166f964a520bd7c20e3",
    "time": "2012-08-09"
  },
  {
    "place": "Home (private)4d42418733268cfa3d2b5701",
    "time": "2012-08-10"
  },
  {
    "place": "Subway4c320866ed37a593da266b03",
    "time": "2012-08-10"
  },
  {
    "place": "Sandwich Place3fd66200f964a5206de71ee3",
    "time": "2012-08-10"
  },
  {
    "place": "Subway4c320866ed37a593da266b03",
    "time": "2012-08-10"
  },
  {
    "place": "Residential Building (Apartment / Condo)4f2bedf0e4b0009b317febbf",
    "time": "2012-08-10"
  },
  {
    "place": "Subway4ab84166f964a520bd7c20e3",
    "time": "2012-08-11"
  },
  {
    "place": "Home (private)4d42418733268cfa3d2b5701",
    "time": "2012-08-11"
  },
  {
    "place": "Subway4b039599f964a520d44f22e3",
    "time": "2012-08-12"
  },
  {
    "place": "Home (private)4d42418733268cfa3d2b5701",
    "time": "2012-08-13"
  },
  {
    "place": "Drugstore / Pharmacy4a9a83daf964a520ca3120e3",
    "time": "2012-08-13"
  },
  {
    "place": "Subway4c320866ed37a593da266b03",
    "time": "2012-08-14"
  },
  {
    "place": "Sandwich Place3fd66200f964a5206de71ee3",
    "time": "2012-08-14"
  },
  {
    "place": "Sandwich Place3fd66200f964a5206de71ee3",
    "time": "2012-08-14"
  },
  {
    "place": "Train Station42829c80f964a5206a221fe3",
    "time": "2012-08-14"
  },
  {
    "place": "Train Station42829c80f964a5206a221fe3",
    "time": "2012-08-16"
  },
  {
    "place": "Subway4c320866ed37a593da266b03",
    "time": "2012-08-20"
  },
  {
    "place": "Sandwich Place3fd66200f964a5206de71ee3",
    "time": "2012-08-20"
  },
  {
    "place": "Subway4c320866ed37a593da266b03",
    "time": "2012-08-17"
  },
  {
    "place": "Subway4c320866ed37a593da266b03",
    "time": "2012-09-09"
  },
  {
    "place": "Subway4ab84166f964a520bd7c20e3",
    "time": "2012-09-09"
  },
  {
    "place": "Subway4c320866ed37a593da266b03",
    "time": "2012-09-13"
  },
  {
    "place": "Sandwich Place3fd66200f964a5206de71ee3",
    "time": "2012-09-13"
  },
  {
    "place": "Train Station42829c80f964a5206a221fe3",
    "time": "2012-10-03"
  },
  {
    "place": "Subway4c320866ed37a593da266b03",
    "time": "2012-10-08"
  },
  {
    "place": "Residential Building (Apartment / Condo)4f2bedf0e4b0009b317febbf",
    "time": "2012-10-08"
  },
  {
    "place": "Subway4c320866ed37a593da266b03",
    "time": "2012-10-12"
  },
  {
    "place": "Sandwich Place3fd66200f964a5206de71ee3",
    "time": "2012-10-12"
  },
  {
    "place": "Sandwich Place3fd66200f964a5206de71ee3",
    "time": "2012-10-17"
  },
  {
    "place": "Home (private)4d42418733268cfa3d2b5701",
    "time": "2012-10-19"
  },
  {
    "place": "Subway4c320866ed37a593da266b03",
    "time": "2012-10-22"
  },
  {
    "place": "Sandwich Place3fd66200f964a5206de71ee3",
    "time": "2012-10-22"
  },
  {
    "place": "Subway4c320866ed37a593da266b03",
    "time": "2012-10-23"
  },
  {
    "place": "Sandwich Place3fd66200f964a5206de71ee3",
    "time": "2012-10-23"
  },
  {
    "place": "Clothing Store4b280fa1f964a5206b8e24e3",
    "time": "2012-10-24"
  },
  {
    "place": "Home (private)4d42418733268cfa3d2b5701",
    "time": "2012-10-24"
  },
  {
    "place": "Subway4c320866ed37a593da266b03",
    "time": "2012-10-25"
  },
  {
    "place": "Sandwich Place3fd66200f964a5206de71ee3",
    "time": "2012-10-25"
  },
  {
    "place": "Train Station42829c80f964a5206a221fe3",
    "time": "2012-10-25"
  },
  {
    "place": "Home (private)4d42418733268cfa3d2b5701",
    "time": "2012-10-25"
  },
  {
    "place": "Subway4c320866ed37a593da266b03",
    "time": "2012-10-26"
  },
  {
    "place": "Sandwich Place3fd66200f964a5206de71ee3",
    "time": "2012-10-26"
  },
  {
    "place": "Food & Drink Shop4be1b13b3ef676b0684fc0ca",
    "time": "2012-10-26"
  },
  {
    "place": "Subway4c320866ed37a593da266b03",
    "time": "2012-10-28"
  },
  {
    "place": "Deli / Bodega4b60e7b3f964a520b8002ae3",
    "time": "2012-10-28"
  },
  {
    "place": "Sandwich Place3fd66200f964a5206de71ee3",
    "time": "2012-11-01"
  },
  {
    "place": "Home (private)4ee3be3b2c5b5fc6cbb84130",
    "time": "2012-11-01"
  },
  {
    "place": "Subway4b5b08c9f964a520f9df28e3",
    "time": "2012-11-02"
  },
  {
    "place": "Sandwich Place3fd66200f964a5206de71ee3",
    "time": "2012-11-02"
  },
  {
    "place": "Sandwich Place3fd66200f964a5206de71ee3",
    "time": "2012-11-06"
  },
  {
    "place": "Home (private)4d42418733268cfa3d2b5701",
    "time": "2012-11-23"
  },
  {
    "place": "Bar4f00096f77c885c335ed9d31",
    "time": "2012-11-24"
  },
  {
    "place": "Sandwich Place3fd66200f964a5206de71ee3",
    "time": "2012-11-27"
  },
  {
    "place": "Home (private)4d42418733268cfa3d2b5701",
    "time": "2012-12-01"
  },
  {
    "place": "Sandwich Place3fd66200f964a5206de71ee3",
    "time": "2012-12-03"
  },
  {
    "place": "Residential Building (Apartment / Condo)4f2bedf0e4b0009b317febbf",
    "time": "2012-12-04"
  },
  {
    "place": "Residential Building (Apartment / Condo)50b928d6e4b07e5a1502199d",
    "time": "2012-12-04"
  },
  {
    "place": "Train Station42829c80f964a5206a221fe3",
    "time": "2012-12-04"
  },
  {
    "place": "Subway4b2ab78ff964a5204aae24e3",
    "time": "2012-12-06"
  },
  {
    "place": "Sandwich Place3fd66200f964a5206de71ee3",
    "time": "2012-12-06"
  },
  {
    "place": "Home (private)50b928d6e4b07e5a1502199d",
    "time": "2012-12-06"
  },
  {
    "place": "Salon / Barbershop4f23082be4b0a93fbd71e1c8",
    "time": "2012-12-08"
  },
  {
    "place": "Subway4b2ab78ff964a5204aae24e3",
    "time": "2012-12-10"
  },
  {
    "place": "Train Station42829c80f964a5206a221fe3",
    "time": "2012-12-10"
  },
  {
    "place": "Subway4b2ab78ff964a5204aae24e3",
    "time": "2012-12-11"
  },
  {
    "place": "Home (private)50b928d6e4b07e5a1502199d",
    "time": "2012-12-11"
  },
  {
    "place": "Subway4b2ab78ff964a5204aae24e3",
    "time": "2013-02-10"
  },
  {
    "place": "Residential Building (Apartment / Condo)4f2bedf0e4b0009b317febbf",
    "time": "2013-02-10"
  },
  {
    "place": "Deli / Bodega4b60e7b3f964a520b8002ae3",
    "time": "2013-02-10"
  },
  {
    "place": "Subway4b2ab78ff964a5204aae24e3",
    "time": "2013-02-11"
  },
  {
    "place": "Subway4b2ab78ff964a5204aae24e3",
    "time": "2013-02-12"
  },
  {
    "place": "Sandwich Place3fd66200f964a5206de71ee3",
    "time": "2013-02-12"
  },
  {
    "place": "Cuban Restaurant4b8db810f964a5206a0a33e3",
    "time": "2013-02-12"
  },
  {
    "place": "Subway4b2ab78ff964a5204aae24e3",
    "time": "2013-02-13"
  },
  {
    "place": "Sandwich Place3fd66200f964a5206de71ee3",
    "time": "2013-02-13"
  },
  {
    "place": "Salon / Barbershop4f23082be4b0a93fbd71e1c8",
    "time": "2013-02-13"
  },
  {
    "place": "Subway4b2ab78ff964a5204aae24e3",
    "time": "2013-02-14"
  }
]