[
  {
    "place": "Plaza49b7ed6df964a52030531fe3",
    "time": "2012-04-15"
  },
  {
    "place": "Plaza49b7ed6df964a52030531fe3",
    "time": "2012-04-22"
  },
  {
    "place": "Office42829c80f964a5205f221fe3",
    "time": "2012-04-22"
  },
  {
    "place": "Plaza49b7ed6df964a52030531fe3",
    "time": "2012-04-23"
  },
  {
    "place": "Residential Building (Apartment / Condo)4f93f1c8e5e828f50a2b81d1",
    "time": "2012-04-23"
  },
  {
    "place": "Office42829c80f964a5205f221fe3",
    "time": "2012-04-23"
  },
  {
    "place": "Gym / Fitness Center4b5b0144f964a5205fde28e3",
    "time": "2012-04-23"
  },
  {
    "place": "Plaza49b7ed6df964a52030531fe3",
    "time": "2012-04-25"
  },
  {
    "place": "Residential Building (Apartment / Condo)4f93f1c8e5e828f50a2b81d1",
    "time": "2012-04-25"
  },
  {
    "place": "Gym / Fitness Center4b5b0144f964a5205fde28e3",
    "time": "2012-04-25"
  },
  {
    "place": "Casino4ba40ca1f964a520be7b38e3",
    "time": "2012-04-25"
  },
  {
    "place": "Plaza49b7ed6df964a52030531fe3",
    "time": "2012-04-25"
  },
  {
    "place": "Residential Building (Apartment / Condo)4f93f1c8e5e828f50a2b81d1",
    "time": "2012-04-25"
  },
  {
    "place": "Office42829c80f964a5205f221fe3",
    "time": "2012-04-25"
  },
  {
    "place": "Gym / Fitness Center4b5b0144f964a5205fde28e3",
    "time": "2012-04-25"
  },
  {
    "place": "Donut Shop4a2946ddf964a5207a951fe3",
    "time": "2012-04-25"
  },
  {
    "place": "Plaza49b7ed6df964a52030531fe3",
    "time": "2012-04-27"
  },
  {
    "place": "Office42829c80f964a5205f221fe3",
    "time": "2012-04-27"
  },
  {
    "place": "Gym / Fitness Center4b5b0144f964a5205fde28e3",
    "time": "2012-04-27"
  },
  {
    "place": "Bank4b92a503f964a520160d34e3",
    "time": "2012-04-27"
  },
  {
    "place": "Bank4b79975af964a520e2032fe3",
    "time": "2012-04-27"
  },
  {
    "place": "Donut Shop4a2946ddf964a5207a951fe3",
    "time": "2012-04-27"
  },
  {
    "place": "Casino4ba40ca1f964a520be7b38e3",
    "time": "2012-04-28"
  },
  {
    "place": "Residential Building (Apartment / Condo)4f93f1c8e5e828f50a2b81d1",
    "time": "2012-04-28"
  },
  {
    "place": "Office42829c80f964a5205f221fe3",
    "time": "2012-04-28"
  },
  {
    "place": "Donut Shop4a2946ddf964a5207a951fe3",
    "time": "2012-04-28"
  },
  {
    "place": "Stadium4b9a58e0f964a520e0ad35e3",
    "time": "2012-04-29"
  },
  {
    "place": "Hotel4af0efedf964a52036e021e3",
    "time": "2012-04-29"
  },
  {
    "place": "Bar4af11500f964a520b0e021e3",
    "time": "2012-04-29"
  },
  {
    "place": "Casino4ba40ca1f964a520be7b38e3",
    "time": "2012-04-29"
  },
  {
    "place": "Residential Building (Apartment / Condo)4f93f1c8e5e828f50a2b81d1",
    "time": "2012-04-29"
  },
  {
    "place": "Gym / Fitness Center4b5b0144f964a5205fde28e3",
    "time": "2012-04-29"
  },
  {
    "place": "Donut Shop4a2946ddf964a5207a951fe3",
    "time": "2012-04-29"
  },
  {
    "place": "Plaza49b7ed6df964a52030531fe3",
    "time": "2012-05-01"
  },
  {
    "place": "Residential Building (Apartment / Condo)4f93f1c8e5e828f50a2b81d1",
    "time": "2012-05-01"
  },
  {
    "place": "Office42829c80f964a5205f221fe3",
    "time": "2012-05-01"
  },
  {
    "place": "Bank4b92a503f964a520160d34e3",
    "time": "2012-05-01"
  },
  {
    "place": "Bank4b79975af964a520e2032fe3",
    "time": "2012-05-01"
  },
  {
    "place": "Donut Shop4a2946ddf964a5207a951fe3",
    "time": "2012-05-01"
  },
  {
    "place": "Casino4ba40ca1f964a520be7b38e3",
    "time": "2012-05-03"
  },
  {
    "place": "Plaza49b7ed6df964a52030531fe3",
    "time": "2012-05-03"
  },
  {
    "place": "Residential Building (Apartment / Condo)4f93f1c8e5e828f50a2b81d1",
    "time": "2012-05-03"
  },
  {
    "place": "Office42829c80f964a5205f221fe3",
    "time": "2012-05-03"
  },
  {
    "place": "Gym / Fitness Center4b5b0144f964a5205fde28e3",
    "time": "2012-05-03"
  },
  {
    "place": "Bank4b92a503f964a520160d34e3",
    "time": "2012-05-03"
  },
  {
    "place": "Bank4b79975af964a520e2032fe3",
    "time": "2012-05-03"
  },
  {
    "place": "Donut Shop4a2946ddf964a5207a951fe3",
    "time": "2012-05-03"
  },
  {
    "place": "Casino4ba40ca1f964a520be7b38e3",
    "time": "2012-05-04"
  },
  {
    "place": "Plaza49b7ed6df964a52030531fe3",
    "time": "2012-05-04"
  },
  {
    "place": "Residential Building (Apartment / Condo)4f93f1c8e5e828f50a2b81d1",
    "time": "2012-05-04"
  },
  {
    "place": "Office42829c80f964a5205f221fe3",
    "time": "2012-05-04"
  },
  {
    "place": "Bank4b92a503f964a520160d34e3",
    "time": "2012-05-04"
  },
  {
    "place": "Bank4b79975af964a520e2032fe3",
    "time": "2012-05-04"
  },
  {
    "place": "Donut Shop4a2946ddf964a5207a951fe3",
    "time": "2012-05-04"
  },
  {
    "place": "Casino4ba40ca1f964a520be7b38e3",
    "time": "2012-05-05"
  },
  {
    "place": "Plaza49b7ed6df964a52030531fe3",
    "time": "2012-05-05"
  },
  {
    "place": "Residential Building (Apartment / Condo)4f93f1c8e5e828f50a2b81d1",
    "time": "2012-05-05"
  },
  {
    "place": "Office42829c80f964a5205f221fe3",
    "time": "2012-05-05"
  },
  {
    "place": "Gym / Fitness Center4b5b0144f964a5205fde28e3",
    "time": "2012-05-05"
  },
  {
    "place": "Donut Shop4a2946ddf964a5207a951fe3",
    "time": "2012-05-05"
  },
  {
    "place": "Casino4ba40ca1f964a520be7b38e3",
    "time": "2012-05-06"
  },
  {
    "place": "Plaza49b7ed6df964a52030531fe3",
    "time": "2012-05-06"
  },
  {
    "place": "Casino4ba40ca1f964a520be7b38e3",
    "time": "2012-05-08"
  },
  {
    "place": "Plaza49b7ed6df964a52030531fe3",
    "time": "2012-05-08"
  },
  {
    "place": "Residential Building (Apartment / Condo)4f93f1c8e5e828f50a2b81d1",
    "time": "2012-05-08"
  },
  {
    "place": "Residential Building (Apartment / Condo)4f93f1c8e5e828f50a2b81d1",
    "time": "2012-05-08"
  },
  {
    "place": "Office42829c80f964a5205f221fe3",
    "time": "2012-05-08"
  },
  {
    "place": "Bank4b92a503f964a520160d34e3",
    "time": "2012-05-08"
  },
  {
    "place": "Bank4b79975af964a520e2032fe3",
    "time": "2012-05-08"
  },
  {
    "place": "Donut Shop4a2946ddf964a5207a951fe3",
    "time": "2012-05-08"
  },
  {
    "place": "Casino4ba40ca1f964a520be7b38e3",
    "time": "2012-05-09"
  },
  {
    "place": "Plaza49b7ed6df964a52030531fe3",
    "time": "2012-05-09"
  },
  {
    "place": "Residential Building (Apartment / Condo)4f93f1c8e5e828f50a2b81d1",
    "time": "2012-05-09"
  },
  {
    "place": "Office42829c80f964a5205f221fe3",
    "time": "2012-05-09"
  },
  {
    "place": "Bank4b92a503f964a520160d34e3",
    "time": "2012-05-09"
  },
  {
    "place": "Bank4b79975af964a520e2032fe3",
    "time": "2012-05-09"
  },
  {
    "place": "Donut Shop4a2946ddf964a5207a951fe3",
    "time": "2012-05-09"
  },
  {
    "place": "Casino4ba40ca1f964a520be7b38e3",
    "time": "2012-05-10"
  },
  {
    "place": "Plaza49b7ed6df964a52030531fe3",
    "time": "2012-05-10"
  },
  {
    "place": "Residential Building (Apartment / Condo)4f93f1c8e5e828f50a2b81d1",
    "time": "2012-05-10"
  },
  {
    "place": "Office42829c80f964a5205f221fe3",
    "time": "2012-05-10"
  },
  {
    "place": "Gym / Fitness Center4b5b0144f964a5205fde28e3",
    "time": "2012-05-10"
  },
  {
    "place": "Bank4b92a503f964a520160d34e3",
    "time": "2012-05-10"
  },
  {
    "place": "Bank4b79975af964a520e2032fe3",
    "time": "2012-05-10"
  },
  {
    "place": "Donut Shop4a2946ddf964a5207a951fe3",
    "time": "2012-05-10"
  },
  {
    "place": "Casino4ba40ca1f964a520be7b38e3",
    "time": "2012-05-11"
  },
  {
    "place": "Plaza49b7ed6df964a52030531fe3",
    "time": "2012-05-11"
  },
  {
    "place": "Residential Building (Apartment / Condo)4f93f1c8e5e828f50a2b81d1",
    "time": "2012-05-11"
  },
  {
    "place": "Office42829c80f964a5205f221fe3",
    "time": "2012-05-11"
  },
  {
    "place": "Bank4b92a503f964a520160d34e3",
    "time": "2012-05-11"
  },
  {
    "place": "Bank4b79975af964a520e2032fe3",
    "time": "2012-05-11"
  },
  {
    "place": "Donut Shop4a2946ddf964a5207a951fe3",
    "time": "2012-05-11"
  },
  {
    "place": "Casino4ba40ca1f964a520be7b38e3",
    "time": "2012-05-12"
  },
  {
    "place": "Office42829c80f964a5205f221fe3",
    "time": "2012-05-12"
  },
  {
    "place": "Gym / Fitness Center4b5b0144f964a5205fde28e3",
    "time": "2012-05-12"
  },
  {
    "place": "Donut Shop4a2946ddf964a5207a951fe3",
    "time": "2012-05-12"
  },
  {
    "place": "Bar472ba436f964a520ff4b1fe3",
    "time": "2012-05-13"
  },
  {
    "place": "Plaza49b7ed6df964a52030531fe3",
    "time": "2012-05-13"
  },
  {
    "place": "Residential Building (Apartment / Condo)4f93f1c8e5e828f50a2b81d1",
    "time": "2012-05-13"
  },
  {
    "place": "Gym / Fitness Center4b5b0144f964a5205fde28e3",
    "time": "2012-05-13"
  },
  {
    "place": "Donut Shop4a2946ddf964a5207a951fe3",
    "time": "2012-05-13"
  },
  {
    "place": "Casino4ba40ca1f964a520be7b38e3",
    "time": "2012-05-14"
  },
  {
    "place": "Plaza49b7ed6df964a52030531fe3",
    "time": "2012-05-14"
  },
  {
    "place": "Residential Building (Apartment / Condo)4f93f1c8e5e828f50a2b81d1",
    "time": "2012-05-14"
  },
  {
    "place": "Office42829c80f964a5205f221fe3",
    "time": "2012-05-14"
  },
  {
    "place": "Gym / Fitness Center4b5b0144f964a5205fde28e3",
    "time": "2012-05-14"
  },
  {
    "place": "Bank4b92a503f964a520160d34e3",
    "time": "2012-05-14"
  },
  {
    "place": "Bank4b79975af964a520e2032fe3",
    "time": "2012-05-14"
  },
  {
    "place": "Donut Shop4a2946ddf964a5207a951fe3",
    "time": "2012-05-14"
  },
  {
    "place": "Casino4ba40ca1f964a520be7b38e3",
    "time": "2012-05-15"
  },
  {
    "place": "Plaza49b7ed6df964a52030531fe3",
    "time": "2012-05-15"
  },
  {
    "place": "Residential Building (Apartment / Condo)4f93f1c8e5e828f50a2b81d1",
    "time": "2012-05-15"
  },
  {
    "place": "Office42829c80f964a5205f221fe3",
    "time": "2012-05-15"
  },
  {
    "place": "Gym / Fitness Center4b5b0144f964a5205fde28e3",
    "time": "2012-05-15"
  },
  {
    "place": "Bank4b92a503f964a520160d34e3",
    "time": "2012-05-15"
  },
  {
    "place": "Bank4b79975af964a520e2032fe3",
    "time": "2012-05-15"
  },
  {
    "place": "Donut Shop4a2946ddf964a5207a951fe3",
    "time": "2012-05-15"
  },
  {
    "place": "Casino4ba40ca1f964a520be7b38e3",
    "time": "2012-05-16"
  },
  {
    "place": "Residential Building (Apartment / Condo)4f93f1c8e5e828f50a2b81d1",
    "time": "2012-05-16"
  },
  {
    "place": "Office42829c80f964a5205f221fe3",
    "time": "2012-05-16"
  },
  {
    "place": "Gym / Fitness Center4b5b0144f964a5205fde28e3",
    "time": "2012-05-16"
  },
  {
    "place": "Bank4b79975af964a520e2032fe3",
    "time": "2012-05-16"
  },
  {
    "place": "Residential Building (Apartment / Condo)4f93f1c8e5e828f50a2b81d1",
    "time": "2012-05-17"
  },
  {
    "place": "Office42829c80f964a5205f221fe3",
    "time": "2012-05-17"
  },
  {
    "place": "Bank4b79975af964a520e2032fe3",
    "time": "2012-05-17"
  },
  {
    "place": "Donut Shop4a2946ddf964a5207a951fe3",
    "time": "2012-05-17"
  },
  {
    "place": "Plaza49b7ed6df964a52030531fe3",
    "time": "2012-05-19"
  },
  {
    "place": "Residential Building (Apartment / Condo)4f93f1c8e5e828f50a2b81d1",
    "time": "2012-05-19"
  },
  {
    "place": "Office42829c80f964a5205f221fe3",
    "time": "2012-05-19"
  },
  {
    "place": "Gym / Fitness Center4b5b0144f964a5205fde28e3",
    "time": "2012-05-19"
  },
  {
    "place": "Casino4ba40ca1f964a520be7b38e3",
    "time": "2012-05-21"
  },
  {
    "place": "Plaza49b7ed6df964a52030531fe3",
    "time": "2012-05-21"
  },
  {
    "place": "Residential Building (Apartment / Condo)4f93f1c8e5e828f50a2b81d1",
    "time": "2012-05-21"
  },
  {
    "place": "Office42829c80f964a5205f221fe3",
    "time": "2012-05-21"
  },
  {
    "place": "Gym / Fitness Center4b5b0144f964a5205fde28e3",
    "time": "2012-05-21"
  },
  {
    "place": "Bank4b92a503f964a520160d34e3",
    "time": "2012-05-21"
  },
  {
    "place": "Donut Shop4a2946ddf964a5207a951fe3",
    "time": "2012-05-21"
  },
  {
    "place": "Casino4ba40ca1f964a520be7b38e3",
    "time": "2012-05-23"
  },
  {
    "place": "Plaza49b7ed6df964a52030531fe3",
    "time": "2012-05-23"
  },
  {
    "place": "Residential Building (Apartment / Condo)4f93f1c8e5e828f50a2b81d1",
    "time": "2012-05-23"
  },
  {
    "place": "Office42829c80f964a5205f221fe3",
    "time": "2012-05-23"
  },
  {
    "place": "Bank4b92a503f964a520160d34e3",
    "time": "2012-05-23"
  },
  {
    "place": "Bank4b79975af964a520e2032fe3",
    "time": "2012-05-23"
  },
  {
    "place": "Donut Shop4a2946ddf964a5207a951fe3",
    "time": "2012-05-23"
  },
  {
    "place": "Casino4ba40ca1f964a520be7b38e3",
    "time": "2012-05-25"
  },
  {
    "place": "Plaza49b7ed6df964a52030531fe3",
    "time": "2012-05-25"
  },
  {
    "place": "Residential Building (Apartment / Condo)4f93f1c8e5e828f50a2b81d1",
    "time": "2012-05-25"
  },
  {
    "place": "Bank4b79975af964a520e2032fe3",
    "time": "2012-05-25"
  },
  {
    "place": "Donut Shop4a2946ddf964a5207a951fe3",
    "time": "2012-05-25"
  },
  {
    "place": "Casino4ba40ca1f964a520be7b38e3",
    "time": "2012-05-27"
  },
  {
    "place": "Plaza49b7ed6df964a52030531fe3",
    "time": "2012-05-27"
  },
  {
    "place": "Casino4ba40ca1f964a520be7b38e3",
    "time": "2012-05-28"
  },
  {
    "place": "Residential Building (Apartment / Condo)4f93f1c8e5e828f50a2b81d1",
    "time": "2012-05-28"
  },
  {
    "place": "Bank4b79975af964a520e2032fe3",
    "time": "2012-05-28"
  },
  {
    "place": "Donut Shop4a2946ddf964a5207a951fe3",
    "time": "2012-05-28"
  },
  {
    "place": "Casino4ba40ca1f964a520be7b38e3",
    "time": "2012-05-29"
  },
  {
    "place": "Plaza49b7ed6df964a52030531fe3",
    "time": "2012-05-29"
  },
  {
    "place": "Residential Building (Apartment / Condo)4f93f1c8e5e828f50a2b81d1",
    "time": "2012-05-29"
  },
  {
    "place": "Office42829c80f964a5205f221fe3",
    "time": "2012-05-29"
  },
  {
    "place": "Bank4b79975af964a520e2032fe3",
    "time": "2012-05-29"
  },
  {
    "place": "Donut Shop4a2946ddf964a5207a951fe3",
    "time": "2012-05-29"
  },
  {
    "place": "Casino4ba40ca1f964a520be7b38e3",
    "time": "2012-05-31"
  },
  {
    "place": "Plaza49b7ed6df964a52030531fe3",
    "time": "2012-05-31"
  },
  {
    "place": "Residential Building (Apartment / Condo)4f93f1c8e5e828f50a2b81d1",
    "time": "2012-05-31"
  },
  {
    "place": "Bank4b92a503f964a520160d34e3",
    "time": "2012-05-31"
  },
  {
    "place": "Bank4b79975af964a520e2032fe3",
    "time": "2012-05-31"
  },
  {
    "place": "Donut Shop4a2946ddf964a5207a951fe3",
    "time": "2012-05-31"
  },
  {
    "place": "Residential Building (Apartment / Condo)4f93f1c8e5e828f50a2b81d1",
    "time": "2012-06-01"
  },
  {
    "place": "Office42829c80f964a5205f221fe3",
    "time": "2012-06-01"
  },
  {
    "place": "Bank4b92a503f964a520160d34e3",
    "time": "2012-06-01"
  },
  {
    "place": "Casino4ba40ca1f964a520be7b38e3",
    "time": "2012-06-03"
  },
  {
    "place": "Plaza49b7ed6df964a52030531fe3",
    "time": "2012-06-03"
  },
  {
    "place": "Residential Building (Apartment / Condo)4f93f1c8e5e828f50a2b81d1",
    "time": "2012-06-03"
  },
  {
    "place": "Bar4cc35db6d43ba14387a35ff8",
    "time": "2012-06-05"
  },
  {
    "place": "Casino4ba40ca1f964a520be7b38e3",
    "time": "2012-06-06"
  },
  {
    "place": "Plaza49b7ed6df964a52030531fe3",
    "time": "2012-06-06"
  },
  {
    "place": "Office42829c80f964a5205f221fe3",
    "time": "2012-06-06"
  },
  {
    "place": "Bank4b92a503f964a520160d34e3",
    "time": "2012-06-06"
  },
  {
    "place": "Bank4b79975af964a520e2032fe3",
    "time": "2012-06-06"
  },
  {
    "place": "Donut Shop4a2946ddf964a5207a951fe3",
    "time": "2012-06-06"
  },
  {
    "place": "Casino4ba40ca1f964a520be7b38e3",
    "time": "2012-06-07"
  },
  {
    "place": "Office42829c80f964a5205f221fe3",
    "time": "2012-06-07"
  },
  {
    "place": "Bank4b92a503f964a520160d34e3",
    "time": "2012-06-07"
  },
  {
    "place": "Bank4b79975af964a520e2032fe3",
    "time": "2012-06-07"
  },
  {
    "place": "Office42829c80f964a5205f221fe3",
    "time": "2012-06-08"
  },
  {
    "place": "Donut Shop4a2946ddf964a5207a951fe3",
    "time": "2012-06-08"
  },
  {
    "place": "Plaza49b7ed6df964a52030531fe3",
    "time": "2012-06-09"
  },
  {
    "place": "Residential Building (Apartment / Condo)4f93f1c8e5e828f50a2b81d1",
    "time": "2012-06-09"
  },
  {
    "place": "Donut Shop4a2946ddf964a5207a951fe3",
    "time": "2012-06-09"
  },
  {
    "place": "Casino4ba40ca1f964a520be7b38e3",
    "time": "2012-06-10"
  },
  {
    "place": "Plaza49b7ed6df964a52030531fe3",
    "time": "2012-06-10"
  },
  {
    "place": "Residential Building (Apartment / Condo)4f93f1c8e5e828f50a2b81d1",
    "time": "2012-06-11"
  },
  {
    "place": "Office42829c80f964a5205f221fe3",
    "time": "2012-06-11"
  },
  {
    "place": "Bank4b92a503f964a520160d34e3",
    "time": "2012-06-11"
  },
  {
    "place": "Bank4b79975af964a520e2032fe3",
    "time": "2012-06-11"
  },
  {
    "place": "Donut Shop4a2946ddf964a5207a951fe3",
    "time": "2012-06-11"
  },
  {
    "place": "Casino4ba40ca1f964a520be7b38e3",
    "time": "2012-06-12"
  },
  {
    "place": "Plaza49b7ed6df964a52030531fe3",
    "time": "2012-06-12"
  },
  {
    "place": "Donut Shop4a2946ddf964a5207a951fe3",
    "time": "2012-06-12"
  },
  {
    "place": "Casino4ba40ca1f964a520be7b38e3",
    "time": "2012-06-13"
  },
  {
    "place": "Plaza49b7ed6df964a52030531fe3",
    "time": "2012-06-13"
  },
  {
    "place": "Residential Building (Apartment / Condo)4f93f1c8e5e828f50a2b81d1",
    "time": "2012-06-13"
  },
  {
    "place": "Donut Shop4a2946ddf964a5207a951fe3",
    "time": "2012-06-13"
  },
  {
    "place": "Hotel49f08690f964a52034691fe3",
    "time": "2012-06-14"
  },
  {
    "place": "Residential Building (Apartment / Condo)4f93f1c8e5e828f50a2b81d1",
    "time": "2012-06-17"
  },
  {
    "place": "Office42829c80f964a5205f221fe3",
    "time": "2012-06-17"
  },
  {
    "place": "Hotel439c437bf964a520f02b1fe3",
    "time": "2012-06-17"
  },
  {
    "place": "Plaza49b7ed6df964a52030531fe3",
    "time": "2012-06-18"
  },
  {
    "place": "Residential Building (Apartment / Condo)4f93f1c8e5e828f50a2b81d1",
    "time": "2012-06-18"
  },
  {
    "place": "Office42829c80f964a5205f221fe3",
    "time": "2012-06-18"
  },
  {
    "place": "Bar4a021207f964a52029711fe3",
    "time": "2012-06-18"
  },
  {
    "place": "Bank4b92a503f964a520160d34e3",
    "time": "2012-06-18"
  },
  {
    "place": "Bank4b79975af964a520e2032fe3",
    "time": "2012-06-18"
  },
  {
    "place": "Hotel439c437bf964a520f02b1fe3",
    "time": "2012-06-18"
  },
  {
    "place": "Clothing Store4a02d6f9f964a5206e711fe3",
    "time": "2012-06-21"
  },
  {
    "place": "Plaza49b7ed6df964a52030531fe3",
    "time": "2012-06-26"
  },
  {
    "place": "Residential Building (Apartment / Condo)4f93f1c8e5e828f50a2b81d1",
    "time": "2012-06-26"
  },
  {
    "place": "Office42829c80f964a5205f221fe3",
    "time": "2012-06-26"
  },
  {
    "place": "Bar4a021207f964a52029711fe3",
    "time": "2012-06-26"
  },
  {
    "place": "Bank4b92a503f964a520160d34e3",
    "time": "2012-06-26"
  },
  {
    "place": "Bank4b79975af964a520e2032fe3",
    "time": "2012-06-26"
  },
  {
    "place": "Hotel439c437bf964a520f02b1fe3",
    "time": "2012-06-26"
  },
  {
    "place": "Residential Building (Apartment / Condo)4f93f1c8e5e828f50a2b81d1",
    "time": "2012-06-27"
  },
  {
    "place": "Office42829c80f964a5205f221fe3",
    "time": "2012-06-27"
  },
  {
    "place": "Bar4a021207f964a52029711fe3",
    "time": "2012-06-27"
  },
  {
    "place": "Plaza49b7ed6df964a52030531fe3",
    "time": "2012-07-02"
  },
  {
    "place": "Residential Building (Apartment / Condo)4f93f1c8e5e828f50a2b81d1",
    "time": "2012-07-02"
  },
  {
    "place": "Office42829c80f964a5205f221fe3",
    "time": "2012-07-02"
  },
  {
    "place": "Hotel439c437bf964a520f02b1fe3",
    "time": "2012-07-02"
  },
  {
    "place": "Residential Building (Apartment / Condo)4f93f1c8e5e828f50a2b81d1",
    "time": "2012-07-03"
  },
  {
    "place": "Office42829c80f964a5205f221fe3",
    "time": "2012-07-03"
  },
  {
    "place": "Bar4a021207f964a52029711fe3",
    "time": "2012-07-03"
  },
  {
    "place": "Bank4b92a503f964a520160d34e3",
    "time": "2012-07-03"
  },
  {
    "place": "Bank4b79975af964a520e2032fe3",
    "time": "2012-07-03"
  },
  {
    "place": "Hotel439c437bf964a520f02b1fe3",
    "time": "2012-07-03"
  },
  {
    "place": "Plaza49b7ed6df964a52030531fe3",
    "time": "2012-07-04"
  },
  {
    "place": "Residential Building (Apartment / Condo)4f93f1c8e5e828f50a2b81d1",
    "time": "2012-07-04"
  },
  {
    "place": "Office42829c80f964a5205f221fe3",
    "time": "2012-07-04"
  },
  {
    "place": "Bar4a021207f964a52029711fe3",
    "time": "2012-07-04"
  },
  {
    "place": "Bank4b92a503f964a520160d34e3",
    "time": "2012-07-04"
  },
  {
    "place": "Bank4b79975af964a520e2032fe3",
    "time": "2012-07-04"
  },
  {
    "place": "Hotel439c437bf964a520f02b1fe3",
    "time": "2012-07-04"
  },
  {
    "place": "Plaza49b7ed6df964a52030531fe3",
    "time": "2012-07-05"
  },
  {
    "place": "Residential Building (Apartment / Condo)4f93f1c8e5e828f50a2b81d1",
    "time": "2012-07-05"
  },
  {
    "place": "Bank4b92a503f964a520160d34e3",
    "time": "2012-07-05"
  },
  {
    "place": "Plaza49b7ed6df964a52030531fe3",
    "time": "2012-07-06"
  },
  {
    "place": "Residential Building (Apartment / Condo)4f93f1c8e5e828f50a2b81d1",
    "time": "2012-07-06"
  },
  {
    "place": "Bank4b92a503f964a520160d34e3",
    "time": "2012-07-06"
  },
  {
    "place": "Bank4b79975af964a520e2032fe3",
    "time": "2012-07-06"
  },
  {
    "place": "Hotel439c437bf964a520f02b1fe3",
    "time": "2012-07-06"
  },
  {
    "place": "Bar4a021207f964a52029711fe3",
    "time": "2012-07-06"
  },
  {
    "place": "Plaza49b7ed6df964a52030531fe3",
    "time": "2012-07-07"
  },
  {
    "place": "Residential Building (Apartment / Condo)4f93f1c8e5e828f50a2b81d1",
    "time": "2012-07-07"
  },
  {
    "place": "Office42829c80f964a5205f221fe3",
    "time": "2012-07-07"
  },
  {
    "place": "Bar4a021207f964a52029711fe3",
    "time": "2012-07-07"
  },
  {
    "place": "Hotel439c437bf964a520f02b1fe3",
    "time": "2012-07-07"
  },
  {
    "place": "Residential Building (Apartment / Condo)4f93f1c8e5e828f50a2b81d1",
    "time": "2012-07-08"
  },
  {
    "place": "Office42829c80f964a5205f221fe3",
    "time": "2012-07-08"
  },
  {
    "place": "Bar4a021207f964a52029711fe3",
    "time": "2012-07-08"
  },
  {
    "place": "Plaza49b7ed6df964a52030531fe3",
    "time": "2012-07-09"
  },
  {
    "place": "Residential Building (Apartment / Condo)4f93f1c8e5e828f50a2b81d1",
    "time": "2012-07-09"
  },
  {
    "place": "Office42829c80f964a5205f221fe3",
    "time": "2012-07-09"
  },
  {
    "place": "Bar4a021207f964a52029711fe3",
    "time": "2012-07-09"
  },
  {
    "place": "Bank4b92a503f964a520160d34e3",
    "time": "2012-07-09"
  },
  {
    "place": "Bank4b79975af964a520e2032fe3",
    "time": "2012-07-09"
  },
  {
    "place": "Hotel439c437bf964a520f02b1fe3",
    "time": "2012-07-09"
  },
  {
    "place": "Plaza49b7ed6df964a52030531fe3",
    "time": "2012-07-11"
  },
  {
    "place": "Residential Building (Apartment / Condo)4f93f1c8e5e828f50a2b81d1",
    "time": "2012-07-11"
  },
  {
    "place": "Office42829c80f964a5205f221fe3",
    "time": "2012-07-11"
  },
  {
    "place": "Bar4a021207f964a52029711fe3",
    "time": "2012-07-11"
  },
  {
    "place": "Bank4b92a503f964a520160d34e3",
    "time": "2012-07-11"
  },
  {
    "place": "Bank4b79975af964a520e2032fe3",
    "time": "2012-07-11"
  },
  {
    "place": "Hotel439c437bf964a520f02b1fe3",
    "time": "2012-07-11"
  },
  {
    "place": "Residential Building (Apartment / Condo)4f93f1c8e5e828f50a2b81d1",
    "time": "2012-07-12"
  },
  {
    "place": "Bar4a021207f964a52029711fe3",
    "time": "2012-07-12"
  },
  {
    "place": "Bank4b92a503f964a520160d34e3",
    "time": "2012-07-12"
  },
  {
    "place": "Bank4b79975af964a520e2032fe3",
    "time": "2012-07-12"
  },
  {
    "place": "Plaza49b7ed6df964a52030531fe3",
    "time": "2012-07-13"
  },
  {
    "place": "Residential Building (Apartment / Condo)4f93f1c8e5e828f50a2b81d1",
    "time": "2012-07-13"
  },
  {
    "place": "Office42829c80f964a5205f221fe3",
    "time": "2012-07-13"
  },
  {
    "place": "Bar4a021207f964a52029711fe3",
    "time": "2012-07-13"
  },
  {
    "place": "Bank4b92a503f964a520160d34e3",
    "time": "2012-07-13"
  },
  {
    "place": "Bank4b79975af964a520e2032fe3",
    "time": "2012-07-13"
  },
  {
    "place": "Hotel439c437bf964a520f02b1fe3",
    "time": "2012-07-13"
  },
  {
    "place": "Plaza49b7ed6df964a52030531fe3",
    "time": "2012-07-15"
  },
  {
    "place": "Office42829c80f964a5205f221fe3",
    "time": "2012-07-15"
  },
  {
    "place": "Bar4a021207f964a52029711fe3",
    "time": "2012-07-15"
  },
  {
    "place": "Hotel439c437bf964a520f02b1fe3",
    "time": "2012-07-15"
  },
  {
    "place": "Residential Building (Apartment / Condo)4f93f1c8e5e828f50a2b81d1",
    "time": "2012-07-16"
  },
  {
    "place": "Bar4a021207f964a52029711fe3",
    "time": "2012-07-16"
  },
  {
    "place": "Bank4b92a503f964a520160d34e3",
    "time": "2012-07-16"
  },
  {
    "place": "Bank4b79975af964a520e2032fe3",
    "time": "2012-07-16"
  },
  {
    "place": "Hotel439c437bf964a520f02b1fe3",
    "time": "2012-07-16"
  },
  {
    "place": "Residential Building (Apartment / Condo)4f93f1c8e5e828f50a2b81d1",
    "time": "2012-07-17"
  },
  {
    "place": "Bar4a021207f964a52029711fe3",
    "time": "2012-07-17"
  },
  {
    "place": "Bank4b92a503f964a520160d34e3",
    "time": "2012-07-17"
  },
  {
    "place": "Office42829c80f964a5205f221fe3",
    "time": "2012-07-18"
  },
  {
    "place": "Bank4b92a503f964a520160d34e3",
    "time": "2012-07-18"
  },
  {
    "place": "Bank4b79975af964a520e2032fe3",
    "time": "2012-07-18"
  },
  {
    "place": "Hotel439c437bf964a520f02b1fe3",
    "time": "2012-07-18"
  },
  {
    "place": "Residential Building (Apartment / Condo)4f93f1c8e5e828f50a2b81d1",
    "time": "2012-07-24"
  },
  {
    "place": "Office42829c80f964a5205f221fe3",
    "time": "2012-07-24"
  },
  {
    "place": "Bar4a021207f964a52029711fe3",
    "time": "2012-07-24"
  },
  {
    "place": "Bank4b79975af964a520e2032fe3",
    "time": "2012-07-24"
  },
  {
    "place": "Office42829c80f964a5205f221fe3",
    "time": "2012-07-28"
  },
  {
    "place": "Bar4a021207f964a52029711fe3",
    "time": "2012-07-28"
  },
  {
    "place": "Hotel439c437bf964a520f02b1fe3",
    "time": "2012-07-28"
  },
  {
    "place": "Plaza49b7ed6df964a52030531fe3",
    "time": "2012-07-29"
  },
  {
    "place": "Residential Building (Apartment / Condo)4f93f1c8e5e828f50a2b81d1",
    "time": "2012-07-29"
  },
  {
    "place": "Bar4a021207f964a52029711fe3",
    "time": "2012-07-29"
  },
  {
    "place": "Hotel439c437bf964a520f02b1fe3",
    "time": "2012-07-29"
  },
  {
    "place": "Stadium3fd66200f964a520ddf01ee3",
    "time": "2012-07-30"
  },
  {
    "place": "Residential Building (Apartment / Condo)4f93f1c8e5e828f50a2b81d1",
    "time": "2012-07-30"
  },
  {
    "place": "Bar4a021207f964a52029711fe3",
    "time": "2012-07-30"
  },
  {
    "place": "Bank4b92a503f964a520160d34e3",
    "time": "2012-07-30"
  },
  {
    "place": "Hotel439c437bf964a520f02b1fe3",
    "time": "2012-07-30"
  },
  {
    "place": "Office42829c80f964a5205f221fe3",
    "time": "2012-08-05"
  },
  {
    "place": "Hotel439c437bf964a520f02b1fe3",
    "time": "2012-08-05"
  },
  {
    "place": "Plaza49b7ed6df964a52030531fe3",
    "time": "2012-08-09"
  },
  {
    "place": "Office42829c80f964a5205f221fe3",
    "time": "2012-08-09"
  },
  {
    "place": "Bar4a021207f964a52029711fe3",
    "time": "2012-08-09"
  },
  {
    "place": "Residential Building (Apartment / Condo)4f93f1c8e5e828f50a2b81d1",
    "time": "2012-08-10"
  },
  {
    "place": "Office42829c80f964a5205f221fe3",
    "time": "2012-08-10"
  },
  {
    "place": "Bar4a021207f964a52029711fe3",
    "time": "2012-08-10"
  },
  {
    "place": "Bank4b92a503f964a520160d34e3",
    "time": "2012-08-10"
  },
  {
    "place": "Bank4b79975af964a520e2032fe3",
    "time": "2012-08-10"
  },
  {
    "place": "Hotel439c437bf964a520f02b1fe3",
    "time": "2012-08-10"
  },
  {
    "place": "Plaza49b7ed6df964a52030531fe3",
    "time": "2012-08-11"
  },
  {
    "place": "Office42829c80f964a5205f221fe3",
    "time": "2012-08-11"
  },
  {
    "place": "Hotel439c437bf964a520f02b1fe3",
    "time": "2012-08-11"
  },
  {
    "place": "Residential Building (Apartment / Condo)4f93f1c8e5e828f50a2b81d1",
    "time": "2012-08-12"
  },
  {
    "place": "Bar4a021207f964a52029711fe3",
    "time": "2012-08-12"
  },
  {
    "place": "Hotel439c437bf964a520f02b1fe3",
    "time": "2012-08-12"
  },
  {
    "place": "Bank4b92a503f964a520160d34e3",
    "time": "2012-08-13"
  },
  {
    "place": "Bank4b79975af964a520e2032fe3",
    "time": "2012-08-13"
  },
  {
    "place": "Hotel439c437bf964a520f02b1fe3",
    "time": "2012-08-13"
  },
  {
    "place": "Plaza49b7ed6df964a52030531fe3",
    "time": "2012-08-14"
  },
  {
    "place": "Residential Building (Apartment / Condo)4f93f1c8e5e828f50a2b81d1",
    "time": "2012-08-14"
  },
  {
    "place": "Office42829c80f964a5205f221fe3",
    "time": "2012-08-14"
  },
  {
    "place": "Bar4a021207f964a52029711fe3",
    "time": "2012-08-14"
  },
  {
    "place": "Bank4b79975af964a520e2032fe3",
    "time": "2012-08-14"
  },
  {
    "place": "Hotel439c437bf964a520f02b1fe3",
    "time": "2012-08-14"
  },
  {
    "place": "Plaza49b7ed6df964a52030531fe3",
    "time": "2012-08-16"
  },
  {
    "place": "Residential Building (Apartment / Condo)4f93f1c8e5e828f50a2b81d1",
    "time": "2012-08-16"
  },
  {
    "place": "Office42829c80f964a5205f221fe3",
    "time": "2012-08-16"
  },
  {
    "place": "Bar4a021207f964a52029711fe3",
    "time": "2012-08-16"
  },
  {
    "place": "Bank4b92a503f964a520160d34e3",
    "time": "2012-08-16"
  },
  {
    "place": "Hotel439c437bf964a520f02b1fe3",
    "time": "2012-08-16"
  },
  {
    "place": "Plaza49b7ed6df964a52030531fe3",
    "time": "2012-08-17"
  },
  {
    "place": "Office42829c80f964a5205f221fe3",
    "time": "2012-08-17"
  },
  {
    "place": "Bar4a021207f964a52029711fe3",
    "time": "2012-08-17"
  },
  {
    "place": "Bank4b92a503f964a520160d34e3",
    "time": "2012-08-17"
  },
  {
    "place": "Office42829c80f964a5205f221fe3",
    "time": "2012-08-19"
  },
  {
    "place": "Hotel439c437bf964a520f02b1fe3",
    "time": "2012-08-19"
  },
  {
    "place": "Residential Building (Apartment / Condo)4f93f1c8e5e828f50a2b81d1",
    "time": "2012-08-18"
  },
  {
    "place": "Bar4a021207f964a52029711fe3",
    "time": "2012-08-18"
  },
  {
    "place": "Office42829c80f964a5205f221fe3",
    "time": "2012-08-22"
  },
  {
    "place": "Office42829c80f964a5205f221fe3",
    "time": "2012-09-05"
  },
  {
    "place": "Bank4b92a503f964a520160d34e3",
    "time": "2012-09-05"
  },
  {
    "place": "Bank4b79975af964a520e2032fe3",
    "time": "2012-09-05"
  },
  {
    "place": "Hotel439c437bf964a520f02b1fe3",
    "time": "2012-09-05"
  },
  {
    "place": "Plaza49b7ed6df964a52030531fe3",
    "time": "2012-09-06"
  },
  {
    "place": "Residential Building (Apartment / Condo)4f93f1c8e5e828f50a2b81d1",
    "time": "2012-09-06"
  },
  {
    "place": "Plaza49b7ed6df964a52030531fe3",
    "time": "2012-09-09"
  },
  {
    "place": "Office42829c80f964a5205f221fe3",
    "time": "2012-09-09"
  },
  {
    "place": "Bank4b92a503f964a520160d34e3",
    "time": "2012-09-12"
  },
  {
    "place": "Residential Building (Apartment / Condo)4f93f1c8e5e828f50a2b81d1",
    "time": "2012-09-13"
  },
  {
    "place": "Bank4b92a503f964a520160d34e3",
    "time": "2012-09-13"
  },
  {
    "place": "Plaza49b7ed6df964a52030531fe3",
    "time": "2012-09-14"
  },
  {
    "place": "Residential Building (Apartment / Condo)4f93f1c8e5e828f50a2b81d1",
    "time": "2012-09-14"
  },
  {
    "place": "Office42829c80f964a5205f221fe3",
    "time": "2012-09-14"
  },
  {
    "place": "Bank4b92a503f964a520160d34e3",
    "time": "2012-09-14"
  },
  {
    "place": "Bank4b79975af964a520e2032fe3",
    "time": "2012-09-14"
  },
  {
    "place": "Plaza49b7ed6df964a52030531fe3",
    "time": "2012-09-15"
  },
  {
    "place": "Residential Building (Apartment / Condo)4f93f1c8e5e828f50a2b81d1",
    "time": "2012-09-15"
  },
  {
    "place": "Office42829c80f964a5205f221fe3",
    "time": "2012-09-15"
  },
  {
    "place": "Bar4a021207f964a52029711fe3",
    "time": "2012-09-15"
  },
  {
    "place": "Plaza49b7ed6df964a52030531fe3",
    "time": "2012-10-08"
  },
  {
    "place": "Residential Building (Apartment / Condo)4f93f1c8e5e828f50a2b81d1",
    "time": "2012-10-08"
  },
  {
    "place": "Bar4a021207f964a52029711fe3",
    "time": "2012-10-08"
  },
  {
    "place": "Bank4b92a503f964a520160d34e3",
    "time": "2012-10-08"
  },
  {
    "place": "Residential Building (Apartment / Condo)4f93f1c8e5e828f50a2b81d1",
    "time": "2012-10-11"
  },
  {
    "place": "Bar4a021207f964a52029711fe3",
    "time": "2012-10-11"
  },
  {
    "place": "Bank4b79975af964a520e2032fe3",
    "time": "2012-10-11"
  },
  {
    "place": "Hotel439c437bf964a520f02b1fe3",
    "time": "2012-10-11"
  },
  {
    "place": "Convention Center4283ee00f964a5209d221fe3",
    "time": "2012-10-12"
  },
  {
    "place": "Bank4b92a503f964a520160d34e3",
    "time": "2012-10-12"
  },
  {
    "place": "Bank4b79975af964a520e2032fe3",
    "time": "2012-10-12"
  },
  {
    "place": "Plaza49b7ed6df964a52030531fe3",
    "time": "2012-10-16"
  },
  {
    "place": "Residential Building (Apartment / Condo)4f93f1c8e5e828f50a2b81d1",
    "time": "2012-10-16"
  },
  {
    "place": "Office42829c80f964a5205f221fe3",
    "time": "2012-10-16"
  },
  {
    "place": "Bank4b92a503f964a520160d34e3",
    "time": "2012-10-16"
  },
  {
    "place": "Bank4b79975af964a520e2032fe3",
    "time": "2012-10-16"
  },
  {
    "place": "Plaza49b7ed6df964a52030531fe3",
    "time": "2012-10-18"
  },
  {
    "place": "Residential Building (Apartment / Condo)4f93f1c8e5e828f50a2b81d1",
    "time": "2012-10-18"
  },
  {
    "place": "Bar4a021207f964a52029711fe3",
    "time": "2012-10-18"
  },
  {
    "place": "Hotel439c437bf964a520f02b1fe3",
    "time": "2012-10-18"
  },
  {
    "place": "Plaza49b7ed6df964a52030531fe3",
    "time": "2012-10-19"
  },
  {
    "place": "Residential Building (Apartment / Condo)4f93f1c8e5e828f50a2b81d1",
    "time": "2012-10-19"
  },
  {
    "place": "Office42829c80f964a5205f221fe3",
    "time": "2012-10-19"
  },
  {
    "place": "Bank4b92a503f964a520160d34e3",
    "time": "2012-10-19"
  },
  {
    "place": "Bank4b79975af964a520e2032fe3",
    "time": "2012-10-19"
  },
  {
    "place": "Plaza49b7ed6df964a52030531fe3",
    "time": "2012-10-22"
  },
  {
    "place": "Residential Building (Apartment / Condo)4f93f1c8e5e828f50a2b81d1",
    "time": "2012-10-22"
  },
  {
    "place": "Bar4a021207f964a52029711fe3",
    "time": "2012-10-22"
  },
  {
    "place": "Hotel439c437bf964a520f02b1fe3",
    "time": "2012-10-22"
  },
  {
    "place": "Bank4b79975af964a520e2032fe3",
    "time": "2012-10-23"
  },
  {
    "place": "Hotel439c437bf964a520f02b1fe3",
    "time": "2012-10-23"
  },
  {
    "place": "Office42829c80f964a5205f221fe3",
    "time": "2012-10-24"
  },
  {
    "place": "Bank4b79975af964a520e2032fe3",
    "time": "2012-10-24"
  },
  {
    "place": "Hotel439c437bf964a520f02b1fe3",
    "time": "2012-10-24"
  },
  {
    "place": "Bar4a021207f964a52029711fe3",
    "time": "2012-10-25"
  },
  {
    "place": "Hotel439c437bf964a520f02b1fe3",
    "time": "2012-10-25"
  },
  {
    "place": "Plaza49b7ed6df964a52030531fe3",
    "time": "2012-10-26"
  },
  {
    "place": "Residential Building (Apartment / Condo)4f93f1c8e5e828f50a2b81d1",
    "time": "2012-10-26"
  },
  {
    "place": "Office42829c80f964a5205f221fe3",
    "time": "2012-10-26"
  },
  {
    "place": "Bar4a021207f964a52029711fe3",
    "time": "2012-10-26"
  },
  {
    "place": "Bank4b92a503f964a520160d34e3",
    "time": "2012-10-26"
  },
  {
    "place": "Bank4b79975af964a520e2032fe3",
    "time": "2012-10-26"
  },
  {
    "place": "Hotel439c437bf964a520f02b1fe3",
    "time": "2012-10-26"
  },
  {
    "place": "Bar4a021207f964a52029711fe3",
    "time": "2012-10-26"
  },
  {
    "place": "Residential Building (Apartment / Condo)4f93f1c8e5e828f50a2b81d1",
    "time": "2012-10-27"
  },
  {
    "place": "Office42829c80f964a5205f221fe3",
    "time": "2012-10-27"
  },
  {
    "place": "Hotel439c437bf964a520f02b1fe3",
    "time": "2012-10-27"
  },
  {
    "place": "Residential Building (Apartment / Condo)4f93f1c8e5e828f50a2b81d1",
    "time": "2012-10-28"
  },
  {
    "place": "Plaza49b7ed6df964a52030531fe3",
    "time": "2012-10-30"
  },
  {
    "place": "Office42829c80f964a5205f221fe3",
    "time": "2012-10-30"
  },
  {
    "place": "Bar4a021207f964a52029711fe3",
    "time": "2012-10-30"
  },
  {
    "place": "Bank4b92a503f964a520160d34e3",
    "time": "2012-10-30"
  },
  {
    "place": "Residential Building (Apartment / Condo)4f93f1c8e5e828f50a2b81d1",
    "time": "2012-10-31"
  },
  {
    "place": "Office42829c80f964a5205f221fe3",
    "time": "2012-10-31"
  },
  {
    "place": "Bar4a021207f964a52029711fe3",
    "time": "2012-10-31"
  },
  {
    "place": "Bank4b79975af964a520e2032fe3",
    "time": "2012-10-31"
  },
  {
    "place": "Clothing Store4a57cf98f964a520ddb61fe3",
    "time": "2012-11-01"
  },
  {
    "place": "Office42829c80f964a5205f221fe3",
    "time": "2012-11-01"
  },
  {
    "place": "Bank4b92a503f964a520160d34e3",
    "time": "2012-11-01"
  },
  {
    "place": "Bank4b79975af964a520e2032fe3",
    "time": "2012-11-01"
  },
  {
    "place": "Hotel439c437bf964a520f02b1fe3",
    "time": "2012-11-01"
  },
  {
    "place": "Residential Building (Apartment / Condo)4f93f1c8e5e828f50a2b81d1",
    "time": "2012-11-05"
  },
  {
    "place": "Office42829c80f964a5205f221fe3",
    "time": "2012-11-05"
  },
  {
    "place": "Bar4a021207f964a52029711fe3",
    "time": "2012-11-05"
  },
  {
    "place": "Plaza49b7ed6df964a52030531fe3",
    "time": "2012-11-06"
  },
  {
    "place": "Bank4b92a503f964a520160d34e3",
    "time": "2012-11-06"
  },
  {
    "place": "Hotel439c437bf964a520f02b1fe3",
    "time": "2012-11-06"
  },
  {
    "place": "Plaza49b7ed6df964a52030531fe3",
    "time": "2012-11-07"
  },
  {
    "place": "Residential Building (Apartment / Condo)4f93f1c8e5e828f50a2b81d1",
    "time": "2012-11-07"
  },
  {
    "place": "Office42829c80f964a5205f221fe3",
    "time": "2012-11-07"
  },
  {
    "place": "Plaza49b7ed6df964a52030531fe3",
    "time": "2012-11-09"
  },
  {
    "place": "Office42829c80f964a5205f221fe3",
    "time": "2012-11-09"
  },
  {
    "place": "Bank4b92a503f964a520160d34e3",
    "time": "2012-11-09"
  },
  {
    "place": "Hotel439c437bf964a520f02b1fe3",
    "time": "2012-11-09"
  },
  {
    "place": "Bar4a021207f964a52029711fe3",
    "time": "2012-11-11"
  },
  {
    "place": "Hotel439c437bf964a520f02b1fe3",
    "time": "2012-11-11"
  },
  {
    "place": "Residential Building (Apartment / Condo)4f93f1c8e5e828f50a2b81d1",
    "time": "2012-11-12"
  },
  {
    "place": "Office42829c80f964a5205f221fe3",
    "time": "2012-11-12"
  },
  {
    "place": "Bar4a021207f964a52029711fe3",
    "time": "2012-11-12"
  },
  {
    "place": "Office42829c80f964a5205f221fe3",
    "time": "2012-11-15"
  },
  {
    "place": "Bar4a021207f964a52029711fe3",
    "time": "2012-11-15"
  },
  {
    "place": "Bank4b92a503f964a520160d34e3",
    "time": "2012-11-15"
  },
  {
    "place": "Plaza49b7ed6df964a52030531fe3",
    "time": "2012-11-16"
  },
  {
    "place": "Office42829c80f964a5205f221fe3",
    "time": "2012-11-16"
  },
  {
    "place": "Bank4b79975af964a520e2032fe3",
    "time": "2012-11-16"
  },
  {
    "place": "Hotel439c437bf964a520f02b1fe3",
    "time": "2012-11-16"
  },
  {
    "place": "Plaza49b7ed6df964a52030531fe3",
    "time": "2012-11-17"
  },
  {
    "place": "Bar4a021207f964a52029711fe3",
    "time": "2012-11-17"
  },
  {
    "place": "Plaza49b7ed6df964a52030531fe3",
    "time": "2012-11-19"
  },
  {
    "place": "Office42829c80f964a5205f221fe3",
    "time": "2012-11-19"
  },
  {
    "place": "Bar4a021207f964a52029711fe3",
    "time": "2012-11-19"
  },
  {
    "place": "Bank4b79975af964a520e2032fe3",
    "time": "2012-11-19"
  },
  {
    "place": "Hotel439c437bf964a520f02b1fe3",
    "time": "2012-11-19"
  },
  {
    "place": "Residential Building (Apartment / Condo)4f93f1c8e5e828f50a2b81d1",
    "time": "2012-11-20"
  },
  {
    "place": "Bank4b79975af964a520e2032fe3",
    "time": "2012-11-20"
  },
  {
    "place": "Hotel439c437bf964a520f02b1fe3",
    "time": "2012-11-20"
  },
  {
    "place": "Bar4a021207f964a52029711fe3",
    "time": "2012-11-21"
  },
  {
    "place": "Bank4b79975af964a520e2032fe3",
    "time": "2012-11-21"
  },
  {
    "place": "Hotel439c437bf964a520f02b1fe3",
    "time": "2012-11-21"
  },
  {
    "place": "Residential Building (Apartment / Condo)4f93f1c8e5e828f50a2b81d1",
    "time": "2012-11-22"
  },
  {
    "place": "Office42829c80f964a5205f221fe3",
    "time": "2012-11-22"
  },
  {
    "place": "Bar4a021207f964a52029711fe3",
    "time": "2012-11-22"
  },
  {
    "place": "Bank4b79975af964a520e2032fe3",
    "time": "2012-11-22"
  },
  {
    "place": "Bar4a021207f964a52029711fe3",
    "time": "2012-11-23"
  },
  {
    "place": "Bank4b92a503f964a520160d34e3",
    "time": "2012-11-23"
  },
  {
    "place": "Bank4b79975af964a520e2032fe3",
    "time": "2012-11-23"
  },
  {
    "place": "Hotel439c437bf964a520f02b1fe3",
    "time": "2012-11-23"
  },
  {
    "place": "Plaza49b7ed6df964a52030531fe3",
    "time": "2012-11-24"
  },
  {
    "place": "Office42829c80f964a5205f221fe3",
    "time": "2012-11-24"
  },
  {
    "place": "Bar4a021207f964a52029711fe3",
    "time": "2012-11-24"
  },
  {
    "place": "Plaza49b7ed6df964a52030531fe3",
    "time": "2012-11-25"
  },
  {
    "place": "Office42829c80f964a5205f221fe3",
    "time": "2012-11-25"
  },
  {
    "place": "Bar4a021207f964a52029711fe3",
    "time": "2012-11-25"
  },
  {
    "place": "Office42829c80f964a5205f221fe3",
    "time": "2012-11-26"
  },
  {
    "place": "Bar4a021207f964a52029711fe3",
    "time": "2012-11-26"
  },
  {
    "place": "Bank4b79975af964a520e2032fe3",
    "time": "2012-11-26"
  },
  {
    "place": "Hotel439c437bf964a520f02b1fe3",
    "time": "2012-11-26"
  },
  {
    "place": "Plaza49b7ed6df964a52030531fe3",
    "time": "2012-11-27"
  },
  {
    "place": "Office42829c80f964a5205f221fe3",
    "time": "2012-11-27"
  },
  {
    "place": "Bank4b92a503f964a520160d34e3",
    "time": "2012-11-27"
  },
  {
    "place": "Hotel439c437bf964a520f02b1fe3",
    "time": "2012-11-27"
  },
  {
    "place": "Residential Building (Apartment / Condo)4f93f1c8e5e828f50a2b81d1",
    "time": "2012-11-28"
  },
  {
    "place": "Hotel439c437bf964a520f02b1fe3",
    "time": "2012-11-28"
  },
  {
    "place": "Plaza49b7ed6df964a52030531fe3",
    "time": "2012-12-01"
  },
  {
    "place": "Office42829c80f964a5205f221fe3",
    "time": "2012-12-01"
  },
  {
    "place": "Hotel439c437bf964a520f02b1fe3",
    "time": "2012-12-01"
  },
  {
    "place": "Residential Building (Apartment / Condo)4f93f1c8e5e828f50a2b81d1",
    "time": "2012-12-02"
  },
  {
    "place": "Plaza49b7ed6df964a52030531fe3",
    "time": "2012-12-03"
  },
  {
    "place": "Residential Building (Apartment / Condo)4f93f1c8e5e828f50a2b81d1",
    "time": "2012-12-03"
  },
  {
    "place": "Office42829c80f964a5205f221fe3",
    "time": "2012-12-03"
  },
  {
    "place": "Bar4a021207f964a52029711fe3",
    "time": "2012-12-03"
  },
  {
    "place": "Plaza49b7ed6df964a52030531fe3",
    "time": "2012-12-04"
  },
  {
    "place": "Residential Building (Apartment / Condo)4f93f1c8e5e828f50a2b81d1",
    "time": "2012-12-04"
  },
  {
    "place": "Bank4b92a503f964a520160d34e3",
    "time": "2012-12-04"
  },
  {
    "place": "Hotel439c437bf964a520f02b1fe3",
    "time": "2012-12-04"
  },
  {
    "place": "Plaza49b7ed6df964a52030531fe3",
    "time": "2012-12-05"
  },
  {
    "place": "Residential Building (Apartment / Condo)4f93f1c8e5e828f50a2b81d1",
    "time": "2012-12-05"
  },
  {
    "place": "Office42829c80f964a5205f221fe3",
    "time": "2012-12-05"
  },
  {
    "place": "Bar4a021207f964a52029711fe3",
    "time": "2012-12-05"
  },
  {
    "place": "Bank4b92a503f964a520160d34e3",
    "time": "2012-12-05"
  },
  {
    "place": "Hotel439c437bf964a520f02b1fe3",
    "time": "2012-12-05"
  },
  {
    "place": "Bank4b92a503f964a520160d34e3",
    "time": "2012-12-06"
  },
  {
    "place": "Hotel439c437bf964a520f02b1fe3",
    "time": "2012-12-06"
  },
  {
    "place": "Residential Building (Apartment / Condo)4f93f1c8e5e828f50a2b81d1",
    "time": "2012-12-07"
  },
  {
    "place": "Bar4a021207f964a52029711fe3",
    "time": "2012-12-07"
  },
  {
    "place": "Bank4b92a503f964a520160d34e3",
    "time": "2012-12-07"
  },
  {
    "place": "Hotel439c437bf964a520f02b1fe3",
    "time": "2012-12-07"
  },
  {
    "place": "Plaza49b7ed6df964a52030531fe3",
    "time": "2012-12-08"
  },
  {
    "place": "Office42829c80f964a5205f221fe3",
    "time": "2012-12-08"
  },
  {
    "place": "Bar4a021207f964a52029711fe3",
    "time": "2012-12-08"
  },
  {
    "place": "Office42829c80f964a5205f221fe3",
    "time": "2012-12-09"
  },
  {
    "place": "Bar4a021207f964a52029711fe3",
    "time": "2012-12-09"
  },
  {
    "place": "Plaza49b7ed6df964a52030531fe3",
    "time": "2012-12-10"
  },
  {
    "place": "Residential Building (Apartment / Condo)4f93f1c8e5e828f50a2b81d1",
    "time": "2012-12-10"
  },
  {
    "place": "Office42829c80f964a5205f221fe3",
    "time": "2012-12-10"
  },
  {
    "place": "Bank4b92a503f964a520160d34e3",
    "time": "2012-12-10"
  },
  {
    "place": "Residential Building (Apartment / Condo)4f93f1c8e5e828f50a2b81d1",
    "time": "2012-12-11"
  },
  {
    "place": "Office42829c80f964a5205f221fe3",
    "time": "2012-12-11"
  },
  {
    "place": "Bank4b92a503f964a520160d34e3",
    "time": "2012-12-11"
  },
  {
    "place": "Residential Building (Apartment / Condo)4f93f1c8e5e828f50a2b81d1",
    "time": "2012-12-12"
  },
  {
    "place": "Bank4b92a503f964a520160d34e3",
    "time": "2012-12-12"
  },
  {
    "place": "Hotel439c437bf964a520f02b1fe3",
    "time": "2012-12-12"
  },
  {
    "place": "Plaza49b7ed6df964a52030531fe3",
    "time": "2012-12-13"
  },
  {
    "place": "Residential Building (Apartment / Condo)4f93f1c8e5e828f50a2b81d1",
    "time": "2012-12-13"
  },
  {
    "place": "Bar4a021207f964a52029711fe3",
    "time": "2012-12-13"
  },
  {
    "place": "Bank4b92a503f964a520160d34e3",
    "time": "2012-12-13"
  },
  {
    "place": "Plaza49b7ed6df964a52030531fe3",
    "time": "2012-12-14"
  },
  {
    "place": "Bar4a021207f964a52029711fe3",
    "time": "2012-12-14"
  },
  {
    "place": "Plaza49b7ed6df964a52030531fe3",
    "time": "2012-12-16"
  },
  {
    "place": "Hotel439c437bf964a520f02b1fe3",
    "time": "2012-12-16"
  },
  {
    "place": "Plaza49b7ed6df964a52030531fe3",
    "time": "2012-12-17"
  },
  {
    "place": "Bank4b92a503f964a520160d34e3",
    "time": "2012-12-17"
  },
  {
    "place": "Hotel439c437bf964a520f02b1fe3",
    "time": "2012-12-17"
  },
  {
    "place": "Residential Building (Apartment / Condo)4f93f1c8e5e828f50a2b81d1",
    "time": "2012-12-18"
  },
  {
    "place": "Bank4b92a503f964a520160d34e3",
    "time": "2012-12-18"
  },
  {
    "place": "Residential Building (Apartment / Condo)4f93f1c8e5e828f50a2b81d1",
    "time": "2012-12-19"
  },
  {
    "place": "Bar4a021207f964a52029711fe3",
    "time": "2012-12-19"
  },
  {
    "place": "Bank4b92a503f964a520160d34e3",
    "time": "2012-12-19"
  },
  {
    "place": "Hotel439c437bf964a520f02b1fe3",
    "time": "2012-12-19"
  },
  {
    "place": "Plaza49b7ed6df964a52030531fe3",
    "time": "2012-12-21"
  },
  {
    "place": "Residential Building (Apartment / Condo)4f93f1c8e5e828f50a2b81d1",
    "time": "2012-12-21"
  },
  {
    "place": "Bank4b92a503f964a520160d34e3",
    "time": "2012-12-21"
  },
  {
    "place": "Hotel439c437bf964a520f02b1fe3",
    "time": "2012-12-21"
  },
  {
    "place": "Bar4a021207f964a52029711fe3",
    "time": "2012-12-22"
  },
  {
    "place": "Hotel439c437bf964a520f02b1fe3",
    "time": "2012-12-22"
  },
  {
    "place": "Residential Building (Apartment / Condo)4f93f1c8e5e828f50a2b81d1",
    "time": "2012-12-23"
  },
  {
    "place": "Plaza49b7ed6df964a52030531fe3",
    "time": "2012-12-27"
  },
  {
    "place": "Bank4b92a503f964a520160d34e3",
    "time": "2012-12-27"
  },
  {
    "place": "Residential Building (Apartment / Condo)4f93f1c8e5e828f50a2b81d1",
    "time": "2012-12-28"
  },
  {
    "place": "Bar4a021207f964a52029711fe3",
    "time": "2012-12-28"
  },
  {
    "place": "Plaza49b7ed6df964a52030531fe3",
    "time": "2012-12-29"
  },
  {
    "place": "Hotel439c437bf964a520f02b1fe3",
    "time": "2012-12-29"
  },
  {
    "place": "Plaza49b7ed6df964a52030531fe3",
    "time": "2012-12-30"
  },
  {
    "place": "Residential Building (Apartment / Condo)4f93f1c8e5e828f50a2b81d1",
    "time": "2012-12-30"
  },
  {
    "place": "Hotel439c437bf964a520f02b1fe3",
    "time": "2012-12-30"
  },
  {
    "place": "Residential Building (Apartment / Condo)4f93f1c8e5e828f50a2b81d1",
    "time": "2013-01-01"
  },
  {
    "place": "Plaza49b7ed6df964a52030531fe3",
    "time": "2013-01-02"
  },
  {
    "place": "Bank4b92a503f964a520160d34e3",
    "time": "2013-01-02"
  },
  {
    "place": "Residential Building (Apartment / Condo)4f93f1c8e5e828f50a2b81d1",
    "time": "2013-01-03"
  },
  {
    "place": "Bar4a021207f964a52029711fe3",
    "time": "2013-01-03"
  },
  {
    "place": "Bank4b92a503f964a520160d34e3",
    "time": "2013-01-03"
  },
  {
    "place": "Bar4a021207f964a52029711fe3",
    "time": "2013-01-04"
  },
  {
    "place": "Residential Building (Apartment / Condo)4f93f1c8e5e828f50a2b81d1",
    "time": "2013-01-05"
  },
  {
    "place": "Hotel439c437bf964a520f02b1fe3",
    "time": "2013-01-05"
  },
  {
    "place": "Residential Building (Apartment / Condo)4f93f1c8e5e828f50a2b81d1",
    "time": "2013-01-07"
  },
  {
    "place": "Bar4a021207f964a52029711fe3",
    "time": "2013-01-07"
  },
  {
    "place": "Plaza49b7ed6df964a52030531fe3",
    "time": "2013-01-08"
  },
  {
    "place": "Residential Building (Apartment / Condo)4f93f1c8e5e828f50a2b81d1",
    "time": "2013-01-09"
  },
  {
    "place": "Hotel439c437bf964a520f02b1fe3",
    "time": "2013-01-09"
  },
  {
    "place": "Hotel439c437bf964a520f02b1fe3",
    "time": "2013-01-10"
  },
  {
    "place": "Residential Building (Apartment / Condo)4f93f1c8e5e828f50a2b81d1",
    "time": "2013-01-11"
  },
  {
    "place": "Bar4a021207f964a52029711fe3",
    "time": "2013-01-11"
  },
  {
    "place": "Hotel439c437bf964a520f02b1fe3",
    "time": "2013-01-11"
  },
  {
    "place": "Residential Building (Apartment / Condo)4f93f1c8e5e828f50a2b81d1",
    "time": "2013-01-12"
  },
  {
    "place": "Hotel439c437bf964a520f02b1fe3",
    "time": "2013-01-12"
  },
  {
    "place": "Bar4a021207f964a52029711fe3",
    "time": "2013-01-13"
  },
  {
    "place": "Bar4a021207f964a52029711fe3",
    "time": "2013-01-14"
  },
  {
    "place": "Hotel439c437bf964a520f02b1fe3",
    "time": "2013-01-15"
  },
  {
    "place": "Hotel439c437bf964a520f02b1fe3",
    "time": "2013-01-16"
  },
  {
    "place": "Plaza49b7ed6df964a52030531fe3",
    "time": "2013-01-17"
  },
  {
    "place": "Residential Building (Apartment / Condo)4f93f1c8e5e828f50a2b81d1",
    "time": "2013-01-17"
  },
  {
    "place": "Bar4a021207f964a52029711fe3",
    "time": "2013-01-17"
  },
  {
    "place": "Bar4a021207f964a52029711fe3",
    "time": "2013-01-18"
  },
  {
    "place": "Hotel439c437bf964a520f02b1fe3",
    "time": "2013-01-18"
  },
  {
    "place": "Plaza49b7ed6df964a52030531fe3",
    "time": "2013-01-21"
  },
  {
    "place": "Bar4a021207f964a52029711fe3",
    "time": "2013-01-21"
  },
  {
    "place": "Bank4b92a503f964a520160d34e3",
    "time": "2013-01-21"
  },
  {
    "place": "Residential Building (Apartment / Condo)4f93f1c8e5e828f50a2b81d1",
    "time": "2013-01-24"
  },
  {
    "place": "Bank4b92a503f964a520160d34e3",
    "time": "2013-01-24"
  },
  {
    "place": "Hotel439c437bf964a520f02b1fe3",
    "time": "2013-01-24"
  },
  {
    "place": "Residential Building (Apartment / Condo)4f93f1c8e5e828f50a2b81d1",
    "time": "2013-01-25"
  },
  {
    "place": "Bar4a021207f964a52029711fe3",
    "time": "2013-01-25"
  },
  {
    "place": "Bank4b92a503f964a520160d34e3",
    "time": "2013-01-25"
  },
  {
    "place": "Plaza49b7ed6df964a52030531fe3",
    "time": "2013-01-26"
  },
  {
    "place": "Bar4a021207f964a52029711fe3",
    "time": "2013-01-26"
  },
  {
    "place": "Hotel439c437bf964a520f02b1fe3",
    "time": "2013-01-26"
  },
  {
    "place": "Residential Building (Apartment / Condo)4f93f1c8e5e828f50a2b81d1",
    "time": "2013-01-27"
  },
  {
    "place": "Hotel439c437bf964a520f02b1fe3",
    "time": "2013-01-27"
  },
  {
    "place": "Plaza49b7ed6df964a52030531fe3",
    "time": "2013-01-28"
  },
  {
    "place": "Bank4b92a503f964a520160d34e3",
    "time": "2013-01-28"
  },
  {
    "place": "Hotel439c437bf964a520f02b1fe3",
    "time": "2013-01-28"
  },
  {
    "place": "Plaza49b7ed6df964a52030531fe3",
    "time": "2013-01-29"
  },
  {
    "place": "Residential Building (Apartment / Condo)4f93f1c8e5e828f50a2b81d1",
    "time": "2013-01-29"
  },
  {
    "place": "Bar4a021207f964a52029711fe3",
    "time": "2013-01-29"
  },
  {
    "place": "Bank4b92a503f964a520160d34e3",
    "time": "2013-01-29"
  },
  {
    "place": "Hotel439c437bf964a520f02b1fe3",
    "time": "2013-01-29"
  },
  {
    "place": "Plaza49b7ed6df964a52030531fe3",
    "time": "2013-01-31"
  },
  {
    "place": "Bar4a021207f964a52029711fe3",
    "time": "2013-01-31"
  },
  {
    "place": "Hotel439c437bf964a520f02b1fe3",
    "time": "2013-01-31"
  },
  {
    "place": "Bar4a021207f964a52029711fe3",
    "time": "2013-02-01"
  },
  {
    "place": "Hotel439c437bf964a520f02b1fe3",
    "time": "2013-02-01"
  },
  {
    "place": "Hotel439c437bf964a520f02b1fe3",
    "time": "2013-02-02"
  },
  {
    "place": "Plaza49b7ed6df964a52030531fe3",
    "time": "2013-02-03"
  },
  {
    "place": "Bar4a021207f964a52029711fe3",
    "time": "2013-02-03"
  },
  {
    "place": "Hotel439c437bf964a520f02b1fe3",
    "time": "2013-02-03"
  },
  {
    "place": "Hotel439c437bf964a520f02b1fe3",
    "time": "2013-02-04"
  },
  {
    "place": "Plaza49b7ed6df964a52030531fe3",
    "time": "2013-02-05"
  },
  {
    "place": "Bar4a021207f964a52029711fe3",
    "time": "2013-02-06"
  },
  {
    "place": "Hotel439c437bf964a520f02b1fe3",
    "time": "2013-02-06"
  },
  {
    "place": "Plaza49b7ed6df964a52030531fe3",
    "time": "2013-02-07"
  },
  {
    "place": "Bar4a021207f964a52029711fe3",
    "time": "2013-02-07"
  },
  {
    "place": "Plaza49b7ed6df964a52030531fe3",
    "time": "2013-02-10"
  },
  {
    "place": "Plaza49b7ed6df964a52030531fe3",
    "time": "2013-02-11"
  },
  {
    "place": "Bar4a021207f964a52029711fe3",
    "time": "2013-02-11"
  },
  {
    "place": "Hotel439c437bf964a520f02b1fe3",
    "time": "2013-02-11"
  },
  {
    "place": "Plaza49b7ed6df964a52030531fe3",
    "time": "2013-02-12"
  },
  {
    "place": "Bar4a021207f964a52029711fe3",
    "time": "2013-02-12"
  },
  {
    "place": "Hotel439c437bf964a520f02b1fe3",
    "time": "2013-02-12"
  },
  {
    "place": "Hotel439c437bf964a520f02b1fe3",
    "time": "2013-02-13"
  }
]