[
  {
    "place": "Home (private)4e7ac02b7d8b199a903a65ef",
    "time": "2012-04-04"
  },
  {
    "place": "Home (private)4e27ba24e4cd6c6cb3400162",
    "time": "2012-04-04"
  },
  {
    "place": "Residential Building (Apartment / Condo)4f488dece4b0291e487d3c44",
    "time": "2012-04-04"
  },
  {
    "place": "Drugstore / Pharmacy4bce5f66937ca593358bae92",
    "time": "2012-04-04"
  },
  {
    "place": "Moving Target4f799f28e4b0488e30e494c9",
    "time": "2012-04-04"
  },
  {
    "place": "Pizza Place4a9241aaf964a520061d20e3",
    "time": "2012-04-04"
  },
  {
    "place": "Mall4c053edc9a7920a19c59d279",
    "time": "2012-04-04"
  },
  {
    "place": "Road4e45d2821f6e29f10d9e54ce",
    "time": "2012-04-04"
  },
  {
    "place": "Road4d51bdbcd7eaa1436761760f",
    "time": "2012-04-04"
  },
  {
    "place": "Playground4cf4ba5694feb1f78e7629ba",
    "time": "2012-04-04"
  },
  {
    "place": "Department Store4a92a28ff964a520451d20e3",
    "time": "2012-04-04"
  },
  {
    "place": "African Restaurant4f7cd62de4b08ccdc588e204",
    "time": "2012-04-04"
  },
  {
    "place": "African Restaurant4f7cd62de4b08ccdc588e204",
    "time": "2012-04-06"
  },
  {
    "place": "Home (private)4f7d0452e4b09d3099af8043",
    "time": "2012-04-06"
  },
  {
    "place": "Deli / Bodega4f6e6bbde4b0a6b77273a085",
    "time": "2012-04-06"
  },
  {
    "place": "Home (private)4c41217fff711b8d11961105",
    "time": "2012-04-06"
  },
  {
    "place": "Church4f1c3910e4b044fd36525686",
    "time": "2012-04-06"
  },
  {
    "place": "General Travel4f7f18d6e4b02164d9bd8250",
    "time": "2012-04-06"
  },
  {
    "place": "General Travel4f80323fe4b085b99aaefd4d",
    "time": "2012-04-07"
  },
  {
    "place": "General Travel4f7f18d6e4b02164d9bd8250",
    "time": "2012-04-07"
  },
  {
    "place": "Coffee Shop4c157af677cea5934857d260",
    "time": "2012-04-07"
  },
  {
    "place": "Professional & Other Places4e2f4ee3aeb7e1b8afa44e02",
    "time": "2012-04-07"
  },
  {
    "place": "Road4e316206b0fb3ee646720c24",
    "time": "2012-04-07"
  },
  {
    "place": "Park4bbcca19a8cf76b0e5f4b0fd",
    "time": "2012-04-07"
  },
  {
    "place": "Sandwich Place4de45c45ae60e7f3ac1d7925",
    "time": "2012-04-07"
  },
  {
    "place": "Department Store4eb5aeb58b81a81f90aab3e5",
    "time": "2012-04-07"
  },
  {
    "place": "Other Great Outdoors4dcf2aafc65bdac713754229",
    "time": "2012-04-07"
  },
  {
    "place": "Bridge4c1e4a03eac020a1507049c2",
    "time": "2012-04-07"
  },
  {
    "place": "Park4bbcca19a8cf76b0e5f4b0fd",
    "time": "2012-04-07"
  },
  {
    "place": "Electronics Store4b33c5b6f964a520d71e25e3",
    "time": "2012-04-07"
  },
  {
    "place": "Miscellaneous Shop4b40d02df964a5207bbb25e3",
    "time": "2012-04-07"
  },
  {
    "place": "Office4e45822dfa76a07fde4cf48b",
    "time": "2012-04-08"
  },
  {
    "place": "General Travel4f80323fe4b085b99aaefd4d",
    "time": "2012-04-08"
  },
  {
    "place": "Home (private)4e7ac02b7d8b199a903a65ef",
    "time": "2012-04-08"
  },
  {
    "place": "Residential Building (Apartment / Condo)4f488dece4b0291e487d3c44",
    "time": "2012-04-08"
  },
  {
    "place": "African Restaurant4f7cd62de4b08ccdc588e204",
    "time": "2012-04-08"
  },
  {
    "place": "Home (private)4f7e8336e4b00dcb69a18d4a",
    "time": "2012-04-08"
  },
  {
    "place": "Church4f1c3910e4b044fd36525686",
    "time": "2012-04-08"
  },
  {
    "place": "Garden4f8216bae4b0c0cb050c19d8",
    "time": "2012-04-08"
  },
  {
    "place": "Home (private)4e7ac02b7d8b199a903a65ef",
    "time": "2012-04-09"
  },
  {
    "place": "African Restaurant4f7cd62de4b08ccdc588e204",
    "time": "2012-04-09"
  },
  {
    "place": "Home (private)4f7d0452e4b09d3099af8043",
    "time": "2012-04-09"
  },
  {
    "place": "General Travel4f7f18d6e4b02164d9bd8250",
    "time": "2012-04-09"
  },
  {
    "place": "General Travel4f80323fe4b085b99aaefd4d",
    "time": "2012-04-09"
  },
  {
    "place": "Clothing Store4c6adf4396eaa593441f21df",
    "time": "2012-04-09"
  },
  {
    "place": "Cosmetics Shop4bb3f270f187a5935db213f8",
    "time": "2012-04-09"
  },
  {
    "place": "Deli / Bodega4c85b52fd8086dcb3e9b9452",
    "time": "2012-04-10"
  },
  {
    "place": "African Restaurant4f7cd62de4b08ccdc588e204",
    "time": "2012-04-10"
  },
  {
    "place": "Home (private)4f7e8336e4b00dcb69a18d4a",
    "time": "2012-04-10"
  },
  {
    "place": "Diner4b51f138f964a5207e5c27e3",
    "time": "2012-04-10"
  },
  {
    "place": "African Restaurant4f7cd62de4b08ccdc588e204",
    "time": "2012-04-10"
  },
  {
    "place": "Garden4f8216bae4b0c0cb050c19d8",
    "time": "2012-04-11"
  },
  {
    "place": "Home (private)4f7e8336e4b00dcb69a18d4a",
    "time": "2012-04-11"
  },
  {
    "place": "African Restaurant4f7cd62de4b08ccdc588e204",
    "time": "2012-04-11"
  },
  {
    "place": "General Travel4f7f18d6e4b02164d9bd8250",
    "time": "2012-04-11"
  },
  {
    "place": "General Travel4f80323fe4b085b99aaefd4d",
    "time": "2012-04-11"
  },
  {
    "place": "Deli / Bodega4e0a4c16d164028d170d741d",
    "time": "2012-04-11"
  },
  {
    "place": "Parking4e0d0f5db0fb59de67c9433b",
    "time": "2012-04-11"
  },
  {
    "place": "Building4c112fb3f1b6a5932f1c7d27",
    "time": "2012-04-11"
  },
  {
    "place": "Church4cdd9a95825e721e01146545",
    "time": "2012-04-11"
  },
  {
    "place": "Neighborhood4c471a5a96abd13a889e6f01",
    "time": "2012-04-11"
  },
  {
    "place": "Airport4bbc407551b89c74ad3b872a",
    "time": "2012-04-11"
  },
  {
    "place": "Medical Center4f074acae4b090ef20b69e05",
    "time": "2012-04-11"
  },
  {
    "place": "Cosmetics Shop4bb3f270f187a5935db213f8",
    "time": "2012-04-11"
  },
  {
    "place": "Sandwich Place4de45c45ae60e7f3ac1d7925",
    "time": "2012-04-11"
  },
  {
    "place": "Bridge4c1e4a03eac020a1507049c2",
    "time": "2012-04-11"
  },
  {
    "place": "Other Great Outdoors4ba4d820f964a52075ba38e3",
    "time": "2012-04-11"
  },
  {
    "place": "African Restaurant4f7cd62de4b08ccdc588e204",
    "time": "2012-04-12"
  },
  {
    "place": "Sandwich Place4de45c45ae60e7f3ac1d7925",
    "time": "2012-04-13"
  },
  {
    "place": "Food & Drink Shop4bf00a3b51f2c9b6091cf192",
    "time": "2012-04-13"
  },
  {
    "place": "Home (private)4c41217fff711b8d11961105",
    "time": "2012-04-13"
  },
  {
    "place": "African Restaurant4f7cd62de4b08ccdc588e204",
    "time": "2012-04-13"
  },
  {
    "place": "Home (private)4e27ba24e4cd6c6cb3400162",
    "time": "2012-04-13"
  },
  {
    "place": "Clothing Store4c6adf4396eaa593441f21df",
    "time": "2012-04-13"
  },
  {
    "place": "Home (private)4f88d39be4b076717a46744d",
    "time": "2012-04-14"
  },
  {
    "place": "Home (private)4f7d0452e4b09d3099af8043",
    "time": "2012-04-14"
  },
  {
    "place": "Home (private)4e7ac02b7d8b199a903a65ef",
    "time": "2012-04-14"
  },
  {
    "place": "Medical Center4f074acae4b090ef20b69e05",
    "time": "2012-04-14"
  },
  {
    "place": "American Restaurant4de6878b2271f377c2acd7f6",
    "time": "2012-04-14"
  },
  {
    "place": "General Travel4f7f18d6e4b02164d9bd8250",
    "time": "2012-04-15"
  },
  {
    "place": "Road4e316206b0fb3ee646720c24",
    "time": "2012-04-15"
  },
  {
    "place": "Medical Center4f074acae4b090ef20b69e05",
    "time": "2012-04-15"
  },
  {
    "place": "Park4bbcca19a8cf76b0e5f4b0fd",
    "time": "2012-04-15"
  },
  {
    "place": "Road4b868537f964a520bc8d31e3",
    "time": "2012-04-15"
  },
  {
    "place": "Sandwich Place4de45c45ae60e7f3ac1d7925",
    "time": "2012-04-15"
  },
  {
    "place": "Department Store4ca0fc4f46978cfa5257b87f",
    "time": "2012-04-16"
  },
  {
    "place": "Department Store4c33bfa516adc928ae27c49c",
    "time": "2012-04-16"
  },
  {
    "place": "General Travel4f7f18d6e4b02164d9bd8250",
    "time": "2012-04-17"
  },
  {
    "place": "General Travel4f80323fe4b085b99aaefd4d",
    "time": "2012-04-17"
  },
  {
    "place": "Southern / Soul Food Restaurant4de97d177d8b6c7a53262b09",
    "time": "2012-04-17"
  },
  {
    "place": "Food & Drink Shop4e5b9c938877c8a76e0118cf",
    "time": "2012-04-17"
  },
  {
    "place": "Bar4eefefa7490178f61b981c79",
    "time": "2012-04-17"
  },
  {
    "place": "Residential Building (Apartment / Condo)4f488dece4b0291e487d3c44",
    "time": "2012-04-17"
  },
  {
    "place": "Food & Drink Shop4c5dec7b9b28d13a98185b70",
    "time": "2012-04-17"
  },
  {
    "place": "Church4f1c3910e4b044fd36525686",
    "time": "2012-04-17"
  },
  {
    "place": "Home (private)4c41217fff711b8d11961105",
    "time": "2012-04-17"
  },
  {
    "place": "Gas Station / Garage4f0390290aafe497fd0cce67",
    "time": "2012-04-17"
  },
  {
    "place": "Clothing Store4c6adf4396eaa593441f21df",
    "time": "2012-04-17"
  },
  {
    "place": "Sandwich Place4de45c45ae60e7f3ac1d7925",
    "time": "2012-04-17"
  },
  {
    "place": "Department Store4eb5aeb58b81a81f90aab3e5",
    "time": "2012-04-18"
  },
  {
    "place": "Sandwich Place4de45c45ae60e7f3ac1d7925",
    "time": "2012-04-18"
  },
  {
    "place": "Food & Drink Shop4bf00a3b51f2c9b6091cf192",
    "time": "2012-04-18"
  },
  {
    "place": "Home (private)4f7e8336e4b00dcb69a18d4a",
    "time": "2012-04-19"
  },
  {
    "place": "General Travel4f7f18d6e4b02164d9bd8250",
    "time": "2012-04-19"
  },
  {
    "place": "Department Store4c33bfa516adc928ae27c49c",
    "time": "2012-04-19"
  },
  {
    "place": "African Restaurant4f7cd62de4b08ccdc588e204",
    "time": "2012-04-19"
  },
  {
    "place": "Road4e316206b0fb3ee646720c24",
    "time": "2012-04-20"
  },
  {
    "place": "Sandwich Place4de45c45ae60e7f3ac1d7925",
    "time": "2012-04-21"
  },
  {
    "place": "Road4b868537f964a520bc8d31e3",
    "time": "2012-04-21"
  },
  {
    "place": "Other Great Outdoors4d8c9f97c1b1721e29d70446",
    "time": "2012-04-21"
  },
  {
    "place": "Park4bbcca19a8cf76b0e5f4b0fd",
    "time": "2012-04-21"
  },
  {
    "place": "Medical Center4c72c6608efc370400db137d",
    "time": "2012-06-05"
  }
]