[
  {
    "place": "Bank4c041246187ec928218bb67b",
    "time": "2012-04-04"
  },
  {
    "place": "Bar4ad139f1f964a52092dd20e3",
    "time": "2012-04-04"
  },
  {
    "place": "Bar4ad139f1f964a52092dd20e3",
    "time": "2012-04-08"
  },
  {
    "place": "Diner4ab6f209f964a5208e7920e3",
    "time": "2012-04-08"
  },
  {
    "place": "Residential Building (Apartment / Condo)4e4747d67d8b91a0659bb3f3",
    "time": "2012-04-08"
  },
  {
    "place": "Bar4ad139f1f964a52092dd20e3",
    "time": "2012-04-11"
  },
  {
    "place": "Asian Restaurant4d395006979ea143a20e84fc",
    "time": "2012-04-11"
  },
  {
    "place": "Asian Restaurant4d395006979ea143a20e84fc",
    "time": "2012-04-12"
  },
  {
    "place": "Bar4db515af1e7248d135adc204",
    "time": "2012-04-13"
  },
  {
    "place": "Bar4bad9f36f964a520875f3be3",
    "time": "2012-04-13"
  },
  {
    "place": "Chinese Restaurant4cdfbb30db125481e0e338ce",
    "time": "2012-04-13"
  },
  {
    "place": "Food & Drink Shop4b5c54f4f964a520512b29e3",
    "time": "2012-04-14"
  },
  {
    "place": "Fast Food Restaurant4aafe88ff964a520246520e3",
    "time": "2012-04-14"
  },
  {
    "place": "Bar4db515af1e7248d135adc204",
    "time": "2012-04-14"
  },
  {
    "place": "Japanese Restaurant4dab1f956e81162ae7e5b3eb",
    "time": "2012-04-18"
  },
  {
    "place": "Tea Room4e3c89c8aeb73139a16d84ee",
    "time": "2012-04-18"
  },
  {
    "place": "Bar4db515af1e7248d135adc204",
    "time": "2012-04-19"
  },
  {
    "place": "Bar4ad139f1f964a52092dd20e3",
    "time": "2012-04-19"
  },
  {
    "place": "Diner49c6630ef964a5203d571fe3",
    "time": "2012-04-19"
  },
  {
    "place": "Bar4db515af1e7248d135adc204",
    "time": "2012-04-20"
  },
  {
    "place": "Bar4ad139f1f964a52092dd20e3",
    "time": "2012-04-20"
  },
  {
    "place": "Asian Restaurant4d395006979ea143a20e84fc",
    "time": "2012-04-20"
  },
  {
    "place": "Home (private)4d526fd0747f6dcb6d5cccd4",
    "time": "2012-04-20"
  },
  {
    "place": "Asian Restaurant4b79a2d3f964a52035072fe3",
    "time": "2012-04-23"
  },
  {
    "place": "Salon / Barbershop4cdeed09f8cdb1f7ae588e12",
    "time": "2012-04-23"
  },
  {
    "place": "Chinese Restaurant46936ee3f964a520d0481fe3",
    "time": "2012-04-25"
  },
  {
    "place": "Tea Room4e5ecc4a52b1425a3776f4db",
    "time": "2012-04-25"
  },
  {
    "place": "Department Store4f337c01e4b04cda15704186",
    "time": "2012-04-25"
  },
  {
    "place": "Clothing Store4a01f87bf964a5201a711fe3",
    "time": "2012-04-26"
  },
  {
    "place": "Park4bb79c85b35776b087dfc701",
    "time": "2012-04-26"
  },
  {
    "place": "Asian Restaurant4bb0d57bf964a52059613ce3",
    "time": "2012-04-27"
  },
  {
    "place": "Bar4ad139f1f964a52092dd20e3",
    "time": "2012-05-02"
  },
  {
    "place": "Diner4ab6f209f964a5208e7920e3",
    "time": "2012-05-02"
  },
  {
    "place": "Bakery4f3558dfe4b0aee3b3f81083",
    "time": "2012-05-03"
  },
  {
    "place": "Food & Drink Shop4b5c54f4f964a520512b29e3",
    "time": "2012-05-04"
  },
  {
    "place": "Bar4ad139f1f964a52092dd20e3",
    "time": "2012-05-05"
  },
  {
    "place": "Movie Theater4a0f1baef964a52026761fe3",
    "time": "2012-05-07"
  },
  {
    "place": "Tea Room4cb0d820eb65b1f70ae16fcd",
    "time": "2012-05-08"
  },
  {
    "place": "Nightlife Spot4dd31e3bc65b47384cf1d24c",
    "time": "2012-05-09"
  },
  {
    "place": "Bar4ad139f1f964a52092dd20e3",
    "time": "2012-05-11"
  },
  {
    "place": "Bar4ad139f1f964a52092dd20e3",
    "time": "2012-05-12"
  },
  {
    "place": "Nightlife Spot4dd31e3bc65b47384cf1d24c",
    "time": "2012-05-13"
  },
  {
    "place": "Bar4ad139f1f964a52092dd20e3",
    "time": "2012-05-13"
  },
  {
    "place": "Dessert Shop4e42e30bfa76415849a26f92",
    "time": "2012-05-14"
  },
  {
    "place": "Road4c80e04ad92ea093293b3b72",
    "time": "2012-05-16"
  },
  {
    "place": "Bar4b88ae19f964a520540832e3",
    "time": "2012-05-19"
  },
  {
    "place": "Korean Restaurant4b9be5acf964a520f83236e3",
    "time": "2012-05-19"
  },
  {
    "place": "Tea Room4cb0d820eb65b1f70ae16fcd",
    "time": "2012-05-22"
  },
  {
    "place": "BBQ Joint4e572f48ae60bd1634c5d4ae",
    "time": "2012-05-22"
  },
  {
    "place": "Bar4ad139f1f964a52092dd20e3",
    "time": "2012-05-24"
  },
  {
    "place": "Bar4db515af1e7248d135adc204",
    "time": "2012-05-24"
  },
  {
    "place": "Bar4c82fe46d34ca14327053280",
    "time": "2012-05-27"
  },
  {
    "place": "Bar4db515af1e7248d135adc204",
    "time": "2012-05-27"
  },
  {
    "place": "Bar4fae45a3e4b0df0ef758ad01",
    "time": "2012-05-27"
  },
  {
    "place": "Residential Building (Apartment / Condo)4e4747d67d8b91a0659bb3f3",
    "time": "2012-05-27"
  },
  {
    "place": "Bar4ad139f1f964a52092dd20e3",
    "time": "2012-05-28"
  },
  {
    "place": "Bar4db515af1e7248d135adc204",
    "time": "2012-05-28"
  },
  {
    "place": "Bar4ad139f1f964a52092dd20e3",
    "time": "2012-05-28"
  },
  {
    "place": "Asian Restaurant4d395006979ea143a20e84fc",
    "time": "2012-05-28"
  },
  {
    "place": "Bar4bad9f36f964a520875f3be3",
    "time": "2012-05-28"
  },
  {
    "place": "Tea Room4cb0d820eb65b1f70ae16fcd",
    "time": "2012-05-28"
  },
  {
    "place": "Bar4ad139f1f964a52092dd20e3",
    "time": "2012-05-29"
  },
  {
    "place": "Chinese Restaurant4cdfbb30db125481e0e338ce",
    "time": "2012-05-29"
  },
  {
    "place": "Clothing Store4bff9551369476b029fc8d1f",
    "time": "2012-05-29"
  },
  {
    "place": "Malaysian Restaurant3fd66200f964a52093ea1ee3",
    "time": "2012-05-30"
  },
  {
    "place": "Casino4df0eea245ddbf3897d44510",
    "time": "2012-05-30"
  },
  {
    "place": "Diner4ab6f209f964a5208e7920e3",
    "time": "2012-05-30"
  },
  {
    "place": "Nightlife Spot4dd31e3bc65b47384cf1d24c",
    "time": "2012-06-03"
  },
  {
    "place": "Salon / Barbershop4da37ad20f578cfaa3f7b918",
    "time": "2012-06-03"
  },
  {
    "place": "Korean Restaurant4abd475df964a520668920e3",
    "time": "2012-06-06"
  },
  {
    "place": "Airport4ace6c89f964a52078d020e3",
    "time": "2012-06-06"
  },
  {
    "place": "American Restaurant4606214ef964a520c6441fe3",
    "time": "2012-06-13"
  },
  {
    "place": "Tea Room4cb0d820eb65b1f70ae16fcd",
    "time": "2012-06-16"
  },
  {
    "place": "Nightlife Spot4dd31e3bc65b47384cf1d24c",
    "time": "2012-06-17"
  },
  {
    "place": "Korean Restaurant40bbc700f964a520a2001fe3",
    "time": "2012-06-17"
  },
  {
    "place": "Chinese Restaurant4c4eeefdfa9d9521cebd6e0a",
    "time": "2012-06-18"
  },
  {
    "place": "Library4b1a8ff3f964a52060ec23e3",
    "time": "2012-06-20"
  },
  {
    "place": "Korean Restaurant4b33ead6f964a520fd2125e3",
    "time": "2012-06-21"
  },
  {
    "place": "Chinese Restaurant4c4eeefdfa9d9521cebd6e0a",
    "time": "2012-07-02"
  },
  {
    "place": "Movie Theater4a0f1baef964a52026761fe3",
    "time": "2012-07-03"
  },
  {
    "place": "Bar4ad139f1f964a52092dd20e3",
    "time": "2012-07-04"
  },
  {
    "place": "Middle Eastern Restaurant4c1a9b71b306c92811e060b7",
    "time": "2012-07-04"
  },
  {
    "place": "Pizza Place49d006ccf964a520f85a1fe3",
    "time": "2012-07-05"
  },
  {
    "place": "Salon / Barbershop4cdeed09f8cdb1f7ae588e12",
    "time": "2012-07-06"
  },
  {
    "place": "Bar4ad139f1f964a52092dd20e3",
    "time": "2012-07-06"
  },
  {
    "place": "Beach4bb0202cf964a5209a383ce3",
    "time": "2012-07-06"
  },
  {
    "place": "Deli / Bodega4bd47db329eb9c74c3ac91e1",
    "time": "2012-07-06"
  },
  {
    "place": "Beach49e4a769f964a52015631fe3",
    "time": "2012-07-06"
  },
  {
    "place": "Bar4fae45a3e4b0df0ef758ad01",
    "time": "2012-07-07"
  },
  {
    "place": "Chinese Restaurant4cdfbb30db125481e0e338ce",
    "time": "2012-07-07"
  },
  {
    "place": "Park4c1e3a6efcf8c9b621e3ac0b",
    "time": "2012-07-07"
  },
  {
    "place": "Harbor / Marina3fd66200f964a520daf11ee3",
    "time": "2012-07-07"
  },
  {
    "place": "Ferry4c8bf1cbed3ab60c95236321",
    "time": "2012-07-07"
  },
  {
    "place": "Bar4ad139f1f964a52092dd20e3",
    "time": "2012-07-08"
  },
  {
    "place": "Bar4fae45a3e4b0df0ef758ad01",
    "time": "2012-07-08"
  },
  {
    "place": "Vietnamese Restaurant4a7e3d0cf964a52088f11fe3",
    "time": "2012-07-08"
  },
  {
    "place": "Government Building4da4a2d12939b1f7d5dc3657",
    "time": "2012-07-08"
  },
  {
    "place": "Harbor / Marina3fd66200f964a520daf11ee3",
    "time": "2012-07-10"
  },
  {
    "place": "Government Building4b479393f964a520303626e3",
    "time": "2012-07-11"
  },
  {
    "place": "Gym / Fitness Center4b6edec8f964a52042ce2ce3",
    "time": "2012-07-13"
  },
  {
    "place": "Dessert Shop4e42e30bfa76415849a26f92",
    "time": "2012-07-13"
  },
  {
    "place": "Playground4c4c27ce959220a1fa749710",
    "time": "2012-07-13"
  },
  {
    "place": "Cuban Restaurant4d960605daec224beab30c3e",
    "time": "2012-07-13"
  },
  {
    "place": "Cuban Restaurant4d960605daec224beab30c3e",
    "time": "2012-07-13"
  },
  {
    "place": "Bar4db515af1e7248d135adc204",
    "time": "2012-07-14"
  },
  {
    "place": "Diner49c6630ef964a5203d571fe3",
    "time": "2012-07-15"
  },
  {
    "place": "Asian Restaurant4ea783d549011f90215c862d",
    "time": "2012-07-21"
  },
  {
    "place": "Movie Theater4a0f1baef964a52026761fe3",
    "time": "2012-07-21"
  },
  {
    "place": "Bar4ad139f1f964a52092dd20e3",
    "time": "2012-07-28"
  },
  {
    "place": "Bar4cce2240aa25a35dcb3b1f0f",
    "time": "2012-07-28"
  },
  {
    "place": "Residential Building (Apartment / Condo)4d7622122140721eec77cc3d",
    "time": "2012-07-28"
  },
  {
    "place": "Dessert Shop4ec59f314690116a89f3f782",
    "time": "2012-07-29"
  },
  {
    "place": "Bar4ad139f1f964a52092dd20e3",
    "time": "2012-07-29"
  },
  {
    "place": "Bar4cce2240aa25a35dcb3b1f0f",
    "time": "2012-07-29"
  },
  {
    "place": "Bar4ad139f1f964a52092dd20e3",
    "time": "2012-07-29"
  },
  {
    "place": "Diner4ab6f209f964a5208e7920e3",
    "time": "2012-07-29"
  },
  {
    "place": "Bar4ad139f1f964a52092dd20e3",
    "time": "2012-08-14"
  },
  {
    "place": "Spa / Massage4a687357f964a52071ca1fe3",
    "time": "2012-09-05"
  },
  {
    "place": "Neighborhood4c374bf80a71c9b6f2893ec9",
    "time": "2012-09-05"
  },
  {
    "place": "Ice Cream Shop46e591b4f964a520bd4a1fe3",
    "time": "2012-09-05"
  },
  {
    "place": "Food & Drink Shop4b5c54f4f964a520512b29e3",
    "time": "2012-09-15"
  },
  {
    "place": "Steakhouse4b959f59f964a520aaac34e3",
    "time": "2012-09-16"
  },
  {
    "place": "Fair4e72a6ffaeb74f9f48eb61fe",
    "time": "2012-09-16"
  },
  {
    "place": "Korean Restaurant4bc9050acc8cd13a2de4bacf",
    "time": "2012-10-13"
  },
  {
    "place": "Neighborhood4b40cf3df964a5206bbb25e3",
    "time": "2012-10-13"
  },
  {
    "place": "Japanese Restaurant4c326b9fa0ced13ac126156e",
    "time": "2012-10-18"
  },
  {
    "place": "Tea Room4fb81f5ae4b0c241c411cc83",
    "time": "2012-10-18"
  },
  {
    "place": "Spa / Massage4bd9fdb13904a593cb90449e",
    "time": "2012-10-18"
  },
  {
    "place": "Neighborhood4c62bfd0e1621b8dfe232453",
    "time": "2012-10-23"
  },
  {
    "place": "General College & University4eb188d66c25700faa5aed72",
    "time": "2012-10-24"
  },
  {
    "place": "Salon / Barbershop4cdeed09f8cdb1f7ae588e12",
    "time": "2012-10-26"
  },
  {
    "place": "Music Venue435c2400f964a52012291fe3",
    "time": "2012-10-27"
  },
  {
    "place": "Korean Restaurant49e6e227f964a52074641fe3",
    "time": "2012-10-27"
  },
  {
    "place": "Arcade5053d510e4b0719d67706d96",
    "time": "2012-10-28"
  },
  {
    "place": "Bar4cce2240aa25a35dcb3b1f0f",
    "time": "2012-10-28"
  },
  {
    "place": "Other Great Outdoors508af9ccf13627e878935855",
    "time": "2012-10-29"
  },
  {
    "place": "Medical Center4ca5fc7bf47ea1437ef45b21",
    "time": "2012-11-06"
  },
  {
    "place": "Tea Room4ee525416c25be963118a615",
    "time": "2012-11-07"
  },
  {
    "place": "Vietnamese Restaurant49e1ed26f964a520e8611fe3",
    "time": "2012-11-07"
  },
  {
    "place": "Tea Room4c6f3526fa49a1cdda7da2e3",
    "time": "2012-11-07"
  },
  {
    "place": "Coffee Shop4a19b507f964a520347a1fe3",
    "time": "2012-11-09"
  },
  {
    "place": "Chinese Restaurant4a96bf8ff964a520ce2620e3",
    "time": "2012-11-10"
  },
  {
    "place": "Stadium4ae6363ef964a520aba521e3",
    "time": "2012-11-11"
  },
  {
    "place": "Salon / Barbershop4cdeed09f8cdb1f7ae588e12",
    "time": "2012-11-12"
  },
  {
    "place": "Bar4cce2240aa25a35dcb3b1f0f",
    "time": "2012-11-18"
  },
  {
    "place": "Vietnamese Restaurant4a7e3d0cf964a52088f11fe3",
    "time": "2012-11-20"
  },
  {
    "place": "Bar43920486f964a520662b1fe3",
    "time": "2012-11-24"
  },
  {
    "place": "Salon / Barbershop4cdeed09f8cdb1f7ae588e12",
    "time": "2012-11-28"
  },
  {
    "place": "Bar4cce2240aa25a35dcb3b1f0f",
    "time": "2012-11-29"
  },
  {
    "place": "Coffee Shop4a19b507f964a520347a1fe3",
    "time": "2012-11-30"
  },
  {
    "place": "Plaza4a52afccf964a520e9b11fe3",
    "time": "2012-12-02"
  },
  {
    "place": "Bar4cce2240aa25a35dcb3b1f0f",
    "time": "2012-12-02"
  },
  {
    "place": "Bar4cce2240aa25a35dcb3b1f0f",
    "time": "2012-12-05"
  },
  {
    "place": "Asian Restaurant4d395006979ea143a20e84fc",
    "time": "2012-12-05"
  },
  {
    "place": "Community College4514fc3df964a520e8391fe3",
    "time": "2012-12-05"
  },
  {
    "place": "Casino4df0eea245ddbf3897d44510",
    "time": "2012-12-06"
  },
  {
    "place": "Bar4cce2240aa25a35dcb3b1f0f",
    "time": "2012-12-06"
  },
  {
    "place": "Cosmetics Shop4d717580117e3704768c9fb7",
    "time": "2012-12-06"
  },
  {
    "place": "Medical Center4ca5fc7bf47ea1437ef45b21",
    "time": "2012-12-07"
  },
  {
    "place": "Bar4cce2240aa25a35dcb3b1f0f",
    "time": "2012-12-09"
  },
  {
    "place": "Salon / Barbershop4cdeed09f8cdb1f7ae588e12",
    "time": "2012-12-11"
  },
  {
    "place": "Bar4cce2240aa25a35dcb3b1f0f",
    "time": "2012-12-12"
  },
  {
    "place": "Chinese Restaurant4cf998037945224ba5e27ae7",
    "time": "2012-12-12"
  },
  {
    "place": "Tea Room4cb0d820eb65b1f70ae16fcd",
    "time": "2012-12-13"
  },
  {
    "place": "Chinese Restaurant4bc9bc8168f976b093ba5d83",
    "time": "2012-12-13"
  },
  {
    "place": "Neighborhood4c62bfd0e1621b8dfe232453",
    "time": "2012-12-15"
  },
  {
    "place": "Korean Restaurant49e6e227f964a52074641fe3",
    "time": "2012-12-19"
  },
  {
    "place": "Cosmetics Shop4d717580117e3704768c9fb7",
    "time": "2012-12-21"
  },
  {
    "place": "Bar4cce2240aa25a35dcb3b1f0f",
    "time": "2012-12-22"
  },
  {
    "place": "Food Truck4a19d1edf964a5205a7a1fe3",
    "time": "2012-12-22"
  },
  {
    "place": "Bar4cce2240aa25a35dcb3b1f0f",
    "time": "2012-12-23"
  },
  {
    "place": "Salon / Barbershop4cdeed09f8cdb1f7ae588e12",
    "time": "2012-12-29"
  },
  {
    "place": "Chinese Restaurant4cdfbb30db125481e0e338ce",
    "time": "2012-12-30"
  },
  {
    "place": "Movie Theater4a0f1baef964a52026761fe3",
    "time": "2012-12-31"
  },
  {
    "place": "Medical Center4c94d046efecb713d7f3e09d",
    "time": "2012-12-31"
  },
  {
    "place": "Thai Restaurant4accd335f964a520a8c920e3",
    "time": "2013-01-03"
  },
  {
    "place": "Cosmetics Shop4d717580117e3704768c9fb7",
    "time": "2013-01-05"
  },
  {
    "place": "Bar4cce2240aa25a35dcb3b1f0f",
    "time": "2013-01-05"
  },
  {
    "place": "Residential Building (Apartment / Condo)4e4747d67d8b91a0659bb3f3",
    "time": "2013-01-06"
  },
  {
    "place": "Community College4514fc3df964a520e8391fe3",
    "time": "2013-01-08"
  },
  {
    "place": "Plaza49b7ed6df964a52030531fe3",
    "time": "2013-01-08"
  },
  {
    "place": "Home (private)4fd42272e4b05b989d4954f1",
    "time": "2013-01-08"
  },
  {
    "place": "Bar4cce2240aa25a35dcb3b1f0f",
    "time": "2013-01-10"
  },
  {
    "place": "Bar4b88ae19f964a520540832e3",
    "time": "2013-01-11"
  },
  {
    "place": "Bar4bad9f36f964a520875f3be3",
    "time": "2013-01-11"
  },
  {
    "place": "Asian Restaurant4d395006979ea143a20e84fc",
    "time": "2013-01-11"
  },
  {
    "place": "Bar4cce2240aa25a35dcb3b1f0f",
    "time": "2013-01-12"
  },
  {
    "place": "Bakery4d909666d00a6ea86302e74f",
    "time": "2013-01-14"
  },
  {
    "place": "Vietnamese Restaurant4eac4f11490158448a4fb9e0",
    "time": "2013-01-15"
  },
  {
    "place": "Dessert Shop4b01eca4f964a520984622e3",
    "time": "2013-01-15"
  },
  {
    "place": "Bar4ad139f1f964a52092dd20e3",
    "time": "2013-01-15"
  },
  {
    "place": "Medical Center4ca5fc7bf47ea1437ef45b21",
    "time": "2013-01-16"
  },
  {
    "place": "Salon / Barbershop4cdeed09f8cdb1f7ae588e12",
    "time": "2013-01-17"
  },
  {
    "place": "Burger Joint4dda977ad22d38ef4332c419",
    "time": "2013-01-18"
  },
  {
    "place": "Movie Theater49e7ce15f964a5201d651fe3",
    "time": "2013-01-18"
  },
  {
    "place": "Bar4cce2240aa25a35dcb3b1f0f",
    "time": "2013-01-18"
  },
  {
    "place": "Mediterranean Restaurant50b936cae4b063c7482918d4",
    "time": "2013-01-18"
  },
  {
    "place": "Residential Building (Apartment / Condo)4e4747d67d8b91a0659bb3f3",
    "time": "2013-01-21"
  },
  {
    "place": "Bar4db515af1e7248d135adc204",
    "time": "2013-01-22"
  },
  {
    "place": "Mediterranean Restaurant50b936cae4b063c7482918d4",
    "time": "2013-01-22"
  },
  {
    "place": "Bar4cce2240aa25a35dcb3b1f0f",
    "time": "2013-01-25"
  },
  {
    "place": "Diner49c6630ef964a5203d571fe3",
    "time": "2013-01-25"
  },
  {
    "place": "Food & Drink Shop4b5c54f4f964a520512b29e3",
    "time": "2013-01-27"
  },
  {
    "place": "Bakery4c892b0f7223b1f7dfb031a8",
    "time": "2013-01-28"
  },
  {
    "place": "Medical Center4ca5fc7bf47ea1437ef45b21",
    "time": "2013-01-28"
  },
  {
    "place": "Gift Shop4c81398151ada1cd2dc51010",
    "time": "2013-01-31"
  },
  {
    "place": "Asian Restaurant4adcda72f964a520504521e3",
    "time": "2013-01-31"
  },
  {
    "place": "Mediterranean Restaurant50b936cae4b063c7482918d4",
    "time": "2013-02-02"
  },
  {
    "place": "Malaysian Restaurant4b257d19f964a520be7224e3",
    "time": "2013-02-03"
  },
  {
    "place": "Bar4cce2240aa25a35dcb3b1f0f",
    "time": "2013-02-03"
  },
  {
    "place": "Cosmetics Shop4d717580117e3704768c9fb7",
    "time": "2013-02-03"
  },
  {
    "place": "Bar4ad139f1f964a52092dd20e3",
    "time": "2013-02-05"
  },
  {
    "place": "Bar4cce2240aa25a35dcb3b1f0f",
    "time": "2013-02-07"
  },
  {
    "place": "Salon / Barbershop4cdeed09f8cdb1f7ae588e12",
    "time": "2013-02-12"
  },
  {
    "place": "Bar4169cd00f964a5208f1d1fe3",
    "time": "2013-02-12"
  },
  {
    "place": "Dessert Shop501cac44f1366768d6895101",
    "time": "2013-02-12"
  },
  {
    "place": "Dim Sum Restaurant4a882465f964a520460520e3",
    "time": "2013-02-13"
  },
  {
    "place": "Medical Center4ca5fc7bf47ea1437ef45b21",
    "time": "2013-02-13"
  },
  {
    "place": "Cosmetics Shop4d717580117e3704768c9fb7",
    "time": "2013-02-13"
  },
  {
    "place": "Bar4cce2240aa25a35dcb3b1f0f",
    "time": "2013-02-14"
  },
  {
    "place": "Chinese Restaurant4cdfbb30db125481e0e338ce",
    "time": "2013-02-14"
  }
]