[
  {
    "place": "Light Rail4b5848d0f964a520f55028e3",
    "time": "2012-07-07"
  },
  {
    "place": "Light Rail4cddd01469136dcbe19bd1e6",
    "time": "2012-07-07"
  },
  {
    "place": "Plaza4c4718995438b713d841b67b",
    "time": "2012-07-07"
  },
  {
    "place": "Mall4ba82484f964a52051ce39e3",
    "time": "2012-07-08"
  },
  {
    "place": "Home (private)4f03e5296da1b97b15c7c187",
    "time": "2012-07-08"
  },
  {
    "place": "Church4c1e97a8b4e62d7fe083de93",
    "time": "2012-07-08"
  },
  {
    "place": "Laundry Service4b9d1691f964a520848e36e3",
    "time": "2012-07-08"
  },
  {
    "place": "Taco Place4bd33cf541b9ef3b15a3ffe5",
    "time": "2012-07-09"
  },
  {
    "place": "Diner4b57bab7f964a520383e28e3",
    "time": "2012-07-09"
  },
  {
    "place": "Medical Center4c72daca7121a1cd75a663d1",
    "time": "2012-07-09"
  },
  {
    "place": "Light Rail4b8d2387f964a520dbe932e3",
    "time": "2012-07-09"
  },
  {
    "place": "Airport43a52546f964a520532c1fe3",
    "time": "2012-07-11"
  },
  {
    "place": "Airport4a3919f3f964a520219f1fe3",
    "time": "2012-07-11"
  },
  {
    "place": "Movie Theater4a64c263f964a520a1c61fe3",
    "time": "2012-07-12"
  },
  {
    "place": "Light Rail4b8d2387f964a520dbe932e3",
    "time": "2012-07-14"
  },
  {
    "place": "Light Rail4b5848d0f964a520f55028e3",
    "time": "2012-07-15"
  },
  {
    "place": "Plaza4c4718995438b713d841b67b",
    "time": "2012-07-15"
  },
  {
    "place": "Asian Restaurant4d291bbe6e27a1435d752124",
    "time": "2012-07-15"
  },
  {
    "place": "Light Rail4b8d2387f964a520dbe932e3",
    "time": "2012-07-16"
  },
  {
    "place": "Light Rail4b5848d0f964a520f55028e3",
    "time": "2012-07-16"
  },
  {
    "place": "Light Rail4b5848d0f964a520f55028e3",
    "time": "2012-07-16"
  },
  {
    "place": "Light Rail4b8d2387f964a520dbe932e3",
    "time": "2012-07-16"
  },
  {
    "place": "Plaza4c4718995438b713d841b67b",
    "time": "2012-07-16"
  },
  {
    "place": "Asian Restaurant4d291bbe6e27a1435d752124",
    "time": "2012-07-16"
  },
  {
    "place": "Cosmetics Shop4c1d2f328b3aa59300299a5f",
    "time": "2012-07-17"
  },
  {
    "place": "Medical Center4c72daca7121a1cd75a663d1",
    "time": "2012-07-17"
  },
  {
    "place": "American Restaurant4d41f292c95b721e2bcb642b",
    "time": "2012-07-17"
  },
  {
    "place": "Plaza4c4718995438b713d841b67b",
    "time": "2012-07-18"
  },
  {
    "place": "Asian Restaurant4d291bbe6e27a1435d752124",
    "time": "2012-07-18"
  },
  {
    "place": "Office4af2f05bf964a5204ee921e3",
    "time": "2012-07-21"
  },
  {
    "place": "Mall49e4ec34f964a5206e631fe3",
    "time": "2012-07-21"
  },
  {
    "place": "Plaza4c4718995438b713d841b67b",
    "time": "2012-07-21"
  },
  {
    "place": "Clothing Store4c460f1df1b5c9b6135c78ef",
    "time": "2012-07-22"
  },
  {
    "place": "Laundry Service4b9d1691f964a520848e36e3",
    "time": "2012-07-24"
  },
  {
    "place": "Plaza4c4718995438b713d841b67b",
    "time": "2012-07-28"
  },
  {
    "place": "Light Rail4b5848d0f964a520f55028e3",
    "time": "2012-07-28"
  },
  {
    "place": "Plaza4c4718995438b713d841b67b",
    "time": "2012-07-29"
  },
  {
    "place": "Asian Restaurant4d291bbe6e27a1435d752124",
    "time": "2012-07-29"
  },
  {
    "place": "Light Rail4b8d2387f964a520dbe932e3",
    "time": "2012-07-29"
  },
  {
    "place": "Light Rail4b5848d0f964a520f55028e3",
    "time": "2012-07-29"
  },
  {
    "place": "Church4c1e97a8b4e62d7fe083de93",
    "time": "2012-07-29"
  },
  {
    "place": "Light Rail4b5848d0f964a520f55028e3",
    "time": "2012-07-29"
  },
  {
    "place": "Plaza4c4718995438b713d841b67b",
    "time": "2012-07-29"
  },
  {
    "place": "Asian Restaurant4d291bbe6e27a1435d752124",
    "time": "2012-07-29"
  },
  {
    "place": "Light Rail4b8d2387f964a520dbe932e3",
    "time": "2012-07-30"
  },
  {
    "place": "Light Rail4b5848d0f964a520f55028e3",
    "time": "2012-07-30"
  },
  {
    "place": "Cosmetics Shop4c7eb1242042b1f790b7c0ad",
    "time": "2012-07-30"
  },
  {
    "place": "Light Rail4b5848d0f964a520f55028e3",
    "time": "2012-07-30"
  },
  {
    "place": "Church4c1e97a8b4e62d7fe083de93",
    "time": "2012-08-05"
  },
  {
    "place": "Light Rail4b5848d0f964a520f55028e3",
    "time": "2012-08-05"
  },
  {
    "place": "Light Rail4b8d2387f964a520dbe932e3",
    "time": "2012-08-05"
  },
  {
    "place": "Community College4b82c32ff964a5202fe330e3",
    "time": "2012-08-09"
  },
  {
    "place": "Donut Shop4c169c3a5e88c928cc662466",
    "time": "2012-08-09"
  },
  {
    "place": "Plaza4c4718995438b713d841b67b",
    "time": "2012-08-11"
  },
  {
    "place": "Asian Restaurant4d291bbe6e27a1435d752124",
    "time": "2012-08-11"
  },
  {
    "place": "Asian Restaurant4d291bbe6e27a1435d752124",
    "time": "2012-08-12"
  },
  {
    "place": "Brazilian Restaurant4c3552de16adc92847bac69c",
    "time": "2012-08-13"
  },
  {
    "place": "Asian Restaurant4d291bbe6e27a1435d752124",
    "time": "2012-08-13"
  },
  {
    "place": "Church4c1e97a8b4e62d7fe083de93",
    "time": "2012-08-19"
  },
  {
    "place": "Plaza4c4718995438b713d841b67b",
    "time": "2012-08-20"
  },
  {
    "place": "Asian Restaurant4d291bbe6e27a1435d752124",
    "time": "2012-08-20"
  },
  {
    "place": "Asian Restaurant4d291bbe6e27a1435d752124",
    "time": "2012-08-17"
  },
  {
    "place": "Plaza4c4718995438b713d841b67b",
    "time": "2012-08-19"
  },
  {
    "place": "Asian Restaurant4d291bbe6e27a1435d752124",
    "time": "2012-08-19"
  },
  {
    "place": "College Academic Building4c2b900157a9c9b6181cf667",
    "time": "2012-09-05"
  },
  {
    "place": "Church4c1e97a8b4e62d7fe083de93",
    "time": "2012-09-09"
  },
  {
    "place": "Light Rail4b5848d0f964a520f55028e3",
    "time": "2012-09-09"
  },
  {
    "place": "Asian Restaurant4d291bbe6e27a1435d752124",
    "time": "2012-09-13"
  },
  {
    "place": "Asian Restaurant4d291bbe6e27a1435d752124",
    "time": "2012-09-15"
  },
  {
    "place": "Medical Center4be15b66d816c928bdcbefd9",
    "time": "2012-10-08"
  },
  {
    "place": "Movie Theater4b300112f964a52040f424e3",
    "time": "2012-10-12"
  },
  {
    "place": "Asian Restaurant4d291bbe6e27a1435d752124",
    "time": "2012-10-13"
  },
  {
    "place": "College Academic Building4c2b900157a9c9b6181cf667",
    "time": "2012-10-22"
  },
  {
    "place": "Medical Center4be15b66d816c928bdcbefd9",
    "time": "2012-10-24"
  },
  {
    "place": "Seafood Restaurant4db231b15da3e9788cc01c88",
    "time": "2012-10-26"
  },
  {
    "place": "Asian Restaurant4d291bbe6e27a1435d752124",
    "time": "2012-10-27"
  },
  {
    "place": "Building4e1b9c6ee4cd1f7c5d794141",
    "time": "2012-11-02"
  },
  {
    "place": "Plaza4c4718995438b713d841b67b",
    "time": "2012-11-11"
  },
  {
    "place": "Asian Restaurant4d291bbe6e27a1435d752124",
    "time": "2012-11-11"
  },
  {
    "place": "Church4c1e97a8b4e62d7fe083de93",
    "time": "2012-11-11"
  },
  {
    "place": "Bank4c6d956706ed6dcb6b4fa422",
    "time": "2012-11-15"
  },
  {
    "place": "Movie Theater4a64c263f964a520a1c61fe3",
    "time": "2012-11-16"
  },
  {
    "place": "Light Rail4b5848d0f964a520f55028e3",
    "time": "2012-11-16"
  },
  {
    "place": "Asian Restaurant4d291bbe6e27a1435d752124",
    "time": "2012-11-17"
  },
  {
    "place": "Church4c1e97a8b4e62d7fe083de93",
    "time": "2012-11-18"
  },
  {
    "place": "Korean Restaurant4b350ea8f964a520072a25e3",
    "time": "2012-11-21"
  },
  {
    "place": "Japanese Restaurant4ce3125a438b224bb16080a3",
    "time": "2012-11-25"
  },
  {
    "place": "Church4c1e97a8b4e62d7fe083de93",
    "time": "2012-12-02"
  },
  {
    "place": "Medical Center4b899bfff964a520e04532e3",
    "time": "2012-12-04"
  },
  {
    "place": "Italian Restaurant4b4520d8f964a5209c0526e3",
    "time": "2012-12-06"
  },
  {
    "place": "Cosmetics Shop4c1d2f328b3aa59300299a5f",
    "time": "2012-12-06"
  },
  {
    "place": "Church4c1e97a8b4e62d7fe083de93",
    "time": "2012-12-09"
  },
  {
    "place": "Medical Center4c72daca7121a1cd75a663d1",
    "time": "2012-12-14"
  },
  {
    "place": "Church4c1e97a8b4e62d7fe083de93",
    "time": "2012-12-16"
  },
  {
    "place": "Wings Joint50c7f1d7e4b04b69c92edde9",
    "time": "2012-12-17"
  },
  {
    "place": "Music Store50a58da3582f3880e84d5ee9",
    "time": "2012-12-29"
  },
  {
    "place": "Church4c1e97a8b4e62d7fe083de93",
    "time": "2012-12-30"
  },
  {
    "place": "Church4c1e97a8b4e62d7fe083de93",
    "time": "2013-01-01"
  },
  {
    "place": "Building4b313198f964a520480225e3",
    "time": "2013-01-04"
  },
  {
    "place": "Train Station42829c80f964a5206a221fe3",
    "time": "2013-01-06"
  },
  {
    "place": "Light Rail4b5848d0f964a520f55028e3",
    "time": "2013-01-09"
  },
  {
    "place": "Korean Restaurant4ee3f0432c5b5fc6cbee9263",
    "time": "2013-01-15"
  },
  {
    "place": "Breakfast Spot4c1249f2a9c220a157a8539d",
    "time": "2013-01-16"
  },
  {
    "place": "Asian Restaurant4d291bbe6e27a1435d752124",
    "time": "2013-01-17"
  },
  {
    "place": "Movie Theater4b1158fdf964a520b07a23e3",
    "time": "2013-01-17"
  },
  {
    "place": "Italian Restaurant4b4520d8f964a5209c0526e3",
    "time": "2013-01-25"
  },
  {
    "place": "Church4c1e97a8b4e62d7fe083de93",
    "time": "2013-01-27"
  },
  {
    "place": "Pizza Place4e8a59a549018e0360ba2727",
    "time": "2013-01-30"
  },
  {
    "place": "Convenience Store50c3cbbce4b085c8e4119be8",
    "time": "2013-02-01"
  },
  {
    "place": "Breakfast Spot4c1249f2a9c220a157a8539d",
    "time": "2013-02-05"
  },
  {
    "place": "College Academic Building4c2b900157a9c9b6181cf667",
    "time": "2013-02-12"
  },
  {
    "place": "Medical Center4b06ab0bf964a5206dee22e3",
    "time": "2013-02-13"
  }
]