[
  {
    "place": "Office4dda5f517d8b32266434825b",
    "time": "2012-04-03"
  },
  {
    "place": "Gym / Fitness Center4b688176f964a520b47c2be3",
    "time": "2012-04-03"
  },
  {
    "place": "American Restaurant4d90fce35091a1cdc365c701",
    "time": "2012-04-04"
  },
  {
    "place": "Coffee Shop4e6fe48c1fc7d3fc71285ec2",
    "time": "2012-04-04"
  },
  {
    "place": "Sushi Restaurant4a06fd06f964a52014731fe3",
    "time": "2012-04-05"
  },
  {
    "place": "Coffee Shop4e6fe48c1fc7d3fc71285ec2",
    "time": "2012-04-06"
  },
  {
    "place": "Coffee Shop4afb634af964a520951d22e3",
    "time": "2012-04-06"
  },
  {
    "place": "Gym / Fitness Center4b437919f964a52034e125e3",
    "time": "2012-04-07"
  },
  {
    "place": "Coffee Shop45be0276f964a52012421fe3",
    "time": "2012-04-07"
  },
  {
    "place": "Flea Market4839a8ddf964a5200e501fe3",
    "time": "2012-04-07"
  },
  {
    "place": "Brewery3fd66200f964a5205deb1ee3",
    "time": "2012-04-07"
  },
  {
    "place": "Bar41575800f964a520321d1fe3",
    "time": "2012-04-08"
  },
  {
    "place": "Gym / Fitness Center4b437919f964a52034e125e3",
    "time": "2012-04-08"
  },
  {
    "place": "Salad Place4a411158f964a520baa41fe3",
    "time": "2012-04-08"
  },
  {
    "place": "Coffee Shop4e6fe48c1fc7d3fc71285ec2",
    "time": "2012-04-09"
  },
  {
    "place": "Gym / Fitness Center4b688176f964a520b47c2be3",
    "time": "2012-04-09"
  },
  {
    "place": "Mediterranean Restaurant4d30b6525acfa35d97e0fbcb",
    "time": "2012-04-09"
  },
  {
    "place": "Office4dda5f517d8b32266434825b",
    "time": "2012-04-09"
  },
  {
    "place": "Gym / Fitness Center4b688176f964a520b47c2be3",
    "time": "2012-04-10"
  },
  {
    "place": "Office4dda5f517d8b32266434825b",
    "time": "2012-04-10"
  },
  {
    "place": "Gym / Fitness Center4cfff3e92685a35d711fc690",
    "time": "2012-04-10"
  },
  {
    "place": "Coffee Shop4e6fe48c1fc7d3fc71285ec2",
    "time": "2012-04-11"
  },
  {
    "place": "Gym / Fitness Center4b688176f964a520b47c2be3",
    "time": "2012-04-11"
  },
  {
    "place": "Restaurant4a689777f964a520a0ca1fe3",
    "time": "2012-04-11"
  },
  {
    "place": "Office4dda5f517d8b32266434825b",
    "time": "2012-04-11"
  },
  {
    "place": "Bar49d964c4f964a520305e1fe3",
    "time": "2012-04-12"
  },
  {
    "place": "Sandwich Place4d43209d90f388bfd00d4f01",
    "time": "2012-04-12"
  },
  {
    "place": "Office4dda5f517d8b32266434825b",
    "time": "2012-04-12"
  },
  {
    "place": "Gym / Fitness Center4a778d7ff964a520c8e41fe3",
    "time": "2012-04-12"
  },
  {
    "place": "Coffee Shop49f5ac81f964a520b16b1fe3",
    "time": "2012-04-13"
  },
  {
    "place": "Seafood Restaurant4abd6fa3f964a5204e8a20e3",
    "time": "2012-04-13"
  },
  {
    "place": "Gym / Fitness Center4adf741bf964a520b37a21e3",
    "time": "2012-04-13"
  },
  {
    "place": "Department Store4531059cf964a520683b1fe3",
    "time": "2012-04-13"
  },
  {
    "place": "Gym / Fitness Center4b437919f964a52034e125e3",
    "time": "2012-04-14"
  },
  {
    "place": "Salon / Barbershop4e2603571f6e58da2b1b6495",
    "time": "2012-04-14"
  },
  {
    "place": "Mexican Restaurant41a12c00f964a5203a1e1fe3",
    "time": "2012-04-14"
  },
  {
    "place": "Steakhouse4df67889922e9a09e75d32da",
    "time": "2012-04-14"
  },
  {
    "place": "Thai Restaurant4a076650f964a52059731fe3",
    "time": "2012-04-15"
  },
  {
    "place": "Bar43a3d40af964a520402c1fe3",
    "time": "2012-04-15"
  },
  {
    "place": "Diner4ed6c7c577c86e4f2ac57c4c",
    "time": "2012-04-15"
  },
  {
    "place": "Pizza Place43c4bb46f964a5205a2d1fe3",
    "time": "2012-04-15"
  },
  {
    "place": "Gym / Fitness Center4b437919f964a52034e125e3",
    "time": "2012-04-16"
  },
  {
    "place": "Italian Restaurant4dd5302cb0fb7a332e7a3444",
    "time": "2012-04-16"
  },
  {
    "place": "Electronics Store4a884649f964a520ad0520e3",
    "time": "2012-04-17"
  },
  {
    "place": "Vegetarian / Vegan Restaurant4f6ca2a0e4b0e6e000dbd0d2",
    "time": "2012-04-17"
  },
  {
    "place": "Office4dda5f517d8b32266434825b",
    "time": "2012-04-17"
  },
  {
    "place": "Gym / Fitness Center4a778d7ff964a520c8e41fe3",
    "time": "2012-04-17"
  },
  {
    "place": "Coffee Shop4afb634af964a520951d22e3",
    "time": "2012-04-18"
  },
  {
    "place": "Mexican Restaurant4a95b175f964a5202a2420e3",
    "time": "2012-04-18"
  },
  {
    "place": "Office4dda5f517d8b32266434825b",
    "time": "2012-04-18"
  },
  {
    "place": "Gym / Fitness Center4b688176f964a520b47c2be3",
    "time": "2012-04-18"
  },
  {
    "place": "Salad Place4a411158f964a520baa41fe3",
    "time": "2012-04-19"
  },
  {
    "place": "Coffee Shop4afb634af964a520951d22e3",
    "time": "2012-04-19"
  },
  {
    "place": "Gym / Fitness Center4cfff3e92685a35d711fc690",
    "time": "2012-04-19"
  },
  {
    "place": "Coffee Shop4e6fe48c1fc7d3fc71285ec2",
    "time": "2012-04-20"
  },
  {
    "place": "Bar41575800f964a520321d1fe3",
    "time": "2012-04-21"
  },
  {
    "place": "Bar49d6cf0ff964a520065d1fe3",
    "time": "2012-04-21"
  },
  {
    "place": "Gym / Fitness Center4b437919f964a52034e125e3",
    "time": "2012-04-21"
  },
  {
    "place": "Coffee Shop460ab8cdf964a520f1441fe3",
    "time": "2012-04-21"
  },
  {
    "place": "Clothing Store4a846154f964a52068fc1fe3",
    "time": "2012-04-21"
  },
  {
    "place": "Bar41575800f964a520321d1fe3",
    "time": "2012-04-22"
  },
  {
    "place": "Salon / Barbershop4e2603571f6e58da2b1b6495",
    "time": "2012-04-22"
  },
  {
    "place": "Coffee Shop460ab8cdf964a520f1441fe3",
    "time": "2012-04-22"
  },
  {
    "place": "Electronics Store4ed6316a2c5b3d826e649dbf",
    "time": "2012-04-22"
  },
  {
    "place": "Breakfast Spot3fd66200f964a520ccf11ee3",
    "time": "2012-04-22"
  },
  {
    "place": "Breakfast Spot3fd66200f964a520ccf11ee3",
    "time": "2012-04-22"
  },
  {
    "place": "Gym / Fitness Center4b437919f964a52034e125e3",
    "time": "2012-04-23"
  },
  {
    "place": "Office4dda5f517d8b32266434825b",
    "time": "2012-04-23"
  },
  {
    "place": "Coffee Shop4e6fe48c1fc7d3fc71285ec2",
    "time": "2012-04-24"
  },
  {
    "place": "American Restaurant4b17feaef964a52013cb23e3",
    "time": "2012-04-24"
  },
  {
    "place": "Coffee Shop4e6fe48c1fc7d3fc71285ec2",
    "time": "2012-04-26"
  },
  {
    "place": "Coffee Shop4e6fe48c1fc7d3fc71285ec2",
    "time": "2012-04-27"
  },
  {
    "place": "Coffee Shop4b5f0221f964a520fea129e3",
    "time": "2012-04-27"
  },
  {
    "place": "Tapas Restaurant49fe2391f964a520736f1fe3",
    "time": "2012-04-28"
  },
  {
    "place": "Gym / Fitness Center4b437919f964a52034e125e3",
    "time": "2012-04-28"
  },
  {
    "place": "Beer Garden428e7a00f964a520d2231fe3",
    "time": "2012-04-28"
  },
  {
    "place": "Sushi Restaurant4a7cb61ef964a52052ed1fe3",
    "time": "2012-04-29"
  },
  {
    "place": "Gym / Fitness Center4b437919f964a52034e125e3",
    "time": "2012-04-29"
  },
  {
    "place": "Coffee Shop460ab8cdf964a520f1441fe3",
    "time": "2012-04-29"
  },
  {
    "place": "Office4dda5f517d8b32266434825b",
    "time": "2012-05-01"
  },
  {
    "place": "Greek Restaurant437bc800f964a520782a1fe3",
    "time": "2012-05-02"
  },
  {
    "place": "Coffee Shop4e6fe48c1fc7d3fc71285ec2",
    "time": "2012-05-03"
  },
  {
    "place": "Seafood Restaurant4abd6fa3f964a5204e8a20e3",
    "time": "2012-05-03"
  },
  {
    "place": "Office4dda5f517d8b32266434825b",
    "time": "2012-05-03"
  },
  {
    "place": "Gym / Fitness Center4b688176f964a520b47c2be3",
    "time": "2012-05-03"
  },
  {
    "place": "Sushi Restaurant4a7cb61ef964a52052ed1fe3",
    "time": "2012-05-04"
  },
  {
    "place": "Coffee Shop4e6fe48c1fc7d3fc71285ec2",
    "time": "2012-05-04"
  },
  {
    "place": "Coffee Shop4afb634af964a520951d22e3",
    "time": "2012-05-04"
  },
  {
    "place": "Bar49c65e83f964a5203b571fe3",
    "time": "2012-05-05"
  },
  {
    "place": "Bar406dfe80f964a52048f21ee3",
    "time": "2012-05-05"
  },
  {
    "place": "Gym / Fitness Center4b437919f964a52034e125e3",
    "time": "2012-05-05"
  },
  {
    "place": "Salon / Barbershop4e2603571f6e58da2b1b6495",
    "time": "2012-05-05"
  },
  {
    "place": "Coffee Shop4ad3d174f964a5207be620e3",
    "time": "2012-05-05"
  },
  {
    "place": "Salad Place3fd66200f964a5200fea1ee3",
    "time": "2012-05-07"
  },
  {
    "place": "Coffee Shop4e6fe48c1fc7d3fc71285ec2",
    "time": "2012-05-07"
  },
  {
    "place": "Mediterranean Restaurant4d30b6525acfa35d97e0fbcb",
    "time": "2012-05-07"
  },
  {
    "place": "Gym / Fitness Center4b688176f964a520b47c2be3",
    "time": "2012-05-07"
  },
  {
    "place": "Coffee Shop4e6fe48c1fc7d3fc71285ec2",
    "time": "2012-05-08"
  },
  {
    "place": "Coffee Shop4e6fe48c1fc7d3fc71285ec2",
    "time": "2012-05-08"
  },
  {
    "place": "Gym / Fitness Center4b688176f964a520b47c2be3",
    "time": "2012-05-08"
  },
  {
    "place": "Sushi Restaurant4a7cb61ef964a52052ed1fe3",
    "time": "2012-05-08"
  },
  {
    "place": "Coffee Shop4e6fe48c1fc7d3fc71285ec2",
    "time": "2012-05-09"
  },
  {
    "place": "Gym / Fitness Center4b688176f964a520b47c2be3",
    "time": "2012-05-09"
  },
  {
    "place": "Breakfast Spot40a55d80f964a52020f31ee3",
    "time": "2012-05-10"
  },
  {
    "place": "Office4dda5f517d8b32266434825b",
    "time": "2012-05-10"
  },
  {
    "place": "Salad Place4a411158f964a520baa41fe3",
    "time": "2012-05-10"
  },
  {
    "place": "Bar4c7ecc952042b1f79b0dc1ad",
    "time": "2012-05-11"
  },
  {
    "place": "Clothing Store4a846154f964a52068fc1fe3",
    "time": "2012-05-11"
  },
  {
    "place": "Historic Site4b6b5abff964a520fb022ce3",
    "time": "2012-05-11"
  },
  {
    "place": "Bar40b68100f964a52085001fe3",
    "time": "2012-05-12"
  },
  {
    "place": "Bar4bf6ef8b5efe2d7fd10d6834",
    "time": "2012-05-12"
  },
  {
    "place": "Bar41575800f964a520321d1fe3",
    "time": "2012-05-12"
  },
  {
    "place": "Coffee Shop4ad3d174f964a5207be620e3",
    "time": "2012-05-12"
  },
  {
    "place": "General Entertainment4dd581dd1fc7d8d86636f408",
    "time": "2012-05-12"
  },
  {
    "place": "American Restaurant4665447af964a5207f471fe3",
    "time": "2012-05-12"
  },
  {
    "place": "German Restaurant4d5b3dd522ad2d430a63e695",
    "time": "2012-05-13"
  },
  {
    "place": "Bar4c082c5a340720a116b98293",
    "time": "2012-05-13"
  },
  {
    "place": "Bar3fd66200f964a52001e81ee3",
    "time": "2012-05-13"
  },
  {
    "place": "Bar41575800f964a520321d1fe3",
    "time": "2012-05-13"
  },
  {
    "place": "BBQ Joint46b16b46f964a52098491fe3",
    "time": "2012-05-13"
  },
  {
    "place": "Park40f1d480f964a5206a0a1fe3",
    "time": "2012-05-13"
  },
  {
    "place": "Food & Drink Shop41390580f964a520dc1a1fe3",
    "time": "2012-05-13"
  },
  {
    "place": "Burger Joint4ad74911f964a5203f0921e3",
    "time": "2012-05-13"
  },
  {
    "place": "Clothing Store4a846154f964a52068fc1fe3",
    "time": "2012-05-13"
  },
  {
    "place": "Park40b68100f964a5207d001fe3",
    "time": "2012-05-13"
  },
  {
    "place": "Sushi Restaurant4a7cb61ef964a52052ed1fe3",
    "time": "2012-05-14"
  },
  {
    "place": "Coffee Shop4e6fe48c1fc7d3fc71285ec2",
    "time": "2012-05-14"
  },
  {
    "place": "Road4f4fff02e4b02110a2812227",
    "time": "2012-05-14"
  },
  {
    "place": "Office4dda5f517d8b32266434825b",
    "time": "2012-05-14"
  },
  {
    "place": "Coffee Shop4afb634af964a520951d22e3",
    "time": "2012-05-14"
  },
  {
    "place": "Gym / Fitness Center4b688176f964a520b47c2be3",
    "time": "2012-05-14"
  },
  {
    "place": "Sandwich Place4b395c58f964a5204e5b25e3",
    "time": "2012-05-15"
  },
  {
    "place": "Salad Place4a411158f964a520baa41fe3",
    "time": "2012-05-15"
  },
  {
    "place": "Gym / Fitness Center4b437919f964a52034e125e3",
    "time": "2012-05-16"
  },
  {
    "place": "Coffee Shop4afb634af964a520951d22e3",
    "time": "2012-05-16"
  },
  {
    "place": "Bar4a423a67f964a520aba51fe3",
    "time": "2012-05-16"
  },
  {
    "place": "Coffee Shop4afb634af964a520951d22e3",
    "time": "2012-05-17"
  },
  {
    "place": "Spa / Massage4b2a6cd1f964a520eaa824e3",
    "time": "2012-05-17"
  },
  {
    "place": "Drugstore / Pharmacy49f9ea7af964a520946d1fe3",
    "time": "2012-05-17"
  },
  {
    "place": "Coffee Shop4e6fe48c1fc7d3fc71285ec2",
    "time": "2012-05-18"
  },
  {
    "place": "Airport4ace6c89f964a52078d020e3",
    "time": "2012-05-22"
  },
  {
    "place": "Coffee Shop4e6fe48c1fc7d3fc71285ec2",
    "time": "2012-05-22"
  },
  {
    "place": "Gym / Fitness Center4b688176f964a520b47c2be3",
    "time": "2012-05-23"
  },
  {
    "place": "Mediterranean Restaurant4d30b6525acfa35d97e0fbcb",
    "time": "2012-05-23"
  },
  {
    "place": "Salon / Barbershop4e2603571f6e58da2b1b6495",
    "time": "2012-05-24"
  },
  {
    "place": "Office4dda5f517d8b32266434825b",
    "time": "2012-05-25"
  },
  {
    "place": "Gym / Fitness Center4a047a18f964a520ff711fe3",
    "time": "2012-05-25"
  },
  {
    "place": "Sushi Restaurant4a7cb61ef964a52052ed1fe3",
    "time": "2012-05-25"
  },
  {
    "place": "BBQ Joint49d7dbf5f964a5206c5d1fe3",
    "time": "2012-05-26"
  },
  {
    "place": "Bar44e36de7f964a52040371fe3",
    "time": "2012-05-26"
  },
  {
    "place": "Bar41575800f964a520321d1fe3",
    "time": "2012-05-26"
  },
  {
    "place": "Bar49d6cf0ff964a520065d1fe3",
    "time": "2012-05-26"
  },
  {
    "place": "Coffee Shop4c83a1e451ada1cd8c332710",
    "time": "2012-05-27"
  },
  {
    "place": "Coffee Shop460ab8cdf964a520f1441fe3",
    "time": "2012-05-27"
  },
  {
    "place": "Bar4116be80f964a520fc0b1fe3",
    "time": "2012-05-27"
  },
  {
    "place": "Bar4c7ecc952042b1f79b0dc1ad",
    "time": "2012-05-28"
  },
  {
    "place": "Coffee Shop4a3fbfacf964a520eaa31fe3",
    "time": "2012-05-28"
  },
  {
    "place": "Moving Target4fbfe16ae4b05190680fe0b1",
    "time": "2012-05-28"
  },
  {
    "place": "Bar3fd66200f964a52023e41ee3",
    "time": "2012-05-28"
  },
  {
    "place": "Sushi Restaurant4a7cb61ef964a52052ed1fe3",
    "time": "2012-05-28"
  },
  {
    "place": "Coffee Shop4e6fe48c1fc7d3fc71285ec2",
    "time": "2012-05-29"
  },
  {
    "place": "Salad Place4b21363df964a520573824e3",
    "time": "2012-05-29"
  },
  {
    "place": "Office4dda5f517d8b32266434825b",
    "time": "2012-05-29"
  },
  {
    "place": "Salon / Barbershop4e2603571f6e58da2b1b6495",
    "time": "2012-05-30"
  },
  {
    "place": "Office4dda5f517d8b32266434825b",
    "time": "2012-05-31"
  },
  {
    "place": "Airport43a52546f964a520532c1fe3",
    "time": "2012-05-31"
  },
  {
    "place": "Airport43a52546f964a520532c1fe3",
    "time": "2012-06-07"
  },
  {
    "place": "Office4dda5f517d8b32266434825b",
    "time": "2012-06-07"
  },
  {
    "place": "German Restaurant4d5b3dd522ad2d430a63e695",
    "time": "2012-06-07"
  },
  {
    "place": "Coffee Shop4e6fe48c1fc7d3fc71285ec2",
    "time": "2012-06-08"
  },
  {
    "place": "Office4dda5f517d8b32266434825b",
    "time": "2012-06-08"
  },
  {
    "place": "Thai Restaurant4230df80f964a520ff1f1fe3",
    "time": "2012-06-09"
  },
  {
    "place": "Bar4be874a488ed2d7fa3e4cb1d",
    "time": "2012-06-09"
  },
  {
    "place": "Gym / Fitness Center4a888403f964a520bb0620e3",
    "time": "2012-06-09"
  },
  {
    "place": "Coffee Shop4a3fbfacf964a520eaa31fe3",
    "time": "2012-06-09"
  },
  {
    "place": "BBQ Joint4fd2931ee4b0052fbb25ca41",
    "time": "2012-06-09"
  },
  {
    "place": "Gym / Fitness Center4a888403f964a520bb0620e3",
    "time": "2012-06-10"
  },
  {
    "place": "Coffee Shop460ab8cdf964a520f1441fe3",
    "time": "2012-06-10"
  },
  {
    "place": "BBQ Joint4fd2931ee4b0052fbb25ca41",
    "time": "2012-06-10"
  },
  {
    "place": "Seafood Restaurant3fd66200f964a5206ce41ee3",
    "time": "2012-06-10"
  },
  {
    "place": "Gym / Fitness Center49c943d2f964a5204f581fe3",
    "time": "2012-06-10"
  },
  {
    "place": "Coffee Shop4afb634af964a520951d22e3",
    "time": "2012-06-11"
  },
  {
    "place": "Gym / Fitness Center4a047a18f964a520ff711fe3",
    "time": "2012-06-11"
  },
  {
    "place": "Office4dda5f517d8b32266434825b",
    "time": "2012-06-11"
  },
  {
    "place": "Gym / Fitness Center4a047a18f964a520ff711fe3",
    "time": "2012-06-11"
  },
  {
    "place": "Salad Place4a411158f964a520baa41fe3",
    "time": "2012-06-12"
  },
  {
    "place": "Coffee Shop4b697d7bf964a5205aa42be3",
    "time": "2012-06-12"
  },
  {
    "place": "Office4dda5f517d8b32266434825b",
    "time": "2012-06-12"
  },
  {
    "place": "Gym / Fitness Center42af6f80f964a5205a251fe3",
    "time": "2012-06-12"
  },
  {
    "place": "Sushi Restaurant4a7cb61ef964a52052ed1fe3",
    "time": "2012-06-13"
  },
  {
    "place": "Coffee Shop4e6fe48c1fc7d3fc71285ec2",
    "time": "2012-06-13"
  },
  {
    "place": "Gym / Fitness Center4a047a18f964a520ff711fe3",
    "time": "2012-06-13"
  },
  {
    "place": "Restaurant4a689777f964a520a0ca1fe3",
    "time": "2012-06-13"
  },
  {
    "place": "Office4dda5f517d8b32266434825b",
    "time": "2012-06-13"
  },
  {
    "place": "Gym / Fitness Center42af6f80f964a5205a251fe3",
    "time": "2012-06-13"
  },
  {
    "place": "Greek Restaurant4b5ae93df964a520e9d928e3",
    "time": "2012-06-14"
  },
  {
    "place": "Mediterranean Restaurant4a285766f964a52012951fe3",
    "time": "2012-06-14"
  },
  {
    "place": "Gym / Fitness Center4a047a18f964a520ff711fe3",
    "time": "2012-06-15"
  },
  {
    "place": "Coffee Shop4afb634af964a520951d22e3",
    "time": "2012-06-15"
  },
  {
    "place": "Bar4b1bf775f964a520d0ff23e3",
    "time": "2012-06-16"
  },
  {
    "place": "Bar42508380f964a520bb201fe3",
    "time": "2012-06-17"
  },
  {
    "place": "Bar41575800f964a520321d1fe3",
    "time": "2012-06-17"
  },
  {
    "place": "Diner4ed6c7c577c86e4f2ac57c4c",
    "time": "2012-06-17"
  },
  {
    "place": "Coffee Shop460ab8cdf964a520f1441fe3",
    "time": "2012-06-17"
  },
  {
    "place": "Gym / Fitness Center49c943d2f964a5204f581fe3",
    "time": "2012-07-26"
  },
  {
    "place": "Bar4b19bf81f964a52050e323e3",
    "time": "2012-07-26"
  },
  {
    "place": "Coffee Shop4a356654f964a520f19c1fe3",
    "time": "2012-07-27"
  },
  {
    "place": "Department Store4531059cf964a520683b1fe3",
    "time": "2012-07-28"
  },
  {
    "place": "Other Great Outdoors5012d92ce4b0907580352189",
    "time": "2012-07-28"
  },
  {
    "place": "Bar41575800f964a520321d1fe3",
    "time": "2012-07-28"
  },
  {
    "place": "Gym / Fitness Center4a888403f964a520bb0620e3",
    "time": "2012-07-28"
  },
  {
    "place": "Coffee Shop4ad3d174f964a5207be620e3",
    "time": "2012-07-28"
  },
  {
    "place": "Cuban Restaurant425f0400f964a52007211fe3",
    "time": "2012-07-28"
  },
  {
    "place": "Bar4aa88b91f964a520915120e3",
    "time": "2012-07-28"
  },
  {
    "place": "Bar4a6a09fcf964a52072cc1fe3",
    "time": "2012-07-29"
  },
  {
    "place": "Bar41575800f964a520321d1fe3",
    "time": "2012-07-29"
  },
  {
    "place": "Gym / Fitness Center4a888403f964a520bb0620e3",
    "time": "2012-07-29"
  },
  {
    "place": "Bar49d23a22f964a5209f5b1fe3",
    "time": "2012-07-29"
  },
  {
    "place": "Salon / Barbershop4e2603571f6e58da2b1b6495",
    "time": "2012-07-29"
  },
  {
    "place": "Bar4b19bf81f964a52050e323e3",
    "time": "2012-07-29"
  },
  {
    "place": "Sushi Restaurant4a7cb61ef964a52052ed1fe3",
    "time": "2012-07-29"
  },
  {
    "place": "Coffee Shop4afb634af964a520951d22e3",
    "time": "2012-07-30"
  },
  {
    "place": "Gym / Fitness Center4a047a18f964a520ff711fe3",
    "time": "2012-07-30"
  },
  {
    "place": "Gym / Fitness Center4a888403f964a520bb0620e3",
    "time": "2012-08-05"
  },
  {
    "place": "Coffee Shop4afb634af964a520951d22e3",
    "time": "2012-08-06"
  },
  {
    "place": "Coffee Shop4b697d7bf964a5205aa42be3",
    "time": "2012-08-09"
  },
  {
    "place": "Coffee Shop4e6fe48c1fc7d3fc71285ec2",
    "time": "2012-08-09"
  },
  {
    "place": "Office4dda5f517d8b32266434825b",
    "time": "2012-08-09"
  },
  {
    "place": "American Restaurant3fd66200f964a5205ae71ee3",
    "time": "2012-08-09"
  },
  {
    "place": "Coffee Shop4aeee85af964a520a2d421e3",
    "time": "2012-08-10"
  },
  {
    "place": "Bar4a423a67f964a520aba51fe3",
    "time": "2012-08-10"
  },
  {
    "place": "Office4dda5f517d8b32266434825b",
    "time": "2012-08-10"
  },
  {
    "place": "Gym / Fitness Center4a047a18f964a520ff711fe3",
    "time": "2012-08-10"
  },
  {
    "place": "Tanning Salon4bec4b51b68520a1dee71187",
    "time": "2012-08-10"
  },
  {
    "place": "Japanese Restaurant4ff9ccdee4b0b3e69a1ae252",
    "time": "2012-08-10"
  },
  {
    "place": "Gym / Fitness Center4a888403f964a520bb0620e3",
    "time": "2012-08-11"
  },
  {
    "place": "Mexican Restaurant4be08704854f9521f6992ba5",
    "time": "2012-08-11"
  },
  {
    "place": "Salon / Barbershop4e2603571f6e58da2b1b6495",
    "time": "2012-08-12"
  },
  {
    "place": "Bar3fd66200f964a52023e41ee3",
    "time": "2012-08-12"
  },
  {
    "place": "Beer Garden4da9e6adfc607fc998b7d3d6",
    "time": "2012-08-12"
  },
  {
    "place": "Bar41575800f964a520321d1fe3",
    "time": "2012-08-13"
  },
  {
    "place": "Mediterranean Restaurant4d30b6525acfa35d97e0fbcb",
    "time": "2012-08-13"
  },
  {
    "place": "Gym / Fitness Center4a047a18f964a520ff711fe3",
    "time": "2012-08-13"
  },
  {
    "place": "Gym / Fitness Center42af6f80f964a5205a251fe3",
    "time": "2012-08-14"
  },
  {
    "place": "Coffee Shop4e6fe48c1fc7d3fc71285ec2",
    "time": "2012-08-14"
  },
  {
    "place": "Deli / Bodega4b2a78fbf964a520d1a924e3",
    "time": "2012-08-14"
  },
  {
    "place": "Office4dda5f517d8b32266434825b",
    "time": "2012-08-14"
  },
  {
    "place": "Coffee Shop4afb634af964a520951d22e3",
    "time": "2012-08-14"
  },
  {
    "place": "Gym / Fitness Center42af6f80f964a5205a251fe3",
    "time": "2012-08-14"
  },
  {
    "place": "Food Truck4a416369f964a52036a51fe3",
    "time": "2012-08-16"
  },
  {
    "place": "General Entertainment502d2750e4b0a9acfde63edb",
    "time": "2012-08-16"
  },
  {
    "place": "Seafood Restaurant4d863becf1e56ea852a5998a",
    "time": "2012-08-17"
  },
  {
    "place": "Coffee Shop4e6fe48c1fc7d3fc71285ec2",
    "time": "2012-08-17"
  },
  {
    "place": "Coffee Shop4afb634af964a520951d22e3",
    "time": "2012-10-08"
  },
  {
    "place": "Gym / Fitness Center4a047a18f964a520ff711fe3",
    "time": "2012-10-11"
  },
  {
    "place": "Office4dda5f517d8b32266434825b",
    "time": "2012-10-11"
  },
  {
    "place": "Gym / Fitness Center42af6f80f964a5205a251fe3",
    "time": "2012-10-11"
  },
  {
    "place": "Clothing Store4cfad589084f54817ea27d09",
    "time": "2012-10-12"
  },
  {
    "place": "Coffee Shop4e6fe48c1fc7d3fc71285ec2",
    "time": "2012-10-12"
  },
  {
    "place": "Office4dda5f517d8b32266434825b",
    "time": "2012-10-12"
  },
  {
    "place": "Sushi Restaurant4ae8e9f7f964a5204ab321e3",
    "time": "2012-10-12"
  },
  {
    "place": "Coffee Shop460ab8cdf964a520f1441fe3",
    "time": "2012-10-13"
  },
  {
    "place": "Other Great Outdoors508af9ccf13627e878935855",
    "time": "2012-10-28"
  },
  {
    "place": "Cemetery5090bc9be4b063c640ba5333",
    "time": "2012-11-01"
  },
  {
    "place": "Coffee Shop4aeee85af964a520a2d421e3",
    "time": "2012-11-05"
  },
  {
    "place": "Gym / Fitness Center42af6f80f964a5205a251fe3",
    "time": "2012-11-05"
  },
  {
    "place": "Gym / Fitness Center4a047a18f964a520ff711fe3",
    "time": "2012-11-05"
  },
  {
    "place": "Government Building509817afc84c2e276bc2cd1f",
    "time": "2012-11-06"
  },
  {
    "place": "Coffee Shop4f5e82dae4b01989c438cbb6",
    "time": "2012-11-06"
  },
  {
    "place": "Gym / Fitness Center49c943d2f964a5204f581fe3",
    "time": "2012-11-07"
  },
  {
    "place": "Office4dda5f517d8b32266434825b",
    "time": "2012-11-09"
  },
  {
    "place": "Bar41575800f964a520321d1fe3",
    "time": "2012-11-11"
  },
  {
    "place": "Gym / Fitness Center49c943d2f964a5204f581fe3",
    "time": "2012-11-11"
  },
  {
    "place": "Greek Restaurant437bc800f964a520782a1fe3",
    "time": "2012-11-12"
  },
  {
    "place": "Bar50a0031be4b0c4d83cf35856",
    "time": "2012-11-12"
  },
  {
    "place": "Coffee Shop4e6fe48c1fc7d3fc71285ec2",
    "time": "2012-11-12"
  },
  {
    "place": "Office4dda5f517d8b32266434825b",
    "time": "2012-11-12"
  },
  {
    "place": "Greek Restaurant437bc800f964a520782a1fe3",
    "time": "2012-11-13"
  },
  {
    "place": "Gym / Fitness Center4a047a18f964a520ff711fe3",
    "time": "2012-11-13"
  },
  {
    "place": "Coffee Shop4afb634af964a520951d22e3",
    "time": "2012-11-13"
  },
  {
    "place": "Food Truck4ce5632f549a60fc2bb20dde",
    "time": "2012-11-15"
  },
  {
    "place": "Office4dda5f517d8b32266434825b",
    "time": "2012-11-15"
  },
  {
    "place": "Hotel4b094f8cf964a520871523e3",
    "time": "2012-11-16"
  },
  {
    "place": "Bar41575800f964a520321d1fe3",
    "time": "2012-11-16"
  },
  {
    "place": "Salon / Barbershop4b0c5f4ff964a520043c23e3",
    "time": "2012-11-16"
  },
  {
    "place": "Office4dda5f517d8b32266434825b",
    "time": "2012-11-16"
  },
  {
    "place": "Gym / Fitness Center4a047a18f964a520ff711fe3",
    "time": "2012-11-16"
  },
  {
    "place": "Japanese Restaurant4ff9ccdee4b0b3e69a1ae252",
    "time": "2012-11-17"
  },
  {
    "place": "Gym / Fitness Center4a888403f964a520bb0620e3",
    "time": "2012-11-17"
  },
  {
    "place": "Public Art5083217ae4b0a74e52ca5947",
    "time": "2012-11-17"
  },
  {
    "place": "Airport4be1ae703ef676b0e44ec0ca",
    "time": "2012-11-19"
  },
  {
    "place": "Airport43a52546f964a520532c1fe3",
    "time": "2012-11-19"
  },
  {
    "place": "Coffee Shop4e6fe48c1fc7d3fc71285ec2",
    "time": "2012-11-28"
  },
  {
    "place": "Tapas Restaurant49dbf8f0f964a520305f1fe3",
    "time": "2012-11-29"
  },
  {
    "place": "Bar41575800f964a520321d1fe3",
    "time": "2012-11-29"
  },
  {
    "place": "Bar3fd66200f964a52056e71ee3",
    "time": "2012-12-01"
  },
  {
    "place": "Bar3fd66200f964a52058e41ee3",
    "time": "2012-12-01"
  },
  {
    "place": "Bar3fd66200f964a5205be41ee3",
    "time": "2012-12-01"
  },
  {
    "place": "Bar43a3d40af964a520402c1fe3",
    "time": "2012-12-01"
  },
  {
    "place": "Bar3fd66200f964a52057e91ee3",
    "time": "2012-12-01"
  },
  {
    "place": "Gym / Fitness Center4a888403f964a520bb0620e3",
    "time": "2012-12-01"
  },
  {
    "place": "Coffee Shop5046b813e4b0875cbaa77dcf",
    "time": "2012-12-01"
  },
  {
    "place": "Bar502eabc5e4b0bde7260e8391",
    "time": "2012-12-01"
  },
  {
    "place": "Library452d6886f964a5204a3b1fe3",
    "time": "2012-12-01"
  },
  {
    "place": "Bar4d5b409222ad2d43527ce695",
    "time": "2012-12-03"
  },
  {
    "place": "Salad Place4a411158f964a520baa41fe3",
    "time": "2012-12-04"
  },
  {
    "place": "Coffee Shop4e6fe48c1fc7d3fc71285ec2",
    "time": "2012-12-04"
  },
  {
    "place": "Office4dda5f517d8b32266434825b",
    "time": "2012-12-05"
  },
  {
    "place": "Gym / Fitness Center49c943d2f964a5204f581fe3",
    "time": "2012-12-05"
  },
  {
    "place": "Coffee Shop4e6fe48c1fc7d3fc71285ec2",
    "time": "2012-12-05"
  },
  {
    "place": "Gym / Fitness Center4a047a18f964a520ff711fe3",
    "time": "2012-12-06"
  },
  {
    "place": "Coffee Shop4e6fe48c1fc7d3fc71285ec2",
    "time": "2012-12-06"
  },
  {
    "place": "Office4dda5f517d8b32266434825b",
    "time": "2012-12-06"
  },
  {
    "place": "American Restaurant3fd66200f964a52007ea1ee3",
    "time": "2012-12-07"
  },
  {
    "place": "Coffee Shop4e6fe48c1fc7d3fc71285ec2",
    "time": "2012-12-07"
  },
  {
    "place": "Gym / Fitness Center4a047a18f964a520ff711fe3",
    "time": "2012-12-07"
  },
  {
    "place": "Factory50c28da2e4b049caaf4abfdd",
    "time": "2012-12-08"
  },
  {
    "place": "Electronics Store4a884649f964a520ad0520e3",
    "time": "2012-12-08"
  },
  {
    "place": "Gym / Fitness Center4a888403f964a520bb0620e3",
    "time": "2012-12-08"
  },
  {
    "place": "Coffee Shop4a3fbfacf964a520eaa31fe3",
    "time": "2012-12-08"
  },
  {
    "place": "Clothing Store4dea5f5a1f6e3ddebdc9f8b2",
    "time": "2012-12-08"
  },
  {
    "place": "Cosmetics Shop4b92a92ff964a520d40e34e3",
    "time": "2012-12-08"
  },
  {
    "place": "Mediterranean Restaurant50b41d29067df6e87cdc4a5d",
    "time": "2012-12-08"
  },
  {
    "place": "Public Art5083217ae4b0a74e52ca5947",
    "time": "2012-12-09"
  },
  {
    "place": "Bar4276bf00f964a5208c211fe3",
    "time": "2012-12-09"
  },
  {
    "place": "Bar49d964c4f964a520305e1fe3",
    "time": "2012-12-09"
  },
  {
    "place": "Gym / Fitness Center4a888403f964a520bb0620e3",
    "time": "2012-12-09"
  },
  {
    "place": "Mexican Restaurant41a12c00f964a5203a1e1fe3",
    "time": "2012-12-09"
  },
  {
    "place": "Bar4b19bf81f964a52050e323e3",
    "time": "2012-12-11"
  },
  {
    "place": "Coffee Shop4e6fe48c1fc7d3fc71285ec2",
    "time": "2012-12-11"
  },
  {
    "place": "Thai Restaurant4a4d694cf964a520f1ad1fe3",
    "time": "2012-12-12"
  },
  {
    "place": "Office4dda5f517d8b32266434825b",
    "time": "2012-12-12"
  },
  {
    "place": "Coffee Shop4e6fe48c1fc7d3fc71285ec2",
    "time": "2012-12-12"
  },
  {
    "place": "Gym / Fitness Center49c943d2f964a5204f581fe3",
    "time": "2012-12-12"
  },
  {
    "place": "Bar4e7cf3717bebc2dafa434231",
    "time": "2012-12-13"
  },
  {
    "place": "Gym / Fitness Center4a705a19f964a5204ed71fe3",
    "time": "2012-12-14"
  },
  {
    "place": "Office4dda5f517d8b32266434825b",
    "time": "2012-12-14"
  },
  {
    "place": "Coffee Shop4a71e101f964a520c4d91fe3",
    "time": "2012-12-14"
  },
  {
    "place": "Coffee Shop460ab8cdf964a520f1441fe3",
    "time": "2012-12-15"
  },
  {
    "place": "Other Nightlife4d0382fa30a58cfa181399e7",
    "time": "2012-12-15"
  },
  {
    "place": "Bar472ba436f964a520ff4b1fe3",
    "time": "2012-12-15"
  },
  {
    "place": "Wings Joint4b912a24f964a52089a733e3",
    "time": "2012-12-16"
  },
  {
    "place": "Sandwich Place4b395c58f964a5204e5b25e3",
    "time": "2012-12-16"
  },
  {
    "place": "Mediterranean Restaurant50b41d29067df6e87cdc4a5d",
    "time": "2012-12-16"
  },
  {
    "place": "Burger Joint4fcb9bb9e4b09ba63be306ee",
    "time": "2012-12-19"
  },
  {
    "place": "Airport43a52546f964a520532c1fe3",
    "time": "2012-12-27"
  },
  {
    "place": "Coffee Shop4e6fe48c1fc7d3fc71285ec2",
    "time": "2012-12-27"
  },
  {
    "place": "Office4dda5f517d8b32266434825b",
    "time": "2012-12-27"
  },
  {
    "place": "Clothing Store4cfad589084f54817ea27d09",
    "time": "2012-12-27"
  },
  {
    "place": "Coffee Shop4e6fe48c1fc7d3fc71285ec2",
    "time": "2012-12-28"
  },
  {
    "place": "Office4dda5f517d8b32266434825b",
    "time": "2012-12-28"
  },
  {
    "place": "Gym / Fitness Center4a888403f964a520bb0620e3",
    "time": "2012-12-29"
  },
  {
    "place": "Department Store4531059cf964a520683b1fe3",
    "time": "2012-12-29"
  },
  {
    "place": "Public Art5083217ae4b0a74e52ca5947",
    "time": "2012-12-30"
  },
  {
    "place": "Coffee Shop460ab8cdf964a520f1441fe3",
    "time": "2012-12-30"
  },
  {
    "place": "Cosmetics Shop4b92a92ff964a520d40e34e3",
    "time": "2012-12-30"
  },
  {
    "place": "Mediterranean Restaurant50b41d29067df6e87cdc4a5d",
    "time": "2012-12-30"
  },
  {
    "place": "Gym / Fitness Center4a888403f964a520bb0620e3",
    "time": "2012-12-31"
  },
  {
    "place": "Mexican Restaurant3fd66200f964a52067e71ee3",
    "time": "2013-01-01"
  },
  {
    "place": "Bar49f20287f964a520ce691fe3",
    "time": "2013-01-01"
  },
  {
    "place": "Coffee Shop4aeee85af964a520a2d421e3",
    "time": "2013-01-02"
  },
  {
    "place": "Office4dda5f517d8b32266434825b",
    "time": "2013-01-02"
  },
  {
    "place": "Thai Restaurant4a4d694cf964a520f1ad1fe3",
    "time": "2013-01-03"
  },
  {
    "place": "Sandwich Place4d43209d90f388bfd00d4f01",
    "time": "2013-01-03"
  },
  {
    "place": "Gym / Fitness Center42af6f80f964a5205a251fe3",
    "time": "2013-01-03"
  },
  {
    "place": "Office4b8c3293f964a520a0c332e3",
    "time": "2013-01-04"
  },
  {
    "place": "Bar42508380f964a520bb201fe3",
    "time": "2013-01-05"
  },
  {
    "place": "Bar42377700f964a5201b201fe3",
    "time": "2013-01-05"
  },
  {
    "place": "Movie Theater453cacc7f964a520153c1fe3",
    "time": "2013-01-05"
  },
  {
    "place": "Burger Joint44f2fa97f964a52010381fe3",
    "time": "2013-01-05"
  },
  {
    "place": "Sushi Restaurant4a6a4a50f964a5200bcd1fe3",
    "time": "2013-01-06"
  },
  {
    "place": "Bar4656e1ebf964a52007471fe3",
    "time": "2013-01-06"
  },
  {
    "place": "Gym / Fitness Center4a888403f964a520bb0620e3",
    "time": "2013-01-06"
  },
  {
    "place": "Latin American Restaurant3fd66200f964a52049e81ee3",
    "time": "2013-01-06"
  },
  {
    "place": "Bar50a0031be4b0c4d83cf35856",
    "time": "2013-01-07"
  },
  {
    "place": "Gym / Fitness Center42af6f80f964a5205a251fe3",
    "time": "2013-01-07"
  },
  {
    "place": "Coffee Shop49ef714cf964a520b6681fe3",
    "time": "2013-01-07"
  },
  {
    "place": "Coffee Shop4e6fe48c1fc7d3fc71285ec2",
    "time": "2013-01-07"
  },
  {
    "place": "Salad Place4b21363df964a520573824e3",
    "time": "2013-01-07"
  },
  {
    "place": "Office4dda5f517d8b32266434825b",
    "time": "2013-01-07"
  },
  {
    "place": "Gym / Fitness Center4a047a18f964a520ff711fe3",
    "time": "2013-01-07"
  },
  {
    "place": "Electronics Store4ed6316a2c5b3d826e649dbf",
    "time": "2013-01-08"
  },
  {
    "place": "Bar50c0e960e4b0b88cce69a153",
    "time": "2013-01-09"
  },
  {
    "place": "Greek Restaurant437bc800f964a520782a1fe3",
    "time": "2013-01-10"
  },
  {
    "place": "Office4dda5f517d8b32266434825b",
    "time": "2013-01-11"
  },
  {
    "place": "Gym / Fitness Center49c943d2f964a5204f581fe3",
    "time": "2013-01-12"
  },
  {
    "place": "German Restaurant4d5b3dd522ad2d430a63e695",
    "time": "2013-01-12"
  },
  {
    "place": "Residential Building (Apartment / Condo)4e9d82c60aaf015a05fd81a6",
    "time": "2013-01-13"
  },
  {
    "place": "Bar4d5b409222ad2d43527ce695",
    "time": "2013-01-13"
  },
  {
    "place": "Coffee Shop460ab8cdf964a520f1441fe3",
    "time": "2013-01-13"
  },
  {
    "place": "Coffee Shop4e6fe48c1fc7d3fc71285ec2",
    "time": "2013-01-14"
  },
  {
    "place": "Clothing Store4cfad589084f54817ea27d09",
    "time": "2013-01-15"
  },
  {
    "place": "Office4dda5f517d8b32266434825b",
    "time": "2013-01-15"
  },
  {
    "place": "Clothing Store4cf907ea3875b1f79311973c",
    "time": "2013-01-15"
  },
  {
    "place": "Coffee Shop4e6fe48c1fc7d3fc71285ec2",
    "time": "2013-01-16"
  },
  {
    "place": "Coffee Shop4e6fe48c1fc7d3fc71285ec2",
    "time": "2013-01-17"
  },
  {
    "place": "Coffee Shop4af96e34f964a520bb1122e3",
    "time": "2013-01-17"
  },
  {
    "place": "Bar42508380f964a520bb201fe3",
    "time": "2013-01-18"
  },
  {
    "place": "Coffee Shop5046b813e4b0875cbaa77dcf",
    "time": "2013-01-18"
  },
  {
    "place": "Coffee Shop4afb634af964a520951d22e3",
    "time": "2013-01-24"
  },
  {
    "place": "Bar3fd66200f964a5202fe41ee3",
    "time": "2013-01-25"
  },
  {
    "place": "Coffee Shop4e6fe48c1fc7d3fc71285ec2",
    "time": "2013-01-25"
  },
  {
    "place": "Office4dda5f517d8b32266434825b",
    "time": "2013-01-25"
  },
  {
    "place": "Bar4a46acaef964a52049a91fe3",
    "time": "2013-01-26"
  },
  {
    "place": "Salon / Barbershop4e2603571f6e58da2b1b6495",
    "time": "2013-01-26"
  },
  {
    "place": "Department Store4531059cf964a520683b1fe3",
    "time": "2013-01-26"
  },
  {
    "place": "Bar49d012ecf964a520fc5a1fe3",
    "time": "2013-01-26"
  },
  {
    "place": "Bar4d5b409222ad2d43527ce695",
    "time": "2013-01-27"
  },
  {
    "place": "Caf\u00c3\u00a93fd66200f964a52008e91ee3",
    "time": "2013-01-27"
  },
  {
    "place": "Caf\u00c3\u00a93fd66200f964a52008e91ee3",
    "time": "2013-01-27"
  },
  {
    "place": "Gym / Fitness Center49c943d2f964a5204f581fe3",
    "time": "2013-01-27"
  },
  {
    "place": "American Restaurant4bbe12bd8a4fb713bdcd3d9d",
    "time": "2013-01-28"
  },
  {
    "place": "Coffee Shop4f5e82dae4b01989c438cbb6",
    "time": "2013-01-28"
  },
  {
    "place": "Gym / Fitness Center4a047a18f964a520ff711fe3",
    "time": "2013-01-28"
  },
  {
    "place": "Gym / Fitness Center42af6f80f964a5205a251fe3",
    "time": "2013-01-29"
  },
  {
    "place": "Office4dda5f517d8b32266434825b",
    "time": "2013-01-29"
  },
  {
    "place": "Coffee Shop4e6fe48c1fc7d3fc71285ec2",
    "time": "2013-01-30"
  },
  {
    "place": "Gym / Fitness Center49c943d2f964a5204f581fe3",
    "time": "2013-01-31"
  },
  {
    "place": "Office4dda5f517d8b32266434825b",
    "time": "2013-01-31"
  },
  {
    "place": "Bar472ba436f964a520ff4b1fe3",
    "time": "2013-02-01"
  },
  {
    "place": "Coffee Shop4e6fe48c1fc7d3fc71285ec2",
    "time": "2013-02-01"
  },
  {
    "place": "Gastropub4cccb964c9b8468815d4bec3",
    "time": "2013-02-02"
  },
  {
    "place": "Beer Garden4eefd4506d86d722df8fd52e",
    "time": "2013-02-02"
  },
  {
    "place": "Moving Target510c9f9de4b0ec5cc005fc87",
    "time": "2013-02-02"
  },
  {
    "place": "Bar451aa7d8f964a520653a1fe3",
    "time": "2013-02-02"
  },
  {
    "place": "Cuban Restaurant4a0fc3c8f964a52085761fe3",
    "time": "2013-02-02"
  },
  {
    "place": "Bar3fd66200f964a5202fe41ee3",
    "time": "2013-02-02"
  },
  {
    "place": "Gym / Fitness Center4a888403f964a520bb0620e3",
    "time": "2013-02-03"
  },
  {
    "place": "Bar4f9dc664e4b0b04585eafc64",
    "time": "2013-02-03"
  },
  {
    "place": "Coffee Shop460ab8cdf964a520f1441fe3",
    "time": "2013-02-03"
  },
  {
    "place": "Bar4d5b409222ad2d43527ce695",
    "time": "2013-02-03"
  },
  {
    "place": "Coffee Shop4e6fe48c1fc7d3fc71285ec2",
    "time": "2013-02-05"
  },
  {
    "place": "Office4dda5f517d8b32266434825b",
    "time": "2013-02-05"
  },
  {
    "place": "Coffee Shop4e6fe48c1fc7d3fc71285ec2",
    "time": "2013-02-06"
  },
  {
    "place": "Coffee Shop4afb634af964a520951d22e3",
    "time": "2013-02-06"
  },
  {
    "place": "Office4dda5f517d8b32266434825b",
    "time": "2013-02-07"
  },
  {
    "place": "Sandwich Place4b395c58f964a5204e5b25e3",
    "time": "2013-02-07"
  },
  {
    "place": "Sandwich Place4b395c58f964a5204e5b25e3",
    "time": "2013-02-07"
  },
  {
    "place": "Salon / Barbershop4e2603571f6e58da2b1b6495",
    "time": "2013-02-07"
  },
  {
    "place": "Coffee Shop4e6fe48c1fc7d3fc71285ec2",
    "time": "2013-02-07"
  },
  {
    "place": "Office4dda5f517d8b32266434825b",
    "time": "2013-02-07"
  },
  {
    "place": "Gym / Fitness Center42af6f80f964a5205a251fe3",
    "time": "2013-02-08"
  },
  {
    "place": "Bar4197f180f964a5201f1e1fe3",
    "time": "2013-02-08"
  },
  {
    "place": "Bar4c7ecc952042b1f79b0dc1ad",
    "time": "2013-02-08"
  },
  {
    "place": "Coffee Shop49d0cebcf964a520345b1fe3",
    "time": "2013-02-10"
  },
  {
    "place": "Gym / Fitness Center49c943d2f964a5204f581fe3",
    "time": "2013-02-10"
  },
  {
    "place": "Coffee Shop4e6fe48c1fc7d3fc71285ec2",
    "time": "2013-02-11"
  },
  {
    "place": "Office4dda5f517d8b32266434825b",
    "time": "2013-02-11"
  },
  {
    "place": "Gym / Fitness Center4a047a18f964a520ff711fe3",
    "time": "2013-02-11"
  },
  {
    "place": "Coffee Shop4e6fe48c1fc7d3fc71285ec2",
    "time": "2013-02-12"
  },
  {
    "place": "American Restaurant4bbe12bd8a4fb713bdcd3d9d",
    "time": "2013-02-12"
  },
  {
    "place": "Gym / Fitness Center49c943d2f964a5204f581fe3",
    "time": "2013-02-12"
  },
  {
    "place": "Salon / Barbershop4b0c5f4ff964a520043c23e3",
    "time": "2013-02-13"
  },
  {
    "place": "Office4dda5f517d8b32266434825b",
    "time": "2013-02-13"
  },
  {
    "place": "Salon / Barbershop4e2603571f6e58da2b1b6495",
    "time": "2013-02-14"
  }
]