[
  {
    "place": "Bar4a89fe91f964a5209b0920e3",
    "time": "2012-04-04"
  },
  {
    "place": "Diner4abe363df964a520fa8b20e3",
    "time": "2012-04-04"
  },
  {
    "place": "Burger Joint4c2392cd99282d7f11e468b0",
    "time": "2012-04-04"
  },
  {
    "place": "Theater4a0b05a7f964a520bb741fe3",
    "time": "2012-04-04"
  },
  {
    "place": "Diner4abe363df964a520fa8b20e3",
    "time": "2012-04-06"
  },
  {
    "place": "Breakfast Spot4a1a4dcbf964a520927a1fe3",
    "time": "2012-04-09"
  },
  {
    "place": "Caf\u00c3\u00a94e77e40118387f865961f673",
    "time": "2012-04-11"
  },
  {
    "place": "Bakery45040d24f964a520de381fe3",
    "time": "2012-04-11"
  },
  {
    "place": "Salon / Barbershop4ace6d72f964a5207bd020e3",
    "time": "2012-04-11"
  },
  {
    "place": "Bar48a1f305f964a5208d511fe3",
    "time": "2012-04-12"
  },
  {
    "place": "Caf\u00c3\u00a94e77e40118387f865961f673",
    "time": "2012-04-13"
  },
  {
    "place": "Diner4abe363df964a520fa8b20e3",
    "time": "2012-04-13"
  },
  {
    "place": "Theater4f58f40ea17c26a601788335",
    "time": "2012-04-13"
  },
  {
    "place": "Movie Theater40afe980f964a5203bf31ee3",
    "time": "2012-04-14"
  },
  {
    "place": "Museum42893400f964a52055231fe3",
    "time": "2012-04-14"
  },
  {
    "place": "General Entertainment4afc395ff964a520a12022e3",
    "time": "2012-04-14"
  },
  {
    "place": "Theater4ad90280f964a520161721e3",
    "time": "2012-04-15"
  },
  {
    "place": "Bar48a1f305f964a5208d511fe3",
    "time": "2012-04-15"
  },
  {
    "place": "General Entertainment4f72e93ee4b04cc205ef1ff1",
    "time": "2012-04-15"
  },
  {
    "place": "Caf\u00c3\u00a94e77e40118387f865961f673",
    "time": "2012-04-15"
  },
  {
    "place": "American Restaurant49caa774f964a520d1581fe3",
    "time": "2012-04-16"
  },
  {
    "place": "American Restaurant4b69fac5f964a5207abf2be3",
    "time": "2012-04-17"
  },
  {
    "place": "Movie Theater451d2920f964a5208d3a1fe3",
    "time": "2012-04-17"
  },
  {
    "place": "Caf\u00c3\u00a94e77e40118387f865961f673",
    "time": "2012-04-18"
  },
  {
    "place": "Movie Theater49f7456af964a5207b6c1fe3",
    "time": "2012-04-19"
  },
  {
    "place": "French Restaurant3fd66200f964a52044e91ee3",
    "time": "2012-04-20"
  },
  {
    "place": "Caf\u00c3\u00a94e77e40118387f865961f673",
    "time": "2012-04-20"
  },
  {
    "place": "Bar48a1f305f964a5208d511fe3",
    "time": "2012-04-20"
  },
  {
    "place": "Bar48a1f305f964a5208d511fe3",
    "time": "2012-04-20"
  },
  {
    "place": "Movie Theater4a4138ebf964a520f9a41fe3",
    "time": "2012-04-21"
  },
  {
    "place": "Other Great Outdoors4c06f411b4aa0f47c2f46462",
    "time": "2012-04-21"
  },
  {
    "place": "Restaurant3fd66200f964a52057e31ee3",
    "time": "2012-04-22"
  },
  {
    "place": "Movie Theater49f7456af964a5207b6c1fe3",
    "time": "2012-04-22"
  },
  {
    "place": "Diner4abe363df964a520fa8b20e3",
    "time": "2012-04-22"
  },
  {
    "place": "Pizza Place4ac24c01f964a5209d9820e3",
    "time": "2012-04-22"
  },
  {
    "place": "Movie Theater4a4138ebf964a520f9a41fe3",
    "time": "2012-04-22"
  },
  {
    "place": "Movie Theater49f7456af964a5207b6c1fe3",
    "time": "2012-04-22"
  },
  {
    "place": "American Restaurant49ce7e48f964a5204a5a1fe3",
    "time": "2012-04-23"
  },
  {
    "place": "Bar48a1f305f964a5208d511fe3",
    "time": "2012-04-23"
  },
  {
    "place": "Coffee Shop4a718a5af964a52041d91fe3",
    "time": "2012-04-24"
  },
  {
    "place": "Burger Joint4ac936d3f964a5202bbf20e3",
    "time": "2012-04-25"
  },
  {
    "place": "Park4be1dcc440c0ef3b2f5cbed6",
    "time": "2012-04-25"
  },
  {
    "place": "American Restaurant4b69fac5f964a5207abf2be3",
    "time": "2012-04-28"
  },
  {
    "place": "Airport4af23a4af964a520c2e621e3",
    "time": "2012-04-28"
  },
  {
    "place": "Airport4459d2f1f964a520d7321fe3",
    "time": "2012-05-04"
  },
  {
    "place": "Thai Restaurant4f47d688e4b0d125f5871461",
    "time": "2012-05-04"
  },
  {
    "place": "Movie Theater45b893e3f964a520cf411fe3",
    "time": "2012-05-05"
  },
  {
    "place": "Caf\u00c3\u00a94e77e40118387f865961f673",
    "time": "2012-05-05"
  },
  {
    "place": "Performing Arts Venue4ba7e2c8f964a520d9bb39e3",
    "time": "2012-05-06"
  },
  {
    "place": "Food & Drink Shop4530db29f964a520613b1fe3",
    "time": "2012-05-06"
  },
  {
    "place": "Movie Theater4a57ec9ff964a52015b71fe3",
    "time": "2012-05-07"
  },
  {
    "place": "Movie Theater49e17f24f964a520d1611fe3",
    "time": "2012-05-09"
  },
  {
    "place": "Event Space4aa4727af964a520d44620e3",
    "time": "2012-05-10"
  },
  {
    "place": "Caf\u00c3\u00a94e77e40118387f865961f673",
    "time": "2012-05-11"
  },
  {
    "place": "Theater48e480eef964a52022521fe3",
    "time": "2012-05-12"
  },
  {
    "place": "Park4be1dcc440c0ef3b2f5cbed6",
    "time": "2012-05-12"
  },
  {
    "place": "Other Great Outdoors4c06f411b4aa0f47c2f46462",
    "time": "2012-05-12"
  },
  {
    "place": "French Restaurant3fd66200f964a520cbe91ee3",
    "time": "2012-05-12"
  },
  {
    "place": "Theater4b53367af964a5208e9227e3",
    "time": "2012-05-12"
  },
  {
    "place": "Bar42055e00f964a520681f1fe3",
    "time": "2012-05-13"
  },
  {
    "place": "Caf\u00c3\u00a94e77e40118387f865961f673",
    "time": "2012-05-13"
  },
  {
    "place": "Diner4abe363df964a520fa8b20e3",
    "time": "2012-05-13"
  },
  {
    "place": "Theater4bb3e1fd87aa9521fb9aacd1",
    "time": "2012-05-13"
  },
  {
    "place": "Gym / Fitness Center4b538c3cf964a520a4a127e3",
    "time": "2012-05-14"
  },
  {
    "place": "Theater4b9fc175f964a520b53b37e3",
    "time": "2012-05-15"
  },
  {
    "place": "Bar49e65e6cf964a5203e641fe3",
    "time": "2012-05-17"
  },
  {
    "place": "Seafood Restaurant4cc9a5760f7bef3b5f9c7fdd",
    "time": "2012-05-18"
  },
  {
    "place": "Bar48a1f305f964a5208d511fe3",
    "time": "2012-05-19"
  },
  {
    "place": "Performing Arts Venue4ba7e2c8f964a520d9bb39e3",
    "time": "2012-05-19"
  },
  {
    "place": "Gym / Fitness Center4b538c3cf964a520a4a127e3",
    "time": "2012-05-21"
  },
  {
    "place": "Vegetarian / Vegan Restaurant482c3fdbf964a520d04f1fe3",
    "time": "2012-05-21"
  },
  {
    "place": "Bar3fd66200f964a5200ae71ee3",
    "time": "2012-05-22"
  },
  {
    "place": "Bar48a1f305f964a5208d511fe3",
    "time": "2012-05-24"
  },
  {
    "place": "Park4be1dcc440c0ef3b2f5cbed6",
    "time": "2012-05-25"
  },
  {
    "place": "Bar4a0b79cff964a520fc741fe3",
    "time": "2012-06-03"
  },
  {
    "place": "Movie Theater49e17f24f964a520d1611fe3",
    "time": "2012-06-06"
  },
  {
    "place": "Park4be1dcc440c0ef3b2f5cbed6",
    "time": "2012-06-07"
  },
  {
    "place": "Movie Theater49e17f24f964a520d1611fe3",
    "time": "2012-06-10"
  },
  {
    "place": "Park4be1dcc440c0ef3b2f5cbed6",
    "time": "2012-06-11"
  },
  {
    "place": "Caf\u00c3\u00a94e77e40118387f865961f673",
    "time": "2012-06-12"
  },
  {
    "place": "Bar4a89fe91f964a5209b0920e3",
    "time": "2012-06-13"
  },
  {
    "place": "Bakery4cacbbca97c8a1cd0d7ba3a5",
    "time": "2012-06-13"
  },
  {
    "place": "College Theater4b17dfcef964a52021c923e3",
    "time": "2012-06-13"
  },
  {
    "place": "Hotel44ac05cef964a5200c351fe3",
    "time": "2012-06-14"
  },
  {
    "place": "Caf\u00c3\u00a94e77e40118387f865961f673",
    "time": "2012-06-21"
  },
  {
    "place": "Movie Theater40afe980f964a5203bf31ee3",
    "time": "2012-06-30"
  },
  {
    "place": "Bar4a0b79cff964a520fc741fe3",
    "time": "2012-07-01"
  },
  {
    "place": "Music Venue4d33d64b6c7c721ea10fbd56",
    "time": "2012-07-01"
  },
  {
    "place": "Bar48a1f305f964a5208d511fe3",
    "time": "2012-07-01"
  },
  {
    "place": "Caf\u00c3\u00a94e77e40118387f865961f673",
    "time": "2012-07-06"
  },
  {
    "place": "Performing Arts Venue4ba7e2c8f964a520d9bb39e3",
    "time": "2012-07-07"
  },
  {
    "place": "Movie Theater4a7cd0bcf964a520bced1fe3",
    "time": "2012-07-07"
  },
  {
    "place": "Music Venue47ea2d31f964a520644e1fe3",
    "time": "2012-07-13"
  },
  {
    "place": "Bar49d3b562f964a520095c1fe3",
    "time": "2012-07-13"
  },
  {
    "place": "Bar4a89fe91f964a5209b0920e3",
    "time": "2012-07-14"
  },
  {
    "place": "Caf\u00c3\u00a94e77e40118387f865961f673",
    "time": "2012-07-14"
  },
  {
    "place": "Bar48a1f305f964a5208d511fe3",
    "time": "2012-07-16"
  },
  {
    "place": "Music Venue4d33d64b6c7c721ea10fbd56",
    "time": "2012-07-17"
  },
  {
    "place": "Vegetarian / Vegan Restaurant4b37e817f964a5205e4825e3",
    "time": "2012-07-17"
  },
  {
    "place": "General Entertainment4f4eef4ce4b0162f4d62985b",
    "time": "2012-07-17"
  },
  {
    "place": "Bar48a1f305f964a5208d511fe3",
    "time": "2012-07-18"
  },
  {
    "place": "American Restaurant4faad0484fc68152ec7e368c",
    "time": "2012-07-28"
  },
  {
    "place": "Department Store4a0eb511f964a520ea751fe3",
    "time": "2012-07-28"
  },
  {
    "place": "Diner4abe363df964a520fa8b20e3",
    "time": "2012-07-29"
  },
  {
    "place": "Sushi Restaurant4a2c39b3f964a52036971fe3",
    "time": "2012-08-10"
  },
  {
    "place": "Music Venue3fd66200f964a520f7e51ee3",
    "time": "2012-08-12"
  },
  {
    "place": "Caf\u00c3\u00a94e77e40118387f865961f673",
    "time": "2012-08-12"
  },
  {
    "place": "Bar4a89fe91f964a5209b0920e3",
    "time": "2012-08-19"
  },
  {
    "place": "Bar48a1f305f964a5208d511fe3",
    "time": "2012-08-18"
  },
  {
    "place": "Caf\u00c3\u00a94e77e40118387f865961f673",
    "time": "2012-08-18"
  },
  {
    "place": "Diner49eb56f6f964a520c5661fe3",
    "time": "2012-09-15"
  },
  {
    "place": "Music Venue4d33d64b6c7c721ea10fbd56",
    "time": "2012-09-16"
  },
  {
    "place": "Bar48a1f305f964a5208d511fe3",
    "time": "2012-09-16"
  },
  {
    "place": "Bakery4cacbbca97c8a1cd0d7ba3a5",
    "time": "2012-10-03"
  },
  {
    "place": "Bar4a89fe91f964a5209b0920e3",
    "time": "2012-10-19"
  },
  {
    "place": "Bar4a89fe91f964a5209b0920e3",
    "time": "2012-10-24"
  },
  {
    "place": "General Entertainment4c237ddbaa8e9c7467b2f4d4",
    "time": "2012-11-06"
  },
  {
    "place": "Caf\u00c3\u00a94e77e40118387f865961f673",
    "time": "2012-11-11"
  },
  {
    "place": "Movie Theater49e17f24f964a520d1611fe3",
    "time": "2012-11-12"
  },
  {
    "place": "Coffee Shop4ac7a552f964a520c2b820e3",
    "time": "2012-11-15"
  },
  {
    "place": "Mexican Restaurant4a8efd30f964a5207b1320e3",
    "time": "2012-11-16"
  },
  {
    "place": "Theater50872cf2e4b0888769242b04",
    "time": "2012-11-16"
  },
  {
    "place": "Caf\u00c3\u00a94e77e40118387f865961f673",
    "time": "2012-11-16"
  },
  {
    "place": "Thai Restaurant45e3d74bf964a52038431fe3",
    "time": "2012-11-16"
  },
  {
    "place": "American Restaurant4faad0484fc68152ec7e368c",
    "time": "2012-11-17"
  },
  {
    "place": "Bar48a1f305f964a5208d511fe3",
    "time": "2012-11-18"
  },
  {
    "place": "Caf\u00c3\u00a94e77e40118387f865961f673",
    "time": "2012-11-20"
  },
  {
    "place": "Bakery45040d24f964a520de381fe3",
    "time": "2012-11-20"
  },
  {
    "place": "Bar4a89fe91f964a5209b0920e3",
    "time": "2012-11-28"
  },
  {
    "place": "Caf\u00c3\u00a94e77e40118387f865961f673",
    "time": "2012-11-29"
  },
  {
    "place": "Caf\u00c3\u00a94e77e40118387f865961f673",
    "time": "2012-12-02"
  },
  {
    "place": "Bar48a1f305f964a5208d511fe3",
    "time": "2012-12-06"
  },
  {
    "place": "Bar48a1f305f964a5208d511fe3",
    "time": "2012-12-08"
  },
  {
    "place": "Bar4a0b79cff964a520fc741fe3",
    "time": "2012-12-08"
  },
  {
    "place": "American Restaurant49caa774f964a520d1581fe3",
    "time": "2012-12-09"
  },
  {
    "place": "Caf\u00c3\u00a94e77e40118387f865961f673",
    "time": "2012-12-11"
  },
  {
    "place": "Coffee Shop4a7fe4e2f964a5208ef41fe3",
    "time": "2012-12-16"
  },
  {
    "place": "American Restaurant4858e6b4f964a520c0501fe3",
    "time": "2012-12-18"
  },
  {
    "place": "Bar4a0b79cff964a520fc741fe3",
    "time": "2012-12-18"
  },
  {
    "place": "Bar4a89fe91f964a5209b0920e3",
    "time": "2012-12-19"
  },
  {
    "place": "Bar48a1f305f964a5208d511fe3",
    "time": "2012-12-20"
  },
  {
    "place": "Bar48a1f305f964a5208d511fe3",
    "time": "2012-12-21"
  },
  {
    "place": "Theater4a876b15f964a5204b0420e3",
    "time": "2012-12-22"
  },
  {
    "place": "Caf\u00c3\u00a94e77e40118387f865961f673",
    "time": "2012-12-28"
  },
  {
    "place": "Caf\u00c3\u00a94e77e40118387f865961f673",
    "time": "2012-12-30"
  },
  {
    "place": "Bar4a89fe91f964a5209b0920e3",
    "time": "2013-01-09"
  },
  {
    "place": "Caf\u00c3\u00a94e77e40118387f865961f673",
    "time": "2013-01-11"
  },
  {
    "place": "Mexican Restaurant4a746f9bf964a52023de1fe3",
    "time": "2013-01-13"
  },
  {
    "place": "Caf\u00c3\u00a94e77e40118387f865961f673",
    "time": "2013-01-17"
  },
  {
    "place": "Bar48a1f305f964a5208d511fe3",
    "time": "2013-01-17"
  },
  {
    "place": "Bar40a16900f964a520f9f21ee3",
    "time": "2013-01-27"
  },
  {
    "place": "Caf\u00c3\u00a94e77e40118387f865961f673",
    "time": "2013-01-31"
  },
  {
    "place": "Bar48a1f305f964a5208d511fe3",
    "time": "2013-02-04"
  },
  {
    "place": "Bar48a1f305f964a5208d511fe3",
    "time": "2013-02-07"
  },
  {
    "place": "Bar42055e00f964a520681f1fe3",
    "time": "2013-02-11"
  },
  {
    "place": "Airport4ace6c89f964a52078d020e3",
    "time": "2013-02-12"
  }
]