[
  {
    "place": "Office4ba0e0edf964a520138437e3",
    "time": "2012-04-03"
  },
  {
    "place": "BBQ Joint4b8ecf45f964a520843833e3",
    "time": "2012-04-04"
  },
  {
    "place": "Office4ba0e0edf964a520138437e3",
    "time": "2012-04-04"
  },
  {
    "place": "Office4ba0e0edf964a520138437e3",
    "time": "2012-04-09"
  },
  {
    "place": "Office4ba0e0edf964a520138437e3",
    "time": "2012-04-09"
  },
  {
    "place": "Office4ba0e0edf964a520138437e3",
    "time": "2012-04-09"
  },
  {
    "place": "Office4ba0e0edf964a520138437e3",
    "time": "2012-04-09"
  },
  {
    "place": "General Travel4c3ce01ca97bbe9a401dfbdd",
    "time": "2012-04-09"
  },
  {
    "place": "Gas Station / Garage4c8916a094f5a093981ed51e",
    "time": "2012-04-09"
  },
  {
    "place": "Home (private)4be84736947820a135b3b4db",
    "time": "2012-04-10"
  },
  {
    "place": "Bridge4aea4ec4f964a520eaba21e3",
    "time": "2012-04-10"
  },
  {
    "place": "Bank4c546de6fd2ea593a760172a",
    "time": "2012-04-11"
  },
  {
    "place": "Office4ba0e0edf964a520138437e3",
    "time": "2012-04-11"
  },
  {
    "place": "American Restaurant4c1c08e4b306c928143e63b7",
    "time": "2012-04-11"
  },
  {
    "place": "Office4ba0e0edf964a520138437e3",
    "time": "2012-04-11"
  },
  {
    "place": "Road4bb1e1c1f964a52048a83ce3",
    "time": "2012-04-11"
  },
  {
    "place": "Office4ba0e0edf964a520138437e3",
    "time": "2012-04-12"
  },
  {
    "place": "Bank4b0c60e6f964a520263c23e3",
    "time": "2012-04-12"
  },
  {
    "place": "Office4ba0e0edf964a520138437e3",
    "time": "2012-04-12"
  },
  {
    "place": "Office4ba0e0edf964a520138437e3",
    "time": "2012-04-13"
  },
  {
    "place": "Drugstore / Pharmacy4a9198f3f964a520df1a20e3",
    "time": "2012-04-13"
  },
  {
    "place": "Office4ba0e0edf964a520138437e3",
    "time": "2012-04-13"
  },
  {
    "place": "Arcade4b749b55f964a5205be72de3",
    "time": "2012-04-14"
  },
  {
    "place": "Office4ba0e0edf964a520138437e3",
    "time": "2012-04-16"
  },
  {
    "place": "BBQ Joint4a84a143f964a52028fd1fe3",
    "time": "2012-04-16"
  },
  {
    "place": "Park3fd66200f964a520def11ee3",
    "time": "2012-04-16"
  },
  {
    "place": "Bank4c546de6fd2ea593a760172a",
    "time": "2012-04-17"
  },
  {
    "place": "Seafood Restaurant3fd66200f964a5206ce41ee3",
    "time": "2012-04-17"
  },
  {
    "place": "Government Building4c07e45e6071a5936660db32",
    "time": "2012-04-17"
  },
  {
    "place": "Office4ba0e0edf964a520138437e3",
    "time": "2012-04-17"
  },
  {
    "place": "Burger Joint4d5062b04015b1f769bb65cf",
    "time": "2012-04-17"
  },
  {
    "place": "Building4f6c8aaae4b0725b604334ac",
    "time": "2012-04-18"
  },
  {
    "place": "Fast Food Restaurant4bd71c616f649521e8f371ec",
    "time": "2012-04-18"
  },
  {
    "place": "Gas Station / Garage4de4683f45dd180ae575644b",
    "time": "2012-04-18"
  },
  {
    "place": "Concert Hall4b6da712f964a52080832ce3",
    "time": "2012-04-18"
  },
  {
    "place": "Deli / Bodega4b849b16f964a520f43d31e3",
    "time": "2012-04-19"
  },
  {
    "place": "Bank4b60ad00f964a52084f329e3",
    "time": "2012-04-19"
  },
  {
    "place": "Office4ba0e0edf964a520138437e3",
    "time": "2012-04-20"
  },
  {
    "place": "Bank4ba0feb2f964a5202c8d37e3",
    "time": "2012-04-20"
  },
  {
    "place": "Food & Drink Shop49c27575f964a520f1551fe3",
    "time": "2012-04-20"
  },
  {
    "place": "Office4ba0e0edf964a520138437e3",
    "time": "2012-04-23"
  },
  {
    "place": "Office4b6247dff964a52022402ae3",
    "time": "2012-04-23"
  },
  {
    "place": "Chinese Restaurant4ace96a9f964a52055d120e3",
    "time": "2012-04-23"
  },
  {
    "place": "Office4ba0e0edf964a520138437e3",
    "time": "2012-04-23"
  },
  {
    "place": "Residential Building (Apartment / Condo)4bb1529df964a5203a8c3ce3",
    "time": "2012-04-23"
  },
  {
    "place": "Convenience Store4c5deacad25320a1f57dc77a",
    "time": "2012-04-23"
  },
  {
    "place": "Office4ba0e0edf964a520138437e3",
    "time": "2012-04-24"
  },
  {
    "place": "Building4d1e0b68f7a9a143924b169f",
    "time": "2012-04-24"
  },
  {
    "place": "Bank4ba0feb2f964a5202c8d37e3",
    "time": "2012-04-24"
  },
  {
    "place": "Office4ba0e0edf964a520138437e3",
    "time": "2012-04-24"
  },
  {
    "place": "Office4b4752f1f964a520e62e26e3",
    "time": "2012-04-25"
  },
  {
    "place": "Office4b71f7a3f964a52045672de3",
    "time": "2012-04-25"
  },
  {
    "place": "Office4ba0e0edf964a520138437e3",
    "time": "2012-04-25"
  },
  {
    "place": "Drugstore / Pharmacy4a9198f3f964a520df1a20e3",
    "time": "2012-04-25"
  },
  {
    "place": "Office4ba0e0edf964a520138437e3",
    "time": "2012-04-26"
  },
  {
    "place": "Government Building4e42e59dd164e180fb827f4b",
    "time": "2012-04-27"
  },
  {
    "place": "Office4ba0e0edf964a520138437e3",
    "time": "2012-04-27"
  },
  {
    "place": "Food & Drink Shop49c27575f964a520f1551fe3",
    "time": "2012-04-27"
  },
  {
    "place": "Breakfast Spot4f293f0ce4b020568642f730",
    "time": "2012-04-27"
  },
  {
    "place": "Office4ba0e0edf964a520138437e3",
    "time": "2012-04-27"
  },
  {
    "place": "Office4ba0e0edf964a520138437e3",
    "time": "2012-04-27"
  },
  {
    "place": "Clothing Store4b32ba98f964a520c21225e3",
    "time": "2012-04-27"
  },
  {
    "place": "Office4ba0e0edf964a520138437e3",
    "time": "2012-05-01"
  },
  {
    "place": "Gas Station / Garage4cbde1b043ec6dcbc4c5b931",
    "time": "2012-05-01"
  },
  {
    "place": "Breakfast Spot4f293f0ce4b020568642f730",
    "time": "2012-05-03"
  },
  {
    "place": "Office4ba0e0edf964a520138437e3",
    "time": "2012-05-03"
  },
  {
    "place": "Drugstore / Pharmacy4ba57508f964a520160939e3",
    "time": "2012-05-04"
  },
  {
    "place": "Office4e9858626c25f5286069fc66",
    "time": "2012-05-04"
  },
  {
    "place": "Office4ba0e0edf964a520138437e3",
    "time": "2012-05-04"
  },
  {
    "place": "Food & Drink Shop4f00cbfc0aaffcf6f55290b7",
    "time": "2012-05-04"
  },
  {
    "place": "Gas Station / Garage4de4683f45dd180ae575644b",
    "time": "2012-05-04"
  },
  {
    "place": "Movie Theater4bda5808a8d976b0c67e0cb5",
    "time": "2012-05-04"
  },
  {
    "place": "Bridge4c063ac9d3842d7f1c3fbf41",
    "time": "2012-05-05"
  },
  {
    "place": "Bridge4a43c0aef964a520c6a61fe3",
    "time": "2012-05-05"
  },
  {
    "place": "Pizza Place4b3eaefff964a520bfa025e3",
    "time": "2012-05-05"
  },
  {
    "place": "Pizza Place4bb6dd862ea19521855dac2f",
    "time": "2012-05-06"
  },
  {
    "place": "Food & Drink Shop4f00cbfc0aaffcf6f55290b7",
    "time": "2012-05-06"
  },
  {
    "place": "Office4ba0e0edf964a520138437e3",
    "time": "2012-05-07"
  },
  {
    "place": "Building4c3665a93849c928b900bcb1",
    "time": "2012-05-07"
  },
  {
    "place": "Government Building4c07e45e6071a5936660db32",
    "time": "2012-05-07"
  },
  {
    "place": "Office4ba0e0edf964a520138437e3",
    "time": "2012-05-07"
  },
  {
    "place": "Bridge4a43c0aef964a520c6a61fe3",
    "time": "2012-05-07"
  },
  {
    "place": "Bank4b60ad00f964a52084f329e3",
    "time": "2012-05-07"
  },
  {
    "place": "Office4ba0e0edf964a520138437e3",
    "time": "2012-05-08"
  },
  {
    "place": "Gas Station / Garage4b6784b5f964a5207c532be3",
    "time": "2012-05-08"
  },
  {
    "place": "Office4f996d35e4b0b41ef37c61ff",
    "time": "2012-05-09"
  },
  {
    "place": "Office4ba0e0edf964a520138437e3",
    "time": "2012-05-09"
  },
  {
    "place": "Bridge4a43c0aef964a520c6a61fe3",
    "time": "2012-05-09"
  },
  {
    "place": "Bank4b60ad00f964a52084f329e3",
    "time": "2012-05-09"
  },
  {
    "place": "Mexican Restaurant4a749103f964a520a2de1fe3",
    "time": "2012-05-10"
  },
  {
    "place": "Office4ba0e0edf964a520138437e3",
    "time": "2012-05-10"
  },
  {
    "place": "Drugstore / Pharmacy4a9198f3f964a520df1a20e3",
    "time": "2012-05-10"
  },
  {
    "place": "Government Building4f05d6a1e3002adb76a57deb",
    "time": "2012-05-10"
  },
  {
    "place": "Bridge4a32c3f9f964a5208c9a1fe3",
    "time": "2012-05-10"
  },
  {
    "place": "Bridge4a43c0aef964a520c6a61fe3",
    "time": "2012-05-10"
  },
  {
    "place": "Bank4b60ad00f964a52084f329e3",
    "time": "2012-05-10"
  },
  {
    "place": "Gas Station / Garage4e0a325562e1198aafe15719",
    "time": "2012-05-11"
  },
  {
    "place": "Office4ba0e0edf964a520138437e3",
    "time": "2012-05-11"
  },
  {
    "place": "Government Building4c07e45e6071a5936660db32",
    "time": "2012-05-11"
  },
  {
    "place": "Office4ba0e0edf964a520138437e3",
    "time": "2012-05-11"
  },
  {
    "place": "Bridge4be5dfe9910020a13ea2d314",
    "time": "2012-05-11"
  },
  {
    "place": "Road4bb1e1c1f964a52048a83ce3",
    "time": "2012-05-11"
  },
  {
    "place": "Drugstore / Pharmacy4b524911f964a520f07427e3",
    "time": "2012-05-11"
  },
  {
    "place": "Office4ba0e0edf964a520138437e3",
    "time": "2012-05-14"
  },
  {
    "place": "Office4f996d35e4b0b41ef37c61ff",
    "time": "2012-05-14"
  },
  {
    "place": "Office4ba0e0edf964a520138437e3",
    "time": "2012-05-14"
  },
  {
    "place": "Bridge4a32c3f9f964a5208c9a1fe3",
    "time": "2012-05-14"
  },
  {
    "place": "Bank4b60ad00f964a52084f329e3",
    "time": "2012-05-14"
  },
  {
    "place": "Gas Station / Garage4bc9270d3740b713f4595e65",
    "time": "2012-05-15"
  },
  {
    "place": "Office4b4752f1f964a520e62e26e3",
    "time": "2012-05-15"
  },
  {
    "place": "Office4ba0e0edf964a520138437e3",
    "time": "2012-05-15"
  },
  {
    "place": "Bridge4a43c0aef964a520c6a61fe3",
    "time": "2012-05-15"
  },
  {
    "place": "Donut Shop4b0d5ed7f964a520104723e3",
    "time": "2012-05-16"
  },
  {
    "place": "Office4ba0e0edf964a520138437e3",
    "time": "2012-05-16"
  },
  {
    "place": "Office4ba0e0edf964a520138437e3",
    "time": "2012-05-16"
  },
  {
    "place": "Garden4bdcdbaec79cc928927688e9",
    "time": "2012-05-16"
  },
  {
    "place": "Office4ba0e0edf964a520138437e3",
    "time": "2012-05-17"
  },
  {
    "place": "Bridge4b342f9df964a520e52525e3",
    "time": "2012-05-17"
  },
  {
    "place": "Deli / Bodega4b849b16f964a520f43d31e3",
    "time": "2012-05-17"
  },
  {
    "place": "Office4fb510a8e4b06fa0ebee1917",
    "time": "2012-05-17"
  },
  {
    "place": "Bank4c2e36ff4e132d7f8cc59ddf",
    "time": "2012-05-17"
  },
  {
    "place": "Office4ba0e0edf964a520138437e3",
    "time": "2012-05-17"
  },
  {
    "place": "Pizza Place4cc6222106c25481d7a4a047",
    "time": "2012-05-17"
  },
  {
    "place": "Office4ba0e0edf964a520138437e3",
    "time": "2012-05-17"
  },
  {
    "place": "Bridge4a43c0aef964a520c6a61fe3",
    "time": "2012-05-17"
  },
  {
    "place": "Bridge4a32c3f9f964a5208c9a1fe3",
    "time": "2012-05-17"
  },
  {
    "place": "Bank4b60ad00f964a52084f329e3",
    "time": "2012-05-17"
  },
  {
    "place": "Deli / Bodega4b849b16f964a520f43d31e3",
    "time": "2012-05-18"
  },
  {
    "place": "Deli / Bodega4b849b16f964a520f43d31e3",
    "time": "2012-05-18"
  },
  {
    "place": "Bridge4a43c0aef964a520c6a61fe3",
    "time": "2012-05-18"
  },
  {
    "place": "Bridge4a32c3f9f964a5208c9a1fe3",
    "time": "2012-05-18"
  },
  {
    "place": "Office4ba0e0edf964a520138437e3",
    "time": "2012-05-18"
  },
  {
    "place": "Government Building4c07e45e6071a5936660db32",
    "time": "2012-05-18"
  },
  {
    "place": "Food & Drink Shop49c27575f964a520f1551fe3",
    "time": "2012-05-18"
  },
  {
    "place": "Office4ba0e0edf964a520138437e3",
    "time": "2012-05-18"
  },
  {
    "place": "Bridge4a43c0aef964a520c6a61fe3",
    "time": "2012-05-18"
  },
  {
    "place": "Fast Food Restaurant4bd873505cf276b00b489d00",
    "time": "2012-05-18"
  },
  {
    "place": "Bank4bb378de715eef3b5e5c86bb",
    "time": "2012-05-19"
  },
  {
    "place": "Gas Station / Garage4bc9270d3740b713f4595e65",
    "time": "2012-05-19"
  },
  {
    "place": "Bridge4b342f9df964a520e52525e3",
    "time": "2012-05-21"
  },
  {
    "place": "Road4bf453a66a31d13a92a0952e",
    "time": "2012-05-21"
  },
  {
    "place": "Office4ba0e0edf964a520138437e3",
    "time": "2012-05-21"
  },
  {
    "place": "Bridge4a43c0aef964a520c6a61fe3",
    "time": "2012-05-21"
  },
  {
    "place": "Office4ba0e0edf964a520138437e3",
    "time": "2012-05-22"
  },
  {
    "place": "Bridge4be5dfe9910020a13ea2d314",
    "time": "2012-05-23"
  },
  {
    "place": "Bridge4a43c0aef964a520c6a61fe3",
    "time": "2012-05-23"
  },
  {
    "place": "Bridge4a32c3f9f964a5208c9a1fe3",
    "time": "2012-05-25"
  },
  {
    "place": "Office4ba0e0edf964a520138437e3",
    "time": "2012-05-25"
  },
  {
    "place": "Automotive Shop4e0234007d8beaa164a21651",
    "time": "2012-05-25"
  },
  {
    "place": "Bridge4a43c0aef964a520c6a61fe3",
    "time": "2012-05-28"
  },
  {
    "place": "Neighborhood4bf5dd175efe2d7f1a3e6634",
    "time": "2012-05-28"
  },
  {
    "place": "Bridge4a43c0aef964a520c6a61fe3",
    "time": "2012-05-29"
  },
  {
    "place": "Bank4bb378de715eef3b5e5c86bb",
    "time": "2012-05-29"
  },
  {
    "place": "Road4be078b398f2a5935a5dc25a",
    "time": "2012-05-29"
  },
  {
    "place": "Office4ba0e0edf964a520138437e3",
    "time": "2012-05-29"
  },
  {
    "place": "Office4ba0e0edf964a520138437e3",
    "time": "2012-05-29"
  },
  {
    "place": "Sporting Goods Shop49e34b16f964a5206f621fe3",
    "time": "2012-05-29"
  },
  {
    "place": "Bridge4a43c0aef964a520c6a61fe3",
    "time": "2012-05-29"
  },
  {
    "place": "Office4b4752f1f964a520e62e26e3",
    "time": "2012-05-31"
  },
  {
    "place": "Office4ba0e0edf964a520138437e3",
    "time": "2012-05-31"
  },
  {
    "place": "Office4b8c0edcf964a52060bb32e3",
    "time": "2012-05-31"
  },
  {
    "place": "Bridge4a32c3f9f964a5208c9a1fe3",
    "time": "2012-05-31"
  },
  {
    "place": "Bridge4b342f9df964a520e52525e3",
    "time": "2012-06-01"
  },
  {
    "place": "Road4bf453a66a31d13a92a0952e",
    "time": "2012-06-01"
  },
  {
    "place": "Road4be078b398f2a5935a5dc25a",
    "time": "2012-06-01"
  },
  {
    "place": "Office4ba0e0edf964a520138437e3",
    "time": "2012-06-01"
  },
  {
    "place": "Bridge4a43c0aef964a520c6a61fe3",
    "time": "2012-06-02"
  },
  {
    "place": "BBQ Joint4c5603283e2220a17f9c43a5",
    "time": "2012-06-03"
  },
  {
    "place": "Office4ba0e0edf964a520138437e3",
    "time": "2012-06-04"
  },
  {
    "place": "Bridge4b342f9df964a520e52525e3",
    "time": "2012-06-05"
  },
  {
    "place": "Gas Station / Garage4e0a325562e1198aafe15719",
    "time": "2012-06-05"
  },
  {
    "place": "Road4bf453a66a31d13a92a0952e",
    "time": "2012-06-05"
  },
  {
    "place": "Road4be078b398f2a5935a5dc25a",
    "time": "2012-06-05"
  },
  {
    "place": "Bridge4a43c0aef964a520c6a61fe3",
    "time": "2012-06-06"
  },
  {
    "place": "Bridge4c1e4a03eac020a1507049c2",
    "time": "2012-06-06"
  },
  {
    "place": "Bridge4b342f9df964a520e52525e3",
    "time": "2012-06-07"
  },
  {
    "place": "Convenience Store4c5deacad25320a1f57dc77a",
    "time": "2012-06-07"
  },
  {
    "place": "Road4bf453a66a31d13a92a0952e",
    "time": "2012-06-07"
  },
  {
    "place": "Road4be078b398f2a5935a5dc25a",
    "time": "2012-06-07"
  },
  {
    "place": "Office4ba0e0edf964a520138437e3",
    "time": "2012-06-07"
  },
  {
    "place": "Bank4ba0feb2f964a5202c8d37e3",
    "time": "2012-06-07"
  },
  {
    "place": "Bridge4c063ac9d3842d7f1c3fbf41",
    "time": "2012-06-07"
  },
  {
    "place": "Drugstore / Pharmacy4b524911f964a520f07427e3",
    "time": "2012-06-08"
  },
  {
    "place": "Office4ba0e0edf964a520138437e3",
    "time": "2012-06-08"
  },
  {
    "place": "Building4b014ad3f964a520fd4122e3",
    "time": "2012-06-08"
  },
  {
    "place": "Bank4ba0feb2f964a5202c8d37e3",
    "time": "2012-06-08"
  },
  {
    "place": "Bridge4a32c3f9f964a5208c9a1fe3",
    "time": "2012-06-08"
  },
  {
    "place": "Bridge4b342f9df964a520e52525e3",
    "time": "2012-06-11"
  },
  {
    "place": "Office4ba0e0edf964a520138437e3",
    "time": "2012-06-11"
  },
  {
    "place": "Bar3fd66200f964a52067e91ee3",
    "time": "2012-06-11"
  },
  {
    "place": "Drugstore / Pharmacy4eb2b70bb63435b07e3715fe",
    "time": "2012-06-11"
  },
  {
    "place": "Office4ba0e0edf964a520138437e3",
    "time": "2012-06-11"
  },
  {
    "place": "Bridge4b342f9df964a520e52525e3",
    "time": "2012-06-12"
  },
  {
    "place": "Gas Station / Garage4ff1b197c593c9d1f5b633ee",
    "time": "2012-06-12"
  },
  {
    "place": "Road4bf453a66a31d13a92a0952e",
    "time": "2012-06-12"
  },
  {
    "place": "Office4ba0e0edf964a520138437e3",
    "time": "2012-06-12"
  },
  {
    "place": "Bridge4be5dfe9910020a13ea2d314",
    "time": "2012-06-12"
  },
  {
    "place": "Bridge4a43c0aef964a520c6a61fe3",
    "time": "2012-06-12"
  },
  {
    "place": "Spiritual Center4d768d2f3798a1cd71aa33ca",
    "time": "2012-06-13"
  },
  {
    "place": "Neighborhood4bf5dd175efe2d7f1a3e6634",
    "time": "2012-06-13"
  },
  {
    "place": "Bank4f24072ce4b0b2f98efa80e8",
    "time": "2012-06-13"
  },
  {
    "place": "Food & Drink Shop4bd2fa61b221c9b6e78dd8d0",
    "time": "2012-06-13"
  },
  {
    "place": "Bridge4b342f9df964a520e52525e3",
    "time": "2012-06-15"
  },
  {
    "place": "Gas Station / Garage4e0a325562e1198aafe15719",
    "time": "2012-06-15"
  },
  {
    "place": "Road4bf453a66a31d13a92a0952e",
    "time": "2012-06-15"
  },
  {
    "place": "Road4be078b398f2a5935a5dc25a",
    "time": "2012-06-15"
  },
  {
    "place": "Office4ba0e0edf964a520138437e3",
    "time": "2012-06-15"
  },
  {
    "place": "Bridge4a32c3f9f964a5208c9a1fe3",
    "time": "2012-06-18"
  },
  {
    "place": "Office4ba0e0edf964a520138437e3",
    "time": "2012-06-18"
  },
  {
    "place": "Bridge4a32c3f9f964a5208c9a1fe3",
    "time": "2012-06-18"
  },
  {
    "place": "Bank4c5b259bb05c1b8d1705dab1",
    "time": "2012-06-18"
  },
  {
    "place": "Office4ba0e0edf964a520138437e3",
    "time": "2012-06-20"
  },
  {
    "place": "Bridge4a32c3f9f964a5208c9a1fe3",
    "time": "2012-06-20"
  },
  {
    "place": "Bridge4a43c0aef964a520c6a61fe3",
    "time": "2012-06-20"
  },
  {
    "place": "Bridge4b342f9df964a520e52525e3",
    "time": "2012-06-21"
  },
  {
    "place": "Office4ba0e0edf964a520138437e3",
    "time": "2012-06-21"
  },
  {
    "place": "Office4ba0e0edf964a520138437e3",
    "time": "2012-06-26"
  },
  {
    "place": "Food & Drink Shop49c27575f964a520f1551fe3",
    "time": "2012-06-26"
  },
  {
    "place": "Residential Building (Apartment / Condo)4e0e5d09d4c0f6d6b3f9b097",
    "time": "2012-06-26"
  },
  {
    "place": "Bridge4a32c3f9f964a5208c9a1fe3",
    "time": "2012-06-26"
  },
  {
    "place": "Bridge4c063ac9d3842d7f1c3fbf41",
    "time": "2012-06-26"
  },
  {
    "place": "Drugstore / Pharmacy4b524911f964a520f07427e3",
    "time": "2012-06-26"
  },
  {
    "place": "Bridge4c063ac9d3842d7f1c3fbf41",
    "time": "2012-06-27"
  },
  {
    "place": "Bridge4a43c0aef964a520c6a61fe3",
    "time": "2012-06-27"
  },
  {
    "place": "Bridge4a32c3f9f964a5208c9a1fe3",
    "time": "2012-06-27"
  },
  {
    "place": "Office4ba0e0edf964a520138437e3",
    "time": "2012-06-27"
  },
  {
    "place": "Bridge4c063ac9d3842d7f1c3fbf41",
    "time": "2012-09-14"
  },
  {
    "place": "Bridge4a43c0aef964a520c6a61fe3",
    "time": "2012-09-14"
  },
  {
    "place": "Office4ba0e0edf964a520138437e3",
    "time": "2012-09-14"
  },
  {
    "place": "Office4ba0e0edf964a520138437e3",
    "time": "2012-09-14"
  },
  {
    "place": "Bank4bb378de715eef3b5e5c86bb",
    "time": "2012-09-15"
  },
  {
    "place": "Office4ba0e0edf964a520138437e3",
    "time": "2012-10-11"
  },
  {
    "place": "Bank4bb378de715eef3b5e5c86bb",
    "time": "2012-10-12"
  },
  {
    "place": "Diner4bc0bdf1b492d13a53c7a460",
    "time": "2012-10-12"
  },
  {
    "place": "Office4ba0e0edf964a520138437e3",
    "time": "2012-10-16"
  },
  {
    "place": "Office50509934e4b0b8484d0a422d",
    "time": "2012-10-18"
  },
  {
    "place": "Office4ba0e0edf964a520138437e3",
    "time": "2012-10-19"
  },
  {
    "place": "Bank4f7f1b3ae4b079381bd5f239",
    "time": "2012-10-23"
  },
  {
    "place": "Office4ba0e0edf964a520138437e3",
    "time": "2012-10-23"
  },
  {
    "place": "Office4ba0e0edf964a520138437e3",
    "time": "2012-10-24"
  },
  {
    "place": "Office4b842d41f964a520b32531e3",
    "time": "2012-10-24"
  },
  {
    "place": "Medical Center5023ee7ae4b09c2bc131c746",
    "time": "2012-10-24"
  },
  {
    "place": "Food & Drink Shop4f00cbfc0aaffcf6f55290b7",
    "time": "2012-10-25"
  },
  {
    "place": "Office4ba0e0edf964a520138437e3",
    "time": "2012-11-05"
  },
  {
    "place": "Office4ba0e0edf964a520138437e3",
    "time": "2012-11-06"
  },
  {
    "place": "Office4ba0e0edf964a520138437e3",
    "time": "2012-11-07"
  },
  {
    "place": "Other Great Outdoors4e25b401a80967678ca74e90",
    "time": "2012-11-16"
  },
  {
    "place": "Deli / Bodega4b849b16f964a520f43d31e3",
    "time": "2012-11-17"
  },
  {
    "place": "Burger Joint4606214ef964a520c6441fe3",
    "time": "2012-11-17"
  },
  {
    "place": "Neighborhood4bf5dd175efe2d7f1a3e6634",
    "time": "2012-11-17"
  },
  {
    "place": "Office4e9858626c25f5286069fc66",
    "time": "2012-11-19"
  },
  {
    "place": "Bank4b60ad00f964a52084f329e3",
    "time": "2012-11-20"
  },
  {
    "place": "Bank4bdae4133904a59304bd479e",
    "time": "2012-11-20"
  },
  {
    "place": "Bank4b60ad00f964a52084f329e3",
    "time": "2012-11-21"
  },
  {
    "place": "Bank4b0c60e6f964a520263c23e3",
    "time": "2012-11-21"
  },
  {
    "place": "BBQ Joint4a84a143f964a52028fd1fe3",
    "time": "2012-11-26"
  },
  {
    "place": "Office4ba0e0edf964a520138437e3",
    "time": "2012-11-28"
  },
  {
    "place": "Deli / Bodega4b849b16f964a520f43d31e3",
    "time": "2012-11-29"
  },
  {
    "place": "Office4ba0e0edf964a520138437e3",
    "time": "2012-11-30"
  },
  {
    "place": "Office4f4e8169e4b00b42c579a8d5",
    "time": "2012-11-30"
  },
  {
    "place": "Bank4b60ad00f964a52084f329e3",
    "time": "2012-12-01"
  },
  {
    "place": "Professional & Other Places4dfd3570227185f38b97b74d",
    "time": "2013-01-14"
  },
  {
    "place": "Bank4b60ad00f964a52084f329e3",
    "time": "2013-01-14"
  },
  {
    "place": "Neighborhood4b40cf3df964a5206bbb25e3",
    "time": "2013-01-16"
  },
  {
    "place": "Bus Station4e6fdd0945dd04ee46539c16",
    "time": "2013-01-16"
  },
  {
    "place": "Bus Station4c3f8032ff711b8d24020f05",
    "time": "2013-01-18"
  },
  {
    "place": "Building4c3665a93849c928b900bcb1",
    "time": "2013-01-18"
  },
  {
    "place": "Building4ea94ee5b8f7d2a521d089db",
    "time": "2013-01-18"
  },
  {
    "place": "Bank4b10501cf964a5209e6d23e3",
    "time": "2013-01-18"
  },
  {
    "place": "Office4db7159b93a017099e0e0357",
    "time": "2013-01-18"
  },
  {
    "place": "Building4c3665a93849c928b900bcb1",
    "time": "2013-01-22"
  },
  {
    "place": "Bus Station4e6fdd0945dd04ee46539c16",
    "time": "2013-01-24"
  },
  {
    "place": "Bus Station4c3f8032ff711b8d24020f05",
    "time": "2013-01-28"
  },
  {
    "place": "Bank4b83f222f964a520c31731e3",
    "time": "2013-01-28"
  },
  {
    "place": "Bus Station4c3f8032ff711b8d24020f05",
    "time": "2013-01-29"
  },
  {
    "place": "Drugstore / Pharmacy4b50a61ff964a520522b27e3",
    "time": "2013-01-29"
  },
  {
    "place": "Bus Station4e6fdd0945dd04ee46539c16",
    "time": "2013-01-30"
  },
  {
    "place": "Bus Station4c3f8032ff711b8d24020f05",
    "time": "2013-01-30"
  },
  {
    "place": "Building4bb157abf964a520948d3ce3",
    "time": "2013-01-30"
  },
  {
    "place": "Bus Station4e6fdd0945dd04ee46539c16",
    "time": "2013-01-30"
  },
  {
    "place": "Office4b4752f1f964a520e62e26e3",
    "time": "2013-01-31"
  },
  {
    "place": "Bus Station4e6fdd0945dd04ee46539c16",
    "time": "2013-02-01"
  },
  {
    "place": "Building4c3665a93849c928b900bcb1",
    "time": "2013-02-01"
  },
  {
    "place": "Office4c87e2dfb2138cfafc594d44",
    "time": "2013-02-01"
  },
  {
    "place": "Bus Station4e6fdd0945dd04ee46539c16",
    "time": "2013-02-02"
  },
  {
    "place": "Bus Station4e6fdd0945dd04ee46539c16",
    "time": "2013-02-05"
  },
  {
    "place": "Bus Station4e6fdd0945dd04ee46539c16",
    "time": "2013-02-05"
  },
  {
    "place": "Bank4b660185f964a520e30d2be3",
    "time": "2013-02-06"
  },
  {
    "place": "Office4e24488aa80968cf3e5ba326",
    "time": "2013-02-07"
  },
  {
    "place": "Bank4d4c8340a33fb1f79a50bf80",
    "time": "2013-02-07"
  },
  {
    "place": "Financial or Legal Service4e556652a809cbf4e46dfb85",
    "time": "2013-02-07"
  },
  {
    "place": "Bus Station4c3f8032ff711b8d24020f05",
    "time": "2013-02-08"
  },
  {
    "place": "Building4c3665a93849c928b900bcb1",
    "time": "2013-02-11"
  },
  {
    "place": "Drugstore / Pharmacy4b50a61ff964a520522b27e3",
    "time": "2013-02-12"
  },
  {
    "place": "Building4c3665a93849c928b900bcb1",
    "time": "2013-02-12"
  },
  {
    "place": "Bus Station4c3f8032ff711b8d24020f05",
    "time": "2013-02-12"
  },
  {
    "place": "Neighborhood4bf5dd175efe2d7f1a3e6634",
    "time": "2013-02-13"
  }
]