[
  {
    "place": "Road4e7b9dd5b61cd32ff5c6145f",
    "time": "2012-04-04"
  },
  {
    "place": "Airport4459d2f1f964a520d7321fe3",
    "time": "2012-04-04"
  },
  {
    "place": "Synagogue4c8e1ffb58668cfa6d0ecfec",
    "time": "2012-04-06"
  },
  {
    "place": "Airport43a52546f964a520532c1fe3",
    "time": "2012-04-09"
  },
  {
    "place": "Airport4dee34a5fa76b21ed99542f2",
    "time": "2012-04-09"
  },
  {
    "place": "Airport43a52546f964a520532c1fe3",
    "time": "2012-04-09"
  },
  {
    "place": "Airport43a52546f964a520532c1fe3",
    "time": "2012-04-11"
  },
  {
    "place": "Airport4e1ec8a0d16488cf82f9988d",
    "time": "2012-04-11"
  },
  {
    "place": "Airport4c287f3d3492a5931c62b728",
    "time": "2012-04-11"
  },
  {
    "place": "Home (private)4f2871d3754a9436fd912c9e",
    "time": "2012-04-12"
  },
  {
    "place": "Car Wash4c4b45ff42b4d13a6770727e",
    "time": "2012-04-15"
  },
  {
    "place": "Theater4f886402e4b01f95a1f16eb8",
    "time": "2012-04-15"
  },
  {
    "place": "General Entertainment4da307d5e7b8a09077802121",
    "time": "2012-04-15"
  },
  {
    "place": "Automotive Shop4e78956eae60e5ae0051f6e9",
    "time": "2012-04-16"
  },
  {
    "place": "Car Wash4c4b45ff42b4d13a6770727e",
    "time": "2012-04-16"
  },
  {
    "place": "Food & Drink Shop4b5ce1aef964a520124929e3",
    "time": "2012-04-17"
  },
  {
    "place": "Automotive Shop4b93f5abf964a520fe5c34e3",
    "time": "2012-04-17"
  },
  {
    "place": "Post Office4c14cc9f82a3c9b6c5c2fdf8",
    "time": "2012-04-17"
  },
  {
    "place": "Home (private)4f2871d3754a9436fd912c9e",
    "time": "2012-04-17"
  },
  {
    "place": "Home (private)4f2871d3754a9436fd912c9e",
    "time": "2012-04-18"
  },
  {
    "place": "Restaurant4bdc96853904a59309e14e9e",
    "time": "2012-04-19"
  },
  {
    "place": "Gas Station / Garage4c194a9095e89521bf0257e7",
    "time": "2012-04-19"
  },
  {
    "place": "Automotive Shop4f286f1b754a9436fd90d383",
    "time": "2012-04-19"
  },
  {
    "place": "Synagogue4c11a4806e5dc9b66490b02d",
    "time": "2012-04-20"
  },
  {
    "place": "Government Building4c7ea3392042b1f7528dc0ad",
    "time": "2012-04-20"
  },
  {
    "place": "Gas Station / Garage4c194a9095e89521bf0257e7",
    "time": "2012-04-20"
  },
  {
    "place": "Home (private)4f2dd4d1e4b06203570c2935",
    "time": "2012-04-22"
  },
  {
    "place": "Pizza Place4e8c9cddcc2112f67577d845",
    "time": "2012-04-22"
  },
  {
    "place": "Jewelry Store4d58191c577aa093afa64db9",
    "time": "2012-04-22"
  },
  {
    "place": "Miscellaneous Shop4c4c7ff1959220a132ed1a11",
    "time": "2012-04-22"
  },
  {
    "place": "Home (private)4f2871d3754a9436fd912c9e",
    "time": "2012-04-23"
  },
  {
    "place": "Automotive Shop4f286f1b754a9436fd90d383",
    "time": "2012-04-23"
  },
  {
    "place": "Home (private)4f2871d3754a9436fd912c9e",
    "time": "2012-04-23"
  },
  {
    "place": "Automotive Shop4f286f1b754a9436fd90d383",
    "time": "2012-04-24"
  },
  {
    "place": "Home (private)4f2871d3754a9436fd912c9e",
    "time": "2012-04-25"
  },
  {
    "place": "Car Wash4c4b45ff42b4d13a6770727e",
    "time": "2012-04-25"
  },
  {
    "place": "Home (private)4f2871d3754a9436fd912c9e",
    "time": "2012-04-26"
  },
  {
    "place": "Restaurant4bdc96853904a59309e14e9e",
    "time": "2012-04-26"
  },
  {
    "place": "Bridge4a43c0aef964a520c6a61fe3",
    "time": "2012-04-26"
  },
  {
    "place": "Bridge4c063ac9d3842d7f1c3fbf41",
    "time": "2012-04-26"
  },
  {
    "place": "Car Dealership4cac740ba6e08cfac335ab94",
    "time": "2012-04-26"
  },
  {
    "place": "Car Wash4c4b45ff42b4d13a6770727e",
    "time": "2012-04-27"
  },
  {
    "place": "Drugstore / Pharmacy4c4b221d42b4d13a55bf417e",
    "time": "2012-04-27"
  },
  {
    "place": "Drugstore / Pharmacy4b0b1062f964a520512c23e3",
    "time": "2012-04-27"
  },
  {
    "place": "Food & Drink Shop4f4a9507e4b007d390f1b18c",
    "time": "2012-05-03"
  },
  {
    "place": "Airport43a52546f964a520532c1fe3",
    "time": "2012-05-06"
  },
  {
    "place": "Airport4b8bbeedf964a52052a932e3",
    "time": "2012-05-06"
  },
  {
    "place": "Airport43a52546f964a520532c1fe3",
    "time": "2012-05-14"
  },
  {
    "place": "Automotive Shop4fbd3fc3e4b05c99c46b1715",
    "time": "2012-05-23"
  },
  {
    "place": "Medical Center4c9c8feb9c48236a47cb4eee",
    "time": "2012-05-31"
  },
  {
    "place": "Medical Center4c9c8feb9c48236a47cb4eee",
    "time": "2012-05-31"
  },
  {
    "place": "Synagogue4c11a4806e5dc9b66490b02d",
    "time": "2012-06-04"
  },
  {
    "place": "Home (private)4f2871d3754a9436fd912c9e",
    "time": "2012-06-06"
  },
  {
    "place": "Automotive Shop4f286f1b754a9436fd90d383",
    "time": "2012-06-07"
  },
  {
    "place": "Jewelry Store4d58191c577aa093afa64db9",
    "time": "2012-06-07"
  },
  {
    "place": "Automotive Shop4cbcbb61c7228cfa069e25ce",
    "time": "2012-06-07"
  },
  {
    "place": "Automotive Shop4f286f1b754a9436fd90d383",
    "time": "2012-06-07"
  },
  {
    "place": "Car Wash4c4b45ff42b4d13a6770727e",
    "time": "2012-06-07"
  },
  {
    "place": "Drugstore / Pharmacy4bb9f65098c7ef3b79813202",
    "time": "2012-06-07"
  },
  {
    "place": "Restaurant4bdc96853904a59309e14e9e",
    "time": "2012-06-08"
  },
  {
    "place": "Park4bb4e7d4c29a952136eda735",
    "time": "2012-06-10"
  },
  {
    "place": "Music Store4cffc178ba1da1cddafe8428",
    "time": "2012-06-10"
  },
  {
    "place": "Home (private)4f2871d3754a9436fd912c9e",
    "time": "2012-06-11"
  },
  {
    "place": "Synagogue4c11a4806e5dc9b66490b02d",
    "time": "2012-06-13"
  },
  {
    "place": "American Restaurant4cc607ce306e224bd572a66c",
    "time": "2012-06-13"
  },
  {
    "place": "Bank4c8f8d10d68c6dcba53905a2",
    "time": "2012-06-13"
  },
  {
    "place": "Automotive Shop4f286f1b754a9436fd90d383",
    "time": "2012-06-13"
  },
  {
    "place": "Automotive Shop4f286f1b754a9436fd90d383",
    "time": "2012-06-13"
  },
  {
    "place": "Restaurant4bdc96853904a59309e14e9e",
    "time": "2012-06-14"
  },
  {
    "place": "Park4bb4e7d4c29a952136eda735",
    "time": "2012-06-17"
  },
  {
    "place": "Jewelry Store4d58191c577aa093afa64db9",
    "time": "2012-06-17"
  },
  {
    "place": "Home (private)4f2871d3754a9436fd912c9e",
    "time": "2012-06-17"
  },
  {
    "place": "Synagogue4c11a4806e5dc9b66490b02d",
    "time": "2012-06-18"
  },
  {
    "place": "Automotive Shop4f286f1b754a9436fd90d383",
    "time": "2012-06-20"
  },
  {
    "place": "Home (private)4f2871d3754a9436fd912c9e",
    "time": "2012-06-21"
  },
  {
    "place": "Nightlife Spot4afa54c7f964a520b71722e3",
    "time": "2012-06-21"
  },
  {
    "place": "Bank4c8f8d10d68c6dcba53905a2",
    "time": "2012-06-26"
  },
  {
    "place": "Steakhouse4a39c039f964a520b69f1fe3",
    "time": "2012-06-27"
  },
  {
    "place": "Automotive Shop4f286f1b754a9436fd90d383",
    "time": "2012-07-09"
  },
  {
    "place": "Car Wash4c4b45ff42b4d13a6770727e",
    "time": "2012-07-09"
  },
  {
    "place": "Bank4c8f8d10d68c6dcba53905a2",
    "time": "2012-07-10"
  },
  {
    "place": "Home (private)4f2871d3754a9436fd912c9e",
    "time": "2012-07-10"
  },
  {
    "place": "Medical Center4aaac261f964a520415720e3",
    "time": "2012-07-11"
  },
  {
    "place": "Automotive Shop4f286f1b754a9436fd90d383",
    "time": "2012-07-11"
  },
  {
    "place": "Home (private)4f2871d3754a9436fd912c9e",
    "time": "2012-07-11"
  },
  {
    "place": "Automotive Shop4f286f1b754a9436fd90d383",
    "time": "2012-07-11"
  },
  {
    "place": "Bank4ffe11dee4b09cdb30e0fe06",
    "time": "2012-07-11"
  },
  {
    "place": "Home (private)4f2871d3754a9436fd912c9e",
    "time": "2012-07-12"
  },
  {
    "place": "Home (private)4f2871d3754a9436fd912c9e",
    "time": "2012-07-12"
  },
  {
    "place": "Bank4ffe11dee4b09cdb30e0fe06",
    "time": "2012-07-12"
  },
  {
    "place": "Gas Station / Garage4c194a9095e89521bf0257e7",
    "time": "2012-07-12"
  },
  {
    "place": "Gas Station / Garage4bef5cc9f2712d7f1db5fbd8",
    "time": "2012-07-16"
  },
  {
    "place": "Road4bf81a008d30d13a4f1c0018",
    "time": "2012-07-16"
  },
  {
    "place": "Outdoors & Recreation4e7525bed22d80eb33156e3e",
    "time": "2012-07-16"
  },
  {
    "place": "Road4f04de3ee4b006dd3e8842a5",
    "time": "2012-07-16"
  },
  {
    "place": "Road4dfbfbae52b18923030ac69b",
    "time": "2012-07-16"
  },
  {
    "place": "Neighborhood4d9a630f422ea1cd687de54c",
    "time": "2012-07-16"
  },
  {
    "place": "Home (private)4f2871d3754a9436fd912c9e",
    "time": "2012-07-16"
  },
  {
    "place": "Bank4ba380cbf964a520854238e3",
    "time": "2012-07-17"
  },
  {
    "place": "Drugstore / Pharmacy4b0b1062f964a520512c23e3",
    "time": "2012-07-17"
  },
  {
    "place": "Car Wash4c4b45ff42b4d13a6770727e",
    "time": "2012-07-17"
  },
  {
    "place": "Automotive Shop4f286f1b754a9436fd90d383",
    "time": "2012-07-17"
  },
  {
    "place": "Automotive Shop4f286f1b754a9436fd90d383",
    "time": "2012-07-24"
  },
  {
    "place": "Jewelry Store4d58191c577aa093afa64db9",
    "time": "2012-07-26"
  },
  {
    "place": "Synagogue4c11a4806e5dc9b66490b02d",
    "time": "2012-07-30"
  },
  {
    "place": "Medical Center4a36c1b9f964a520dd9d1fe3",
    "time": "2012-07-30"
  },
  {
    "place": "Jewelry Store4d58191c577aa093afa64db9",
    "time": "2012-07-30"
  },
  {
    "place": "Bookstore4c8d89dff87e224b2ba83e05",
    "time": "2012-07-30"
  },
  {
    "place": "Synagogue4b70db37f964a520d3312de3",
    "time": "2012-08-09"
  },
  {
    "place": "Home (private)4f2871d3754a9436fd912c9e",
    "time": "2012-08-13"
  },
  {
    "place": "Synagogue4b70db37f964a520d3312de3",
    "time": "2012-08-13"
  },
  {
    "place": "Synagogue4b70db37f964a520d3312de3",
    "time": "2012-08-14"
  },
  {
    "place": "Office4fecb5cfe4b075faa92f0165",
    "time": "2012-08-14"
  },
  {
    "place": "Gas Station / Garage4c194a9095e89521bf0257e7",
    "time": "2012-08-14"
  },
  {
    "place": "Automotive Shop4f286f1b754a9436fd90d383",
    "time": "2012-08-14"
  },
  {
    "place": "Medical Center5016d763e4b0748a7a7cd1fb",
    "time": "2012-09-13"
  },
  {
    "place": "Medical Center5016d763e4b0748a7a7cd1fb",
    "time": "2012-09-13"
  },
  {
    "place": "Synagogue4b70db37f964a520d3312de3",
    "time": "2012-10-11"
  },
  {
    "place": "Synagogue4b70db37f964a520d3312de3",
    "time": "2012-10-12"
  },
  {
    "place": "Bank4c8f8d10d68c6dcba53905a2",
    "time": "2012-10-16"
  },
  {
    "place": "Road4ac7d78cf964a52011ba20e3",
    "time": "2012-10-18"
  },
  {
    "place": "Road4b8d0a3ef964a52070e532e3",
    "time": "2012-10-18"
  },
  {
    "place": "Road4bd6f47d29eb9c7462db95e1",
    "time": "2012-10-18"
  },
  {
    "place": "Synagogue4b70db37f964a520d3312de3",
    "time": "2012-10-18"
  },
  {
    "place": "Synagogue4b70db37f964a520d3312de3",
    "time": "2012-10-28"
  }
]