[
  {
    "place": "Subway4b105b45f964a520916e23e3",
    "time": "2012-04-03"
  },
  {
    "place": "Bus Station4df27e5ad22d8c5470da6596",
    "time": "2012-04-04"
  },
  {
    "place": "Department Store4b8a8bbdf964a5209e7132e3",
    "time": "2012-04-04"
  },
  {
    "place": "Neighborhood4d3cb89d14aa8cfaaf85ac5e",
    "time": "2012-04-04"
  },
  {
    "place": "Bus Station4bc865df6501c9b6d3fe3f29",
    "time": "2012-04-04"
  },
  {
    "place": "Train Station4ec51fe68b812a2064e5d538",
    "time": "2012-04-04"
  },
  {
    "place": "Bus Station4df27e5ad22d8c5470da6596",
    "time": "2012-04-04"
  },
  {
    "place": "Bus Station4cac775536fa6dcb16abde78",
    "time": "2012-04-05"
  },
  {
    "place": "Fast Food Restaurant4c9f07e00313370445d56ed5",
    "time": "2012-04-05"
  },
  {
    "place": "Bus Station4df27e5ad22d8c5470da6596",
    "time": "2012-04-05"
  },
  {
    "place": "Gym / Fitness Center4a6f77a1f964a5203ed61fe3",
    "time": "2012-04-05"
  },
  {
    "place": "Church4c40f8ab520fa59343f3c8ac",
    "time": "2012-04-06"
  },
  {
    "place": "Bus Station4df27e5ad22d8c5470da6596",
    "time": "2012-04-07"
  },
  {
    "place": "Bus Station4df27e5ad22d8c5470da6596",
    "time": "2012-04-08"
  },
  {
    "place": "Bus Station4cac775536fa6dcb16abde78",
    "time": "2012-04-08"
  },
  {
    "place": "Fast Food Restaurant4c9f07e00313370445d56ed5",
    "time": "2012-04-08"
  },
  {
    "place": "Bus Station4df27e5ad22d8c5470da6596",
    "time": "2012-04-08"
  },
  {
    "place": "Subway4b105b45f964a520916e23e3",
    "time": "2012-04-08"
  },
  {
    "place": "Donut Shop4a64792df964a52034c61fe3",
    "time": "2012-04-08"
  },
  {
    "place": "Bus Station4cac775536fa6dcb16abde78",
    "time": "2012-04-09"
  },
  {
    "place": "Food & Drink Shop4b340eeaf964a5208d2425e3",
    "time": "2012-04-09"
  },
  {
    "place": "Bus Station4d0bc4dbd8d78cfab70e1fbe",
    "time": "2012-04-09"
  },
  {
    "place": "Neighborhood4c4b52ce9e6dbe9acbd4e10b",
    "time": "2012-04-09"
  },
  {
    "place": "Chinese Restaurant415c9e00f964a5204c1d1fe3",
    "time": "2012-04-09"
  },
  {
    "place": "Home (private)4f16bba4e4b09e81dde4b57b",
    "time": "2012-04-10"
  },
  {
    "place": "Bus Station4df27e5ad22d8c5470da6596",
    "time": "2012-04-11"
  },
  {
    "place": "Train Station4ec51fe68b812a2064e5d538",
    "time": "2012-04-11"
  },
  {
    "place": "Gym / Fitness Center4a6f77a1f964a5203ed61fe3",
    "time": "2012-04-11"
  },
  {
    "place": "Bus Station4eeb3bf3a69dd7c5b4a04870",
    "time": "2012-04-11"
  },
  {
    "place": "Home (private)4f16bba4e4b09e81dde4b57b",
    "time": "2012-04-12"
  },
  {
    "place": "Subway4bc0de0674a9a593e4d8d0f6",
    "time": "2012-04-13"
  },
  {
    "place": "Food & Drink Shop4ae492bff964a520ce9b21e3",
    "time": "2012-04-13"
  },
  {
    "place": "Train Station4ec51fe68b812a2064e5d538",
    "time": "2012-04-13"
  },
  {
    "place": "Bus Station4df27e5ad22d8c5470da6596",
    "time": "2012-04-13"
  },
  {
    "place": "Home (private)4f16bba4e4b09e81dde4b57b",
    "time": "2012-04-13"
  },
  {
    "place": "Fast Food Restaurant4c9f07e00313370445d56ed5",
    "time": "2012-04-13"
  },
  {
    "place": "Bus Station4df27e5ad22d8c5470da6596",
    "time": "2012-04-13"
  },
  {
    "place": "Church4c40f8ab520fa59343f3c8ac",
    "time": "2012-04-13"
  },
  {
    "place": "Food & Drink Shop49c170abf964a520a7551fe3",
    "time": "2012-04-13"
  },
  {
    "place": "Bus Station4ce7e1eff1c6236a8d395cf0",
    "time": "2012-04-13"
  },
  {
    "place": "Subway4bc0de0674a9a593e4d8d0f6",
    "time": "2012-04-13"
  },
  {
    "place": "Food & Drink Shop4ae492bff964a520ce9b21e3",
    "time": "2012-04-13"
  },
  {
    "place": "Subway4bc0de0674a9a593e4d8d0f6",
    "time": "2012-04-13"
  },
  {
    "place": "Train Station4ec51fe68b812a2064e5d538",
    "time": "2012-04-13"
  },
  {
    "place": "Home (private)4f16bba4e4b09e81dde4b57b",
    "time": "2012-04-13"
  },
  {
    "place": "Bus Station4cac775536fa6dcb16abde78",
    "time": "2012-04-14"
  },
  {
    "place": "Bus Station4df27e5ad22d8c5470da6596",
    "time": "2012-04-14"
  },
  {
    "place": "Church4c40f8ab520fa59343f3c8ac",
    "time": "2012-04-14"
  },
  {
    "place": "Subway4b105b45f964a520916e23e3",
    "time": "2012-04-14"
  },
  {
    "place": "Bus Station4df27e5ad22d8c5470da6596",
    "time": "2012-04-14"
  },
  {
    "place": "Drugstore / Pharmacy4beb42e0a9900f4717a21740",
    "time": "2012-04-14"
  },
  {
    "place": "Home (private)4f16bba4e4b09e81dde4b57b",
    "time": "2012-04-14"
  },
  {
    "place": "Fast Food Restaurant4c9f07e00313370445d56ed5",
    "time": "2012-04-14"
  },
  {
    "place": "Home (private)4f16bba4e4b09e81dde4b57b",
    "time": "2012-04-14"
  },
  {
    "place": "Bus Station4cac775536fa6dcb16abde78",
    "time": "2012-04-15"
  },
  {
    "place": "Bus Station4df27e5ad22d8c5470da6596",
    "time": "2012-04-15"
  },
  {
    "place": "Train Station4ec51fe68b812a2064e5d538",
    "time": "2012-04-15"
  },
  {
    "place": "Subway4b105b45f964a520916e23e3",
    "time": "2012-04-15"
  },
  {
    "place": "Bridge4ba53451f964a52087eb38e3",
    "time": "2012-04-15"
  },
  {
    "place": "Bus Station4cac775536fa6dcb16abde78",
    "time": "2012-04-16"
  },
  {
    "place": "Drugstore / Pharmacy4beb42e0a9900f4717a21740",
    "time": "2012-04-16"
  },
  {
    "place": "Bus Station4df27e5ad22d8c5470da6596",
    "time": "2012-04-16"
  },
  {
    "place": "Train Station4ec51fe68b812a2064e5d538",
    "time": "2012-04-16"
  },
  {
    "place": "Subway4b105b45f964a520916e23e3",
    "time": "2012-04-16"
  },
  {
    "place": "Church4c40f8ab520fa59343f3c8ac",
    "time": "2012-04-16"
  },
  {
    "place": "Plaza4decd5d5d4c00071b85e91d4",
    "time": "2012-04-16"
  },
  {
    "place": "Subway4b105b45f964a520916e23e3",
    "time": "2012-04-16"
  },
  {
    "place": "Bus Station4cac775536fa6dcb16abde78",
    "time": "2012-04-17"
  },
  {
    "place": "Bus Station4df27e5ad22d8c5470da6596",
    "time": "2012-04-17"
  },
  {
    "place": "Subway4b105b45f964a520916e23e3",
    "time": "2012-04-17"
  },
  {
    "place": "Gym / Fitness Center4a6f77a1f964a5203ed61fe3",
    "time": "2012-04-17"
  },
  {
    "place": "Train Station4a737bf8f964a52091dc1fe3",
    "time": "2012-04-17"
  },
  {
    "place": "Subway4b105b45f964a520916e23e3",
    "time": "2012-04-17"
  },
  {
    "place": "Church4b526d05f964a520ab7c27e3",
    "time": "2012-04-17"
  },
  {
    "place": "Subway4b105b45f964a520916e23e3",
    "time": "2012-04-18"
  },
  {
    "place": "Home (private)4f16bba4e4b09e81dde4b57b",
    "time": "2012-04-18"
  },
  {
    "place": "Bus Station4d0cc47f903d37041864bf55",
    "time": "2012-04-18"
  },
  {
    "place": "Subway4b105b45f964a520916e23e3",
    "time": "2012-04-18"
  },
  {
    "place": "Church4b526d05f964a520ab7c27e3",
    "time": "2012-04-18"
  },
  {
    "place": "Donut Shop4a64792df964a52034c61fe3",
    "time": "2012-04-19"
  },
  {
    "place": "Subway4b105b45f964a520916e23e3",
    "time": "2012-04-19"
  },
  {
    "place": "Bus Station4df27e5ad22d8c5470da6596",
    "time": "2012-04-19"
  },
  {
    "place": "Bus Station4cac775536fa6dcb16abde78",
    "time": "2012-04-19"
  },
  {
    "place": "Bus Station4df27e5ad22d8c5470da6596",
    "time": "2012-04-19"
  },
  {
    "place": "Subway4b105b45f964a520916e23e3",
    "time": "2012-04-19"
  },
  {
    "place": "Church4c40f8ab520fa59343f3c8ac",
    "time": "2012-04-19"
  },
  {
    "place": "Bookstore44ddba5bf964a520c1361fe3",
    "time": "2012-04-19"
  },
  {
    "place": "Church4c40f8ab520fa59343f3c8ac",
    "time": "2012-04-19"
  },
  {
    "place": "Subway4b105b45f964a520916e23e3",
    "time": "2012-04-20"
  },
  {
    "place": "Bus Station4df27e5ad22d8c5470da6596",
    "time": "2012-04-20"
  },
  {
    "place": "Home (private)4f16bba4e4b09e81dde4b57b",
    "time": "2012-04-20"
  },
  {
    "place": "Bus Station4cac775536fa6dcb16abde78",
    "time": "2012-04-20"
  },
  {
    "place": "Bus Station4df27e5ad22d8c5470da6596",
    "time": "2012-04-20"
  },
  {
    "place": "Mall4a5e557ff964a52062be1fe3",
    "time": "2012-04-20"
  },
  {
    "place": "Mall4a5e557ff964a52062be1fe3",
    "time": "2012-04-20"
  },
  {
    "place": "Church4c40f8ab520fa59343f3c8ac",
    "time": "2012-04-20"
  },
  {
    "place": "Home (private)4f16bba4e4b09e81dde4b57b",
    "time": "2012-04-21"
  },
  {
    "place": "Gym / Fitness Center4a6f77a1f964a5203ed61fe3",
    "time": "2012-04-24"
  },
  {
    "place": "Gym / Fitness Center4a6f77a1f964a5203ed61fe3",
    "time": "2012-04-25"
  },
  {
    "place": "Home (private)4f16bba4e4b09e81dde4b57b",
    "time": "2012-04-27"
  },
  {
    "place": "Bus Station4cac775536fa6dcb16abde78",
    "time": "2012-04-27"
  },
  {
    "place": "Bus Station4df27e5ad22d8c5470da6596",
    "time": "2012-04-27"
  },
  {
    "place": "Subway4b105b45f964a520916e23e3",
    "time": "2012-04-27"
  },
  {
    "place": "Office4a214413f964a520ca7c1fe3",
    "time": "2012-04-28"
  },
  {
    "place": "Office4a214413f964a520ca7c1fe3",
    "time": "2012-04-29"
  },
  {
    "place": "Subway4b105b45f964a520916e23e3",
    "time": "2012-04-29"
  },
  {
    "place": "Bus Station4cac775536fa6dcb16abde78",
    "time": "2012-05-02"
  },
  {
    "place": "Bus Station4df27e5ad22d8c5470da6596",
    "time": "2012-05-02"
  },
  {
    "place": "Subway4b105b45f964a520916e23e3",
    "time": "2012-05-02"
  },
  {
    "place": "Gym / Fitness Center4a6f77a1f964a5203ed61fe3",
    "time": "2012-05-02"
  },
  {
    "place": "Home (private)4f16bba4e4b09e81dde4b57b",
    "time": "2012-05-03"
  },
  {
    "place": "Bus Station4df27e5ad22d8c5470da6596",
    "time": "2012-05-03"
  },
  {
    "place": "Train Station4ec51fe68b812a2064e5d538",
    "time": "2012-05-03"
  },
  {
    "place": "Bus Station4d0cc47f903d37041864bf55",
    "time": "2012-05-03"
  },
  {
    "place": "Gym / Fitness Center4a6f77a1f964a5203ed61fe3",
    "time": "2012-05-03"
  },
  {
    "place": "Church4c40f8ab520fa59343f3c8ac",
    "time": "2012-05-03"
  },
  {
    "place": "Bus Station4df27e5ad22d8c5470da6596",
    "time": "2012-05-04"
  },
  {
    "place": "Bus Station4df27e5ad22d8c5470da6596",
    "time": "2012-05-04"
  },
  {
    "place": "Office4a214413f964a520ca7c1fe3",
    "time": "2012-05-04"
  },
  {
    "place": "Subway4b105b45f964a520916e23e3",
    "time": "2012-05-05"
  },
  {
    "place": "Church4b526d05f964a520ab7c27e3",
    "time": "2012-05-05"
  },
  {
    "place": "Bus Station4df27e5ad22d8c5470da6596",
    "time": "2012-05-05"
  },
  {
    "place": "Bus Station4cac775536fa6dcb16abde78",
    "time": "2012-05-05"
  },
  {
    "place": "Home (private)4f16bba4e4b09e81dde4b57b",
    "time": "2012-05-05"
  },
  {
    "place": "Donut Shop4b79c846f964a520bc112fe3",
    "time": "2012-05-05"
  },
  {
    "place": "Bus Station4df27e5ad22d8c5470da6596",
    "time": "2012-05-05"
  },
  {
    "place": "Subway4b105b45f964a520916e23e3",
    "time": "2012-05-05"
  },
  {
    "place": "Office4a214413f964a520ca7c1fe3",
    "time": "2012-05-05"
  },
  {
    "place": "Subway4b105b45f964a520916e23e3",
    "time": "2012-05-05"
  },
  {
    "place": "Church4b526d05f964a520ab7c27e3",
    "time": "2012-05-05"
  },
  {
    "place": "Church4b526d05f964a520ab7c27e3",
    "time": "2012-05-06"
  },
  {
    "place": "Gym / Fitness Center4b548bbaf964a52060bf27e3",
    "time": "2012-05-07"
  },
  {
    "place": "Church4c40f8ab520fa59343f3c8ac",
    "time": "2012-05-07"
  },
  {
    "place": "Bus Station4ce7e1eff1c6236a8d395cf0",
    "time": "2012-05-07"
  },
  {
    "place": "Gym / Fitness Center4a6f77a1f964a5203ed61fe3",
    "time": "2012-05-08"
  },
  {
    "place": "Bus Station4cac775536fa6dcb16abde78",
    "time": "2012-05-09"
  },
  {
    "place": "Bus Station4df27e5ad22d8c5470da6596",
    "time": "2012-05-09"
  },
  {
    "place": "Subway4b105b45f964a520916e23e3",
    "time": "2012-05-09"
  },
  {
    "place": "Gym / Fitness Center4a6f77a1f964a5203ed61fe3",
    "time": "2012-05-09"
  },
  {
    "place": "Subway4b105b45f964a520916e23e3",
    "time": "2012-05-09"
  },
  {
    "place": "Gym / Fitness Center4a6f77a1f964a5203ed61fe3",
    "time": "2012-05-10"
  },
  {
    "place": "Church4c40f8ab520fa59343f3c8ac",
    "time": "2012-05-10"
  },
  {
    "place": "Bus Station4df27e5ad22d8c5470da6596",
    "time": "2012-05-11"
  },
  {
    "place": "Home (private)4f16bba4e4b09e81dde4b57b",
    "time": "2012-05-11"
  },
  {
    "place": "Bus Station4cac775536fa6dcb16abde78",
    "time": "2012-05-11"
  },
  {
    "place": "Bus Station4df27e5ad22d8c5470da6596",
    "time": "2012-05-11"
  },
  {
    "place": "Home (private)4f16bba4e4b09e81dde4b57b",
    "time": "2012-05-11"
  },
  {
    "place": "Bus Station4df27e5ad22d8c5470da6596",
    "time": "2012-05-11"
  },
  {
    "place": "General Entertainment4a9300c2f964a520741e20e3",
    "time": "2012-05-11"
  },
  {
    "place": "Bus Station4df27e5ad22d8c5470da6596",
    "time": "2012-05-12"
  },
  {
    "place": "Bus Station4cac775536fa6dcb16abde78",
    "time": "2012-05-12"
  },
  {
    "place": "Home (private)4f16bba4e4b09e81dde4b57b",
    "time": "2012-05-12"
  },
  {
    "place": "Bus Station4df27e5ad22d8c5470da6596",
    "time": "2012-05-12"
  },
  {
    "place": "General Entertainment4a9300c2f964a520741e20e3",
    "time": "2012-05-12"
  },
  {
    "place": "Bus Station4df27e5ad22d8c5470da6596",
    "time": "2012-05-13"
  },
  {
    "place": "Church4b526d05f964a520ab7c27e3",
    "time": "2012-05-13"
  },
  {
    "place": "Home (private)4f16bba4e4b09e81dde4b57b",
    "time": "2012-05-14"
  },
  {
    "place": "Bus Station4cac775536fa6dcb16abde78",
    "time": "2012-05-14"
  },
  {
    "place": "Bus Station4df27e5ad22d8c5470da6596",
    "time": "2012-05-14"
  },
  {
    "place": "Gym / Fitness Center4a6f77a1f964a5203ed61fe3",
    "time": "2012-05-14"
  },
  {
    "place": "Bus Station4df27e5ad22d8c5470da6596",
    "time": "2012-05-14"
  },
  {
    "place": "Home (private)4f16bba4e4b09e81dde4b57b",
    "time": "2012-05-15"
  },
  {
    "place": "Bus Station4cac775536fa6dcb16abde78",
    "time": "2012-05-15"
  },
  {
    "place": "Bus Station4df27e5ad22d8c5470da6596",
    "time": "2012-05-15"
  },
  {
    "place": "Subway4b105b45f964a520916e23e3",
    "time": "2012-05-15"
  },
  {
    "place": "Gym / Fitness Center4a6f77a1f964a5203ed61fe3",
    "time": "2012-05-15"
  },
  {
    "place": "Subway4b105b45f964a520916e23e3",
    "time": "2012-05-15"
  },
  {
    "place": "Bus Station4df27e5ad22d8c5470da6596",
    "time": "2012-05-15"
  },
  {
    "place": "Drugstore / Pharmacy4beb42e0a9900f4717a21740",
    "time": "2012-05-15"
  },
  {
    "place": "Home (private)4f16bba4e4b09e81dde4b57b",
    "time": "2012-05-16"
  },
  {
    "place": "Bus Station4cac775536fa6dcb16abde78",
    "time": "2012-05-16"
  },
  {
    "place": "Bus Station4df27e5ad22d8c5470da6596",
    "time": "2012-05-16"
  },
  {
    "place": "Subway4b105b45f964a520916e23e3",
    "time": "2012-05-16"
  },
  {
    "place": "Gym / Fitness Center4a6f77a1f964a5203ed61fe3",
    "time": "2012-05-16"
  },
  {
    "place": "Gym / Fitness Center4a6f77a1f964a5203ed61fe3",
    "time": "2012-05-16"
  },
  {
    "place": "Subway4b105b45f964a520916e23e3",
    "time": "2012-05-16"
  },
  {
    "place": "Church4b526d05f964a520ab7c27e3",
    "time": "2012-05-16"
  },
  {
    "place": "Subway4b105b45f964a520916e23e3",
    "time": "2012-05-17"
  },
  {
    "place": "Home (private)4f16bba4e4b09e81dde4b57b",
    "time": "2012-05-17"
  },
  {
    "place": "Bus Station4df27e5ad22d8c5470da6596",
    "time": "2012-05-17"
  },
  {
    "place": "Train Station4ec51fe68b812a2064e5d538",
    "time": "2012-05-17"
  },
  {
    "place": "Subway4b105b45f964a520916e23e3",
    "time": "2012-05-17"
  },
  {
    "place": "Bus Station4d0cc47f903d37041864bf55",
    "time": "2012-05-17"
  },
  {
    "place": "Gym / Fitness Center4a6f77a1f964a5203ed61fe3",
    "time": "2012-05-17"
  },
  {
    "place": "Bus Station4d0cc47f903d37041864bf55",
    "time": "2012-05-18"
  },
  {
    "place": "Gym / Fitness Center4a6f77a1f964a5203ed61fe3",
    "time": "2012-05-18"
  },
  {
    "place": "Sporting Goods Shop4b7718d4f964a520077d2ee3",
    "time": "2012-05-18"
  },
  {
    "place": "Clothing Store4ab7e0d7f964a520417b20e3",
    "time": "2012-05-18"
  },
  {
    "place": "Subway4b105b45f964a520916e23e3",
    "time": "2012-05-18"
  },
  {
    "place": "Food & Drink Shop4b3f8624f964a52062a825e3",
    "time": "2012-05-18"
  },
  {
    "place": "Church4b526d05f964a520ab7c27e3",
    "time": "2012-05-18"
  },
  {
    "place": "Subway4b105b45f964a520916e23e3",
    "time": "2012-05-19"
  },
  {
    "place": "Bus Station4df27e5ad22d8c5470da6596",
    "time": "2012-05-19"
  },
  {
    "place": "Food & Drink Shop4d0565d3e350b60cb6538842",
    "time": "2012-05-19"
  },
  {
    "place": "Home (private)4f16bba4e4b09e81dde4b57b",
    "time": "2012-05-19"
  },
  {
    "place": "Athletic & Sport4dd969f1d22d38ef4318cc65",
    "time": "2012-05-19"
  },
  {
    "place": "Bus Station4cac775536fa6dcb16abde78",
    "time": "2012-05-21"
  },
  {
    "place": "Bus Station4df27e5ad22d8c5470da6596",
    "time": "2012-05-21"
  },
  {
    "place": "Subway4b105b45f964a520916e23e3",
    "time": "2012-05-21"
  },
  {
    "place": "Church4c40f8ab520fa59343f3c8ac",
    "time": "2012-05-21"
  },
  {
    "place": "Food & Drink Shop49c170abf964a520a7551fe3",
    "time": "2012-05-21"
  },
  {
    "place": "Food & Drink Shop4ae492bff964a520ce9b21e3",
    "time": "2012-05-21"
  },
  {
    "place": "Bus Station4df27e5ad22d8c5470da6596",
    "time": "2012-05-21"
  },
  {
    "place": "Home (private)4f16bba4e4b09e81dde4b57b",
    "time": "2012-05-21"
  },
  {
    "place": "Food & Drink Shop4d0565d3e350b60cb6538842",
    "time": "2012-05-21"
  },
  {
    "place": "Home (private)4f16bba4e4b09e81dde4b57b",
    "time": "2012-05-22"
  },
  {
    "place": "Bus Station4cac775536fa6dcb16abde78",
    "time": "2012-05-22"
  },
  {
    "place": "Bus Station4df27e5ad22d8c5470da6596",
    "time": "2012-05-22"
  },
  {
    "place": "Subway4b105b45f964a520916e23e3",
    "time": "2012-05-22"
  },
  {
    "place": "Neighborhood4c0b32d37e3fc928650bf582",
    "time": "2012-05-22"
  },
  {
    "place": "Pool4d84d0b4e83fa1430ab46ba1",
    "time": "2012-05-22"
  },
  {
    "place": "Subway4b105b45f964a520916e23e3",
    "time": "2012-05-23"
  },
  {
    "place": "Donut Shop4a64792df964a52034c61fe3",
    "time": "2012-05-23"
  },
  {
    "place": "Church4b526d05f964a520ab7c27e3",
    "time": "2012-05-23"
  },
  {
    "place": "Home (private)4f16bba4e4b09e81dde4b57b",
    "time": "2012-05-25"
  },
  {
    "place": "Bus Station4df27e5ad22d8c5470da6596",
    "time": "2012-05-25"
  },
  {
    "place": "Subway4b105b45f964a520916e23e3",
    "time": "2012-05-25"
  },
  {
    "place": "Bank4b896458f964a520c73132e3",
    "time": "2012-05-25"
  },
  {
    "place": "Donut Shop4e4dd5d8bd4101d0d79c53f0",
    "time": "2012-05-25"
  },
  {
    "place": "Church4c40f8ab520fa59343f3c8ac",
    "time": "2012-05-25"
  },
  {
    "place": "Subway4b105b45f964a520916e23e3",
    "time": "2012-05-25"
  },
  {
    "place": "Church4b526d05f964a520ab7c27e3",
    "time": "2012-05-25"
  },
  {
    "place": "Subway4b105b45f964a520916e23e3",
    "time": "2012-05-26"
  },
  {
    "place": "Bus Station4df27e5ad22d8c5470da6596",
    "time": "2012-05-26"
  },
  {
    "place": "Home (private)4f16bba4e4b09e81dde4b57b",
    "time": "2012-05-26"
  },
  {
    "place": "Home (private)4f16bba4e4b09e81dde4b57b",
    "time": "2012-05-27"
  },
  {
    "place": "Subway4b105b45f964a520916e23e3",
    "time": "2012-05-27"
  },
  {
    "place": "Church4b526d05f964a520ab7c27e3",
    "time": "2012-05-27"
  },
  {
    "place": "Subway4b105b45f964a520916e23e3",
    "time": "2012-05-27"
  },
  {
    "place": "Pool4d84d0b4e83fa1430ab46ba1",
    "time": "2012-05-27"
  },
  {
    "place": "Bus Station4df27e5ad22d8c5470da6596",
    "time": "2012-05-28"
  },
  {
    "place": "Home (private)4f16bba4e4b09e81dde4b57b",
    "time": "2012-05-28"
  },
  {
    "place": "Bus Station4df27e5ad22d8c5470da6596",
    "time": "2012-05-28"
  },
  {
    "place": "Home (private)4f16bba4e4b09e81dde4b57b",
    "time": "2012-05-29"
  },
  {
    "place": "Bus Station4df27e5ad22d8c5470da6596",
    "time": "2012-05-29"
  },
  {
    "place": "Subway4b105b45f964a520916e23e3",
    "time": "2012-05-29"
  },
  {
    "place": "Pool4d84d0b4e83fa1430ab46ba1",
    "time": "2012-05-29"
  },
  {
    "place": "Bus Station4d0cc47f903d37041864bf55",
    "time": "2012-05-29"
  },
  {
    "place": "Bus Station4df27e5ad22d8c5470da6596",
    "time": "2012-05-29"
  },
  {
    "place": "Gym / Fitness Center4a6f77a1f964a5203ed61fe3",
    "time": "2012-05-31"
  },
  {
    "place": "Home (private)4f16bba4e4b09e81dde4b57b",
    "time": "2012-05-31"
  },
  {
    "place": "Bus Station4df27e5ad22d8c5470da6596",
    "time": "2012-05-31"
  },
  {
    "place": "Subway4b105b45f964a520916e23e3",
    "time": "2012-05-31"
  },
  {
    "place": "Bus Station4df27e5ad22d8c5470da6596",
    "time": "2012-06-01"
  },
  {
    "place": "Home (private)4f16bba4e4b09e81dde4b57b",
    "time": "2012-06-01"
  },
  {
    "place": "Subway4b105b45f964a520916e23e3",
    "time": "2012-06-03"
  },
  {
    "place": "Bus Station4df27e5ad22d8c5470da6596",
    "time": "2012-06-03"
  },
  {
    "place": "Bus Station4df27e5ad22d8c5470da6596",
    "time": "2012-06-03"
  },
  {
    "place": "Subway4b105b45f964a520916e23e3",
    "time": "2012-06-03"
  },
  {
    "place": "Donut Shop4a64792df964a52034c61fe3",
    "time": "2012-06-03"
  },
  {
    "place": "Church4b526d05f964a520ab7c27e3",
    "time": "2012-06-03"
  },
  {
    "place": "Bank4ad607d3f964a520a10421e3",
    "time": "2012-06-04"
  },
  {
    "place": "Donut Shop4b79c846f964a520bc112fe3",
    "time": "2012-06-04"
  },
  {
    "place": "College Academic Building4ac245ecf964a520879820e3",
    "time": "2012-06-04"
  },
  {
    "place": "Food & Drink Shop49c170abf964a520a7551fe3",
    "time": "2012-06-04"
  },
  {
    "place": "Bus Station4ce7e1eff1c6236a8d395cf0",
    "time": "2012-06-04"
  },
  {
    "place": "Bus Station4df27e5ad22d8c5470da6596",
    "time": "2012-06-04"
  },
  {
    "place": "Bus Station4df27e5ad22d8c5470da6596",
    "time": "2012-06-05"
  },
  {
    "place": "Pool4d84d0b4e83fa1430ab46ba1",
    "time": "2012-06-05"
  },
  {
    "place": "Gym / Fitness Center4a6f77a1f964a5203ed61fe3",
    "time": "2012-06-05"
  },
  {
    "place": "Church4c40f8ab520fa59343f3c8ac",
    "time": "2012-06-06"
  },
  {
    "place": "Bus Station4df27e5ad22d8c5470da6596",
    "time": "2012-06-06"
  },
  {
    "place": "College Academic Building4c86329b51ada1cd32bd3d10",
    "time": "2012-06-07"
  },
  {
    "place": "Home (private)4f16bba4e4b09e81dde4b57b",
    "time": "2012-06-07"
  },
  {
    "place": "Donut Shop4b79c846f964a520bc112fe3",
    "time": "2012-06-07"
  },
  {
    "place": "Subway4b105b45f964a520916e23e3",
    "time": "2012-06-07"
  },
  {
    "place": "Movie Theater4a593f19f964a52018b91fe3",
    "time": "2012-06-08"
  },
  {
    "place": "Gym / Fitness Center4a6f77a1f964a5203ed61fe3",
    "time": "2012-06-08"
  },
  {
    "place": "Donut Shop4a64792df964a52034c61fe3",
    "time": "2012-06-08"
  },
  {
    "place": "Bus Station4df27e5ad22d8c5470da6596",
    "time": "2012-06-09"
  },
  {
    "place": "Home (private)4f16bba4e4b09e81dde4b57b",
    "time": "2012-06-09"
  },
  {
    "place": "Train Station4e2de053a8092ca5c37048b0",
    "time": "2012-06-09"
  },
  {
    "place": "Gym / Fitness Center4a6f77a1f964a5203ed61fe3",
    "time": "2012-06-09"
  },
  {
    "place": "Bus Station4df27e5ad22d8c5470da6596",
    "time": "2012-06-10"
  },
  {
    "place": "Church4b526d05f964a520ab7c27e3",
    "time": "2012-06-10"
  },
  {
    "place": "Gym / Fitness Center4a6f77a1f964a5203ed61fe3",
    "time": "2012-06-10"
  },
  {
    "place": "Bus Station4df27e5ad22d8c5470da6596",
    "time": "2012-06-11"
  },
  {
    "place": "Seafood Restaurant434da380f964a520a5281fe3",
    "time": "2012-06-12"
  },
  {
    "place": "Church4b526d05f964a520ab7c27e3",
    "time": "2012-06-13"
  },
  {
    "place": "Subway4b105b45f964a520916e23e3",
    "time": "2012-06-14"
  },
  {
    "place": "Neighborhood4c1a47228b3aa5936051955f",
    "time": "2012-06-14"
  },
  {
    "place": "Bus Station4df27e5ad22d8c5470da6596",
    "time": "2012-06-16"
  },
  {
    "place": "Church4c40f8ab520fa59343f3c8ac",
    "time": "2012-06-16"
  },
  {
    "place": "Food & Drink Shop4b3f8624f964a52062a825e3",
    "time": "2012-06-16"
  },
  {
    "place": "Donut Shop4a64792df964a52034c61fe3",
    "time": "2012-06-16"
  },
  {
    "place": "Bus Station4df27e5ad22d8c5470da6596",
    "time": "2012-06-17"
  },
  {
    "place": "Church4b526d05f964a520ab7c27e3",
    "time": "2012-06-17"
  },
  {
    "place": "Donut Shop4a64792df964a52034c61fe3",
    "time": "2012-06-18"
  },
  {
    "place": "Drugstore / Pharmacy4beb42e0a9900f4717a21740",
    "time": "2012-06-18"
  },
  {
    "place": "Church4c40f8ab520fa59343f3c8ac",
    "time": "2012-06-18"
  },
  {
    "place": "Donut Shop4a64792df964a52034c61fe3",
    "time": "2012-06-20"
  },
  {
    "place": "Church4b526d05f964a520ab7c27e3",
    "time": "2012-06-20"
  },
  {
    "place": "Bus Station4df27e5ad22d8c5470da6596",
    "time": "2012-07-01"
  },
  {
    "place": "Home (private)4f16bba4e4b09e81dde4b57b",
    "time": "2012-07-01"
  },
  {
    "place": "Home (private)4f16bba4e4b09e81dde4b57b",
    "time": "2012-07-02"
  },
  {
    "place": "Bus Station4df27e5ad22d8c5470da6596",
    "time": "2012-07-02"
  },
  {
    "place": "Residential Building (Apartment / Condo)4fe203d8e4b09e457c0a37cf",
    "time": "2012-07-02"
  },
  {
    "place": "Residential Building (Apartment / Condo)4fe203d8e4b09e457c0a37cf",
    "time": "2012-07-02"
  },
  {
    "place": "Fast Food Restaurant4afee09bf964a520213122e3",
    "time": "2012-07-02"
  },
  {
    "place": "Home (private)4f16bba4e4b09e81dde4b57b",
    "time": "2012-07-03"
  },
  {
    "place": "Residential Building (Apartment / Condo)4fe203d8e4b09e457c0a37cf",
    "time": "2012-07-03"
  },
  {
    "place": "Mexican Restaurant4ec27c885c5c3d470deb0904",
    "time": "2012-07-03"
  },
  {
    "place": "Residential Building (Apartment / Condo)4fe203d8e4b09e457c0a37cf",
    "time": "2012-07-03"
  },
  {
    "place": "Church4c40f8ab520fa59343f3c8ac",
    "time": "2012-07-03"
  },
  {
    "place": "Bus Station4df27e5ad22d8c5470da6596",
    "time": "2012-07-04"
  },
  {
    "place": "Residential Building (Apartment / Condo)4fe203d8e4b09e457c0a37cf",
    "time": "2012-07-05"
  },
  {
    "place": "Residential Building (Apartment / Condo)4d75335fddcbcbff483c5eca",
    "time": "2012-07-06"
  },
  {
    "place": "Bus Station4df27e5ad22d8c5470da6596",
    "time": "2012-07-06"
  },
  {
    "place": "Bus Station4df27e5ad22d8c5470da6596",
    "time": "2012-07-06"
  },
  {
    "place": "Church4b526d05f964a520ab7c27e3",
    "time": "2012-07-07"
  },
  {
    "place": "Bus Station4df27e5ad22d8c5470da6596",
    "time": "2012-07-07"
  },
  {
    "place": "Subway4b105b45f964a520916e23e3",
    "time": "2012-07-07"
  },
  {
    "place": "Church4b526d05f964a520ab7c27e3",
    "time": "2012-07-07"
  },
  {
    "place": "Bus Station4df27e5ad22d8c5470da6596",
    "time": "2012-07-08"
  },
  {
    "place": "Food & Drink Shop4b3f8624f964a52062a825e3",
    "time": "2012-07-08"
  },
  {
    "place": "Residential Building (Apartment / Condo)4fe203d8e4b09e457c0a37cf",
    "time": "2012-07-09"
  },
  {
    "place": "Bus Station4df27e5ad22d8c5470da6596",
    "time": "2012-07-10"
  },
  {
    "place": "Drugstore / Pharmacy4beb42e0a9900f4717a21740",
    "time": "2012-07-10"
  },
  {
    "place": "Home (private)4f16bba4e4b09e81dde4b57b",
    "time": "2012-07-11"
  },
  {
    "place": "Bus Station4df27e5ad22d8c5470da6596",
    "time": "2012-07-11"
  },
  {
    "place": "Church4b526d05f964a520ab7c27e3",
    "time": "2012-07-12"
  },
  {
    "place": "Fast Food Restaurant4afee09bf964a520213122e3",
    "time": "2012-07-12"
  },
  {
    "place": "Miscellaneous Shop4ed270987ee5be844d96468e",
    "time": "2012-07-12"
  },
  {
    "place": "Home (private)4f16bba4e4b09e81dde4b57b",
    "time": "2012-07-12"
  },
  {
    "place": "Bus Station4df27e5ad22d8c5470da6596",
    "time": "2012-07-13"
  },
  {
    "place": "Residential Building (Apartment / Condo)4fe203d8e4b09e457c0a37cf",
    "time": "2012-07-13"
  },
  {
    "place": "Sporting Goods Shop4a904448f964a520e91620e3",
    "time": "2012-07-13"
  },
  {
    "place": "Food & Drink Shop4ae492bff964a520ce9b21e3",
    "time": "2012-07-14"
  },
  {
    "place": "Bus Station4df27e5ad22d8c5470da6596",
    "time": "2012-07-14"
  },
  {
    "place": "Donut Shop4a64792df964a52034c61fe3",
    "time": "2012-07-15"
  },
  {
    "place": "Church4b526d05f964a520ab7c27e3",
    "time": "2012-07-15"
  },
  {
    "place": "Home (private)4f16bba4e4b09e81dde4b57b",
    "time": "2012-07-16"
  },
  {
    "place": "Bus Station4df27e5ad22d8c5470da6596",
    "time": "2012-07-16"
  },
  {
    "place": "Residential Building (Apartment / Condo)4fe203d8e4b09e457c0a37cf",
    "time": "2012-07-16"
  },
  {
    "place": "Food & Drink Shop43bba61df964a520eb2c1fe3",
    "time": "2012-07-16"
  },
  {
    "place": "Food & Drink Shop441a8599f964a52036311fe3",
    "time": "2012-07-16"
  },
  {
    "place": "Mexican Restaurant4b9ff08af964a5202a4c37e3",
    "time": "2012-07-16"
  },
  {
    "place": "Residential Building (Apartment / Condo)4fe203d8e4b09e457c0a37cf",
    "time": "2012-07-20"
  },
  {
    "place": "Subway4a737bf8f964a52091dc1fe3",
    "time": "2012-07-27"
  },
  {
    "place": "Bus Station4df27e5ad22d8c5470da6596",
    "time": "2012-07-28"
  },
  {
    "place": "Movie Theater4a0f1baef964a52026761fe3",
    "time": "2012-07-28"
  },
  {
    "place": "Church4b526d05f964a520ab7c27e3",
    "time": "2012-07-29"
  },
  {
    "place": "Home (private)4f16bba4e4b09e81dde4b57b",
    "time": "2012-07-29"
  },
  {
    "place": "Church4b526d05f964a520ab7c27e3",
    "time": "2012-07-29"
  },
  {
    "place": "Bar49ce7cb3f964a520495a1fe3",
    "time": "2012-07-29"
  },
  {
    "place": "Home (private)4f16bba4e4b09e81dde4b57b",
    "time": "2012-07-30"
  },
  {
    "place": "Residential Building (Apartment / Condo)4fe203d8e4b09e457c0a37cf",
    "time": "2012-07-30"
  },
  {
    "place": "Bus Station4df27e5ad22d8c5470da6596",
    "time": "2012-08-05"
  },
  {
    "place": "Church4b526d05f964a520ab7c27e3",
    "time": "2012-08-05"
  },
  {
    "place": "Burger Joint4606214ef964a520c6441fe3",
    "time": "2012-08-06"
  },
  {
    "place": "Bank4aff23c3f964a520cc3422e3",
    "time": "2012-08-06"
  },
  {
    "place": "Residential Building (Apartment / Condo)4fe203d8e4b09e457c0a37cf",
    "time": "2012-08-06"
  },
  {
    "place": "Train Station4c1290c98aedd13a88515137",
    "time": "2012-08-10"
  },
  {
    "place": "Bank4aff23c3f964a520cc3422e3",
    "time": "2012-08-10"
  },
  {
    "place": "Mexican Restaurant4ec27c885c5c3d470deb0904",
    "time": "2012-08-10"
  },
  {
    "place": "Residential Building (Apartment / Condo)4fe203d8e4b09e457c0a37cf",
    "time": "2012-08-10"
  },
  {
    "place": "Church4b526d05f964a520ab7c27e3",
    "time": "2012-08-11"
  },
  {
    "place": "Bus Station4df27e5ad22d8c5470da6596",
    "time": "2012-08-12"
  },
  {
    "place": "Residential Building (Apartment / Condo)4fe203d8e4b09e457c0a37cf",
    "time": "2012-08-13"
  },
  {
    "place": "Bus Station4df27e5ad22d8c5470da6596",
    "time": "2012-08-14"
  },
  {
    "place": "Vegetarian / Vegan Restaurant49f9dd95f964a5208d6d1fe3",
    "time": "2012-08-16"
  },
  {
    "place": "Church4b526d05f964a520ab7c27e3",
    "time": "2012-08-19"
  },
  {
    "place": "Home (private)4f16bba4e4b09e81dde4b57b",
    "time": "2012-08-19"
  },
  {
    "place": "Food & Drink Shop4d0565d3e350b60cb6538842",
    "time": "2012-08-17"
  },
  {
    "place": "Bus Station4df27e5ad22d8c5470da6596",
    "time": "2012-08-18"
  },
  {
    "place": "Home (private)4f16bba4e4b09e81dde4b57b",
    "time": "2012-08-18"
  },
  {
    "place": "Church4b526d05f964a520ab7c27e3",
    "time": "2012-08-19"
  },
  {
    "place": "Subway4b105b45f964a520916e23e3",
    "time": "2012-08-19"
  },
  {
    "place": "Diner49c6630ef964a5203d571fe3",
    "time": "2012-08-19"
  },
  {
    "place": "Church4b526d05f964a520ab7c27e3",
    "time": "2012-09-05"
  },
  {
    "place": "Music Venue3fd66200f964a52005eb1ee3",
    "time": "2012-09-05"
  },
  {
    "place": "Home (private)4f16bba4e4b09e81dde4b57b",
    "time": "2012-09-06"
  },
  {
    "place": "Church4b526d05f964a520ab7c27e3",
    "time": "2012-09-09"
  },
  {
    "place": "Church4b526d05f964a520ab7c27e3",
    "time": "2012-09-15"
  },
  {
    "place": "Bus Station4df27e5ad22d8c5470da6596",
    "time": "2012-10-08"
  },
  {
    "place": "Bus Station4df27e5ad22d8c5470da6596",
    "time": "2012-10-12"
  },
  {
    "place": "Home (private)4f16bba4e4b09e81dde4b57b",
    "time": "2012-10-12"
  },
  {
    "place": "Bus Station4df27e5ad22d8c5470da6596",
    "time": "2012-10-12"
  },
  {
    "place": "Church4b526d05f964a520ab7c27e3",
    "time": "2012-10-12"
  },
  {
    "place": "Bus Station4df27e5ad22d8c5470da6596",
    "time": "2012-10-13"
  },
  {
    "place": "Home (private)4f16bba4e4b09e81dde4b57b",
    "time": "2012-10-16"
  },
  {
    "place": "Bus Station4df27e5ad22d8c5470da6596",
    "time": "2012-10-17"
  },
  {
    "place": "Home (private)4f16bba4e4b09e81dde4b57b",
    "time": "2012-10-17"
  },
  {
    "place": "Home (private)4f16bba4e4b09e81dde4b57b",
    "time": "2012-10-19"
  },
  {
    "place": "Bus Station4df27e5ad22d8c5470da6596",
    "time": "2012-10-19"
  },
  {
    "place": "Donut Shop4b79c846f964a520bc112fe3",
    "time": "2012-10-19"
  },
  {
    "place": "Church4c40f8ab520fa59343f3c8ac",
    "time": "2012-10-19"
  },
  {
    "place": "Church4b526d05f964a520ab7c27e3",
    "time": "2012-10-19"
  },
  {
    "place": "Food & Drink Shop4d0565d3e350b60cb6538842",
    "time": "2012-10-22"
  },
  {
    "place": "Bus Station4df27e5ad22d8c5470da6596",
    "time": "2012-10-22"
  },
  {
    "place": "Park4a299005f964a520a8951fe3",
    "time": "2012-10-23"
  },
  {
    "place": "Bus Station4df27e5ad22d8c5470da6596",
    "time": "2012-10-23"
  },
  {
    "place": "Home (private)4f16bba4e4b09e81dde4b57b",
    "time": "2012-10-23"
  },
  {
    "place": "Park4a299005f964a520a8951fe3",
    "time": "2012-10-24"
  },
  {
    "place": "Bus Station4df27e5ad22d8c5470da6596",
    "time": "2012-10-24"
  },
  {
    "place": "Park4a299005f964a520a8951fe3",
    "time": "2012-10-25"
  },
  {
    "place": "Home (private)4f16bba4e4b09e81dde4b57b",
    "time": "2012-10-25"
  },
  {
    "place": "Bus Station4df27e5ad22d8c5470da6596",
    "time": "2012-10-26"
  },
  {
    "place": "Department Store4a9e7e1af964a5204c3a20e3",
    "time": "2012-10-26"
  },
  {
    "place": "Home (private)4f16bba4e4b09e81dde4b57b",
    "time": "2012-10-27"
  },
  {
    "place": "Bus Station4df27e5ad22d8c5470da6596",
    "time": "2012-10-27"
  },
  {
    "place": "Bus Station4df27e5ad22d8c5470da6596",
    "time": "2012-10-28"
  },
  {
    "place": "Church4b526d05f964a520ab7c27e3",
    "time": "2012-10-28"
  },
  {
    "place": "Donut Shop4a64792df964a52034c61fe3",
    "time": "2012-10-28"
  },
  {
    "place": "Home (private)4f16bba4e4b09e81dde4b57b",
    "time": "2012-10-28"
  },
  {
    "place": "Medical Center4be6f1a2910020a13ccbd414",
    "time": "2012-10-31"
  },
  {
    "place": "Mall4528a216f964a520173b1fe3",
    "time": "2012-11-01"
  },
  {
    "place": "Bus Station4df27e5ad22d8c5470da6596",
    "time": "2012-11-05"
  },
  {
    "place": "Donut Shop4a64792df964a52034c61fe3",
    "time": "2012-11-14"
  }
]