[
  {
    "place": "Bar3fd66200f964a52064e91ee3",
    "time": "2012-04-04"
  },
  {
    "place": "Park4a99b48cf964a520f32f20e3",
    "time": "2012-04-07"
  },
  {
    "place": "Bar3fd66200f964a52044e81ee3",
    "time": "2012-04-08"
  },
  {
    "place": "Gym / Fitness Center4b676520f964a520404c2be3",
    "time": "2012-04-09"
  },
  {
    "place": "Park4a5a4eb2f964a52021ba1fe3",
    "time": "2012-04-10"
  },
  {
    "place": "Bar3fd66200f964a52008eb1ee3",
    "time": "2012-04-10"
  },
  {
    "place": "General Entertainment4da307d5e7b8a09077802121",
    "time": "2012-04-11"
  },
  {
    "place": "BBQ Joint49baa2cef964a5208d531fe3",
    "time": "2012-04-12"
  },
  {
    "place": "Gym / Fitness Center4b676520f964a520404c2be3",
    "time": "2012-04-12"
  },
  {
    "place": "Bar4a6a09fcf964a52072cc1fe3",
    "time": "2012-04-14"
  },
  {
    "place": "Beer Garden3fd66200f964a52008f11ee3",
    "time": "2012-04-15"
  },
  {
    "place": "Bus Station4cda00d2958f236ae88da403",
    "time": "2012-04-16"
  },
  {
    "place": "Athletic & Sport4a3c02bdf964a52000a11fe3",
    "time": "2012-04-18"
  },
  {
    "place": "Gym / Fitness Center4b676520f964a520404c2be3",
    "time": "2012-04-19"
  },
  {
    "place": "Salon / Barbershop4f55352fe4b0ca522310ef50",
    "time": "2012-04-19"
  },
  {
    "place": "Bar4ce7418ab9975481d968f544",
    "time": "2012-04-21"
  },
  {
    "place": "Athletic & Sport4c82547647cc224b1e61849f",
    "time": "2012-04-21"
  },
  {
    "place": "Department Store41102700f964a520d60b1fe3",
    "time": "2012-04-22"
  },
  {
    "place": "Gym / Fitness Center4b676520f964a520404c2be3",
    "time": "2012-04-23"
  },
  {
    "place": "Stadium49d60947f964a520a85c1fe3",
    "time": "2012-04-24"
  },
  {
    "place": "Salon / Barbershop4f55352fe4b0ca522310ef50",
    "time": "2012-04-27"
  },
  {
    "place": "Bar45396895f964a520d73b1fe3",
    "time": "2012-04-28"
  },
  {
    "place": "Bar4a859ca3f964a520a5fe1fe3",
    "time": "2012-04-28"
  },
  {
    "place": "Bar4ce7418ab9975481d968f544",
    "time": "2012-04-28"
  },
  {
    "place": "Gym / Fitness Center4b676520f964a520404c2be3",
    "time": "2012-05-01"
  },
  {
    "place": "Mexican Restaurant3fd66200f964a5204de71ee3",
    "time": "2012-05-04"
  },
  {
    "place": "BBQ Joint3fd66200f964a5207eea1ee3",
    "time": "2012-05-05"
  },
  {
    "place": "Athletic & Sport4fa1ba4fe4b058e27d7ad2f6",
    "time": "2012-05-05"
  },
  {
    "place": "Scenic Lookout4bd871d1e914a593cf3e53fa",
    "time": "2012-05-05"
  },
  {
    "place": "Bar4a070a2bf964a5201a731fe3",
    "time": "2012-05-06"
  },
  {
    "place": "Athletic & Sport4fa1ba4fe4b058e27d7ad2f6",
    "time": "2012-05-09"
  },
  {
    "place": "Bar4ce46872d678a1cd6fc5a90c",
    "time": "2012-05-10"
  },
  {
    "place": "Salon / Barbershop4f55352fe4b0ca522310ef50",
    "time": "2012-05-10"
  },
  {
    "place": "Bar4ac159f9f964a520dc9620e3",
    "time": "2012-05-11"
  },
  {
    "place": "Stadium3fd66200f964a520ddf01ee3",
    "time": "2012-05-11"
  },
  {
    "place": "Bar4e742aabc65bb91db3cadb79",
    "time": "2012-05-12"
  },
  {
    "place": "Scenic Lookout4bd871d1e914a593cf3e53fa",
    "time": "2012-05-12"
  },
  {
    "place": "Diner4f293782e4b004b1e8876a9c",
    "time": "2012-05-12"
  },
  {
    "place": "Stadium49d60947f964a520a85c1fe3",
    "time": "2012-05-14"
  },
  {
    "place": "Bar4bb9ff6e935e952118962790",
    "time": "2012-05-15"
  },
  {
    "place": "Athletic & Sport4fa1ba4fe4b058e27d7ad2f6",
    "time": "2012-05-16"
  },
  {
    "place": "Salon / Barbershop4f55352fe4b0ca522310ef50",
    "time": "2012-05-17"
  },
  {
    "place": "Bar4c9a7efb971676b04a9755e2",
    "time": "2012-05-19"
  },
  {
    "place": "Athletic & Sport4fa1ba4fe4b058e27d7ad2f6",
    "time": "2012-05-19"
  },
  {
    "place": "Park4a99b48cf964a520f32f20e3",
    "time": "2012-05-19"
  },
  {
    "place": "Gym / Fitness Center4b676520f964a520404c2be3",
    "time": "2012-05-21"
  },
  {
    "place": "Seafood Restaurant3fd66200f964a520c6e81ee3",
    "time": "2012-05-25"
  },
  {
    "place": "BBQ Joint3fd66200f964a5207eea1ee3",
    "time": "2012-05-26"
  },
  {
    "place": "Beer Garden3fd66200f964a52008f11ee3",
    "time": "2012-05-27"
  },
  {
    "place": "Salon / Barbershop4f55352fe4b0ca522310ef50",
    "time": "2012-05-31"
  },
  {
    "place": "Athletic & Sport4fa1ba4fe4b058e27d7ad2f6",
    "time": "2012-06-06"
  },
  {
    "place": "Bar45396895f964a520d73b1fe3",
    "time": "2012-06-07"
  },
  {
    "place": "Salon / Barbershop4f55352fe4b0ca522310ef50",
    "time": "2012-06-07"
  },
  {
    "place": "Bar4f95cf8bd5fb282730b426c5",
    "time": "2012-06-08"
  },
  {
    "place": "Bar4f95cf8bd5fb282730b426c5",
    "time": "2012-06-10"
  },
  {
    "place": "Bar49d012ecf964a520fc5a1fe3",
    "time": "2012-06-11"
  },
  {
    "place": "Gym / Fitness Center4b676520f964a520404c2be3",
    "time": "2012-06-11"
  },
  {
    "place": "Gym / Fitness Center4b676520f964a520404c2be3",
    "time": "2012-06-13"
  },
  {
    "place": "Park4a99b48cf964a520f32f20e3",
    "time": "2012-06-16"
  },
  {
    "place": "Athletic & Sport4ea1ede49a527d6516d84ef4",
    "time": "2012-06-20"
  },
  {
    "place": "Gym / Fitness Center4b676520f964a520404c2be3",
    "time": "2012-06-26"
  },
  {
    "place": "Gym / Fitness Center4b676520f964a520404c2be3",
    "time": "2012-07-02"
  },
  {
    "place": "Gym / Fitness Center4b676520f964a520404c2be3",
    "time": "2012-07-05"
  },
  {
    "place": "BBQ Joint3fd66200f964a5207eea1ee3",
    "time": "2012-07-07"
  },
  {
    "place": "Gym / Fitness Center4b676520f964a520404c2be3",
    "time": "2012-07-09"
  },
  {
    "place": "BBQ Joint49f15227f964a520a5691fe3",
    "time": "2012-07-13"
  },
  {
    "place": "Salon / Barbershop4f55352fe4b0ca522310ef50",
    "time": "2012-07-13"
  },
  {
    "place": "Bar45396895f964a520d73b1fe3",
    "time": "2012-07-13"
  },
  {
    "place": "BBQ Joint3fd66200f964a5207eea1ee3",
    "time": "2012-07-14"
  },
  {
    "place": "Athletic & Sport4fa1ba4fe4b058e27d7ad2f6",
    "time": "2012-07-18"
  },
  {
    "place": "BBQ Joint3fd66200f964a5207eea1ee3",
    "time": "2012-07-21"
  },
  {
    "place": "Athletic & Sport4c82547647cc224b1e61849f",
    "time": "2012-07-28"
  },
  {
    "place": "Bar4a6a09fcf964a52072cc1fe3",
    "time": "2012-07-29"
  },
  {
    "place": "Bar42644a00f964a52029211fe3",
    "time": "2012-07-29"
  },
  {
    "place": "American Restaurant4faad0484fc68152ec7e368c",
    "time": "2012-07-29"
  },
  {
    "place": "Athletic & Sport4a3c02bdf964a52000a11fe3",
    "time": "2012-08-09"
  },
  {
    "place": "Bar49c65e83f964a5203b571fe3",
    "time": "2012-08-10"
  },
  {
    "place": "Bar45396895f964a520d73b1fe3",
    "time": "2012-08-11"
  },
  {
    "place": "Latin American Restaurant4b8423d7f964a5203b2331e3",
    "time": "2012-08-12"
  },
  {
    "place": "Gym / Fitness Center4b676520f964a520404c2be3",
    "time": "2012-08-13"
  },
  {
    "place": "Athletic & Sport4a3c02bdf964a52000a11fe3",
    "time": "2012-08-14"
  },
  {
    "place": "Gym / Fitness Center4b676520f964a520404c2be3",
    "time": "2012-08-17"
  },
  {
    "place": "Pizza Place4800619cf964a520ec4e1fe3",
    "time": "2012-08-18"
  },
  {
    "place": "Bar40fb0f00f964a520e10a1fe3",
    "time": "2012-08-18"
  },
  {
    "place": "Bar45396895f964a520d73b1fe3",
    "time": "2012-08-18"
  },
  {
    "place": "Bar4f9c7bc9e4b0873b678dd0dd",
    "time": "2012-09-09"
  },
  {
    "place": "BBQ Joint3fd66200f964a5207eea1ee3",
    "time": "2012-09-09"
  },
  {
    "place": "Salon / Barbershop4f55352fe4b0ca522310ef50",
    "time": "2012-09-14"
  },
  {
    "place": "Bar4ac7e99bf964a5208cba20e3",
    "time": "2012-09-15"
  },
  {
    "place": "Salon / Barbershop4f55352fe4b0ca522310ef50",
    "time": "2012-10-11"
  },
  {
    "place": "College Academic Building4c0e3eac7189c928551ed8b6",
    "time": "2012-10-11"
  },
  {
    "place": "Bar3fd66200f964a52064e91ee3",
    "time": "2012-10-12"
  },
  {
    "place": "Train Station4e3ab921b3ade614e1275a0c",
    "time": "2012-10-13"
  },
  {
    "place": "College Academic Building4b71e5aaf964a520d2622de3",
    "time": "2012-10-18"
  },
  {
    "place": "Bar3fd66200f964a52064e91ee3",
    "time": "2012-10-19"
  },
  {
    "place": "College Academic Building4c0507149a7920a110ffd179",
    "time": "2012-10-23"
  },
  {
    "place": "Gym / Fitness Center4b676520f964a520404c2be3",
    "time": "2012-10-24"
  },
  {
    "place": "Salon / Barbershop4f55352fe4b0ca522310ef50",
    "time": "2012-10-25"
  },
  {
    "place": "College Academic Building4b71e5aaf964a520d2622de3",
    "time": "2012-10-25"
  },
  {
    "place": "Pizza Place4800619cf964a520ec4e1fe3",
    "time": "2012-10-27"
  },
  {
    "place": "Other Great Outdoors508af9ccf13627e878935855",
    "time": "2012-10-29"
  },
  {
    "place": "Gym / Fitness Center4b676520f964a520404c2be3",
    "time": "2012-11-01"
  },
  {
    "place": "Gym / Fitness Center4b676520f964a520404c2be3",
    "time": "2012-11-06"
  },
  {
    "place": "Bar45396895f964a520d73b1fe3",
    "time": "2012-11-11"
  },
  {
    "place": "Bar3fd66200f964a52042e81ee3",
    "time": "2012-11-13"
  },
  {
    "place": "Gym / Fitness Center4b676520f964a520404c2be3",
    "time": "2012-11-16"
  },
  {
    "place": "Bar4e742aabc65bb91db3cadb79",
    "time": "2012-11-16"
  },
  {
    "place": "Bar4ce7418ab9975481d968f544",
    "time": "2012-11-17"
  },
  {
    "place": "Gym / Fitness Center4b676520f964a520404c2be3",
    "time": "2012-11-20"
  },
  {
    "place": "Bar4e742aabc65bb91db3cadb79",
    "time": "2012-11-24"
  },
  {
    "place": "Bar45396895f964a520d73b1fe3",
    "time": "2012-11-25"
  },
  {
    "place": "BBQ Joint3fd66200f964a5207eea1ee3",
    "time": "2012-12-01"
  },
  {
    "place": "Bar3fd66200f964a5208fe81ee3",
    "time": "2012-12-02"
  },
  {
    "place": "Parking4ed2486f7ee5be844d6532b9",
    "time": "2012-12-02"
  },
  {
    "place": "Gym / Fitness Center4b676520f964a520404c2be3",
    "time": "2012-12-06"
  },
  {
    "place": "Bar4ce7418ab9975481d968f544",
    "time": "2012-12-08"
  },
  {
    "place": "Bar4e742aabc65bb91db3cadb79",
    "time": "2012-12-08"
  },
  {
    "place": "Gym / Fitness Center4b676520f964a520404c2be3",
    "time": "2012-12-11"
  },
  {
    "place": "BBQ Joint3fd66200f964a5207eea1ee3",
    "time": "2012-12-12"
  },
  {
    "place": "Bar41fad200f964a5203f1f1fe3",
    "time": "2012-12-15"
  },
  {
    "place": "Gym / Fitness Center4b676520f964a520404c2be3",
    "time": "2012-12-19"
  },
  {
    "place": "Gym / Fitness Center4b676520f964a520404c2be3",
    "time": "2012-12-19"
  },
  {
    "place": "Gym / Fitness Center4b676520f964a520404c2be3",
    "time": "2012-12-20"
  },
  {
    "place": "Bar50cb425de4b02eda3969d0ae",
    "time": "2012-12-21"
  },
  {
    "place": "Bar4e742aabc65bb91db3cadb79",
    "time": "2012-12-22"
  },
  {
    "place": "American Restaurant424b3d80f964a52096201fe3",
    "time": "2012-12-22"
  },
  {
    "place": "Mediterranean Restaurant479309d9f964a520564d1fe3",
    "time": "2012-12-23"
  },
  {
    "place": "Bar3fd66200f964a520e1f01ee3",
    "time": "2012-12-29"
  },
  {
    "place": "Other Great Outdoors50dff1a7e4b0a36649c8402e",
    "time": "2012-12-31"
  },
  {
    "place": "Other Great Outdoors50e24527e4b0748c864c538b",
    "time": "2013-01-01"
  },
  {
    "place": "Other Great Outdoors50e24527e4b0748c864c538b",
    "time": "2013-01-01"
  },
  {
    "place": "Salon / Barbershop4f55352fe4b0ca522310ef50",
    "time": "2013-01-04"
  },
  {
    "place": "BBQ Joint3fd66200f964a5207eea1ee3",
    "time": "2013-01-06"
  },
  {
    "place": "Bar40f47780f964a5208f0a1fe3",
    "time": "2013-01-06"
  },
  {
    "place": "Gym / Fitness Center4b676520f964a520404c2be3",
    "time": "2013-01-07"
  },
  {
    "place": "Salon / Barbershop4f55352fe4b0ca522310ef50",
    "time": "2013-01-10"
  },
  {
    "place": "Bar4e742aabc65bb91db3cadb79",
    "time": "2013-01-12"
  },
  {
    "place": "Bus Station4840fe6bf964a52030501fe3",
    "time": "2013-01-13"
  },
  {
    "place": "Gym / Fitness Center4b676520f964a520404c2be3",
    "time": "2013-01-15"
  },
  {
    "place": "Gym / Fitness Center4b676520f964a520404c2be3",
    "time": "2013-01-17"
  },
  {
    "place": "Salon / Barbershop4f55352fe4b0ca522310ef50",
    "time": "2013-01-18"
  },
  {
    "place": "Bar45396895f964a520d73b1fe3",
    "time": "2013-01-21"
  },
  {
    "place": "Gym / Fitness Center4b676520f964a520404c2be3",
    "time": "2013-01-24"
  },
  {
    "place": "Gym / Fitness Center4b676520f964a520404c2be3",
    "time": "2013-01-26"
  },
  {
    "place": "American Restaurant50424e10e4b0c996b313578d",
    "time": "2013-01-27"
  },
  {
    "place": "Bar4530ed16f964a520653b1fe3",
    "time": "2013-01-31"
  },
  {
    "place": "Gym / Fitness Center4b676520f964a520404c2be3",
    "time": "2013-02-01"
  },
  {
    "place": "Park4be9a9e9415e20a1b01be4bb",
    "time": "2013-02-03"
  },
  {
    "place": "Gym / Fitness Center4eac07434690ef1f6c87d46f",
    "time": "2013-02-04"
  },
  {
    "place": "Salon / Barbershop4f55352fe4b0ca522310ef50",
    "time": "2013-02-07"
  },
  {
    "place": "Gym / Fitness Center4b676520f964a520404c2be3",
    "time": "2013-02-08"
  },
  {
    "place": "Stadium4ae6363ef964a520aba521e3",
    "time": "2013-02-10"
  },
  {
    "place": "Bar45396895f964a520d73b1fe3",
    "time": "2013-02-10"
  },
  {
    "place": "Gym / Fitness Center4b676520f964a520404c2be3",
    "time": "2013-02-12"
  }
]