[
  {
    "place": "Food Truck4cf2c5321d18a143951b5cec",
    "time": "2012-04-03"
  },
  {
    "place": "Gastropub4d8263a73e916dcb8edd80d2",
    "time": "2012-04-03"
  },
  {
    "place": "Park40b68100f964a5207d001fe3",
    "time": "2012-04-06"
  },
  {
    "place": "Office4e6122c0e4cdf1e2bebadc68",
    "time": "2012-04-06"
  },
  {
    "place": "Office4edcd3198231efe39240ba6f",
    "time": "2012-04-09"
  },
  {
    "place": "Clothing Store4f27112ae4b0d10db310bf14",
    "time": "2012-04-09"
  },
  {
    "place": "Bagel Shop4ac915d4f964a52085be20e3",
    "time": "2012-04-10"
  },
  {
    "place": "Caf\u00c3\u00a94b5200d2f964a520946027e3",
    "time": "2012-04-10"
  },
  {
    "place": "Bar49f1e5bff964a520c4691fe3",
    "time": "2012-04-10"
  },
  {
    "place": "Hotel3fd66200f964a52003e81ee3",
    "time": "2012-04-11"
  },
  {
    "place": "Bar4c082c5a340720a116b98293",
    "time": "2012-04-11"
  },
  {
    "place": "Plaza49b79f54f964a5202c531fe3",
    "time": "2012-04-11"
  },
  {
    "place": "Furniture / Home Store4ab2c0ccf964a5202d6c20e3",
    "time": "2012-04-11"
  },
  {
    "place": "Beer Garden4da9e6adfc607fc998b7d3d6",
    "time": "2012-04-11"
  },
  {
    "place": "Food & Drink Shop4c5ef77bfff99c74eda954d3",
    "time": "2012-04-11"
  },
  {
    "place": "Burger Joint40e74880f964a520150a1fe3",
    "time": "2012-04-11"
  },
  {
    "place": "Donut Shop3fd66200f964a52020e31ee3",
    "time": "2012-04-13"
  },
  {
    "place": "Caf\u00c3\u00a94d0f7f12cf09a143b6ba250f",
    "time": "2012-04-13"
  },
  {
    "place": "Bridge4a32c3f9f964a5208c9a1fe3",
    "time": "2012-04-13"
  },
  {
    "place": "Other Great Outdoors4c7d0ee5247cb60c0cbd5f5e",
    "time": "2012-04-13"
  },
  {
    "place": "Pizza Place4f6a1d167beb11534590bd75",
    "time": "2012-04-13"
  },
  {
    "place": "Pizza Place4ba59881f964a520331539e3",
    "time": "2012-04-14"
  },
  {
    "place": "Dumpling Restaurant49eeaf08f964a52078681fe3",
    "time": "2012-04-14"
  },
  {
    "place": "Building43695300f964a5208c291fe3",
    "time": "2012-04-14"
  },
  {
    "place": "Train Station42829c80f964a5206a221fe3",
    "time": "2012-04-14"
  },
  {
    "place": "Park3fd66200f964a520d7f11ee3",
    "time": "2012-04-14"
  },
  {
    "place": "Toy / Game Store4c2258d69085d13ab22f86cc",
    "time": "2012-04-14"
  },
  {
    "place": "Burger Joint4a89f883f964a5208f0920e3",
    "time": "2012-04-14"
  },
  {
    "place": "Chinese Restaurant4bf9d27b5efe2d7f0ee76c34",
    "time": "2012-04-15"
  },
  {
    "place": "Neighborhood4b996536f964a520467835e3",
    "time": "2012-04-15"
  },
  {
    "place": "Seafood Restaurant4144e300f964a520a51c1fe3",
    "time": "2012-04-15"
  },
  {
    "place": "Scenic Lookout4bbe688aba9776b045acfdc8",
    "time": "2012-04-15"
  },
  {
    "place": "Residential Building (Apartment / Condo)4bc2794bb492d13af3a7a760",
    "time": "2012-04-16"
  },
  {
    "place": "Bar3fd66200f964a52049e31ee3",
    "time": "2012-04-19"
  },
  {
    "place": "Bar3fd66200f964a520e0e51ee3",
    "time": "2012-04-20"
  },
  {
    "place": "Italian Restaurant4b709d01f964a5204c252de3",
    "time": "2012-04-20"
  },
  {
    "place": "Hobby Shop4d7d23ab645ea35d53d952f8",
    "time": "2012-05-06"
  },
  {
    "place": "Office4d0781b830a58cfad6f0b0e7",
    "time": "2012-05-07"
  },
  {
    "place": "Food Truck4a416369f964a52036a51fe3",
    "time": "2012-05-07"
  },
  {
    "place": "Bakery4ac53947f964a52014b120e3",
    "time": "2012-05-08"
  },
  {
    "place": "Office4d0781b830a58cfad6f0b0e7",
    "time": "2012-05-08"
  },
  {
    "place": "Office4d0781b830a58cfad6f0b0e7",
    "time": "2012-05-09"
  },
  {
    "place": "Office4f905671e4b05b1cb7740ec4",
    "time": "2012-05-09"
  },
  {
    "place": "Bar46dbf48df964a5208a4a1fe3",
    "time": "2012-05-10"
  },
  {
    "place": "Office4d0781b830a58cfad6f0b0e7",
    "time": "2012-05-11"
  },
  {
    "place": "Sandwich Place49bd4d49f964a52065541fe3",
    "time": "2012-05-11"
  },
  {
    "place": "Italian Restaurant4d9f8d97a428a1cdd92acb04",
    "time": "2012-05-11"
  },
  {
    "place": "American Restaurant4ded4193b0fb43a756d882a1",
    "time": "2012-05-12"
  },
  {
    "place": "Office4d0781b830a58cfad6f0b0e7",
    "time": "2012-05-14"
  },
  {
    "place": "Office4f905671e4b05b1cb7740ec4",
    "time": "2012-05-14"
  },
  {
    "place": "Office4f67bbb5e4b0496fe3d67507",
    "time": "2012-05-14"
  },
  {
    "place": "Office4d0781b830a58cfad6f0b0e7",
    "time": "2012-05-15"
  },
  {
    "place": "Office4f905671e4b05b1cb7740ec4",
    "time": "2012-05-15"
  },
  {
    "place": "Sandwich Place49c28a31f964a520fc551fe3",
    "time": "2012-05-15"
  },
  {
    "place": "Chinese Restaurant3fd66200f964a520b1ea1ee3",
    "time": "2012-05-15"
  },
  {
    "place": "Office4f905671e4b05b1cb7740ec4",
    "time": "2012-05-16"
  },
  {
    "place": "Office4f905671e4b05b1cb7740ec4",
    "time": "2012-05-17"
  },
  {
    "place": "Office4f905671e4b05b1cb7740ec4",
    "time": "2012-05-18"
  },
  {
    "place": "Bar4c24087ef7ced13a2144226d",
    "time": "2012-05-18"
  },
  {
    "place": "Burger Joint4a01ee7bf964a52010711fe3",
    "time": "2012-05-19"
  },
  {
    "place": "American Restaurant43f5ac83f964a520a32f1fe3",
    "time": "2012-05-19"
  },
  {
    "place": "Office4f905671e4b05b1cb7740ec4",
    "time": "2012-05-21"
  },
  {
    "place": "Sushi Restaurant40ad4680f964a52038f31ee3",
    "time": "2012-05-21"
  },
  {
    "place": "Burger Joint40e74880f964a520150a1fe3",
    "time": "2012-05-21"
  },
  {
    "place": "Bar43a46529f964a520492c1fe3",
    "time": "2012-05-22"
  },
  {
    "place": "Sandwich Place4e6e440e3151d38bc2daf56c",
    "time": "2012-05-23"
  },
  {
    "place": "Bar3fd66200f964a520dfe51ee3",
    "time": "2012-05-24"
  },
  {
    "place": "Pizza Place4aee4cd4f964a52068d321e3",
    "time": "2012-05-24"
  },
  {
    "place": "Deli / Bodega4aba3d00f964a5209e8020e3",
    "time": "2012-05-25"
  },
  {
    "place": "Office4f905671e4b05b1cb7740ec4",
    "time": "2012-05-25"
  },
  {
    "place": "Beer Garden4a7dff4df964a52091f01fe3",
    "time": "2012-05-25"
  },
  {
    "place": "American Restaurant4e691e82b9930387355c629d",
    "time": "2012-05-26"
  },
  {
    "place": "Bar4bdf2151ea279c74727de22b",
    "time": "2012-05-26"
  },
  {
    "place": "Home (private)4e02781f1495525ce2c4d7af",
    "time": "2012-05-27"
  },
  {
    "place": "Pizza Place4d543711bd18a090ed249970",
    "time": "2012-05-28"
  },
  {
    "place": "Bar44ac191af964a52011351fe3",
    "time": "2012-05-28"
  },
  {
    "place": "Office4f905671e4b05b1cb7740ec4",
    "time": "2012-05-29"
  },
  {
    "place": "Office4d0781b830a58cfad6f0b0e7",
    "time": "2012-05-29"
  },
  {
    "place": "Office4f905671e4b05b1cb7740ec4",
    "time": "2012-05-31"
  },
  {
    "place": "Office4d0781b830a58cfad6f0b0e7",
    "time": "2012-05-31"
  },
  {
    "place": "Caf\u00c3\u00a94a49212cf964a52004ab1fe3",
    "time": "2012-05-31"
  },
  {
    "place": "Office4f905671e4b05b1cb7740ec4",
    "time": "2012-06-01"
  },
  {
    "place": "Office4d0781b830a58cfad6f0b0e7",
    "time": "2012-06-01"
  },
  {
    "place": "General Entertainment4f1b801ae4b01d7c5eba8ee1",
    "time": "2012-06-03"
  },
  {
    "place": "Bar42814b00f964a52000221fe3",
    "time": "2012-06-03"
  },
  {
    "place": "Sandwich Place4a635d6ef964a520dfc41fe3",
    "time": "2012-06-04"
  },
  {
    "place": "Office4f905671e4b05b1cb7740ec4",
    "time": "2012-06-04"
  },
  {
    "place": "Office4d0781b830a58cfad6f0b0e7",
    "time": "2012-06-04"
  },
  {
    "place": "Airport4ace6c89f964a52078d020e3",
    "time": "2012-06-06"
  },
  {
    "place": "Food & Drink Shop460d4b66f964a52005451fe3",
    "time": "2012-07-02"
  },
  {
    "place": "Office4d0781b830a58cfad6f0b0e7",
    "time": "2012-07-03"
  },
  {
    "place": "Office4e9c8e466da1cbe0b92c7c0f",
    "time": "2012-07-03"
  },
  {
    "place": "Bar4e20589f483b041af1e0fa98",
    "time": "2012-07-04"
  },
  {
    "place": "Home (private)4fcd72ade4b056c3a017170c",
    "time": "2012-07-04"
  },
  {
    "place": "American Restaurant3fd66200f964a520a8e91ee3",
    "time": "2012-07-05"
  },
  {
    "place": "Bar4ee19911b8f775b37373a062",
    "time": "2012-07-06"
  },
  {
    "place": "Mexican Restaurant4be9d4284f5576b08311b396",
    "time": "2012-07-06"
  },
  {
    "place": "Office4d0781b830a58cfad6f0b0e7",
    "time": "2012-07-06"
  },
  {
    "place": "Bar3fd66200f964a520e6e61ee3",
    "time": "2012-07-07"
  },
  {
    "place": "Stadium3fd66200f964a520ddf01ee3",
    "time": "2012-07-07"
  },
  {
    "place": "Latin American Restaurant4b132b0bf964a520099523e3",
    "time": "2012-07-08"
  },
  {
    "place": "Australian Restaurant4f1d6a4fe4b07beffff2dd70",
    "time": "2012-07-08"
  },
  {
    "place": "Middle Eastern Restaurant4bfa3ce75efe2d7f18576d34",
    "time": "2012-07-09"
  },
  {
    "place": "Hobby Shop4d7d23ab645ea35d53d952f8",
    "time": "2012-07-11"
  },
  {
    "place": "Art Gallery4f655a6ae4b0cded5d5a3b42",
    "time": "2012-07-11"
  },
  {
    "place": "Deli / Bodega3fd66200f964a5209be41ee3",
    "time": "2012-07-11"
  },
  {
    "place": "Bar3fd66200f964a520cde31ee3",
    "time": "2012-07-12"
  },
  {
    "place": "Movie Theater40afe980f964a5203bf31ee3",
    "time": "2012-07-13"
  },
  {
    "place": "Bar4e20589f483b041af1e0fa98",
    "time": "2012-07-13"
  },
  {
    "place": "Malaysian Restaurant4aa58ef5f964a520cc4820e3",
    "time": "2012-07-15"
  },
  {
    "place": "Bar4f769617e4b08f9be4c69257",
    "time": "2012-07-15"
  },
  {
    "place": "Nightlife Spot4e1cfa98c65b6cd0da970a7d",
    "time": "2012-07-16"
  },
  {
    "place": "Office4d0781b830a58cfad6f0b0e7",
    "time": "2012-07-17"
  },
  {
    "place": "Office4e9c8e466da1cbe0b92c7c0f",
    "time": "2012-07-17"
  },
  {
    "place": "Office4e9c8e466da1cbe0b92c7c0f",
    "time": "2012-07-27"
  },
  {
    "place": "French Restaurant4b450dc0f964a520ad0226e3",
    "time": "2012-07-28"
  },
  {
    "place": "Scandinavian Restaurant4bdb106663c5c9b651262668",
    "time": "2012-07-28"
  },
  {
    "place": "Seafood Restaurant4f107e84e5e852ca73ddd2fa",
    "time": "2012-07-28"
  },
  {
    "place": "Office4ef0e7cf7beb5932d5bdeb4e",
    "time": "2012-07-29"
  },
  {
    "place": "Office4e9c8e466da1cbe0b92c7c0f",
    "time": "2012-07-30"
  },
  {
    "place": "Office4e9c8e466da1cbe0b92c7c0f",
    "time": "2012-08-09"
  },
  {
    "place": "Bar4b527fdcf964a520028027e3",
    "time": "2012-08-10"
  },
  {
    "place": "Bar4ac6bb7ff964a52014b620e3",
    "time": "2012-08-11"
  },
  {
    "place": "Hot Dog Joint3fd66200f964a520a5e41ee3",
    "time": "2012-08-13"
  },
  {
    "place": "Ferry4165d880f964a5207e1d1fe3",
    "time": "2012-08-16"
  },
  {
    "place": "Beer Garden4a083214f964a520a3731fe3",
    "time": "2012-08-19"
  },
  {
    "place": "Movie Theater43a72ba0f964a520672c1fe3",
    "time": "2012-08-18"
  },
  {
    "place": "Mexican Restaurant466a4c63f964a52099471fe3",
    "time": "2012-10-13"
  },
  {
    "place": "Latin American Restaurant4c11829d17002d7f3b63e609",
    "time": "2012-10-13"
  },
  {
    "place": "Bakery50a677b1e4b07223cf3a9d4c",
    "time": "2012-11-16"
  },
  {
    "place": "Government Building4c052c56187ec9285203b87b",
    "time": "2012-11-30"
  },
  {
    "place": "Event Space4b7dd584f964a52032d72fe3",
    "time": "2012-11-30"
  },
  {
    "place": "Salon / Barbershop49f4b70bf964a5203e6b1fe3",
    "time": "2012-12-04"
  },
  {
    "place": "Residential Building (Apartment / Condo)4c2fa2f7ed37a593d2a46703",
    "time": "2012-12-04"
  },
  {
    "place": "Airport501b0772e4b0569dd43bedfa",
    "time": "2012-12-05"
  }
]