[
  {
    "place": "Gym / Fitness Center4bfb0ac865fbc9b660e8906c",
    "time": "2012-04-23"
  },
  {
    "place": "Sporting Goods Shop4a676435f964a52054c91fe3",
    "time": "2012-04-23"
  },
  {
    "place": "Gym / Fitness Center4c01d706f99620a1b2452504",
    "time": "2012-04-23"
  },
  {
    "place": "Gym / Fitness Center4cfb90ee2d80a143302e4cd8",
    "time": "2012-04-24"
  },
  {
    "place": "Gym / Fitness Center4c8509cfd4e2370470c67e88",
    "time": "2012-04-25"
  },
  {
    "place": "Stadium4ae6363ef964a520aba521e3",
    "time": "2012-05-22"
  },
  {
    "place": "Gym / Fitness Center45938647f964a52045401fe3",
    "time": "2012-05-25"
  },
  {
    "place": "Hotel4d9e5fb52052f04d07c8b494",
    "time": "2012-05-27"
  },
  {
    "place": "Spa / Massage4a7f3823f964a5204df31fe3",
    "time": "2012-05-28"
  },
  {
    "place": "University4283ee00f964a52085221fe3",
    "time": "2012-05-28"
  },
  {
    "place": "Spa / Massage4a7f3823f964a5204df31fe3",
    "time": "2012-05-29"
  },
  {
    "place": "Coffee Shop4f45154119836ed0019884ea",
    "time": "2012-05-29"
  },
  {
    "place": "University4283ee00f964a52085221fe3",
    "time": "2012-05-29"
  },
  {
    "place": "Office4c7c360eaa3ba093a728aa74",
    "time": "2012-05-29"
  },
  {
    "place": "Hotel4d9e5fb52052f04d07c8b494",
    "time": "2012-05-29"
  },
  {
    "place": "Gym / Fitness Center45938647f964a52045401fe3",
    "time": "2012-05-30"
  },
  {
    "place": "Spa / Massage4a7f3823f964a5204df31fe3",
    "time": "2012-05-30"
  },
  {
    "place": "Hotel4d9e5fb52052f04d07c8b494",
    "time": "2012-05-31"
  },
  {
    "place": "Coffee Shop4a3ffdc5f964a5202da41fe3",
    "time": "2012-06-01"
  },
  {
    "place": "University4283ee00f964a52085221fe3",
    "time": "2012-06-01"
  },
  {
    "place": "College Academic Building4b72be65f964a52072862de3",
    "time": "2012-06-01"
  },
  {
    "place": "Hotel4d9e5fb52052f04d07c8b494",
    "time": "2012-06-02"
  },
  {
    "place": "Gym / Fitness Center45938647f964a52045401fe3",
    "time": "2012-06-03"
  },
  {
    "place": "Spa / Massage4a7f3823f964a5204df31fe3",
    "time": "2012-06-03"
  },
  {
    "place": "Seafood Restaurant434da380f964a520a5281fe3",
    "time": "2012-06-03"
  },
  {
    "place": "Hotel4d9e5fb52052f04d07c8b494",
    "time": "2012-06-03"
  },
  {
    "place": "Spa / Massage4a7f3823f964a5204df31fe3",
    "time": "2012-06-04"
  },
  {
    "place": "Hotel4d9e5fb52052f04d07c8b494",
    "time": "2012-06-04"
  },
  {
    "place": "University4283ee00f964a52085221fe3",
    "time": "2012-06-04"
  },
  {
    "place": "Plaza49b7ed6df964a52030531fe3",
    "time": "2012-06-04"
  },
  {
    "place": "Airport43a52546f964a520532c1fe3",
    "time": "2012-06-05"
  },
  {
    "place": "Airport43a52546f964a520532c1fe3",
    "time": "2012-07-08"
  },
  {
    "place": "Airport4b7e33d6f964a520efe52fe3",
    "time": "2012-07-08"
  },
  {
    "place": "Hotel4d9e5fb52052f04d07c8b494",
    "time": "2012-07-08"
  },
  {
    "place": "Coffee Shop4eb811f629c212fb6d8158e5",
    "time": "2012-07-08"
  },
  {
    "place": "Bookstore49ef71e3f964a520b8681fe3",
    "time": "2012-07-08"
  },
  {
    "place": "Zoo4a09f665f964a52077741fe3",
    "time": "2012-07-08"
  },
  {
    "place": "Record Shop4b105fc1f964a520f76e23e3",
    "time": "2012-07-08"
  },
  {
    "place": "Building4d588c111901224b28628ca6",
    "time": "2012-07-09"
  },
  {
    "place": "Hotel4d9e5fb52052f04d07c8b494",
    "time": "2012-07-09"
  },
  {
    "place": "Park3fd66200f964a520d7f11ee3",
    "time": "2012-07-09"
  },
  {
    "place": "Hotel4d9e5fb52052f04d07c8b494",
    "time": "2012-07-09"
  },
  {
    "place": "Movie Theater43a72ba0f964a520672c1fe3",
    "time": "2012-07-09"
  },
  {
    "place": "Hardware Store4a21834ff964a520077d1fe3",
    "time": "2012-07-10"
  },
  {
    "place": "Burger Joint40e74880f964a520150a1fe3",
    "time": "2012-07-11"
  },
  {
    "place": "Stadium4bd44b84a8b3a5937e7f6b5f",
    "time": "2012-07-11"
  },
  {
    "place": "Mosque4d1ce88415a38eec8fc90b33",
    "time": "2012-07-11"
  },
  {
    "place": "Hotel4d9e5fb52052f04d07c8b494",
    "time": "2012-07-12"
  },
  {
    "place": "Mosque4d1ce88415a38eec8fc90b33",
    "time": "2012-07-12"
  },
  {
    "place": "Food Truck4d823d0259d16dcbac9b091c",
    "time": "2012-07-12"
  },
  {
    "place": "Hotel4d9e5fb52052f04d07c8b494",
    "time": "2012-07-13"
  },
  {
    "place": "Airport43a52546f964a520532c1fe3",
    "time": "2012-07-15"
  },
  {
    "place": "Event Space4ffadefff31c307dc24262d2",
    "time": "2012-07-16"
  },
  {
    "place": "Mosque4d1ce88415a38eec8fc90b33",
    "time": "2012-07-16"
  },
  {
    "place": "Hotel4d9e5fb52052f04d07c8b494",
    "time": "2012-07-16"
  },
  {
    "place": "Hotel4d9e5fb52052f04d07c8b494",
    "time": "2012-07-16"
  },
  {
    "place": "Hotel4d9e5fb52052f04d07c8b494",
    "time": "2012-07-17"
  },
  {
    "place": "Mosque4d1ce88415a38eec8fc90b33",
    "time": "2012-07-17"
  },
  {
    "place": "Bookstore4df6645288772e1f815d2598",
    "time": "2012-07-22"
  },
  {
    "place": "Seafood Restaurant434da380f964a520a5281fe3",
    "time": "2012-08-09"
  },
  {
    "place": "Hotel4d9e5fb52052f04d07c8b494",
    "time": "2012-08-14"
  },
  {
    "place": "Performing Arts Venue3fd66200f964a52023e81ee3",
    "time": "2012-09-05"
  },
  {
    "place": "Clothing Store4ad5056cf964a520520121e3",
    "time": "2012-09-06"
  },
  {
    "place": "Airport43a52546f964a520532c1fe3",
    "time": "2012-12-29"
  },
  {
    "place": "Airport4b7e33d6f964a520efe52fe3",
    "time": "2012-12-29"
  },
  {
    "place": "Hotel4d9e5fb52052f04d07c8b494",
    "time": "2012-12-29"
  },
  {
    "place": "Hotel4d9e5fb52052f04d07c8b494",
    "time": "2012-12-31"
  },
  {
    "place": "Gym / Fitness Center3fd66200f964a5204ae41ee3",
    "time": "2013-01-01"
  },
  {
    "place": "Other Great Outdoors50dff1a7e4b0a36649c8402e",
    "time": "2013-01-01"
  },
  {
    "place": "Park43222200f964a5209a271fe3",
    "time": "2013-01-04"
  },
  {
    "place": "Mosque4bfab1cb633d9c74961f0843",
    "time": "2013-01-04"
  },
  {
    "place": "Hotel4d9e5fb52052f04d07c8b494",
    "time": "2013-01-04"
  },
  {
    "place": "University4283ee00f964a52085221fe3",
    "time": "2013-01-04"
  },
  {
    "place": "Japanese Restaurant4b9a873ef964a52023be35e3",
    "time": "2013-01-05"
  },
  {
    "place": "Fast Food Restaurant4a09c4adf964a52053741fe3",
    "time": "2013-01-05"
  },
  {
    "place": "Plaza4bb7bbd51261d13ae9c9e798",
    "time": "2013-01-06"
  },
  {
    "place": "Southern / Soul Food Restaurant4c90005f3790199c16d8926b",
    "time": "2013-01-06"
  },
  {
    "place": "Gym / Fitness Center3fd66200f964a5204ae41ee3",
    "time": "2013-01-06"
  },
  {
    "place": "Hotel4d9e5fb52052f04d07c8b494",
    "time": "2013-01-07"
  },
  {
    "place": "Bar4c22beee99282d7f17b667b0",
    "time": "2013-01-07"
  },
  {
    "place": "Fast Food Restaurant4a09c4adf964a52053741fe3",
    "time": "2013-01-07"
  },
  {
    "place": "University4283ee00f964a52085221fe3",
    "time": "2013-01-07"
  },
  {
    "place": "Hotel4d9e5fb52052f04d07c8b494",
    "time": "2013-01-07"
  },
  {
    "place": "Library4ba7be63f964a52046af39e3",
    "time": "2013-01-08"
  },
  {
    "place": "University4283ee00f964a52085221fe3",
    "time": "2013-01-08"
  },
  {
    "place": "Coffee Shop49ee02e9f964a52010681fe3",
    "time": "2013-01-09"
  },
  {
    "place": "University4283ee00f964a52085221fe3",
    "time": "2013-01-09"
  },
  {
    "place": "Fast Food Restaurant4a09c4adf964a52053741fe3",
    "time": "2013-01-09"
  },
  {
    "place": "University4283ee00f964a52085221fe3",
    "time": "2013-01-09"
  },
  {
    "place": "Hot Dog Joint3fd66200f964a52074e81ee3",
    "time": "2013-01-10"
  },
  {
    "place": "University4283ee00f964a52085221fe3",
    "time": "2013-01-10"
  },
  {
    "place": "Italian Restaurant49b7aefcf964a5202d531fe3",
    "time": "2013-01-11"
  },
  {
    "place": "Hotel4d9e5fb52052f04d07c8b494",
    "time": "2013-01-12"
  },
  {
    "place": "American Restaurant4b6045adf964a52001dd29e3",
    "time": "2013-01-12"
  },
  {
    "place": "Sushi Restaurant436aa480f964a5209e291fe3",
    "time": "2013-01-12"
  },
  {
    "place": "Indian Restaurant3fd66200f964a52021e31ee3",
    "time": "2013-01-12"
  },
  {
    "place": "Gym / Fitness Center45938647f964a52045401fe3",
    "time": "2013-01-13"
  },
  {
    "place": "University4283ee00f964a52085221fe3",
    "time": "2013-01-14"
  },
  {
    "place": "Fast Food Restaurant4a09c4adf964a52053741fe3",
    "time": "2013-01-14"
  },
  {
    "place": "College Academic Building4b72be65f964a52072862de3",
    "time": "2013-01-14"
  },
  {
    "place": "University4283ee00f964a52085221fe3",
    "time": "2013-01-14"
  },
  {
    "place": "University4283ee00f964a52085221fe3",
    "time": "2013-01-15"
  },
  {
    "place": "Hotel48636489f964a520e0501fe3",
    "time": "2013-01-15"
  },
  {
    "place": "Fast Food Restaurant4a09c4adf964a52053741fe3",
    "time": "2013-01-16"
  },
  {
    "place": "Hotel4d9e5fb52052f04d07c8b494",
    "time": "2013-01-17"
  },
  {
    "place": "Hot Dog Joint3fd66200f964a52074e81ee3",
    "time": "2013-01-17"
  },
  {
    "place": "German Restaurant4d5b3dd522ad2d430a63e695",
    "time": "2013-01-18"
  },
  {
    "place": "Hotel4d9e5fb52052f04d07c8b494",
    "time": "2013-01-18"
  },
  {
    "place": "Hotel4d9e5fb52052f04d07c8b494",
    "time": "2013-01-18"
  },
  {
    "place": "Fast Food Restaurant4a09c4adf964a52053741fe3",
    "time": "2013-01-18"
  },
  {
    "place": "University4283ee00f964a52085221fe3",
    "time": "2013-01-21"
  },
  {
    "place": "Seafood Restaurant434da380f964a520a5281fe3",
    "time": "2013-01-21"
  },
  {
    "place": "Hotel4d9e5fb52052f04d07c8b494",
    "time": "2013-01-22"
  },
  {
    "place": "University4283ee00f964a52085221fe3",
    "time": "2013-01-22"
  },
  {
    "place": "Gym / Fitness Center4bfb0ac865fbc9b660e8906c",
    "time": "2013-01-24"
  },
  {
    "place": "Hot Dog Joint3fd66200f964a52074e81ee3",
    "time": "2013-01-24"
  },
  {
    "place": "Hotel4d9e5fb52052f04d07c8b494",
    "time": "2013-01-24"
  },
  {
    "place": "Hotel4d9e5fb52052f04d07c8b494",
    "time": "2013-01-25"
  },
  {
    "place": "Fast Food Restaurant4a09c4adf964a52053741fe3",
    "time": "2013-01-25"
  },
  {
    "place": "Seafood Restaurant434da380f964a520a5281fe3",
    "time": "2013-01-25"
  },
  {
    "place": "Hotel4d9e5fb52052f04d07c8b494",
    "time": "2013-01-25"
  },
  {
    "place": "Gym / Fitness Center4bfb0ac865fbc9b660e8906c",
    "time": "2013-01-26"
  },
  {
    "place": "Fast Food Restaurant4a09c4adf964a52053741fe3",
    "time": "2013-01-26"
  },
  {
    "place": "Seafood Restaurant434da380f964a520a5281fe3",
    "time": "2013-01-26"
  },
  {
    "place": "Hotel4d9e5fb52052f04d07c8b494",
    "time": "2013-01-26"
  },
  {
    "place": "Hotel4d9e5fb52052f04d07c8b494",
    "time": "2013-01-27"
  },
  {
    "place": "Gym / Fitness Center4bfb0ac865fbc9b660e8906c",
    "time": "2013-01-27"
  },
  {
    "place": "Hotel4d9e5fb52052f04d07c8b494",
    "time": "2013-01-28"
  },
  {
    "place": "Restaurant4c94a38fefecb71341b6df9d",
    "time": "2013-02-16"
  }
]