[
  {
    "place": "Clothing Store4c5b03f904f9be9a0a38f360",
    "time": "2012-04-03"
  },
  {
    "place": "Pizza Place4b9aac64f964a520c4cb35e3",
    "time": "2012-04-04"
  },
  {
    "place": "Sandwich Place4d0b9d235f86f04dafe8cca0",
    "time": "2012-04-04"
  },
  {
    "place": "Spa / Massage4b4b92a1f964a520b1a026e3",
    "time": "2012-04-04"
  },
  {
    "place": "Pizza Place4b9aac64f964a520c4cb35e3",
    "time": "2012-04-05"
  },
  {
    "place": "Clothing Store4c5b03f904f9be9a0a38f360",
    "time": "2012-04-07"
  },
  {
    "place": "Restaurant44abe943f964a52008351fe3",
    "time": "2012-04-07"
  },
  {
    "place": "Bar4f559652e4b006538a5679bc",
    "time": "2012-04-07"
  },
  {
    "place": "Bar4cc35db6d43ba14387a35ff8",
    "time": "2012-04-08"
  },
  {
    "place": "General Entertainment4db44994cda1c57c82583709",
    "time": "2012-04-08"
  },
  {
    "place": "Food & Drink Shop4b021e44f964a520d84722e3",
    "time": "2012-04-08"
  },
  {
    "place": "Thrift / Vintage Store4bc47e69abf49521e412c593",
    "time": "2012-04-09"
  },
  {
    "place": "Home (private)4ca55f1ff47ea14375e35621",
    "time": "2012-04-10"
  },
  {
    "place": "Clothing Store4c5b03f904f9be9a0a38f360",
    "time": "2012-04-10"
  },
  {
    "place": "Bar4d0451be0e49721eb58c707f",
    "time": "2012-04-11"
  },
  {
    "place": "Design Studio4b54c03cf964a52075ca27e3",
    "time": "2012-04-11"
  },
  {
    "place": "Coffee Shop4a58d0acf964a520f6b71fe3",
    "time": "2012-04-11"
  },
  {
    "place": "Office4edcd3198231efe39240ba6f",
    "time": "2012-04-11"
  },
  {
    "place": "Gym / Fitness Center49c943d2f964a5204f581fe3",
    "time": "2012-04-11"
  },
  {
    "place": "Movie Theater4a4138ebf964a520f9a41fe3",
    "time": "2012-04-12"
  },
  {
    "place": "Gym / Fitness Center49c943d2f964a5204f581fe3",
    "time": "2012-04-12"
  },
  {
    "place": "Mexican Restaurant4aa44e08f964a5204f4620e3",
    "time": "2012-04-13"
  },
  {
    "place": "Clothing Store4c5b03f904f9be9a0a38f360",
    "time": "2012-04-13"
  },
  {
    "place": "Italian Restaurant4a48155ff964a52088aa1fe3",
    "time": "2012-04-14"
  },
  {
    "place": "Hotel4bf1cd74324cc9b6367acc92",
    "time": "2012-04-14"
  },
  {
    "place": "American Restaurant424b3d80f964a52096201fe3",
    "time": "2012-04-14"
  },
  {
    "place": "Bar3fd66200f964a52023e41ee3",
    "time": "2012-04-14"
  },
  {
    "place": "Bar3fd66200f964a520ede61ee3",
    "time": "2012-04-14"
  },
  {
    "place": "Mexican Restaurant49d2b3f8f964a520ca5b1fe3",
    "time": "2012-04-15"
  },
  {
    "place": "Gym / Fitness Center49bd4e25f964a52067541fe3",
    "time": "2012-04-16"
  },
  {
    "place": "Gym / Fitness Center49bd4e25f964a52067541fe3",
    "time": "2012-04-16"
  },
  {
    "place": "Clothing Store4c5b03f904f9be9a0a38f360",
    "time": "2012-04-17"
  },
  {
    "place": "Clothing Store4bc743d68b7c9c74df1536cf",
    "time": "2012-04-17"
  },
  {
    "place": "Clothing Store4c5b03f904f9be9a0a38f360",
    "time": "2012-04-17"
  },
  {
    "place": "Gym / Fitness Center49bd4e25f964a52067541fe3",
    "time": "2012-04-17"
  },
  {
    "place": "Mexican Restaurant3fd66200f964a52044e31ee3",
    "time": "2012-04-18"
  },
  {
    "place": "Gym / Fitness Center49bd4e25f964a52067541fe3",
    "time": "2012-04-18"
  },
  {
    "place": "Spa / Massage4b4b92a1f964a520b1a026e3",
    "time": "2012-04-19"
  },
  {
    "place": "Airport43a52546f964a520532c1fe3",
    "time": "2012-04-19"
  },
  {
    "place": "Other Great Outdoors4f93baf21081cba0060643f0",
    "time": "2012-04-23"
  },
  {
    "place": "Airport43a52546f964a520532c1fe3",
    "time": "2012-04-23"
  },
  {
    "place": "Home (private)4ca55f1ff47ea14375e35621",
    "time": "2012-04-23"
  },
  {
    "place": "Office4edcd3198231efe39240ba6f",
    "time": "2012-04-24"
  },
  {
    "place": "Deli / Bodega4b37ec3cf964a520b74825e3",
    "time": "2012-04-24"
  },
  {
    "place": "Coffee Shop4aa01922f964a520483e20e3",
    "time": "2012-04-24"
  },
  {
    "place": "Office4edcd3198231efe39240ba6f",
    "time": "2012-04-25"
  },
  {
    "place": "Gym / Fitness Center49c943d2f964a5204f581fe3",
    "time": "2012-04-25"
  },
  {
    "place": "Pizza Place4b9aac64f964a520c4cb35e3",
    "time": "2012-04-25"
  },
  {
    "place": "Office4edcd3198231efe39240ba6f",
    "time": "2012-04-26"
  },
  {
    "place": "Mexican Restaurant4aa44e08f964a5204f4620e3",
    "time": "2012-04-27"
  },
  {
    "place": "Clothing Store4c5b03f904f9be9a0a38f360",
    "time": "2012-04-27"
  },
  {
    "place": "Gym / Fitness Center49bd4e25f964a52067541fe3",
    "time": "2012-04-27"
  },
  {
    "place": "Bar4e6bec791850d2c68ce190ce",
    "time": "2012-04-28"
  },
  {
    "place": "Home (private)4e8ba05402d5fc3ab29b4133",
    "time": "2012-04-28"
  },
  {
    "place": "Bar4e6dfab3b61cf2b03c254994",
    "time": "2012-04-28"
  },
  {
    "place": "Bar4c9bb662e9a7ef3bd0ed2e16",
    "time": "2012-04-28"
  },
  {
    "place": "Pizza Place4aa88507f964a5208a5120e3",
    "time": "2012-04-28"
  },
  {
    "place": "Home (private)4ca55f1ff47ea14375e35621",
    "time": "2012-04-28"
  },
  {
    "place": "American Restaurant45850853f964a5209f3f1fe3",
    "time": "2012-04-29"
  },
  {
    "place": "Bar4eec0f6d722ea77616031adc",
    "time": "2012-04-29"
  },
  {
    "place": "Bar4abadd53f964a520338320e3",
    "time": "2012-04-29"
  },
  {
    "place": "Bar4d0451be0e49721eb58c707f",
    "time": "2012-04-29"
  },
  {
    "place": "Coffee Shop4aa01922f964a520483e20e3",
    "time": "2012-04-29"
  },
  {
    "place": "Office4edcd3198231efe39240ba6f",
    "time": "2012-05-02"
  },
  {
    "place": "Electronics Store447bf8f1f964a520ec331fe3",
    "time": "2012-05-02"
  },
  {
    "place": "Burger Joint4a120c6cf964a5206f771fe3",
    "time": "2012-05-02"
  },
  {
    "place": "Sandwich Place4a9ed744f964a5206e3b20e3",
    "time": "2012-05-03"
  },
  {
    "place": "Coffee Shop4aa01922f964a520483e20e3",
    "time": "2012-05-03"
  },
  {
    "place": "Office4edcd3198231efe39240ba6f",
    "time": "2012-05-04"
  },
  {
    "place": "Gym / Fitness Center49c943d2f964a5204f581fe3",
    "time": "2012-05-04"
  },
  {
    "place": "Bar4a6e0c43f964a520c7d31fe3",
    "time": "2012-05-05"
  },
  {
    "place": "Bar4ddc9302887775ea9c44a155",
    "time": "2012-05-05"
  },
  {
    "place": "Pizza Place4800619cf964a520ec4e1fe3",
    "time": "2012-05-05"
  },
  {
    "place": "Home (private)4ca55f1ff47ea14375e35621",
    "time": "2012-05-05"
  },
  {
    "place": "Furniture / Home Store4a7dcf5cf964a520b5ef1fe3",
    "time": "2012-05-05"
  },
  {
    "place": "Coffee Shop4a58d0acf964a520f6b71fe3",
    "time": "2012-05-05"
  },
  {
    "place": "Mexican Restaurant49bc7423f964a5203a541fe3",
    "time": "2012-05-05"
  },
  {
    "place": "Bar4d34a091c6cba35dec2f357a",
    "time": "2012-05-05"
  },
  {
    "place": "Coffee Shop4b4b82fef964a520a99e26e3",
    "time": "2012-05-06"
  },
  {
    "place": "Bar4f559652e4b006538a5679bc",
    "time": "2012-05-06"
  },
  {
    "place": "Restaurant44abe943f964a52008351fe3",
    "time": "2012-05-06"
  },
  {
    "place": "Dessert Shop4cfbed25d8468cfacd6df76b",
    "time": "2012-05-06"
  },
  {
    "place": "Movie Theater45b893e3f964a520cf411fe3",
    "time": "2012-05-06"
  },
  {
    "place": "Bar4f559652e4b006538a5679bc",
    "time": "2012-05-07"
  },
  {
    "place": "BBQ Joint46093845f964a520e3441fe3",
    "time": "2012-05-07"
  },
  {
    "place": "Bar4bd254bd77b29c743da18e82",
    "time": "2012-05-07"
  },
  {
    "place": "Office4edcd3198231efe39240ba6f",
    "time": "2012-05-07"
  },
  {
    "place": "Coffee Shop4aa01922f964a520483e20e3",
    "time": "2012-05-07"
  },
  {
    "place": "Gym / Fitness Center49c943d2f964a5204f581fe3",
    "time": "2012-05-07"
  },
  {
    "place": "Coffee Shop4aa01922f964a520483e20e3",
    "time": "2012-05-08"
  },
  {
    "place": "Salon / Barbershop4a663c57f964a52042c81fe3",
    "time": "2012-05-08"
  },
  {
    "place": "Spa / Massage4b4b92a1f964a520b1a026e3",
    "time": "2012-05-08"
  },
  {
    "place": "Drugstore / Pharmacy4aa44d58f964a5204c4620e3",
    "time": "2012-05-08"
  },
  {
    "place": "Mexican Restaurant3fd66200f964a5207be31ee3",
    "time": "2012-05-09"
  },
  {
    "place": "Drugstore / Pharmacy4aa44d58f964a5204c4620e3",
    "time": "2012-05-09"
  },
  {
    "place": "Gym / Fitness Center49c943d2f964a5204f581fe3",
    "time": "2012-05-09"
  },
  {
    "place": "Office4edcd3198231efe39240ba6f",
    "time": "2012-05-10"
  },
  {
    "place": "Coffee Shop4aa01922f964a520483e20e3",
    "time": "2012-05-10"
  },
  {
    "place": "Mexican Restaurant43f5aaebf964a520a22f1fe3",
    "time": "2012-05-11"
  },
  {
    "place": "Coffee Shop4aa01922f964a520483e20e3",
    "time": "2012-05-11"
  },
  {
    "place": "Movie Theater49e7ce15f964a5201d651fe3",
    "time": "2012-05-12"
  },
  {
    "place": "Mexican Restaurant3fd66200f964a5205ae31ee3",
    "time": "2012-05-13"
  },
  {
    "place": "Coffee Shop4aa01922f964a520483e20e3",
    "time": "2012-05-14"
  },
  {
    "place": "Home (private)4ca55f1ff47ea14375e35621",
    "time": "2012-05-15"
  },
  {
    "place": "Office4edcd3198231efe39240ba6f",
    "time": "2012-05-15"
  },
  {
    "place": "Hotel4bfd63edf7c82d7f831d8e04",
    "time": "2012-05-15"
  },
  {
    "place": "Coffee Shop4aa01922f964a520483e20e3",
    "time": "2012-05-16"
  },
  {
    "place": "Office4edcd3198231efe39240ba6f",
    "time": "2012-05-16"
  },
  {
    "place": "Arepa Restaurant41229c00f964a520350c1fe3",
    "time": "2012-05-17"
  },
  {
    "place": "Comedy Club4d6d3e88da06a1cdaad8a75b",
    "time": "2012-05-17"
  },
  {
    "place": "Ice Cream Shop49ce965bf964a520605a1fe3",
    "time": "2012-05-17"
  },
  {
    "place": "Coffee Shop49e644c6f964a5202f641fe3",
    "time": "2012-05-17"
  },
  {
    "place": "Office4edcd3198231efe39240ba6f",
    "time": "2012-05-18"
  },
  {
    "place": "Coffee Shop4aa01922f964a520483e20e3",
    "time": "2012-05-18"
  },
  {
    "place": "Mexican Restaurant4aa44e08f964a5204f4620e3",
    "time": "2012-05-19"
  },
  {
    "place": "Coffee Shop4aa01922f964a520483e20e3",
    "time": "2012-05-19"
  },
  {
    "place": "Office4edcd3198231efe39240ba6f",
    "time": "2012-05-19"
  },
  {
    "place": "Clothing Store4de961ccd164ef597ccefe4a",
    "time": "2012-05-19"
  },
  {
    "place": "Restaurant44abe943f964a52008351fe3",
    "time": "2012-05-19"
  },
  {
    "place": "Sandwich Place4d0b9d235f86f04dafe8cca0",
    "time": "2012-05-21"
  },
  {
    "place": "Office4edcd3198231efe39240ba6f",
    "time": "2012-05-22"
  },
  {
    "place": "Mexican Restaurant4aa44e08f964a5204f4620e3",
    "time": "2012-05-22"
  },
  {
    "place": "Coffee Shop4aa01922f964a520483e20e3",
    "time": "2012-05-22"
  },
  {
    "place": "Coffee Shop4aa01922f964a520483e20e3",
    "time": "2012-05-23"
  },
  {
    "place": "Office4edcd3198231efe39240ba6f",
    "time": "2012-05-23"
  },
  {
    "place": "Office4edcd3198231efe39240ba6f",
    "time": "2012-05-25"
  },
  {
    "place": "Sushi Restaurant4e3c2978d164b529119b3ab4",
    "time": "2012-05-25"
  },
  {
    "place": "Donut Shop4d59274a3281b1f7deb0b72f",
    "time": "2012-05-25"
  },
  {
    "place": "Gym / Fitness Center49c9439bf964a5204e581fe3",
    "time": "2012-05-25"
  },
  {
    "place": "Bar4d0451be0e49721eb58c707f",
    "time": "2012-05-25"
  },
  {
    "place": "Bar4ca6208aae1eef3bccd43047",
    "time": "2012-05-26"
  },
  {
    "place": "Home (private)4e8ba05402d5fc3ab29b4133",
    "time": "2012-05-26"
  },
  {
    "place": "Bar4c22beee99282d7f17b667b0",
    "time": "2012-05-26"
  },
  {
    "place": "Bar41a91500f964a520511e1fe3",
    "time": "2012-05-27"
  },
  {
    "place": "Bar4cc35db6d43ba14387a35ff8",
    "time": "2012-05-27"
  },
  {
    "place": "Bar40fb0f00f964a520ee0a1fe3",
    "time": "2012-05-27"
  },
  {
    "place": "Food & Drink Shop4a4954def964a52033ab1fe3",
    "time": "2012-05-27"
  },
  {
    "place": "Home (private)4ca55f1ff47ea14375e35621",
    "time": "2012-05-27"
  },
  {
    "place": "Residential Building (Apartment / Condo)4a6281caf964a5202fc41fe3",
    "time": "2012-05-28"
  },
  {
    "place": "Food & Drink Shop4ae8cb7cf964a5205db221e3",
    "time": "2012-05-28"
  },
  {
    "place": "Coffee Shop4aa01922f964a520483e20e3",
    "time": "2012-05-29"
  },
  {
    "place": "Deli / Bodega4b97ae63f964a520540f35e3",
    "time": "2012-05-29"
  },
  {
    "place": "Office4edcd3198231efe39240ba6f",
    "time": "2012-05-29"
  },
  {
    "place": "Gym / Fitness Center49c943d2f964a5204f581fe3",
    "time": "2012-05-30"
  },
  {
    "place": "Burger Joint4bca32ff0687ef3be789dbcc",
    "time": "2012-05-30"
  },
  {
    "place": "Coffee Shop4aa01922f964a520483e20e3",
    "time": "2012-05-31"
  },
  {
    "place": "Coffee Shop4b5e5125f964a520488929e3",
    "time": "2012-06-01"
  },
  {
    "place": "Movie Theater4a4138ebf964a520f9a41fe3",
    "time": "2012-06-03"
  },
  {
    "place": "Coffee Shop4aa01922f964a520483e20e3",
    "time": "2012-06-04"
  },
  {
    "place": "Home (private)4ca55f1ff47ea14375e35621",
    "time": "2012-06-05"
  },
  {
    "place": "Home (private)4f9ebd4ee4b05e5ed97b7632",
    "time": "2012-06-05"
  },
  {
    "place": "Office4edcd3198231efe39240ba6f",
    "time": "2012-06-05"
  },
  {
    "place": "Office4edcd3198231efe39240ba6f",
    "time": "2012-06-07"
  },
  {
    "place": "Home (private)4ca55f1ff47ea14375e35621",
    "time": "2012-06-09"
  },
  {
    "place": "General College & University4cc82baaf2d43704132acd6c",
    "time": "2012-06-09"
  },
  {
    "place": "Other Great Outdoors4c6eae6106ed6dcb725fa722",
    "time": "2012-06-09"
  },
  {
    "place": "Bar4c0021f2ca1920a1a4e6ed81",
    "time": "2012-06-10"
  },
  {
    "place": "Bar4bd3c969caff952145ced5f0",
    "time": "2012-06-10"
  },
  {
    "place": "Comedy Club4d6d3e88da06a1cdaad8a75b",
    "time": "2012-06-10"
  },
  {
    "place": "Home (private)4f3dbc02e4b0a3644d86354d",
    "time": "2012-06-11"
  },
  {
    "place": "Bar4ba5040cf964a520c6d038e3",
    "time": "2012-06-11"
  },
  {
    "place": "Bar4d0451be0e49721eb58c707f",
    "time": "2012-06-11"
  },
  {
    "place": "Gym / Fitness Center49c943d2f964a5204f581fe3",
    "time": "2012-06-11"
  },
  {
    "place": "Office4edcd3198231efe39240ba6f",
    "time": "2012-06-12"
  },
  {
    "place": "Clothing Store4c5b03f904f9be9a0a38f360",
    "time": "2012-06-13"
  },
  {
    "place": "Office4edcd3198231efe39240ba6f",
    "time": "2012-06-13"
  },
  {
    "place": "Plaza49b79f54f964a5202c531fe3",
    "time": "2012-06-14"
  },
  {
    "place": "Bakery4a19d10ff964a520597a1fe3",
    "time": "2012-06-14"
  },
  {
    "place": "Food & Drink Shop4a4954def964a52033ab1fe3",
    "time": "2012-06-14"
  },
  {
    "place": "Bar49ccb999f964a5208d591fe3",
    "time": "2012-06-17"
  },
  {
    "place": "Bar4c9bb662e9a7ef3bd0ed2e16",
    "time": "2012-06-17"
  },
  {
    "place": "Bar42055e00f964a520681f1fe3",
    "time": "2012-06-17"
  },
  {
    "place": "Seafood Restaurant4a9ad800f964a5201c3320e3",
    "time": "2012-06-17"
  },
  {
    "place": "Coffee Shop4aa01922f964a520483e20e3",
    "time": "2012-06-18"
  },
  {
    "place": "Gym / Fitness Center49c943d2f964a5204f581fe3",
    "time": "2012-06-18"
  },
  {
    "place": "Office4edcd3198231efe39240ba6f",
    "time": "2012-06-21"
  },
  {
    "place": "Gym / Fitness Center49c943d2f964a5204f581fe3",
    "time": "2012-06-27"
  },
  {
    "place": "Residential Building (Apartment / Condo)4a6281caf964a5202fc41fe3",
    "time": "2012-06-30"
  },
  {
    "place": "Bar3fd66200f964a5202be41ee3",
    "time": "2012-07-01"
  },
  {
    "place": "Office4edcd3198231efe39240ba6f",
    "time": "2012-07-02"
  },
  {
    "place": "Office4edcd3198231efe39240ba6f",
    "time": "2012-07-03"
  },
  {
    "place": "Coffee Shop4aa01922f964a520483e20e3",
    "time": "2012-07-03"
  },
  {
    "place": "Home (private)4c55e4d9a724e21e3b6cd2f8",
    "time": "2012-07-04"
  },
  {
    "place": "Bar4ad04456f964a520c7d720e3",
    "time": "2012-07-04"
  },
  {
    "place": "Fast Food Restaurant4b24227df964a520ea6124e3",
    "time": "2012-07-04"
  },
  {
    "place": "Residential Building (Apartment / Condo)4a6281caf964a5202fc41fe3",
    "time": "2012-07-05"
  },
  {
    "place": "Mexican Restaurant42f15a80f964a520bf261fe3",
    "time": "2012-07-06"
  },
  {
    "place": "Bar4bd8df990115c9b618ba7580",
    "time": "2012-07-07"
  },
  {
    "place": "Beer Garden4de1b34ec65b7a3e2109e46f",
    "time": "2012-07-07"
  },
  {
    "place": "Deli / Bodega4a38207af964a520ba9e1fe3",
    "time": "2012-07-07"
  },
  {
    "place": "Bar3fd66200f964a5209fe51ee3",
    "time": "2012-07-07"
  },
  {
    "place": "Sandwich Place4c34bd20452620a1159e250f",
    "time": "2012-07-07"
  },
  {
    "place": "Bar4d0451be0e49721eb58c707f",
    "time": "2012-07-07"
  },
  {
    "place": "Pizza Place4b9aac64f964a520c4cb35e3",
    "time": "2012-07-08"
  },
  {
    "place": "Home (private)4e8ba05402d5fc3ab29b4133",
    "time": "2012-07-08"
  },
  {
    "place": "Bar4abadd53f964a520338320e3",
    "time": "2012-07-08"
  },
  {
    "place": "Bar4ad04456f964a520c7d720e3",
    "time": "2012-07-08"
  },
  {
    "place": "Bar4c9bb662e9a7ef3bd0ed2e16",
    "time": "2012-07-08"
  },
  {
    "place": "Pizza Place4aa88507f964a5208a5120e3",
    "time": "2012-07-08"
  },
  {
    "place": "Deli / Bodega4b97ae63f964a520540f35e3",
    "time": "2012-07-09"
  },
  {
    "place": "Taco Place4a2d48adf964a5209e971fe3",
    "time": "2012-07-11"
  },
  {
    "place": "Gym / Fitness Center49c943d2f964a5204f581fe3",
    "time": "2012-07-11"
  },
  {
    "place": "Ice Cream Shop4a303a66f964a52036991fe3",
    "time": "2012-07-12"
  },
  {
    "place": "Bar45fbbe93f964a52061441fe3",
    "time": "2012-07-12"
  },
  {
    "place": "Home (private)4ca55f1ff47ea14375e35621",
    "time": "2012-07-13"
  },
  {
    "place": "Movie Theater49e17f24f964a520d1611fe3",
    "time": "2012-07-14"
  },
  {
    "place": "Bar4d0451be0e49721eb58c707f",
    "time": "2012-07-14"
  },
  {
    "place": "Office4edcd3198231efe39240ba6f",
    "time": "2012-07-14"
  },
  {
    "place": "Airport43a52546f964a520532c1fe3",
    "time": "2012-07-14"
  },
  {
    "place": "Airport4a45652cf964a52021a81fe3",
    "time": "2012-07-14"
  },
  {
    "place": "Coffee Shop4bc7a8428b7c9c744bee36cf",
    "time": "2012-07-14"
  },
  {
    "place": "Mexican Restaurant3fd66200f964a52053e31ee3",
    "time": "2012-07-26"
  },
  {
    "place": "Bar4d0451be0e49721eb58c707f",
    "time": "2012-07-27"
  },
  {
    "place": "Bar4c1d4eff63750f47bc12b867",
    "time": "2012-07-28"
  },
  {
    "place": "Bar4cc35db6d43ba14387a35ff8",
    "time": "2012-07-28"
  },
  {
    "place": "Bar4d0451be0e49721eb58c707f",
    "time": "2012-07-28"
  },
  {
    "place": "Bar4276bf00f964a5208b211fe3",
    "time": "2012-07-29"
  },
  {
    "place": "Bar4d0451be0e49721eb58c707f",
    "time": "2012-07-29"
  },
  {
    "place": "Home (private)50173376e4b09a07ac94891e",
    "time": "2012-08-06"
  },
  {
    "place": "Coffee Shop4aa01922f964a520483e20e3",
    "time": "2012-08-09"
  },
  {
    "place": "Clothing Store4c5b03f904f9be9a0a38f360",
    "time": "2012-08-10"
  },
  {
    "place": "Coffee Shop4a809c7df964a520b2f51fe3",
    "time": "2012-08-10"
  },
  {
    "place": "Home (private)50149ff2e4b0f8ec78b10210",
    "time": "2012-08-11"
  },
  {
    "place": "Bar4abadd53f964a520338320e3",
    "time": "2012-08-11"
  },
  {
    "place": "Electronics Store447bf8f1f964a520ec331fe3",
    "time": "2012-08-11"
  },
  {
    "place": "Dessert Shop4fb7c460e4b0d666fb4462ca",
    "time": "2012-08-12"
  },
  {
    "place": "Deli / Bodega4c11798bd917c92873d2b562",
    "time": "2012-08-12"
  },
  {
    "place": "Ice Cream Shop4edd8695b6344371fa9a73cd",
    "time": "2012-08-13"
  },
  {
    "place": "Office4edcd3198231efe39240ba6f",
    "time": "2012-08-13"
  },
  {
    "place": "Clothing Store4c5b03f904f9be9a0a38f360",
    "time": "2012-08-13"
  },
  {
    "place": "Spanish Restaurant4afb51f4f964a520e91c22e3",
    "time": "2012-08-14"
  },
  {
    "place": "Coffee Shop4aa01922f964a520483e20e3",
    "time": "2012-08-14"
  },
  {
    "place": "Office4edcd3198231efe39240ba6f",
    "time": "2012-08-14"
  },
  {
    "place": "Office4edcd3198231efe39240ba6f",
    "time": "2012-08-14"
  },
  {
    "place": "Diner3fd66200f964a5204ee41ee3",
    "time": "2012-08-19"
  },
  {
    "place": "Clothing Store4c6d970b6af58cfa36ec8917",
    "time": "2012-08-19"
  },
  {
    "place": "Bookstore4a8cc1d4f964a520130f20e3",
    "time": "2012-08-19"
  },
  {
    "place": "Coffee Shop4aa01922f964a520483e20e3",
    "time": "2012-08-20"
  },
  {
    "place": "Clothing Store502d77fde4b0f9a2dc69dfb4",
    "time": "2012-08-17"
  },
  {
    "place": "Gym / Fitness Center4a705a19f964a5204ed71fe3",
    "time": "2012-08-18"
  },
  {
    "place": "Burger Joint4bca32ff0687ef3be789dbcc",
    "time": "2012-08-19"
  },
  {
    "place": "Gym / Fitness Center49c943d2f964a5204f581fe3",
    "time": "2012-08-22"
  },
  {
    "place": "Arts & Crafts Store49bbd6c0f964a520f4531fe3",
    "time": "2012-09-05"
  },
  {
    "place": "Bar4c17d49650389c749264b3cf",
    "time": "2012-09-09"
  },
  {
    "place": "Gym / Fitness Center49bd4e25f964a52067541fe3",
    "time": "2012-09-14"
  },
  {
    "place": "Hotel3fd66200f964a52053eb1ee3",
    "time": "2012-09-15"
  },
  {
    "place": "Bar3fd66200f964a5202be41ee3",
    "time": "2012-09-15"
  },
  {
    "place": "Bagel Shop4a3e6aaef964a520e7a21fe3",
    "time": "2012-09-15"
  },
  {
    "place": "Home (private)50173376e4b09a07ac94891e",
    "time": "2012-09-15"
  },
  {
    "place": "Gym / Fitness Center49bd4e25f964a52067541fe3",
    "time": "2012-10-03"
  },
  {
    "place": "Bar4d046fa67d9ba35d012c6623",
    "time": "2012-10-12"
  },
  {
    "place": "Food & Drink Shop49f37c28f964a520a36a1fe3",
    "time": "2012-10-12"
  },
  {
    "place": "Salon / Barbershop4a663c57f964a52042c81fe3",
    "time": "2012-10-12"
  },
  {
    "place": "Clothing Store4c5b03f904f9be9a0a38f360",
    "time": "2012-10-16"
  },
  {
    "place": "Gym / Fitness Center4a705a19f964a5204ed71fe3",
    "time": "2012-10-16"
  },
  {
    "place": "Coffee Shop4aa01922f964a520483e20e3",
    "time": "2012-10-18"
  },
  {
    "place": "Electronics Store40958b80f964a520e6f21ee3",
    "time": "2012-10-22"
  },
  {
    "place": "Ramen /  Noodle House4a5403b8f964a520f3b21fe3",
    "time": "2012-10-23"
  },
  {
    "place": "Bar4d0451be0e49721eb58c707f",
    "time": "2012-10-23"
  },
  {
    "place": "Office4edcd27361af8a14b92de846",
    "time": "2012-10-23"
  },
  {
    "place": "Clothing Store4c5b03f904f9be9a0a38f360",
    "time": "2012-10-23"
  },
  {
    "place": "Ice Cream Shop49ce965bf964a520605a1fe3",
    "time": "2012-10-23"
  },
  {
    "place": "Bar50821484e4b0948209c4ef1f",
    "time": "2012-10-25"
  },
  {
    "place": "Bar50821484e4b0948209c4ef1f",
    "time": "2012-10-25"
  },
  {
    "place": "Airport4ace6c89f964a52078d020e3",
    "time": "2012-10-26"
  },
  {
    "place": "Coffee Shop4aa01922f964a520483e20e3",
    "time": "2012-11-05"
  },
  {
    "place": "Government Building509817afc84c2e276bc2cd1f",
    "time": "2012-11-06"
  },
  {
    "place": "Office4edcd3198231efe39240ba6f",
    "time": "2012-11-06"
  },
  {
    "place": "Food & Drink Shop4c225ae47e85c9283ee5bb21",
    "time": "2012-11-10"
  },
  {
    "place": "Food & Drink Shop4d1b518bdd3637049a11631a",
    "time": "2012-11-10"
  },
  {
    "place": "Gym / Fitness Center49fce426f964a520ed6e1fe3",
    "time": "2012-11-10"
  },
  {
    "place": "Home (private)4e8ba05402d5fc3ab29b4133",
    "time": "2012-11-17"
  },
  {
    "place": "Bar4e6dfab3b61cf2b03c254994",
    "time": "2012-11-17"
  },
  {
    "place": "Bar4abadd53f964a520338320e3",
    "time": "2012-11-17"
  },
  {
    "place": "Bar4276bf00f964a5208b211fe3",
    "time": "2012-11-17"
  },
  {
    "place": "Bar505b3f57e4b0c1e23aa7cd5e",
    "time": "2012-11-17"
  },
  {
    "place": "Bar4eec0f6d722ea77616031adc",
    "time": "2012-11-17"
  },
  {
    "place": "Pizza Place4cff31f5ba1da1cd181d8228",
    "time": "2012-11-18"
  },
  {
    "place": "Bar44e4541df964a52051371fe3",
    "time": "2012-11-18"
  },
  {
    "place": "Bar44e4541df964a52051371fe3",
    "time": "2012-11-18"
  },
  {
    "place": "Bar3fd66200f964a5202be41ee3",
    "time": "2012-11-18"
  },
  {
    "place": "Middle Eastern Restaurant49c43598f964a520ad561fe3",
    "time": "2012-11-19"
  },
  {
    "place": "Building4fe22febe4b0b689ab6aa970",
    "time": "2012-11-19"
  },
  {
    "place": "Asian Restaurant45a62f89f964a52003411fe3",
    "time": "2012-11-22"
  },
  {
    "place": "Bar4cc35db6d43ba14387a35ff8",
    "time": "2012-11-22"
  },
  {
    "place": "Bar50821484e4b0948209c4ef1f",
    "time": "2012-11-22"
  },
  {
    "place": "Bar4eec0f6d722ea77616031adc",
    "time": "2012-11-22"
  },
  {
    "place": "Bar4ad04456f964a520c7d720e3",
    "time": "2012-11-22"
  },
  {
    "place": "Bar50821484e4b0948209c4ef1f",
    "time": "2012-11-23"
  },
  {
    "place": "Coffee Shop4a535b7df964a52034b21fe3",
    "time": "2012-11-23"
  },
  {
    "place": "Scenic Lookout43a48f1bf964a520502c1fe3",
    "time": "2012-11-23"
  },
  {
    "place": "Bar4cc35db6d43ba14387a35ff8",
    "time": "2012-11-24"
  },
  {
    "place": "Bar49cae9c7f964a520ef581fe3",
    "time": "2012-11-24"
  },
  {
    "place": "Bar50821484e4b0948209c4ef1f",
    "time": "2012-11-24"
  },
  {
    "place": "Food & Drink Shop4ae8cb7cf964a5205db221e3",
    "time": "2012-11-25"
  },
  {
    "place": "Bar49c56e4ff964a52003571fe3",
    "time": "2012-11-25"
  },
  {
    "place": "Bar3fd66200f964a5202be41ee3",
    "time": "2012-11-25"
  },
  {
    "place": "Bar4eec0f6d722ea77616031adc",
    "time": "2012-11-25"
  },
  {
    "place": "Bar505b3f57e4b0c1e23aa7cd5e",
    "time": "2012-11-26"
  },
  {
    "place": "Gym / Fitness Center49bd4e25f964a52067541fe3",
    "time": "2012-11-28"
  },
  {
    "place": "Office4edcd3198231efe39240ba6f",
    "time": "2012-11-28"
  },
  {
    "place": "Bar4abadd53f964a520338320e3",
    "time": "2012-12-01"
  },
  {
    "place": "Bar4e6bec7b1850d2c68ce1910c",
    "time": "2012-12-01"
  },
  {
    "place": "Bar4cc35db6d43ba14387a35ff8",
    "time": "2012-12-03"
  },
  {
    "place": "Bar4d0451be0e49721eb58c707f",
    "time": "2012-12-09"
  },
  {
    "place": "Mexican Restaurant4a80bbedf964a52011f61fe3",
    "time": "2012-12-09"
  },
  {
    "place": "Bar4b19bf81f964a52050e323e3",
    "time": "2012-12-11"
  },
  {
    "place": "Gym / Fitness Center49c943d2f964a5204f581fe3",
    "time": "2012-12-13"
  },
  {
    "place": "Bar50821484e4b0948209c4ef1f",
    "time": "2012-12-13"
  },
  {
    "place": "Other Great Outdoors50c811dbe4b0d585092b704f",
    "time": "2012-12-13"
  },
  {
    "place": "Bar507f71e4498ef79656e7548b",
    "time": "2012-12-13"
  },
  {
    "place": "Mexican Restaurant42f15a80f964a520bf261fe3",
    "time": "2012-12-16"
  },
  {
    "place": "Spa / Massage50d0d375e4b0774a6b64ec86",
    "time": "2012-12-18"
  },
  {
    "place": "Dessert Shop4a257482f964a520557e1fe3",
    "time": "2012-12-19"
  },
  {
    "place": "Coffee Shop4ae8495ef964a5207fae21e3",
    "time": "2012-12-21"
  },
  {
    "place": "Office4ffc55c8e4b02d09f9fd77ea",
    "time": "2012-12-21"
  },
  {
    "place": "Bar42508380f964a520bb201fe3",
    "time": "2012-12-22"
  },
  {
    "place": "Bar4ddc9302887775ea9c44a155",
    "time": "2012-12-22"
  },
  {
    "place": "Office4edcd3198231efe39240ba6f",
    "time": "2012-12-28"
  },
  {
    "place": "Train Station42911d00f964a520f5231fe3",
    "time": "2012-12-28"
  },
  {
    "place": "Train Station42911d00f964a520f5231fe3",
    "time": "2012-12-29"
  },
  {
    "place": "Pizza Place4eebf8f3f790c40a885851ae",
    "time": "2012-12-29"
  },
  {
    "place": "Bar4c9bb662e9a7ef3bd0ed2e16",
    "time": "2012-12-30"
  },
  {
    "place": "Bar4abadd53f964a520338320e3",
    "time": "2012-12-30"
  },
  {
    "place": "Food & Drink Shop4a319883f964a520fc991fe3",
    "time": "2012-12-30"
  },
  {
    "place": "Bar49c180edf964a520af551fe3",
    "time": "2012-12-31"
  },
  {
    "place": "Bar45a4384cf964a520f7401fe3",
    "time": "2013-01-01"
  },
  {
    "place": "Electronics Store447bf8f1f964a520ec331fe3",
    "time": "2013-01-03"
  },
  {
    "place": "Office4edcd3198231efe39240ba6f",
    "time": "2013-01-04"
  },
  {
    "place": "Bar48e0bd97f964a5201a521fe3",
    "time": "2013-01-05"
  },
  {
    "place": "American Restaurant4aa9386ef964a5208b5220e3",
    "time": "2013-01-05"
  },
  {
    "place": "Bar4c2eb323213c2d7ff5c02f5d",
    "time": "2013-01-05"
  },
  {
    "place": "Bar4a00569ef964a52077701fe3",
    "time": "2013-01-05"
  },
  {
    "place": "Coffee Shop45be0276f964a52012421fe3",
    "time": "2013-01-05"
  },
  {
    "place": "Cosmetics Shop4ae34fc2f964a520399321e3",
    "time": "2013-01-05"
  },
  {
    "place": "Bar50821484e4b0948209c4ef1f",
    "time": "2013-01-06"
  },
  {
    "place": "Bar50821484e4b0948209c4ef1f",
    "time": "2013-01-07"
  },
  {
    "place": "Spa / Massage4f90913ce4b05c243ce7f969",
    "time": "2013-01-10"
  },
  {
    "place": "Hotel49cacfb5f964a520e6581fe3",
    "time": "2013-01-11"
  },
  {
    "place": "Bar4cc35db6d43ba14387a35ff8",
    "time": "2013-01-11"
  },
  {
    "place": "Bar4c7ecc952042b1f79b0dc1ad",
    "time": "2013-01-11"
  },
  {
    "place": "Coffee Shop4ae8495ef964a5207fae21e3",
    "time": "2013-01-11"
  },
  {
    "place": "Bar50b9a34ce4b0c22ba965f7ff",
    "time": "2013-01-12"
  },
  {
    "place": "Bar4eec0f6d722ea77616031adc",
    "time": "2013-01-12"
  },
  {
    "place": "Bar4abadd53f964a520338320e3",
    "time": "2013-01-12"
  },
  {
    "place": "Pizza Place4aa88507f964a5208a5120e3",
    "time": "2013-01-12"
  },
  {
    "place": "Bar4abadd53f964a520338320e3",
    "time": "2013-01-13"
  },
  {
    "place": "Gym / Fitness Center42af6f80f964a5205a251fe3",
    "time": "2013-01-15"
  },
  {
    "place": "Gym / Fitness Center4a68fb35f964a52064cb1fe3",
    "time": "2013-01-16"
  },
  {
    "place": "Cupcake Shop4dc57b9352b1e8f9f7d51323",
    "time": "2013-01-17"
  },
  {
    "place": "Residential Building (Apartment / Condo)507b592ce4b0772057a49030",
    "time": "2013-01-17"
  },
  {
    "place": "Gym / Fitness Center49bd4e25f964a52067541fe3",
    "time": "2013-01-17"
  },
  {
    "place": "Bar4e6bec791850d2c68ce190ce",
    "time": "2013-01-18"
  },
  {
    "place": "Bar4cc35db6d43ba14387a35ff8",
    "time": "2013-01-18"
  },
  {
    "place": "Gastropub50d4d50ee4b0260dfc1efe72",
    "time": "2013-01-18"
  },
  {
    "place": "Bar3fd66200f964a5200be51ee3",
    "time": "2013-01-18"
  },
  {
    "place": "Bakery4a5ce67ef964a520cfbc1fe3",
    "time": "2013-01-18"
  },
  {
    "place": "Convention Center4ba54a9df964a520f3f638e3",
    "time": "2013-01-22"
  },
  {
    "place": "Hotel3fd66200f964a520bee71ee3",
    "time": "2013-01-22"
  },
  {
    "place": "Convention Center4ba54a9df964a520f3f638e3",
    "time": "2013-01-22"
  },
  {
    "place": "Residential Building (Apartment / Condo)507b592ce4b0772057a49030",
    "time": "2013-01-25"
  },
  {
    "place": "Office4ffc55c8e4b02d09f9fd77ea",
    "time": "2013-01-25"
  },
  {
    "place": "Tanning Salon4bc7afbc14d7952160ee67e9",
    "time": "2013-01-26"
  },
  {
    "place": "Home (private)4e8ba05402d5fc3ab29b4133",
    "time": "2013-01-26"
  },
  {
    "place": "Bar50b9a34ce4b0c22ba965f7ff",
    "time": "2013-01-26"
  },
  {
    "place": "Bar4abadd53f964a520338320e3",
    "time": "2013-01-26"
  },
  {
    "place": "Bar505b3f57e4b0c1e23aa7cd5e",
    "time": "2013-01-27"
  },
  {
    "place": "Bar50b9a34ce4b0c22ba965f7ff",
    "time": "2013-01-27"
  },
  {
    "place": "Bar4eec0f6d722ea77616031adc",
    "time": "2013-01-27"
  },
  {
    "place": "Office4ffc55c8e4b02d09f9fd77ea",
    "time": "2013-01-28"
  },
  {
    "place": "Gym / Fitness Center4a68fb35f964a52064cb1fe3",
    "time": "2013-01-28"
  },
  {
    "place": "Gym / Fitness Center49bd4e25f964a52067541fe3",
    "time": "2013-01-29"
  },
  {
    "place": "Medical Center4d63ec66a5be236ae84cc7db",
    "time": "2013-01-31"
  },
  {
    "place": "Gym / Fitness Center4a68fb35f964a52064cb1fe3",
    "time": "2013-01-31"
  },
  {
    "place": "Gym / Fitness Center50eac9d2e4b07cd2500bd242",
    "time": "2013-01-31"
  },
  {
    "place": "Bar49ce4562f964a5202a5a1fe3",
    "time": "2013-01-31"
  },
  {
    "place": "Movie Theater4a4138ebf964a520f9a41fe3",
    "time": "2013-02-02"
  },
  {
    "place": "Gym / Fitness Center50eac9d2e4b07cd2500bd242",
    "time": "2013-02-02"
  },
  {
    "place": "Clothing Store4aac4964f964a5204c5d20e3",
    "time": "2013-02-03"
  },
  {
    "place": "Bar4cc35db6d43ba14387a35ff8",
    "time": "2013-02-03"
  },
  {
    "place": "Office4ffc55c8e4b02d09f9fd77ea",
    "time": "2013-02-05"
  },
  {
    "place": "Gym / Fitness Center4a68fb35f964a52064cb1fe3",
    "time": "2013-02-07"
  },
  {
    "place": "Bar4cc35db6d43ba14387a35ff8",
    "time": "2013-02-08"
  },
  {
    "place": "Bar4c7ecc952042b1f79b0dc1ad",
    "time": "2013-02-08"
  },
  {
    "place": "Hotel4d9c92f4baae54815f2cde64",
    "time": "2013-02-08"
  },
  {
    "place": "Hotel4d9c92f4baae54815f2cde64",
    "time": "2013-02-08"
  },
  {
    "place": "Mexican Restaurant4b9ff08af964a5202a4c37e3",
    "time": "2013-02-11"
  },
  {
    "place": "Gym / Fitness Center4a68fb35f964a52064cb1fe3",
    "time": "2013-02-11"
  },
  {
    "place": "Salon / Barbershop4a663c57f964a52042c81fe3",
    "time": "2013-02-12"
  },
  {
    "place": "Miscellaneous Shop4d87abdff1e56ea817b8b48a",
    "time": "2013-02-12"
  }
]