[
  {
    "place": "Food Truck4a416369f964a52036a51fe3",
    "time": "2012-04-09"
  },
  {
    "place": "Food & Drink Shop49ebc25ff964a52023671fe3",
    "time": "2012-04-11"
  },
  {
    "place": "Japanese Restaurant40be6a00f964a520c5001fe3",
    "time": "2012-04-11"
  },
  {
    "place": "Movie Theater43a72ba0f964a520672c1fe3",
    "time": "2012-04-11"
  },
  {
    "place": "American Restaurant438f7b59f964a520412b1fe3",
    "time": "2012-04-12"
  },
  {
    "place": "Laundry Service4cb853e7bac937047dafdb7c",
    "time": "2012-04-13"
  },
  {
    "place": "Theater43c75e2cf964a5207c2d1fe3",
    "time": "2012-04-14"
  },
  {
    "place": "Candy Store4a6c6b4af964a52082d01fe3",
    "time": "2012-04-14"
  },
  {
    "place": "Movie Theater40afe980f964a5203bf31ee3",
    "time": "2012-04-14"
  },
  {
    "place": "Korean Restaurant4bec3943a9900f477abe1840",
    "time": "2012-04-15"
  },
  {
    "place": "Office4a316ffcf964a520cd991fe3",
    "time": "2012-04-17"
  },
  {
    "place": "Food Truck4a416369f964a52036a51fe3",
    "time": "2012-04-17"
  },
  {
    "place": "Burger Joint4c1918c7fe5a76b07b0f0315",
    "time": "2012-04-18"
  },
  {
    "place": "Chinese Restaurant4aa59e6cf964a520fb4820e3",
    "time": "2012-04-21"
  },
  {
    "place": "Hardware Store4a21834ff964a520077d1fe3",
    "time": "2012-04-21"
  },
  {
    "place": "Clothing Store4a9c5dbff964a520f43620e3",
    "time": "2012-04-21"
  },
  {
    "place": "Clothing Store4ada33a5f964a520e51f21e3",
    "time": "2012-04-21"
  },
  {
    "place": "Italian Restaurant4b4cc1f2f964a52087bd26e3",
    "time": "2012-04-28"
  },
  {
    "place": "Bank4ad23c3af964a5204be020e3",
    "time": "2012-04-28"
  },
  {
    "place": "Cupcake Shop4afc856cf964a520822322e3",
    "time": "2012-04-28"
  },
  {
    "place": "Bank4d20ed27e56f6ea89a27791d",
    "time": "2012-04-28"
  },
  {
    "place": "Coffee Shop4b69efa9f964a52014bd2be3",
    "time": "2012-04-28"
  },
  {
    "place": "Mexican Restaurant4a731f7df964a5209ddb1fe3",
    "time": "2012-04-29"
  },
  {
    "place": "Bar4276bf00f964a5208b211fe3",
    "time": "2012-04-29"
  },
  {
    "place": "Food Truck4c52fdd7048b1b8debbf4f31",
    "time": "2012-04-29"
  },
  {
    "place": "Train Station42829c80f964a5206a221fe3",
    "time": "2012-05-01"
  },
  {
    "place": "Furniture / Home Store4a3ea1d7f964a5202ca31fe3",
    "time": "2012-05-04"
  },
  {
    "place": "Food & Drink Shop4ad22d6df964a520dfdf20e3",
    "time": "2012-05-04"
  },
  {
    "place": "Music Venue4391dff1f964a520652b1fe3",
    "time": "2012-05-04"
  },
  {
    "place": "Bar41c0d000f964a520921e1fe3",
    "time": "2012-05-05"
  },
  {
    "place": "Bar4f5303dbe4b02cf6be81de21",
    "time": "2012-05-05"
  },
  {
    "place": "Cupcake Shop4afc856cf964a520822322e3",
    "time": "2012-05-06"
  },
  {
    "place": "Office4c0fc8b4d64c0f477c552a5d",
    "time": "2012-05-07"
  },
  {
    "place": "Mexican Restaurant4dac692843a1128197257ba1",
    "time": "2012-05-07"
  },
  {
    "place": "Park4a663f7cf964a52046c81fe3",
    "time": "2012-05-07"
  },
  {
    "place": "Food & Drink Shop4b08a2f7f964a520fc0f23e3",
    "time": "2012-05-07"
  },
  {
    "place": "Office4c0fc8b4d64c0f477c552a5d",
    "time": "2012-05-08"
  },
  {
    "place": "Department Store4e40041f81dc6ce0fac9ae73",
    "time": "2012-05-08"
  },
  {
    "place": "Asian Restaurant4d81502470d18cfa8b41af94",
    "time": "2012-05-08"
  },
  {
    "place": "Historic Site4b6b5abff964a520fb022ce3",
    "time": "2012-05-08"
  },
  {
    "place": "Coffee Shop4f8c0b12e4b04a0760f5e51e",
    "time": "2012-05-09"
  },
  {
    "place": "Burger Joint4b23f624f964a520e45d24e3",
    "time": "2012-05-09"
  },
  {
    "place": "Burger Joint4c1918c7fe5a76b07b0f0315",
    "time": "2012-05-12"
  },
  {
    "place": "French Restaurant4a4183a0f964a5205ba51fe3",
    "time": "2012-05-12"
  },
  {
    "place": "Park3fd66200f964a520def11ee3",
    "time": "2012-05-12"
  },
  {
    "place": "Coffee Shop4f8c0b12e4b04a0760f5e51e",
    "time": "2012-05-12"
  },
  {
    "place": "Hardware Store4a34038ef964a520929b1fe3",
    "time": "2012-05-13"
  },
  {
    "place": "Diner4a8ca54ff964a520c80e20e3",
    "time": "2012-05-15"
  },
  {
    "place": "Coffee Shop4f8c0b12e4b04a0760f5e51e",
    "time": "2012-05-17"
  },
  {
    "place": "Coffee Shop4b69efa9f964a52014bd2be3",
    "time": "2012-05-17"
  },
  {
    "place": "Harbor / Marina3fd66200f964a520daf11ee3",
    "time": "2012-05-18"
  },
  {
    "place": "Harbor / Marina3fd66200f964a520daf11ee3",
    "time": "2012-05-18"
  },
  {
    "place": "Burger Joint4c55b73cfd2ea5932923382c",
    "time": "2012-05-18"
  },
  {
    "place": "Bar3fd66200f964a520bce81ee3",
    "time": "2012-05-19"
  },
  {
    "place": "Office4c0fc8b4d64c0f477c552a5d",
    "time": "2012-05-21"
  },
  {
    "place": "Chinese Restaurant4aa59e6cf964a520fb4820e3",
    "time": "2012-05-21"
  },
  {
    "place": "Drugstore / Pharmacy4a9aa934f964a5201f3220e3",
    "time": "2012-05-21"
  },
  {
    "place": "Italian Restaurant4b4cc1f2f964a52087bd26e3",
    "time": "2012-05-24"
  },
  {
    "place": "Thai Restaurant4e24815c45dd950bb043a29f",
    "time": "2012-05-25"
  },
  {
    "place": "Coffee Shop4ae33a3df964a520f99121e3",
    "time": "2012-05-26"
  },
  {
    "place": "Food Truck4a416369f964a52036a51fe3",
    "time": "2012-05-26"
  },
  {
    "place": "Dessert Shop4c4261193735be9a6e001aa4",
    "time": "2012-05-26"
  },
  {
    "place": "Movie Theater42f00900f964a520b9261fe3",
    "time": "2012-05-26"
  },
  {
    "place": "Electronics Store3fd66200f964a5205fe41ee3",
    "time": "2012-05-27"
  },
  {
    "place": "Filipino Restaurant4e34496fa8092599edf845bb",
    "time": "2012-05-27"
  },
  {
    "place": "Bar45d78933f964a520e1421fe3",
    "time": "2012-05-27"
  },
  {
    "place": "Bar4a3dda24f964a520b6a21fe3",
    "time": "2012-05-27"
  },
  {
    "place": "Korean Restaurant49e6e227f964a52074641fe3",
    "time": "2012-05-27"
  },
  {
    "place": "Plaza49b7ed6df964a52030531fe3",
    "time": "2012-05-28"
  },
  {
    "place": "Hotel438d6b12f964a520322b1fe3",
    "time": "2012-05-28"
  },
  {
    "place": "Clothing Store4a7dc0edf964a5207bef1fe3",
    "time": "2012-05-28"
  },
  {
    "place": "Clothing Store4a68933bf964a52094ca1fe3",
    "time": "2012-05-29"
  },
  {
    "place": "Salad Place4ca9ff3214c33704814ae33b",
    "time": "2012-05-29"
  },
  {
    "place": "Burger Joint4c1918c7fe5a76b07b0f0315",
    "time": "2012-05-29"
  },
  {
    "place": "Spa / Massage4d99fab8942ba093f1c0a78c",
    "time": "2012-05-31"
  },
  {
    "place": "Park4a663f7cf964a52046c81fe3",
    "time": "2012-06-06"
  },
  {
    "place": "Office4c0fc8b4d64c0f477c552a5d",
    "time": "2012-06-06"
  },
  {
    "place": "Mexican Restaurant4bd716bd6798ef3b382c668d",
    "time": "2012-06-07"
  },
  {
    "place": "Chinese Restaurant4b53bfb3f964a5202daa27e3",
    "time": "2012-06-08"
  },
  {
    "place": "Vegetarian / Vegan Restaurant3fd66200f964a5205dea1ee3",
    "time": "2012-06-09"
  },
  {
    "place": "Pet Store4c6564bbba119c7446ae26a2",
    "time": "2012-06-30"
  },
  {
    "place": "Department Store4c34d4e46f1fef3b6ff1ec3d",
    "time": "2012-06-30"
  },
  {
    "place": "Mall4bd75e275cf276b07a1b9b00",
    "time": "2012-07-01"
  },
  {
    "place": "Medical Center4a9d8d28f964a520793820e3",
    "time": "2012-07-01"
  },
  {
    "place": "Medical Center4e1a39ea45dd120c122044be",
    "time": "2012-07-02"
  },
  {
    "place": "Train Station42829c80f964a5206a221fe3",
    "time": "2012-07-02"
  },
  {
    "place": "Gift Shop4b70916df964a5207d222de3",
    "time": "2012-07-02"
  },
  {
    "place": "Electronics Store4ed6316a2c5b3d826e649dbf",
    "time": "2012-07-02"
  },
  {
    "place": "Furniture / Home Store4a3ea1d7f964a5202ca31fe3",
    "time": "2012-07-03"
  },
  {
    "place": "Food & Drink Shop4b413414f964a5202ac325e3",
    "time": "2012-07-03"
  },
  {
    "place": "Other Great Outdoors4ff4271ae4b0b8fda8c37cc8",
    "time": "2012-07-05"
  },
  {
    "place": "Sandwich Place49d4f1a7f964a520575c1fe3",
    "time": "2012-07-05"
  },
  {
    "place": "American Restaurant3fd66200f964a5203eea1ee3",
    "time": "2012-07-06"
  },
  {
    "place": "Burrito Place44d8c0faf964a52078361fe3",
    "time": "2012-07-07"
  },
  {
    "place": "Drugstore / Pharmacy4b0cd4dbf964a520224223e3",
    "time": "2012-07-10"
  },
  {
    "place": "Clothing Store4ca66eec5a1e952129d98ace",
    "time": "2012-07-12"
  },
  {
    "place": "Chinese Restaurant49ef8a3df964a520c9681fe3",
    "time": "2012-07-13"
  },
  {
    "place": "Tea Room4e3c89c8aeb73139a16d84ee",
    "time": "2012-07-13"
  },
  {
    "place": "Italian Restaurant49b1f9def964a520de521fe3",
    "time": "2012-07-15"
  },
  {
    "place": "American Restaurant3fd66200f964a520cee51ee3",
    "time": "2012-07-15"
  },
  {
    "place": "Electronics Store4ed6316a2c5b3d826e649dbf",
    "time": "2012-07-15"
  },
  {
    "place": "Pet Store4a9ee901f964a520c03b20e3",
    "time": "2012-07-17"
  },
  {
    "place": "Bar4aa534ebf964a520964720e3",
    "time": "2012-10-11"
  },
  {
    "place": "Office4e332080227111ae768b046c",
    "time": "2012-10-11"
  },
  {
    "place": "Plaza49b7ed6df964a52030531fe3",
    "time": "2012-10-12"
  },
  {
    "place": "Food & Drink Shop4a9bc3d7f964a5202e3520e3",
    "time": "2012-10-12"
  },
  {
    "place": "Office4e332080227111ae768b046c",
    "time": "2012-10-22"
  },
  {
    "place": "Electronics Store40958b80f964a520e6f21ee3",
    "time": "2012-10-22"
  },
  {
    "place": "Furniture / Home Store4a2c0e75f964a52014971fe3",
    "time": "2012-10-23"
  },
  {
    "place": "Office4e332080227111ae768b046c",
    "time": "2012-10-24"
  },
  {
    "place": "Caf\u00c3\u00a943850280f964a520012b1fe3",
    "time": "2012-10-24"
  },
  {
    "place": "Other Great Outdoors508af9ccf13627e878935855",
    "time": "2012-10-29"
  },
  {
    "place": "Pizza Place4af5d32bf964a5205dfd21e3",
    "time": "2012-10-31"
  },
  {
    "place": "Food & Drink Shop4530db29f964a520613b1fe3",
    "time": "2012-10-31"
  },
  {
    "place": "Electronics Store507ed1dde4b007b0cc971931",
    "time": "2012-10-31"
  },
  {
    "place": "Thai Restaurant4a4979a3f964a52062ab1fe3",
    "time": "2012-11-01"
  },
  {
    "place": "Burger Joint4b6489b0f964a520d7bb2ae3",
    "time": "2012-11-01"
  },
  {
    "place": "Office4e332080227111ae768b046c",
    "time": "2012-11-05"
  },
  {
    "place": "Furniture / Home Store4a2c0e75f964a52014971fe3",
    "time": "2012-11-06"
  },
  {
    "place": "Clothing Store4aa044d9f964a520ee3e20e3",
    "time": "2012-11-06"
  },
  {
    "place": "Office4e332080227111ae768b046c",
    "time": "2012-11-09"
  },
  {
    "place": "American Restaurant3fd66200f964a520cee51ee3",
    "time": "2012-11-11"
  },
  {
    "place": "Furniture / Home Store4a7dcf5cf964a520b5ef1fe3",
    "time": "2012-11-11"
  },
  {
    "place": "Vietnamese Restaurant4a0d7695f964a5207c751fe3",
    "time": "2012-11-13"
  },
  {
    "place": "Music Venue4846c5acf964a5206f501fe3",
    "time": "2012-11-13"
  },
  {
    "place": "Ramen /  Noodle House49ccd98df964a52094591fe3",
    "time": "2012-11-16"
  },
  {
    "place": "Fast Food Restaurant50355256e4b0853eeb596190",
    "time": "2012-11-16"
  },
  {
    "place": "Coffee Shop4f72095ae4b007de90522a69",
    "time": "2012-11-17"
  },
  {
    "place": "Airport43a52546f964a520532c1fe3",
    "time": "2012-11-27"
  },
  {
    "place": "Sandwich Place4a562063f964a5207ab41fe3",
    "time": "2012-11-28"
  },
  {
    "place": "American Restaurant42474900f964a52081201fe3",
    "time": "2012-12-02"
  },
  {
    "place": "Tanning Salon4bc3723e4cdfc9b6785d9721",
    "time": "2012-12-06"
  },
  {
    "place": "Food & Drink Shop4a9bc3d7f964a5202e3520e3",
    "time": "2012-12-07"
  },
  {
    "place": "Tanning Salon4bc3723e4cdfc9b6785d9721",
    "time": "2012-12-09"
  },
  {
    "place": "Clothing Store49bc213af964a52018541fe3",
    "time": "2012-12-10"
  },
  {
    "place": "Department Store4a9e7e1af964a5204c3a20e3",
    "time": "2012-12-11"
  },
  {
    "place": "Furniture / Home Store4a43a242f964a5209da61fe3",
    "time": "2012-12-12"
  },
  {
    "place": "Furniture / Home Store4a7dcf5cf964a520b5ef1fe3",
    "time": "2012-12-12"
  },
  {
    "place": "Hardware Store4a21834ff964a520077d1fe3",
    "time": "2012-12-12"
  },
  {
    "place": "Design Studio49dcd4b4f964a520ad5f1fe3",
    "time": "2012-12-19"
  },
  {
    "place": "Gym / Fitness Center4ab103f0f964a520c66720e3",
    "time": "2012-12-19"
  },
  {
    "place": "Airport43a52546f964a520532c1fe3",
    "time": "2012-12-28"
  },
  {
    "place": "American Restaurant4dc70d3aae608779d1635fa2",
    "time": "2012-12-30"
  },
  {
    "place": "Electronics Store447bf8f1f964a520ec331fe3",
    "time": "2012-12-31"
  },
  {
    "place": "Caf\u00c3\u00a94f23562ee4b04f6e6811356d",
    "time": "2013-01-02"
  },
  {
    "place": "Latin American Restaurant4b1b1f52f964a52074f823e3",
    "time": "2013-01-02"
  },
  {
    "place": "Gym / Fitness Center4ab103f0f964a520c66720e3",
    "time": "2013-01-05"
  },
  {
    "place": "American Restaurant462a6065f964a520d9451fe3",
    "time": "2013-01-05"
  },
  {
    "place": "Coffee Shop4f72095ae4b007de90522a69",
    "time": "2013-01-05"
  },
  {
    "place": "Park412d2800f964a520df0c1fe3",
    "time": "2013-01-06"
  },
  {
    "place": "Coffee Shop4f72095ae4b007de90522a69",
    "time": "2013-01-08"
  },
  {
    "place": "Pet Store4b5e3185f964a520e38229e3",
    "time": "2013-01-12"
  },
  {
    "place": "Mexican Restaurant4d0a25d08ea0a1433975e473",
    "time": "2013-01-15"
  },
  {
    "place": "Food & Drink Shop4b4a62fdf964a5201d8626e3",
    "time": "2013-01-15"
  },
  {
    "place": "Bar4aa534ebf964a520964720e3",
    "time": "2013-01-16"
  },
  {
    "place": "Coffee Shop49de2becf964a5202b601fe3",
    "time": "2013-01-25"
  },
  {
    "place": "Caribbean Restaurant40fc6080f964a520150b1fe3",
    "time": "2013-01-26"
  },
  {
    "place": "Bar4ad3f445f964a5200ee720e3",
    "time": "2013-01-26"
  },
  {
    "place": "Asian Restaurant4d7186000d0ca143e1df9883",
    "time": "2013-01-30"
  },
  {
    "place": "Bakery4fab5090e4b0eeffb5c77119",
    "time": "2013-01-30"
  },
  {
    "place": "Electronics Store447bf8f1f964a520ec331fe3",
    "time": "2013-02-02"
  },
  {
    "place": "Coffee Shop4a356654f964a520f19c1fe3",
    "time": "2013-02-02"
  }
]