[
  {
    "place": "Mall4a07ac6af964a5208f731fe3",
    "time": "2012-04-03"
  },
  {
    "place": "Office4c29f2e597d00f47f02442ea",
    "time": "2012-04-04"
  },
  {
    "place": "Movie Theater49db721df964a520d35e1fe3",
    "time": "2012-04-04"
  },
  {
    "place": "Wings Joint4b7b4caaf964a520385d2fe3",
    "time": "2012-04-08"
  },
  {
    "place": "Automotive Shop4ba22df2f964a520bbe137e3",
    "time": "2012-04-09"
  },
  {
    "place": "Wings Joint4b7b4caaf964a520385d2fe3",
    "time": "2012-04-09"
  },
  {
    "place": "Mexican Restaurant449955b7f964a52093341fe3",
    "time": "2012-04-10"
  },
  {
    "place": "Burger Joint4ad74911f964a5203f0921e3",
    "time": "2012-04-11"
  },
  {
    "place": "Mall4bbd05d34e069c74813f9ee3",
    "time": "2012-04-11"
  },
  {
    "place": "Scenic Lookout4eb1877fd3e36bac670d2898",
    "time": "2012-04-12"
  },
  {
    "place": "Burger Joint4a1aefc6f964a520a77a1fe3",
    "time": "2012-04-13"
  },
  {
    "place": "Bar4abadd53f964a520338320e3",
    "time": "2012-04-15"
  },
  {
    "place": "Clothing Store4b3b9824f964a520a87625e3",
    "time": "2012-04-19"
  },
  {
    "place": "Mexican Restaurant4eeb8f728231035d6c7558dd",
    "time": "2012-04-20"
  },
  {
    "place": "Hotel3fd66200f964a520bee71ee3",
    "time": "2012-04-20"
  },
  {
    "place": "Bar4abadd53f964a520338320e3",
    "time": "2012-04-21"
  },
  {
    "place": "Coffee Shop4b58f22af964a520c07428e3",
    "time": "2012-04-25"
  },
  {
    "place": "Bar4ad15b84f964a5202dde20e3",
    "time": "2012-04-26"
  },
  {
    "place": "Bar4c22beee99282d7f17b667b0",
    "time": "2012-04-26"
  },
  {
    "place": "Office4c29f2e597d00f47f02442ea",
    "time": "2012-04-27"
  },
  {
    "place": "Flower Shop4baa1db1f964a520df4b3ae3",
    "time": "2012-04-27"
  },
  {
    "place": "Office4c29f2e597d00f47f02442ea",
    "time": "2012-05-03"
  },
  {
    "place": "Mexican Restaurant45e309edf964a52035431fe3",
    "time": "2012-05-03"
  },
  {
    "place": "Office4c29f2e597d00f47f02442ea",
    "time": "2012-05-04"
  },
  {
    "place": "Coffee Shop4a6dea38f964a52052d31fe3",
    "time": "2012-05-04"
  },
  {
    "place": "Furniture / Home Store4a2c0e75f964a52014971fe3",
    "time": "2012-05-04"
  },
  {
    "place": "Italian Restaurant43cb5586f964a520b92d1fe3",
    "time": "2012-05-06"
  },
  {
    "place": "Office4c29f2e597d00f47f02442ea",
    "time": "2012-05-07"
  },
  {
    "place": "Office4c29f2e597d00f47f02442ea",
    "time": "2012-05-08"
  },
  {
    "place": "Bar4e7161f162e116e94546de73",
    "time": "2012-05-09"
  },
  {
    "place": "Office4c29f2e597d00f47f02442ea",
    "time": "2012-05-10"
  },
  {
    "place": "Caf\u00c3\u00a94fb0fbf1e4b0861ead73f6ce",
    "time": "2012-06-03"
  },
  {
    "place": "Spanish Restaurant49cf8a7af964a520ac5a1fe3",
    "time": "2012-06-03"
  },
  {
    "place": "Office4c29f2e597d00f47f02442ea",
    "time": "2012-06-07"
  },
  {
    "place": "Sandwich Place4c8fe0d13b3e9c7460792dcb",
    "time": "2012-06-07"
  },
  {
    "place": "Music Venue3fd66200f964a52005eb1ee3",
    "time": "2012-06-08"
  },
  {
    "place": "Coffee Shop4b58f22af964a520c07428e3",
    "time": "2012-06-08"
  },
  {
    "place": "Mexican Restaurant3fd66200f964a52014e71ee3",
    "time": "2012-06-08"
  },
  {
    "place": "Mexican Restaurant4cb0d4f6db32f04d015fc34d",
    "time": "2012-06-10"
  },
  {
    "place": "Office4c29f2e597d00f47f02442ea",
    "time": "2012-06-13"
  },
  {
    "place": "Mexican Restaurant4ec44d9f8b812a20648802e7",
    "time": "2012-06-18"
  },
  {
    "place": "Office4c29f2e597d00f47f02442ea",
    "time": "2012-06-18"
  },
  {
    "place": "Thrift / Vintage Store4ab10f76f964a520e76720e3",
    "time": "2012-06-18"
  },
  {
    "place": "Office4c29f2e597d00f47f02442ea",
    "time": "2012-06-26"
  },
  {
    "place": "Office4c29f2e597d00f47f02442ea",
    "time": "2012-06-27"
  },
  {
    "place": "Burger Joint4f079279e4b090ef210c97d5",
    "time": "2012-07-07"
  },
  {
    "place": "Bar3fd66200f964a5202be41ee3",
    "time": "2012-07-07"
  },
  {
    "place": "Coffee Shop4a663fe9f964a5204ac81fe3",
    "time": "2012-07-15"
  },
  {
    "place": "American Restaurant3fd66200f964a52044e61ee3",
    "time": "2012-07-15"
  },
  {
    "place": "Bar43cbf323f964a520c52d1fe3",
    "time": "2012-08-14"
  },
  {
    "place": "Art Museum427c0500f964a52097211fe3",
    "time": "2012-08-14"
  },
  {
    "place": "Music Venue3fd66200f964a52035e41ee3",
    "time": "2012-08-19"
  },
  {
    "place": "Office4c29f2e597d00f47f02442ea",
    "time": "2012-09-05"
  },
  {
    "place": "Movie Theater4b90584ef964a520648533e3",
    "time": "2012-09-15"
  },
  {
    "place": "Art Gallery4a9ae597f964a520763320e3",
    "time": "2012-09-15"
  },
  {
    "place": "Mall4a07ac6af964a5208f731fe3",
    "time": "2012-10-08"
  },
  {
    "place": "Arts & Crafts Store4a05d342f964a52082721fe3",
    "time": "2012-10-16"
  },
  {
    "place": "Bar4c9bb662e9a7ef3bd0ed2e16",
    "time": "2012-10-24"
  },
  {
    "place": "Office4c29f2e597d00f47f02442ea",
    "time": "2012-10-25"
  },
  {
    "place": "Office4c29f2e597d00f47f02442ea",
    "time": "2012-10-26"
  },
  {
    "place": "Music Venue4846c5acf964a5206f501fe3",
    "time": "2012-10-27"
  },
  {
    "place": "Bar4e66c4076365d0e711e5711d",
    "time": "2012-10-28"
  },
  {
    "place": "Bar4abadd53f964a520338320e3",
    "time": "2012-10-28"
  },
  {
    "place": "Gas Station / Garage4c9252f5ae45224b734bef97",
    "time": "2012-11-01"
  },
  {
    "place": "Office4a8ecbdcf964a520ac1220e3",
    "time": "2012-11-05"
  },
  {
    "place": "Office4c29f2e597d00f47f02442ea",
    "time": "2012-11-09"
  },
  {
    "place": "Bar43cbf323f964a520c52d1fe3",
    "time": "2012-11-10"
  },
  {
    "place": "Office4c29f2e597d00f47f02442ea",
    "time": "2012-11-12"
  },
  {
    "place": "Bar42001800f964a520591f1fe3",
    "time": "2012-11-12"
  },
  {
    "place": "Office4c29f2e597d00f47f02442ea",
    "time": "2012-11-16"
  },
  {
    "place": "American Restaurant3fd66200f964a520cee51ee3",
    "time": "2012-11-17"
  },
  {
    "place": "Office4c29f2e597d00f47f02442ea",
    "time": "2012-11-29"
  },
  {
    "place": "French Restaurant4e6be92e18a8a5d4e6efe986",
    "time": "2012-11-29"
  },
  {
    "place": "Mall4a07ac6af964a5208f731fe3",
    "time": "2012-12-01"
  },
  {
    "place": "Office4c29f2e597d00f47f02442ea",
    "time": "2012-12-04"
  },
  {
    "place": "Office4c29f2e597d00f47f02442ea",
    "time": "2012-12-05"
  },
  {
    "place": "Pizza Place4b6399a9f964a52011862ae3",
    "time": "2012-12-05"
  },
  {
    "place": "Office4c29f2e597d00f47f02442ea",
    "time": "2012-12-06"
  },
  {
    "place": "Bar4b9aee82f964a5204fe435e3",
    "time": "2012-12-06"
  },
  {
    "place": "Clothing Store4e6b7aabb61cc3728e0b96af",
    "time": "2012-12-14"
  },
  {
    "place": "Mexican Restaurant4427bd00f964a520b6311fe3",
    "time": "2012-12-18"
  },
  {
    "place": "Salon / Barbershop4ac167bff964a5200a9720e3",
    "time": "2012-12-18"
  },
  {
    "place": "Italian Restaurant4e1e30fc1838bed7eb6b323f",
    "time": "2012-12-19"
  },
  {
    "place": "Office4c29f2e597d00f47f02442ea",
    "time": "2012-12-19"
  },
  {
    "place": "Mexican Restaurant3fd66200f964a5205ae31ee3",
    "time": "2012-12-30"
  },
  {
    "place": "Australian Restaurant4b54d7bff964a52043cf27e3",
    "time": "2013-01-01"
  },
  {
    "place": "Thai Restaurant4e24815c45dd950bb043a29f",
    "time": "2013-01-08"
  },
  {
    "place": "Hotel4cec13060f196dcb7b8e5bae",
    "time": "2013-01-09"
  },
  {
    "place": "Bar4fe0eda4e4b0085f8737a2cc",
    "time": "2013-01-10"
  },
  {
    "place": "Burrito Place3fd66200f964a52054e51ee3",
    "time": "2013-01-11"
  },
  {
    "place": "Burger Joint4ad74911f964a5203f0921e3",
    "time": "2013-01-14"
  },
  {
    "place": "Art Gallery4a72f508f964a5205edb1fe3",
    "time": "2013-01-16"
  },
  {
    "place": "Tapas Restaurant41098f80f964a5209e0b1fe3",
    "time": "2013-01-18"
  },
  {
    "place": "Movie Theater43a72ba0f964a520672c1fe3",
    "time": "2013-01-21"
  },
  {
    "place": "Office4c29f2e597d00f47f02442ea",
    "time": "2013-01-22"
  },
  {
    "place": "Mexican Restaurant4f402ae1e4b0e5bc120e3876",
    "time": "2013-01-28"
  },
  {
    "place": "Bar3fd66200f964a52027e51ee3",
    "time": "2013-01-28"
  },
  {
    "place": "Clothing Store50a50eb3e41268a05dd15335",
    "time": "2013-01-29"
  },
  {
    "place": "Gastropub45b242f8f964a520a1411fe3",
    "time": "2013-02-02"
  },
  {
    "place": "Clothing Store4b452303f964a520e10526e3",
    "time": "2013-02-02"
  },
  {
    "place": "Clothing Store4c5b03f904f9be9a0a38f360",
    "time": "2013-02-02"
  },
  {
    "place": "Office4c29f2e597d00f47f02442ea",
    "time": "2013-02-04"
  },
  {
    "place": "Office4c29f2e597d00f47f02442ea",
    "time": "2013-02-05"
  },
  {
    "place": "Office4c29f2e597d00f47f02442ea",
    "time": "2013-02-06"
  },
  {
    "place": "Art Gallery4a72f508f964a5205edb1fe3",
    "time": "2013-02-06"
  },
  {
    "place": "Office4c29f2e597d00f47f02442ea",
    "time": "2013-02-07"
  },
  {
    "place": "Pizza Place4b6399a9f964a52011862ae3",
    "time": "2013-02-13"
  }
]