[
  {
    "place": "Bar4aa71d89f964a520fa4b20e3",
    "time": "2012-04-15"
  },
  {
    "place": "Bar42d84e00f964a5202a261fe3",
    "time": "2012-05-02"
  },
  {
    "place": "Tapas Restaurant4f653ac0e4b0bf1012abaf2d",
    "time": "2012-05-13"
  },
  {
    "place": "Bar4aa71d89f964a520fa4b20e3",
    "time": "2012-05-13"
  },
  {
    "place": "Hotel4b5498eef964a520d3c127e3",
    "time": "2012-05-18"
  },
  {
    "place": "Food & Drink Shop4bbd8213a8cf76b0e5e9b1fd",
    "time": "2012-05-23"
  },
  {
    "place": "Salon / Barbershop4b7f49d5f964a5201d2530e3",
    "time": "2012-05-25"
  },
  {
    "place": "Spanish Restaurant4acce300f964a520e2c920e3",
    "time": "2012-05-29"
  },
  {
    "place": "Hardware Store4cd06a456449a0930482cacf",
    "time": "2012-05-29"
  },
  {
    "place": "Bar42d84e00f964a5202a261fe3",
    "time": "2012-05-30"
  },
  {
    "place": "Home (private)4e358fa92271b2cf0678e33e",
    "time": "2012-06-02"
  },
  {
    "place": "Bar4cafcca7cbab236aeb469b73",
    "time": "2012-06-03"
  },
  {
    "place": "Drugstore / Pharmacy4bbe816e98f49521516ad163",
    "time": "2012-06-03"
  },
  {
    "place": "Food & Drink Shop4bbd8213a8cf76b0e5e9b1fd",
    "time": "2012-06-03"
  },
  {
    "place": "Post Office4fcfa336e4b0ef77527872a6",
    "time": "2012-06-06"
  },
  {
    "place": "Bridge4a33eb53f964a5206a9b1fe3",
    "time": "2012-06-06"
  },
  {
    "place": "American Restaurant4c54253a06901b8de31e4c4b",
    "time": "2012-06-26"
  },
  {
    "place": "Pizza Place4a189b31f964a520cf791fe3",
    "time": "2012-06-26"
  },
  {
    "place": "Bar42d84e00f964a5202a261fe3",
    "time": "2012-06-26"
  },
  {
    "place": "American Restaurant4b2fc9d9f964a520f4ef24e3",
    "time": "2012-06-30"
  },
  {
    "place": "Medical Center4bd8e43b5f50b7132300e0d1",
    "time": "2012-07-03"
  },
  {
    "place": "Bar42d84e00f964a5202a261fe3",
    "time": "2012-07-03"
  },
  {
    "place": "Bridge4a33eb53f964a5206a9b1fe3",
    "time": "2012-07-04"
  },
  {
    "place": "Miscellaneous Shop4cd953061647a093183fe64c",
    "time": "2012-07-04"
  },
  {
    "place": "Bar419d3780f964a5202c1e1fe3",
    "time": "2012-07-05"
  },
  {
    "place": "Bar4aa71d89f964a520fa4b20e3",
    "time": "2012-07-09"
  },
  {
    "place": "Automotive Shop4c012f5d9a950f47d4ab08c6",
    "time": "2012-07-09"
  },
  {
    "place": "Hotel4b5498eef964a520d3c127e3",
    "time": "2012-08-10"
  },
  {
    "place": "Home (private)4f5b97ade4b07fef00a47c3a",
    "time": "2012-08-11"
  },
  {
    "place": "Bar4cafcca7cbab236aeb469b73",
    "time": "2012-08-11"
  },
  {
    "place": "Food & Drink Shop4a58dba5f964a5200fb81fe3",
    "time": "2012-08-13"
  },
  {
    "place": "Bar419d3780f964a5202c1e1fe3",
    "time": "2012-08-14"
  },
  {
    "place": "Stadium3fd66200f964a520ddf01ee3",
    "time": "2012-08-16"
  },
  {
    "place": "Smoke Shop4e6bc1d31f6e1e74e4cbbf83",
    "time": "2012-08-16"
  },
  {
    "place": "Bar419d3780f964a5202c1e1fe3",
    "time": "2012-09-06"
  },
  {
    "place": "Automotive Shop4c012f5d9a950f47d4ab08c6",
    "time": "2012-09-14"
  },
  {
    "place": "Food & Drink Shop4bd74a0f5cf276b0f1f09a00",
    "time": "2012-09-15"
  },
  {
    "place": "Medical Center4db9a8fe1e7206c23d224e26",
    "time": "2012-10-08"
  },
  {
    "place": "Gas Station / Garage4bdeb4d06198c9b6558914ff",
    "time": "2012-10-12"
  },
  {
    "place": "Hotel4b5498eef964a520d3c127e3",
    "time": "2012-10-12"
  },
  {
    "place": "Medical Center4e7c9a7d29c26d74e30f80b4",
    "time": "2012-10-18"
  },
  {
    "place": "Bar419d3780f964a5202c1e1fe3",
    "time": "2012-10-18"
  },
  {
    "place": "Caribbean Restaurant4f6e2527e4b0a235d7549990",
    "time": "2012-10-22"
  },
  {
    "place": "Home (private)4f5b97ade4b07fef00a47c3a",
    "time": "2012-10-24"
  },
  {
    "place": "Bar419d3780f964a5202c1e1fe3",
    "time": "2012-10-24"
  },
  {
    "place": "Gas Station / Garage4bdeb4d06198c9b6558914ff",
    "time": "2012-10-26"
  },
  {
    "place": "Neighborhood50831a39e4b03db17694abc5",
    "time": "2012-10-31"
  },
  {
    "place": "Drugstore / Pharmacy4c6f1f54b5a5236ab45b4c52",
    "time": "2012-10-31"
  },
  {
    "place": "Automotive Shop4be2c07d660ec928ad1cca3b",
    "time": "2012-11-12"
  },
  {
    "place": "Drugstore / Pharmacy4bbe816e98f49521516ad163",
    "time": "2012-11-13"
  },
  {
    "place": "American Restaurant4b5e451cf964a520f58629e3",
    "time": "2012-11-15"
  },
  {
    "place": "Gas Station / Garage4bdeb4d06198c9b6558914ff",
    "time": "2012-11-17"
  },
  {
    "place": "Stadium4ae6363ef964a520aba521e3",
    "time": "2012-11-18"
  },
  {
    "place": "Bar42d84e00f964a5202a261fe3",
    "time": "2012-11-21"
  },
  {
    "place": "Food & Drink Shop4bbd8213a8cf76b0e5e9b1fd",
    "time": "2012-11-23"
  },
  {
    "place": "Home (private)4f5b97ade4b07fef00a47c3a",
    "time": "2012-11-23"
  },
  {
    "place": "Electronics Store4bb61957f562ef3bcf9c2f97",
    "time": "2012-11-23"
  },
  {
    "place": "Home (private)4f5b97ade4b07fef00a47c3a",
    "time": "2012-11-25"
  },
  {
    "place": "Bar4aa71d89f964a520fa4b20e3",
    "time": "2012-11-26"
  },
  {
    "place": "Electronics Store4c60450fc6a103bb58fe675b",
    "time": "2012-11-26"
  },
  {
    "place": "Gas Station / Garage4bd6b1f55631c9b66e36a630",
    "time": "2012-11-26"
  },
  {
    "place": "American Restaurant4a997b50f964a520912e20e3",
    "time": "2012-11-27"
  },
  {
    "place": "Hotel4b5498eef964a520d3c127e3",
    "time": "2012-12-01"
  },
  {
    "place": "Gas Station / Garage4bdeb4d06198c9b6558914ff",
    "time": "2012-12-03"
  },
  {
    "place": "Bar4aa71d89f964a520fa4b20e3",
    "time": "2012-12-03"
  },
  {
    "place": "Bar3fd66200f964a52044e81ee3",
    "time": "2012-12-03"
  },
  {
    "place": "Bar4aa71d89f964a520fa4b20e3",
    "time": "2012-12-07"
  },
  {
    "place": "Donut Shop4bc43e6374a9a593c28cd5f6",
    "time": "2012-12-07"
  },
  {
    "place": "Bar4e8d32ebb803ca3dfcbd112e",
    "time": "2012-12-09"
  },
  {
    "place": "Bar4aa71d89f964a520fa4b20e3",
    "time": "2012-12-10"
  },
  {
    "place": "Airport4ace6c89f964a52078d020e3",
    "time": "2012-12-16"
  },
  {
    "place": "Bar4aa71d89f964a520fa4b20e3",
    "time": "2012-12-28"
  },
  {
    "place": "Fried Chicken Joint4be9e492a9900f47f8e71540",
    "time": "2012-12-30"
  },
  {
    "place": "Drugstore / Pharmacy4bbe816e98f49521516ad163",
    "time": "2012-12-31"
  },
  {
    "place": "Home (private)4f5b97ade4b07fef00a47c3a",
    "time": "2013-01-01"
  },
  {
    "place": "Latin American Restaurant50bd5089e4b0e53ea372c8ec",
    "time": "2013-01-03"
  },
  {
    "place": "Home (private)4f5b97ade4b07fef00a47c3a",
    "time": "2013-01-04"
  },
  {
    "place": "Hotel4b5498eef964a520d3c127e3",
    "time": "2013-01-05"
  },
  {
    "place": "Home (private)4f5b97ade4b07fef00a47c3a",
    "time": "2013-01-05"
  },
  {
    "place": "Car Wash4fb57149e4b030715edb474d",
    "time": "2013-01-05"
  },
  {
    "place": "Bar4aa71d89f964a520fa4b20e3",
    "time": "2013-01-07"
  },
  {
    "place": "Convenience Store4bd74a0f5cf276b0f1f09a00",
    "time": "2013-01-07"
  },
  {
    "place": "Home (private)4f5b97ade4b07fef00a47c3a",
    "time": "2013-01-07"
  },
  {
    "place": "Food & Drink Shop4b0fe28bf964a520d46523e3",
    "time": "2013-01-08"
  },
  {
    "place": "Bar419d3780f964a5202c1e1fe3",
    "time": "2013-01-10"
  },
  {
    "place": "Bar4aa71d89f964a520fa4b20e3",
    "time": "2013-01-11"
  },
  {
    "place": "Hotel4b5498eef964a520d3c127e3",
    "time": "2013-01-12"
  },
  {
    "place": "Convenience Store4bd74a0f5cf276b0f1f09a00",
    "time": "2013-01-16"
  },
  {
    "place": "Bar419d3780f964a5202c1e1fe3",
    "time": "2013-01-17"
  },
  {
    "place": "Bar4aa71d89f964a520fa4b20e3",
    "time": "2013-01-18"
  },
  {
    "place": "Home (private)4f5b97ade4b07fef00a47c3a",
    "time": "2013-01-18"
  },
  {
    "place": "Home (private)4f5b97ade4b07fef00a47c3a",
    "time": "2013-01-25"
  },
  {
    "place": "Hotel4b5498eef964a520d3c127e3",
    "time": "2013-01-26"
  },
  {
    "place": "Home (private)4f5b97ade4b07fef00a47c3a",
    "time": "2013-01-31"
  },
  {
    "place": "Airport4459d2f1f964a520d7321fe3",
    "time": "2013-01-31"
  },
  {
    "place": "American Restaurant4bb2e2444019a593726837b8",
    "time": "2013-02-01"
  },
  {
    "place": "Home (private)4f5b97ade4b07fef00a47c3a",
    "time": "2013-02-01"
  },
  {
    "place": "Home (private)4f5b97ade4b07fef00a47c3a",
    "time": "2013-02-02"
  },
  {
    "place": "American Restaurant4befe6913a002d7f647685a4",
    "time": "2013-02-03"
  },
  {
    "place": "Bar4bb6de2c941ad13a0f1d20e3",
    "time": "2013-02-03"
  },
  {
    "place": "Medical Center4b5dc610f964a520ea6a29e3",
    "time": "2013-02-03"
  },
  {
    "place": "Home (private)4f5b97ade4b07fef00a47c3a",
    "time": "2013-02-03"
  },
  {
    "place": "Home (private)4f5b97ade4b07fef00a47c3a",
    "time": "2013-02-06"
  },
  {
    "place": "Home (private)4f5b97ade4b07fef00a47c3a",
    "time": "2013-02-07"
  },
  {
    "place": "Bar4aa71d89f964a520fa4b20e3",
    "time": "2013-02-08"
  },
  {
    "place": "Home (private)4f5b97ade4b07fef00a47c3a",
    "time": "2013-02-08"
  },
  {
    "place": "Bar42d84e00f964a5202a261fe3",
    "time": "2013-02-13"
  },
  {
    "place": "Home (private)4f5b97ade4b07fef00a47c3a",
    "time": "2013-02-13"
  }
]