[
  {
    "place": "Salon / Barbershop4ca0e01c27d3bfb78dfc3a67",
    "time": "2012-04-03"
  },
  {
    "place": "Hardware Store4a34038ef964a520929b1fe3",
    "time": "2012-04-03"
  },
  {
    "place": "Drugstore / Pharmacy4f280555e4b04e256a110c94",
    "time": "2012-04-03"
  },
  {
    "place": "Bar49f35e1ef964a520946a1fe3",
    "time": "2012-04-03"
  },
  {
    "place": "Food & Drink Shop4d6d0aef8a4541bddd658ae5",
    "time": "2012-04-04"
  },
  {
    "place": "Drugstore / Pharmacy4b0c16c3f964a520ad3623e3",
    "time": "2012-04-04"
  },
  {
    "place": "River4c0c2b61bbc676b0a8b44cd5",
    "time": "2012-04-04"
  },
  {
    "place": "Gym / Fitness Center4a426fc3f964a520dda51fe3",
    "time": "2012-04-04"
  },
  {
    "place": "Church4b649f18f964a520f4c22ae3",
    "time": "2012-04-04"
  },
  {
    "place": "Drugstore / Pharmacy4f280555e4b04e256a110c94",
    "time": "2012-04-06"
  },
  {
    "place": "Food & Drink Shop4d6d0aef8a4541bddd658ae5",
    "time": "2012-04-06"
  },
  {
    "place": "Church4b649f18f964a520f4c22ae3",
    "time": "2012-04-06"
  },
  {
    "place": "Gym / Fitness Center4a426fc3f964a520dda51fe3",
    "time": "2012-04-07"
  },
  {
    "place": "Fast Food Restaurant4356de00f964a520d2281fe3",
    "time": "2012-04-07"
  },
  {
    "place": "Government Building4b5178bbf964a520e64d27e3",
    "time": "2012-04-07"
  },
  {
    "place": "Government Building4cf539ef7e0da1cd4e4aa697",
    "time": "2012-04-07"
  },
  {
    "place": "French Restaurant4b5af975f964a520f8dc28e3",
    "time": "2012-04-08"
  },
  {
    "place": "Church4b649f18f964a520f4c22ae3",
    "time": "2012-04-08"
  },
  {
    "place": "General College & University436bf600f964a520b2291fe3",
    "time": "2012-04-08"
  },
  {
    "place": "General Entertainment4f819cbae4b02f45811404ba",
    "time": "2012-04-08"
  },
  {
    "place": "Gym / Fitness Center4a426fc3f964a520dda51fe3",
    "time": "2012-04-09"
  },
  {
    "place": "Drugstore / Pharmacy4b0c16c3f964a520ad3623e3",
    "time": "2012-04-09"
  },
  {
    "place": "Gym / Fitness Center4a426fc3f964a520dda51fe3",
    "time": "2012-04-10"
  },
  {
    "place": "Food & Drink Shop4afcad9ff964a520052522e3",
    "time": "2012-04-10"
  },
  {
    "place": "Mall4bd75e275cf276b07a1b9b00",
    "time": "2012-04-10"
  },
  {
    "place": "Drugstore / Pharmacy4f280555e4b04e256a110c94",
    "time": "2012-04-10"
  },
  {
    "place": "Bar49f35e1ef964a520946a1fe3",
    "time": "2012-04-10"
  },
  {
    "place": "Mediterranean Restaurant4ee160fce5fa204a5412e804",
    "time": "2012-04-10"
  },
  {
    "place": "Food & Drink Shop4d6d0aef8a4541bddd658ae5",
    "time": "2012-04-11"
  },
  {
    "place": "Gym / Fitness Center4a426fc3f964a520dda51fe3",
    "time": "2012-04-13"
  },
  {
    "place": "Department Store4531059cf964a520683b1fe3",
    "time": "2012-04-14"
  },
  {
    "place": "Drugstore / Pharmacy4f280555e4b04e256a110c94",
    "time": "2012-04-14"
  },
  {
    "place": "Food & Drink Shop4d6d0aef8a4541bddd658ae5",
    "time": "2012-04-14"
  },
  {
    "place": "Food & Drink Shop4bf85bee508c0f476b693e31",
    "time": "2012-04-14"
  },
  {
    "place": "Deli / Bodega4a99550af964a520d92d20e3",
    "time": "2012-04-14"
  },
  {
    "place": "Vegetarian / Vegan Restaurant4a9e9c0af964a520983a20e3",
    "time": "2012-04-14"
  },
  {
    "place": "Brewery3fd66200f964a52028e41ee3",
    "time": "2012-04-14"
  },
  {
    "place": "Bookstore43fe1ba4f964a520f82f1fe3",
    "time": "2012-04-14"
  },
  {
    "place": "Bus Station4cb76971035d236a415dc54e",
    "time": "2012-04-14"
  },
  {
    "place": "Church4b649f18f964a520f4c22ae3",
    "time": "2012-04-15"
  },
  {
    "place": "Gym / Fitness Center4a426fc3f964a520dda51fe3",
    "time": "2012-04-15"
  },
  {
    "place": "Coffee Shop4ae85aacf964a520d3ae21e3",
    "time": "2012-04-15"
  },
  {
    "place": "Gastropub4ac682f7f964a520c0b420e3",
    "time": "2012-04-15"
  },
  {
    "place": "Steakhouse3fd66200f964a52041eb1ee3",
    "time": "2012-04-15"
  },
  {
    "place": "Mexican Restaurant4a0ad357f964a520ae741fe3",
    "time": "2012-04-15"
  },
  {
    "place": "Bar4b854b28f964a520045531e3",
    "time": "2012-04-15"
  },
  {
    "place": "Bus Station4c54a2de4623be9a818d14f3",
    "time": "2012-04-15"
  },
  {
    "place": "Home (private)4d0550e37d9ba35d7a936a23",
    "time": "2012-04-15"
  },
  {
    "place": "Gym / Fitness Center4a426fc3f964a520dda51fe3",
    "time": "2012-04-16"
  },
  {
    "place": "Other Great Outdoors4f8b12f9a17c515434b47dae",
    "time": "2012-04-16"
  },
  {
    "place": "Candy Store4a6c6b4af964a52082d01fe3",
    "time": "2012-04-17"
  },
  {
    "place": "Theater4a0b05a7f964a520bb741fe3",
    "time": "2012-04-17"
  },
  {
    "place": "French Restaurant4b2c0753f964a520f2bf24e3",
    "time": "2012-04-18"
  },
  {
    "place": "Gym / Fitness Center4a426fc3f964a520dda51fe3",
    "time": "2012-04-18"
  },
  {
    "place": "Office4b82a974f964a52010dd30e3",
    "time": "2012-04-18"
  },
  {
    "place": "Gym / Fitness Center4a426fc3f964a520dda51fe3",
    "time": "2012-04-19"
  },
  {
    "place": "Food & Drink Shop4d6d0aef8a4541bddd658ae5",
    "time": "2012-04-19"
  },
  {
    "place": "Food & Drink Shop4bf85bee508c0f476b693e31",
    "time": "2012-04-19"
  },
  {
    "place": "Italian Restaurant40f1d480f964a520530a1fe3",
    "time": "2012-04-20"
  },
  {
    "place": "Medical Center4be806a8d837c9b62ec7a406",
    "time": "2012-04-20"
  },
  {
    "place": "Gym / Fitness Center4a426fc3f964a520dda51fe3",
    "time": "2012-04-20"
  },
  {
    "place": "Bar4a99fad0f964a520503120e3",
    "time": "2012-04-21"
  },
  {
    "place": "Korean Restaurant4d0050f5fedba090c9f78cbd",
    "time": "2012-04-21"
  },
  {
    "place": "Smoke Shop4f47ffbae4b0d637408e1382",
    "time": "2012-04-21"
  },
  {
    "place": "Clothing Store4aac4964f964a5204c5d20e3",
    "time": "2012-04-21"
  },
  {
    "place": "Home (private)4f7f808be4b0bf6cc8920a5a",
    "time": "2012-04-21"
  },
  {
    "place": "Office4dfd3b6bc65b31579b315013",
    "time": "2012-04-21"
  },
  {
    "place": "Park4a436b2df964a52084a61fe3",
    "time": "2012-04-21"
  },
  {
    "place": "Dim Sum Restaurant49f220a3f964a520ee691fe3",
    "time": "2012-04-21"
  },
  {
    "place": "Residential Building (Apartment / Condo)4b409158f964a52001b925e3",
    "time": "2012-04-21"
  },
  {
    "place": "Bakery4db33377f7b121c29f31dc2a",
    "time": "2012-04-21"
  },
  {
    "place": "Park4d9374de52ed224b0ee51dac",
    "time": "2012-04-21"
  },
  {
    "place": "Bar4a83505ef964a520bffa1fe3",
    "time": "2012-04-21"
  },
  {
    "place": "Cupcake Shop4ab37b9ff964a520ae6d20e3",
    "time": "2012-04-22"
  },
  {
    "place": "Park412d2800f964a520df0c1fe3",
    "time": "2012-04-22"
  },
  {
    "place": "Gym / Fitness Center4a426fc3f964a520dda51fe3",
    "time": "2012-04-22"
  },
  {
    "place": "Office4b20ff64f964a520ea3524e3",
    "time": "2012-04-22"
  },
  {
    "place": "Church4b649f18f964a520f4c22ae3",
    "time": "2012-04-22"
  },
  {
    "place": "Building437d1980f964a520a82a1fe3",
    "time": "2012-04-22"
  },
  {
    "place": "Bakery4a5cc325f964a52089bc1fe3",
    "time": "2012-04-22"
  },
  {
    "place": "Drugstore / Pharmacy4b0c16c3f964a520ad3623e3",
    "time": "2012-04-23"
  },
  {
    "place": "Bank4c0192be716bc9b6f41fbc55",
    "time": "2012-04-23"
  },
  {
    "place": "Gym / Fitness Center4a426fc3f964a520dda51fe3",
    "time": "2012-04-23"
  },
  {
    "place": "Drugstore / Pharmacy4f280555e4b04e256a110c94",
    "time": "2012-04-24"
  },
  {
    "place": "Gym / Fitness Center4a426fc3f964a520dda51fe3",
    "time": "2012-04-24"
  },
  {
    "place": "Food & Drink Shop4d6d0aef8a4541bddd658ae5",
    "time": "2012-04-25"
  },
  {
    "place": "Bus Station4e39cc49d4c046ee86be7e9f",
    "time": "2012-04-25"
  },
  {
    "place": "General Travel4cfaf868feec6dcba9c04336",
    "time": "2012-04-25"
  },
  {
    "place": "Gym / Fitness Center4a426fc3f964a520dda51fe3",
    "time": "2012-04-25"
  },
  {
    "place": "Drugstore / Pharmacy4b0c16c3f964a520ad3623e3",
    "time": "2012-04-25"
  },
  {
    "place": "Bakery4cdf0646aba88cfa7a2946d7",
    "time": "2012-04-25"
  },
  {
    "place": "Coffee Shop4b5f42a1f964a52094b029e3",
    "time": "2012-04-25"
  },
  {
    "place": "Theater4f4d40c40cd6cdce03a9350d",
    "time": "2012-04-25"
  },
  {
    "place": "French Restaurant4b2c0753f964a520f2bf24e3",
    "time": "2012-04-26"
  },
  {
    "place": "Sushi Restaurant4b32c6ccf964a520b51325e3",
    "time": "2012-04-28"
  },
  {
    "place": "Miscellaneous Shop4b632561f964a52052662ae3",
    "time": "2012-04-28"
  },
  {
    "place": "Gym / Fitness Center4a426fc3f964a520dda51fe3",
    "time": "2012-04-28"
  },
  {
    "place": "Hardware Store4c16b6f66470a5938b4657d2",
    "time": "2012-04-28"
  },
  {
    "place": "Food & Drink Shop49c27575f964a520f1551fe3",
    "time": "2012-04-28"
  },
  {
    "place": "Campground4ec56c366c254debeb50c1c4",
    "time": "2012-04-28"
  },
  {
    "place": "Brewery3fd66200f964a52028e41ee3",
    "time": "2012-04-28"
  },
  {
    "place": "Hardware Store4b808510f964a520817930e3",
    "time": "2012-04-28"
  },
  {
    "place": "Cosmetics Shop49d92c3df964a5200e5e1fe3",
    "time": "2012-04-28"
  },
  {
    "place": "Food & Drink Shop4d6d0aef8a4541bddd658ae5",
    "time": "2012-04-29"
  },
  {
    "place": "Flower Shop4c0662268f8fa593842df30d",
    "time": "2012-04-29"
  },
  {
    "place": "Laundry Service4d3701f7e4b4a093d82e2936",
    "time": "2012-04-29"
  },
  {
    "place": "Food & Drink Shop4bf85bee508c0f476b693e31",
    "time": "2012-04-29"
  },
  {
    "place": "Drugstore / Pharmacy4f4e451fe4b052b87bbe2ec2",
    "time": "2012-04-29"
  },
  {
    "place": "Food & Drink Shop4d6d0aef8a4541bddd658ae5",
    "time": "2012-04-29"
  },
  {
    "place": "Drugstore / Pharmacy4b0c16c3f964a520ad3623e3",
    "time": "2012-04-29"
  },
  {
    "place": "Gym / Fitness Center4a426fc3f964a520dda51fe3",
    "time": "2012-04-29"
  },
  {
    "place": "Church4b649f18f964a520f4c22ae3",
    "time": "2012-04-29"
  },
  {
    "place": "Building49a411d4f964a5209b521fe3",
    "time": "2012-05-01"
  },
  {
    "place": "Food & Drink Shop4d6d0aef8a4541bddd658ae5",
    "time": "2012-05-01"
  },
  {
    "place": "Drugstore / Pharmacy4b0c16c3f964a520ad3623e3",
    "time": "2012-05-01"
  },
  {
    "place": "Diner4c5ef6597735c9b6d42e9372",
    "time": "2012-05-02"
  },
  {
    "place": "Gym / Fitness Center4a426fc3f964a520dda51fe3",
    "time": "2012-05-03"
  },
  {
    "place": "Drugstore / Pharmacy4f280555e4b04e256a110c94",
    "time": "2012-05-03"
  },
  {
    "place": "College Academic Building45d9aa10f964a520ee421fe3",
    "time": "2012-05-04"
  },
  {
    "place": "Gym / Fitness Center4a426fc3f964a520dda51fe3",
    "time": "2012-05-04"
  },
  {
    "place": "Drugstore / Pharmacy4f280555e4b04e256a110c94",
    "time": "2012-05-05"
  },
  {
    "place": "Bar49f35e1ef964a520946a1fe3",
    "time": "2012-05-05"
  },
  {
    "place": "Home (private)4bf7175713aed13a6cceeaf7",
    "time": "2012-05-05"
  },
  {
    "place": "Food & Drink Shop4d6d0aef8a4541bddd658ae5",
    "time": "2012-05-05"
  },
  {
    "place": "Flower Shop4c0662268f8fa593842df30d",
    "time": "2012-05-05"
  },
  {
    "place": "Bakery4cdf0646aba88cfa7a2946d7",
    "time": "2012-05-05"
  },
  {
    "place": "Laundry Service4d3701f7e4b4a093d82e2936",
    "time": "2012-05-05"
  },
  {
    "place": "Deli / Bodega4d5f178e291059415dd1e446",
    "time": "2012-05-05"
  },
  {
    "place": "Medical Center4be806a8d837c9b62ec7a406",
    "time": "2012-05-05"
  },
  {
    "place": "Gym / Fitness Center4b09cecff964a520fb1d23e3",
    "time": "2012-05-05"
  },
  {
    "place": "Other Great Outdoors4c5f498112e5c92851d31c4c",
    "time": "2012-05-05"
  },
  {
    "place": "Outdoors & Recreation4c765b13db52b1f75d207bdc",
    "time": "2012-05-05"
  },
  {
    "place": "Dim Sum Restaurant49f220a3f964a520ee691fe3",
    "time": "2012-05-05"
  },
  {
    "place": "Bus Station4eb88a5b8231316270931d8c",
    "time": "2012-05-05"
  },
  {
    "place": "Office4cd803352a87a1432870aa09",
    "time": "2012-05-05"
  },
  {
    "place": "Bakery4a5cc325f964a52089bc1fe3",
    "time": "2012-05-06"
  },
  {
    "place": "Plaza49b7ed6df964a52030531fe3",
    "time": "2012-05-06"
  },
  {
    "place": "Bar423e0e80f964a52044201fe3",
    "time": "2012-05-06"
  },
  {
    "place": "Food & Drink Shop4bf85bee508c0f476b693e31",
    "time": "2012-05-07"
  },
  {
    "place": "Bar49f35e1ef964a520946a1fe3",
    "time": "2012-05-07"
  },
  {
    "place": "Gym / Fitness Center4a426fc3f964a520dda51fe3",
    "time": "2012-05-07"
  },
  {
    "place": "BBQ Joint43fec232f964a520fd2f1fe3",
    "time": "2012-05-08"
  },
  {
    "place": "Food & Drink Shop4d6d0aef8a4541bddd658ae5",
    "time": "2012-05-08"
  },
  {
    "place": "Drugstore / Pharmacy4f280555e4b04e256a110c94",
    "time": "2012-05-08"
  },
  {
    "place": "Indian Restaurant4a63bfb4f964a520b3c51fe3",
    "time": "2012-05-09"
  },
  {
    "place": "Gym / Fitness Center4a426fc3f964a520dda51fe3",
    "time": "2012-05-09"
  },
  {
    "place": "Drugstore / Pharmacy4f280555e4b04e256a110c94",
    "time": "2012-05-10"
  },
  {
    "place": "Home (private)4bf7175713aed13a6cceeaf7",
    "time": "2012-05-11"
  },
  {
    "place": "Gym / Fitness Center4a426fc3f964a520dda51fe3",
    "time": "2012-05-11"
  },
  {
    "place": "Bus Station4ce1f08e70bba1cd7b7b74c4",
    "time": "2012-05-12"
  },
  {
    "place": "University4b5e0b12f964a520b07a29e3",
    "time": "2012-05-12"
  },
  {
    "place": "Office4ba78b15f964a520f69b39e3",
    "time": "2012-05-12"
  },
  {
    "place": "Hotel49d18dfdf964a5208f5b1fe3",
    "time": "2012-05-12"
  },
  {
    "place": "Department Store4577fb0bf964a520b03e1fe3",
    "time": "2012-05-12"
  },
  {
    "place": "Theater4b53367af964a5208e9227e3",
    "time": "2012-05-12"
  },
  {
    "place": "Church4b649f18f964a520f4c22ae3",
    "time": "2012-05-13"
  },
  {
    "place": "Gym / Fitness Center4a426fc3f964a520dda51fe3",
    "time": "2012-05-13"
  },
  {
    "place": "Theater4a996bb4f964a520342e20e3",
    "time": "2012-05-13"
  },
  {
    "place": "Bar423e0e80f964a52044201fe3",
    "time": "2012-05-13"
  },
  {
    "place": "Gym / Fitness Center4a426fc3f964a520dda51fe3",
    "time": "2012-05-14"
  },
  {
    "place": "Drugstore / Pharmacy4f280555e4b04e256a110c94",
    "time": "2012-05-14"
  },
  {
    "place": "Food & Drink Shop4d6d0aef8a4541bddd658ae5",
    "time": "2012-05-14"
  },
  {
    "place": "Food & Drink Shop4bf85bee508c0f476b693e31",
    "time": "2012-05-14"
  },
  {
    "place": "Bar49f35e1ef964a520946a1fe3",
    "time": "2012-05-15"
  },
  {
    "place": "Mediterranean Restaurant4ee160fce5fa204a5412e804",
    "time": "2012-05-15"
  },
  {
    "place": "Gym / Fitness Center4a426fc3f964a520dda51fe3",
    "time": "2012-05-15"
  },
  {
    "place": "Italian Restaurant4266ed00f964a52034211fe3",
    "time": "2012-05-16"
  },
  {
    "place": "Electronics Store4bf1b7b978cec92856bbba86",
    "time": "2012-05-16"
  },
  {
    "place": "Food & Drink Shop4d6d0aef8a4541bddd658ae5",
    "time": "2012-05-16"
  },
  {
    "place": "Drugstore / Pharmacy4b0c16c3f964a520ad3623e3",
    "time": "2012-05-16"
  },
  {
    "place": "Drugstore / Pharmacy4f4e451fe4b052b87bbe2ec2",
    "time": "2012-05-16"
  },
  {
    "place": "Gym / Fitness Center4a426fc3f964a520dda51fe3",
    "time": "2012-05-16"
  },
  {
    "place": "Sushi Restaurant4b32c6ccf964a520b51325e3",
    "time": "2012-05-16"
  },
  {
    "place": "Gym / Fitness Center4a426fc3f964a520dda51fe3",
    "time": "2012-05-17"
  },
  {
    "place": "Gym / Fitness Center4ac259d0f964a520ca9820e3",
    "time": "2012-05-18"
  },
  {
    "place": "Chinese Restaurant4a39688af964a520699f1fe3",
    "time": "2012-05-19"
  },
  {
    "place": "Clothing Store4aac4964f964a5204c5d20e3",
    "time": "2012-05-19"
  },
  {
    "place": "Food & Drink Shop49c27575f964a520f1551fe3",
    "time": "2012-05-19"
  },
  {
    "place": "Brewery3fd66200f964a52028e41ee3",
    "time": "2012-05-19"
  },
  {
    "place": "Pet Store4a5519d5f964a520adb31fe3",
    "time": "2012-05-19"
  },
  {
    "place": "Gym / Fitness Center4a426fc3f964a520dda51fe3",
    "time": "2012-05-21"
  },
  {
    "place": "Laundry Service4d3701f7e4b4a093d82e2936",
    "time": "2012-05-21"
  },
  {
    "place": "Bar49f35e1ef964a520946a1fe3",
    "time": "2012-05-22"
  },
  {
    "place": "Mediterranean Restaurant4ee160fce5fa204a5412e804",
    "time": "2012-05-22"
  },
  {
    "place": "Food & Drink Shop4d6d0aef8a4541bddd658ae5",
    "time": "2012-05-24"
  },
  {
    "place": "Drugstore / Pharmacy4f280555e4b04e256a110c94",
    "time": "2012-05-24"
  },
  {
    "place": "Bakery4cdf0646aba88cfa7a2946d7",
    "time": "2012-05-24"
  },
  {
    "place": "Food & Drink Shop4f2ad1fa6b74bfbf8bb98162",
    "time": "2012-05-25"
  },
  {
    "place": "Gym / Fitness Center4b69aef2f964a52058ad2be3",
    "time": "2012-05-26"
  },
  {
    "place": "Train Station4b0ae7cdf964a520ce2923e3",
    "time": "2012-05-26"
  },
  {
    "place": "Gym / Fitness Center4a426fc3f964a520dda51fe3",
    "time": "2012-05-27"
  },
  {
    "place": "Church4b649f18f964a520f4c22ae3",
    "time": "2012-05-27"
  },
  {
    "place": "Clothing Store4c13d7d482a3c9b68536fcf8",
    "time": "2012-05-27"
  },
  {
    "place": "Clothing Store4b620bdcf964a52055322ae3",
    "time": "2012-05-27"
  },
  {
    "place": "Bar423e0e80f964a52044201fe3",
    "time": "2012-05-27"
  },
  {
    "place": "Home (private)4d0550e37d9ba35d7a936a23",
    "time": "2012-05-29"
  },
  {
    "place": "Bar4f297e04a17c6fd5208ea108",
    "time": "2012-05-29"
  },
  {
    "place": "Medical Center4be806a8d837c9b62ec7a406",
    "time": "2012-05-29"
  },
  {
    "place": "Furniture / Home Store4a562c06f964a520a3b41fe3",
    "time": "2012-05-30"
  },
  {
    "place": "Food & Drink Shop4bf85bee508c0f476b693e31",
    "time": "2012-05-30"
  },
  {
    "place": "Bar49f35e1ef964a520946a1fe3",
    "time": "2012-05-30"
  },
  {
    "place": "Gym / Fitness Center4a426fc3f964a520dda51fe3",
    "time": "2012-05-31"
  },
  {
    "place": "Food & Drink Shop4d6d0aef8a4541bddd658ae5",
    "time": "2012-05-31"
  },
  {
    "place": "Food & Drink Shop4bf85bee508c0f476b693e31",
    "time": "2012-05-31"
  },
  {
    "place": "Flower Shop4c0662268f8fa593842df30d",
    "time": "2012-05-31"
  },
  {
    "place": "Drugstore / Pharmacy4b0c16c3f964a520ad3623e3",
    "time": "2012-05-31"
  },
  {
    "place": "Caf\u00c3\u00a94af2e1aaf964a520f2e821e3",
    "time": "2012-05-31"
  },
  {
    "place": "Laundry Service4d3701f7e4b4a093d82e2936",
    "time": "2012-05-31"
  },
  {
    "place": "Bakery4cdf0646aba88cfa7a2946d7",
    "time": "2012-05-31"
  },
  {
    "place": "Garden4a7317fdf964a5208fdb1fe3",
    "time": "2012-06-01"
  },
  {
    "place": "Bus Station4cc6eb13b2beb1f7d9142b4c",
    "time": "2012-06-03"
  },
  {
    "place": "Bus Station4f7ae114e4b06b9552a4f793",
    "time": "2012-06-03"
  },
  {
    "place": "Gym / Fitness Center4a6f77a1f964a5203ed61fe3",
    "time": "2012-06-03"
  },
  {
    "place": "Italian Restaurant4b64cc84f964a52001d12ae3",
    "time": "2012-06-03"
  },
  {
    "place": "Other Great Outdoors4b588a79f964a520e65c28e3",
    "time": "2012-06-03"
  },
  {
    "place": "Church4b649f18f964a520f4c22ae3",
    "time": "2012-06-03"
  },
  {
    "place": "Bakery4a5cc325f964a52089bc1fe3",
    "time": "2012-06-03"
  },
  {
    "place": "Gym / Fitness Center4a426fc3f964a520dda51fe3",
    "time": "2012-06-04"
  },
  {
    "place": "Hotel4b105163f964a520b26d23e3",
    "time": "2012-06-04"
  },
  {
    "place": "Coffee Shop4a5e9b4af964a520e4be1fe3",
    "time": "2012-06-04"
  },
  {
    "place": "Gym / Fitness Center4a426fc3f964a520dda51fe3",
    "time": "2012-06-06"
  },
  {
    "place": "Drugstore / Pharmacy4f4e451fe4b052b87bbe2ec2",
    "time": "2012-06-06"
  },
  {
    "place": "Food & Drink Shop4f2ad1fa6b74bfbf8bb98162",
    "time": "2012-06-06"
  },
  {
    "place": "Bank4b687d9af964a520ce7b2be3",
    "time": "2012-06-07"
  },
  {
    "place": "Gym / Fitness Center4a426fc3f964a520dda51fe3",
    "time": "2012-06-07"
  },
  {
    "place": "General College & University4593baa7f964a5204d401fe3",
    "time": "2012-06-08"
  },
  {
    "place": "Gym / Fitness Center4a426fc3f964a520dda51fe3",
    "time": "2012-06-08"
  },
  {
    "place": "Food & Drink Shop4d6d0aef8a4541bddd658ae5",
    "time": "2012-06-08"
  },
  {
    "place": "Food & Drink Shop4d6d0aef8a4541bddd658ae5",
    "time": "2012-06-09"
  },
  {
    "place": "Drugstore / Pharmacy4b0c16c3f964a520ad3623e3",
    "time": "2012-06-09"
  },
  {
    "place": "Bar49f35e1ef964a520946a1fe3",
    "time": "2012-06-10"
  },
  {
    "place": "Church4b649f18f964a520f4c22ae3",
    "time": "2012-06-10"
  },
  {
    "place": "Gym / Fitness Center4a426fc3f964a520dda51fe3",
    "time": "2012-06-11"
  },
  {
    "place": "French Restaurant4b5af975f964a520f8dc28e3",
    "time": "2012-06-13"
  },
  {
    "place": "Food & Drink Shop4d6d0aef8a4541bddd658ae5",
    "time": "2012-06-13"
  },
  {
    "place": "Drugstore / Pharmacy4b0c16c3f964a520ad3623e3",
    "time": "2012-06-13"
  },
  {
    "place": "Bar49f35e1ef964a520946a1fe3",
    "time": "2012-06-13"
  },
  {
    "place": "Movie Theater453cacc7f964a520153c1fe3",
    "time": "2012-06-16"
  },
  {
    "place": "Garden4a7317fdf964a5208fdb1fe3",
    "time": "2012-06-17"
  },
  {
    "place": "Church4b649f18f964a520f4c22ae3",
    "time": "2012-06-17"
  },
  {
    "place": "Bus Station4cbca639adcd5481da8e2fa2",
    "time": "2012-06-17"
  },
  {
    "place": "Office4bb39f2342959c74ff34222c",
    "time": "2012-06-17"
  },
  {
    "place": "Bar423e0e80f964a52044201fe3",
    "time": "2012-06-17"
  },
  {
    "place": "Other Great Outdoors4dfe315518a890a16709e377",
    "time": "2012-06-17"
  },
  {
    "place": "Gym / Fitness Center4a426fc3f964a520dda51fe3",
    "time": "2012-06-18"
  },
  {
    "place": "Church4aad1ec9f964a520935e20e3",
    "time": "2012-06-20"
  },
  {
    "place": "Bar49f35e1ef964a520946a1fe3",
    "time": "2012-06-21"
  },
  {
    "place": "Stadium3fd66200f964a520ddf01ee3",
    "time": "2012-06-27"
  },
  {
    "place": "Bar4f297e04a17c6fd5208ea108",
    "time": "2012-06-27"
  },
  {
    "place": "Gym / Fitness Center4a928e9df964a520281d20e3",
    "time": "2012-07-03"
  },
  {
    "place": "Medical Center4f2159c2e4b03871f8ef98ea",
    "time": "2012-07-03"
  },
  {
    "place": "Building43695300f964a5208c291fe3",
    "time": "2012-07-03"
  },
  {
    "place": "Gym / Fitness Center4a426fc3f964a520dda51fe3",
    "time": "2012-07-03"
  },
  {
    "place": "Food & Drink Shop4d6d0aef8a4541bddd658ae5",
    "time": "2012-07-03"
  },
  {
    "place": "Food & Drink Shop4bf85bee508c0f476b693e31",
    "time": "2012-07-03"
  },
  {
    "place": "Bar49f35e1ef964a520946a1fe3",
    "time": "2012-07-04"
  },
  {
    "place": "Pizza Place4b41a1e9f964a520f8c725e3",
    "time": "2012-07-04"
  },
  {
    "place": "Bar3fd66200f964a520dfe71ee3",
    "time": "2012-07-04"
  },
  {
    "place": "Coffee Shop4acd23d9f964a5200acb20e3",
    "time": "2012-07-04"
  },
  {
    "place": "Food & Drink Shop4d6d0aef8a4541bddd658ae5",
    "time": "2012-07-04"
  },
  {
    "place": "Drugstore / Pharmacy4f280555e4b04e256a110c94",
    "time": "2012-07-04"
  },
  {
    "place": "Food & Drink Shop4d6d0aef8a4541bddd658ae5",
    "time": "2012-07-05"
  },
  {
    "place": "Drugstore / Pharmacy4b0c16c3f964a520ad3623e3",
    "time": "2012-07-05"
  },
  {
    "place": "Flower Shop4c0662268f8fa593842df30d",
    "time": "2012-07-05"
  },
  {
    "place": "Gym / Fitness Center4a426fc3f964a520dda51fe3",
    "time": "2012-07-06"
  },
  {
    "place": "Food & Drink Shop4d6d0aef8a4541bddd658ae5",
    "time": "2012-07-07"
  },
  {
    "place": "Food & Drink Shop4bf85bee508c0f476b693e31",
    "time": "2012-07-07"
  },
  {
    "place": "Bus Station4c82e18051ada1cda3392110",
    "time": "2012-08-05"
  },
  {
    "place": "Bar4c0a8e98340720a15f9e8693",
    "time": "2012-09-12"
  },
  {
    "place": "Arts & Entertainment4deeba4045dd29e2688ed059",
    "time": "2012-09-12"
  },
  {
    "place": "Food4f4470e819836ed001941ebe",
    "time": "2012-09-15"
  },
  {
    "place": "Medical Center4be806a8d837c9b62ec7a406",
    "time": "2012-09-15"
  },
  {
    "place": "Library4ac2529ef964a520b69820e3",
    "time": "2012-09-15"
  },
  {
    "place": "Food & Drink Shop4d9e3afc52aca143a194d79e",
    "time": "2012-09-15"
  },
  {
    "place": "Bar45396895f964a520d73b1fe3",
    "time": "2012-09-15"
  },
  {
    "place": "Cosmetics Shop49d92c3df964a5200e5e1fe3",
    "time": "2012-09-15"
  },
  {
    "place": "Food & Drink Shop4d6d0aef8a4541bddd658ae5",
    "time": "2012-09-16"
  },
  {
    "place": "Food & Drink Shop4bf85bee508c0f476b693e31",
    "time": "2012-09-16"
  },
  {
    "place": "Home (private)4bf7175713aed13a6cceeaf7",
    "time": "2012-09-16"
  },
  {
    "place": "Bank4cc1eaf5c844721e2d23d901",
    "time": "2012-10-03"
  },
  {
    "place": "Flower Shop4c0662268f8fa593842df30d",
    "time": "2012-10-11"
  },
  {
    "place": "Food & Drink Shop4bf85bee508c0f476b693e31",
    "time": "2012-10-11"
  },
  {
    "place": "Bar49f35e1ef964a520946a1fe3",
    "time": "2012-10-11"
  },
  {
    "place": "Bus Station4c82e18051ada1cda3392110",
    "time": "2012-10-11"
  },
  {
    "place": "Food4f4470e819836ed001941ebe",
    "time": "2012-10-11"
  },
  {
    "place": "Theater4ad5056bf964a520510121e3",
    "time": "2012-10-11"
  },
  {
    "place": "Theater503808d8e4b0bb3209269e5a",
    "time": "2012-10-11"
  },
  {
    "place": "French Restaurant4b2c0753f964a520f2bf24e3",
    "time": "2012-10-12"
  },
  {
    "place": "Home (private)4bf7175713aed13a6cceeaf7",
    "time": "2012-10-12"
  },
  {
    "place": "Food & Drink Shop4d6d0aef8a4541bddd658ae5",
    "time": "2012-10-12"
  },
  {
    "place": "Food & Drink Shop4bf85bee508c0f476b693e31",
    "time": "2012-10-12"
  },
  {
    "place": "Bar49f35e1ef964a520946a1fe3",
    "time": "2012-10-13"
  },
  {
    "place": "General Travel4eac1017991107f63cd7ab34",
    "time": "2012-10-18"
  },
  {
    "place": "Flower Shop4c0662268f8fa593842df30d",
    "time": "2012-10-18"
  },
  {
    "place": "Gym / Fitness Center4a426fc3f964a520dda51fe3",
    "time": "2012-10-18"
  },
  {
    "place": "Event Space4c02d74d9a7920a10412cf79",
    "time": "2012-10-19"
  },
  {
    "place": "Bar46e53f29f964a520b74a1fe3",
    "time": "2012-10-19"
  },
  {
    "place": "Home (private)4bf7175713aed13a6cceeaf7",
    "time": "2012-10-22"
  },
  {
    "place": "Furniture / Home Store4fda4138e4b01e4711f1f7b5",
    "time": "2012-10-22"
  },
  {
    "place": "Bakery4cdf0646aba88cfa7a2946d7",
    "time": "2012-10-22"
  },
  {
    "place": "Gym / Fitness Center4a426fc3f964a520dda51fe3",
    "time": "2012-10-23"
  },
  {
    "place": "Food & Drink Shop4d6d0aef8a4541bddd658ae5",
    "time": "2012-10-24"
  },
  {
    "place": "Bar49f35e1ef964a520946a1fe3",
    "time": "2012-10-24"
  },
  {
    "place": "Food & Drink Shop4bf85bee508c0f476b693e31",
    "time": "2012-10-24"
  },
  {
    "place": "Bank4b8fc1dbf964a5209f6033e3",
    "time": "2012-10-24"
  },
  {
    "place": "Art Gallery4c5dc59c2815c92853d9b567",
    "time": "2012-10-24"
  },
  {
    "place": "Mediterranean Restaurant4a4792a1f964a520d7a91fe3",
    "time": "2012-10-25"
  },
  {
    "place": "Government Building4b214c87f964a520c73924e3",
    "time": "2012-10-25"
  },
  {
    "place": "Theater4a084b2bf964a520ab731fe3",
    "time": "2012-10-25"
  },
  {
    "place": "Gym / Fitness Center45938647f964a52045401fe3",
    "time": "2012-10-26"
  },
  {
    "place": "Italian Restaurant4a85f5dbf964a520d2ff1fe3",
    "time": "2012-10-26"
  },
  {
    "place": "Home (private)4bf7175713aed13a6cceeaf7",
    "time": "2012-10-26"
  },
  {
    "place": "Office4df104d57d8ba370a011fe73",
    "time": "2012-10-26"
  },
  {
    "place": "Office4cbe0f8b00d837049f003b5c",
    "time": "2012-10-26"
  },
  {
    "place": "Theater47b58034f964a520ac4d1fe3",
    "time": "2012-10-26"
  },
  {
    "place": "French Restaurant4b2c0753f964a520f2bf24e3",
    "time": "2012-10-27"
  },
  {
    "place": "Office4b9ffda2f964a5206c5037e3",
    "time": "2012-10-27"
  },
  {
    "place": "Gym / Fitness Center4a426fc3f964a520dda51fe3",
    "time": "2012-10-27"
  },
  {
    "place": "Bar49f35e1ef964a520946a1fe3",
    "time": "2012-10-27"
  },
  {
    "place": "Bar4a99fad0f964a520503120e3",
    "time": "2012-10-27"
  },
  {
    "place": "Church4b649f18f964a520f4c22ae3",
    "time": "2012-10-28"
  },
  {
    "place": "Restaurant4f09d945c2ee103d7a2911c4",
    "time": "2012-10-28"
  },
  {
    "place": "Other Great Outdoors508af9ccf13627e878935855",
    "time": "2012-10-28"
  },
  {
    "place": "Bar4a99fad0f964a520503120e3",
    "time": "2012-10-28"
  },
  {
    "place": "Bar4bc39cd3abf495216305c493",
    "time": "2012-10-28"
  },
  {
    "place": "Bar4a99fad0f964a520503120e3",
    "time": "2012-10-31"
  },
  {
    "place": "Bar4a99fad0f964a520503120e3",
    "time": "2012-11-01"
  },
  {
    "place": "Bar4bc39cd3abf495216305c493",
    "time": "2012-11-01"
  },
  {
    "place": "Coffee Shop4f5e82dae4b01989c438cbb6",
    "time": "2012-11-01"
  },
  {
    "place": "Gym / Fitness Center4a426fc3f964a520dda51fe3",
    "time": "2012-11-01"
  },
  {
    "place": "Sushi Restaurant4b32c6ccf964a520b51325e3",
    "time": "2012-11-02"
  },
  {
    "place": "Furniture / Home Store4a562c06f964a520a3b41fe3",
    "time": "2012-11-05"
  },
  {
    "place": "Gym / Fitness Center4b2046fbf964a520da2f24e3",
    "time": "2012-11-06"
  },
  {
    "place": "Drugstore / Pharmacy4b0c16c3f964a520ad3623e3",
    "time": "2012-11-06"
  },
  {
    "place": "Food & Drink Shop4bf85bee508c0f476b693e31",
    "time": "2012-11-06"
  },
  {
    "place": "Home (private)4bf7175713aed13a6cceeaf7",
    "time": "2012-11-06"
  },
  {
    "place": "Gym / Fitness Center4a426fc3f964a520dda51fe3",
    "time": "2012-11-06"
  },
  {
    "place": "Gym / Fitness Center4a426fc3f964a520dda51fe3",
    "time": "2012-11-07"
  },
  {
    "place": "Furniture / Home Store4a562c06f964a520a3b41fe3",
    "time": "2012-11-09"
  },
  {
    "place": "Food & Drink Shop4d6d0aef8a4541bddd658ae5",
    "time": "2012-11-10"
  },
  {
    "place": "Gluten-free Restaurant4cbde136f50e224b302b07fc",
    "time": "2012-11-10"
  },
  {
    "place": "Concert Hall4b9ecc58f964a520bc0237e3",
    "time": "2012-11-10"
  },
  {
    "place": "Church4b649f18f964a520f4c22ae3",
    "time": "2012-11-11"
  },
  {
    "place": "Food & Drink Shop4bf85bee508c0f476b693e31",
    "time": "2012-11-11"
  },
  {
    "place": "Bar49f8f8a2f964a520446d1fe3",
    "time": "2012-11-12"
  },
  {
    "place": "Bar3fd66200f964a52006e81ee3",
    "time": "2012-11-12"
  },
  {
    "place": "Hotel428d2880f964a520b5231fe3",
    "time": "2012-11-12"
  },
  {
    "place": "Event Space4e430539b3ad9c237e8734bd",
    "time": "2012-11-12"
  },
  {
    "place": "Office4b83ed22f964a520f81631e3",
    "time": "2012-11-12"
  },
  {
    "place": "Office4a9c58faf964a520e13620e3",
    "time": "2012-11-12"
  },
  {
    "place": "Food & Drink Shop4bf85bee508c0f476b693e31",
    "time": "2012-11-12"
  },
  {
    "place": "Food & Drink Shop4d6d0aef8a4541bddd658ae5",
    "time": "2012-11-13"
  },
  {
    "place": "General College & University4593baa7f964a5204d401fe3",
    "time": "2012-11-16"
  },
  {
    "place": "Bar44412e54f964a52042321fe3",
    "time": "2012-11-16"
  },
  {
    "place": "Food & Drink Shop4bf85bee508c0f476b693e31",
    "time": "2012-11-16"
  },
  {
    "place": "Salon / Barbershop4adff9c1f964a5200a7e21e3",
    "time": "2012-11-17"
  },
  {
    "place": "Gym / Fitness Center4a426fc3f964a520dda51fe3",
    "time": "2012-11-17"
  },
  {
    "place": "College Academic Building4a265d52f964a520aa7e1fe3",
    "time": "2012-11-17"
  },
  {
    "place": "Bar3fd66200f964a520c9e41ee3",
    "time": "2012-11-17"
  },
  {
    "place": "Coffee Shop4e9d9e599a5262f9812fed9e",
    "time": "2012-11-17"
  },
  {
    "place": "Art Museum4750accef964a520b24c1fe3",
    "time": "2012-11-17"
  },
  {
    "place": "Dim Sum Restaurant49f220a3f964a520ee691fe3",
    "time": "2012-11-17"
  },
  {
    "place": "Garden4a7317fdf964a5208fdb1fe3",
    "time": "2012-11-18"
  },
  {
    "place": "Church4b649f18f964a520f4c22ae3",
    "time": "2012-11-18"
  },
  {
    "place": "Coffee Shop49ef714cf964a520b6681fe3",
    "time": "2012-11-19"
  },
  {
    "place": "Home (private)4bf7175713aed13a6cceeaf7",
    "time": "2012-11-19"
  },
  {
    "place": "Gym / Fitness Center4a426fc3f964a520dda51fe3",
    "time": "2012-11-20"
  },
  {
    "place": "Gym / Fitness Center4a6f67e3f964a52018d61fe3",
    "time": "2012-11-20"
  },
  {
    "place": "Food & Drink Shop4d6d0aef8a4541bddd658ae5",
    "time": "2012-11-20"
  },
  {
    "place": "Sculpture Garden4da0b6bab521224bf7cee3ed",
    "time": "2012-11-20"
  },
  {
    "place": "Flower Shop4c0662268f8fa593842df30d",
    "time": "2012-11-20"
  },
  {
    "place": "Hardware Store4c87b6feb231b60c8dbf1bec",
    "time": "2012-11-20"
  },
  {
    "place": "Food4f4470e819836ed001941ebe",
    "time": "2012-11-21"
  },
  {
    "place": "Drugstore / Pharmacy4b0c16c3f964a520ad3623e3",
    "time": "2012-11-21"
  },
  {
    "place": "Bakery4df806b662847bdf4feb392f",
    "time": "2012-11-21"
  },
  {
    "place": "Elementary School5008338ae4b0fa0125f2638e",
    "time": "2012-11-21"
  },
  {
    "place": "Deli / Bodega4c22b66cfbe5c9b6596b9a21",
    "time": "2012-11-21"
  },
  {
    "place": "Food & Drink Shop4d6d0aef8a4541bddd658ae5",
    "time": "2012-11-22"
  },
  {
    "place": "Medical Center4a973fdbf964a520162920e3",
    "time": "2012-11-22"
  },
  {
    "place": "Athletic & Sport4a2477bef964a520257e1fe3",
    "time": "2012-11-22"
  },
  {
    "place": "Hardware Store4c16b6f66470a5938b4657d2",
    "time": "2012-11-22"
  },
  {
    "place": "Church4b649f18f964a520f4c22ae3",
    "time": "2012-11-22"
  },
  {
    "place": "Other Great Outdoors50abeb91e4b04d7b173c0466",
    "time": "2012-11-22"
  },
  {
    "place": "Gym / Fitness Center4a426fc3f964a520dda51fe3",
    "time": "2012-11-22"
  },
  {
    "place": "Bus Station4c82e18051ada1cda3392110",
    "time": "2012-11-22"
  },
  {
    "place": "Furniture / Home Store4a562c06f964a520a3b41fe3",
    "time": "2012-11-22"
  },
  {
    "place": "General College & University436bf600f964a520b2291fe3",
    "time": "2012-11-22"
  },
  {
    "place": "Building4a2f1365f964a520a5981fe3",
    "time": "2012-11-24"
  },
  {
    "place": "French Restaurant3fd66200f964a520cbe91ee3",
    "time": "2012-11-24"
  },
  {
    "place": "Food & Drink Shop4bf85bee508c0f476b693e31",
    "time": "2012-11-26"
  },
  {
    "place": "Department Store4576ddcaf964a520ac3e1fe3",
    "time": "2012-11-26"
  }
]