[
  {
    "place": "Office4bfe777ce529c928955bbc8c",
    "time": "2012-04-04"
  },
  {
    "place": "Office4bfe777ce529c928955bbc8c",
    "time": "2012-04-05"
  },
  {
    "place": "Southern / Soul Food Restaurant4ca90a0cb7106dcb20d078a5",
    "time": "2012-04-08"
  },
  {
    "place": "Office4bfe777ce529c928955bbc8c",
    "time": "2012-04-09"
  },
  {
    "place": "Food & Drink Shop459390c2f964a52046401fe3",
    "time": "2012-04-09"
  },
  {
    "place": "Laundry Service4e386be58877541e90ef8bb5",
    "time": "2012-04-10"
  },
  {
    "place": "Office4bfe777ce529c928955bbc8c",
    "time": "2012-04-11"
  },
  {
    "place": "Office4bfe777ce529c928955bbc8c",
    "time": "2012-04-12"
  },
  {
    "place": "Office4bfe777ce529c928955bbc8c",
    "time": "2012-04-16"
  },
  {
    "place": "Bar4b2332c7f964a520525424e3",
    "time": "2012-04-16"
  },
  {
    "place": "Office4bfe777ce529c928955bbc8c",
    "time": "2012-04-17"
  },
  {
    "place": "Office4bfe777ce529c928955bbc8c",
    "time": "2012-04-19"
  },
  {
    "place": "Office4bfe777ce529c928955bbc8c",
    "time": "2012-04-20"
  },
  {
    "place": "Southern / Soul Food Restaurant3fd66200f964a52066e81ee3",
    "time": "2012-04-20"
  },
  {
    "place": "Arts & Crafts Store4c28fccc3492a5931f3cb828",
    "time": "2012-04-20"
  },
  {
    "place": "Diner49f773aaf964a520a26c1fe3",
    "time": "2012-04-21"
  },
  {
    "place": "Airport4ace6c89f964a52078d020e3",
    "time": "2012-04-23"
  },
  {
    "place": "Airport4ace6c89f964a52078d020e3",
    "time": "2012-04-28"
  },
  {
    "place": "Office4bfe777ce529c928955bbc8c",
    "time": "2012-05-02"
  },
  {
    "place": "Office4bfe777ce529c928955bbc8c",
    "time": "2012-05-03"
  },
  {
    "place": "Laundry Service4e386be58877541e90ef8bb5",
    "time": "2012-05-03"
  },
  {
    "place": "Office4bfe777ce529c928955bbc8c",
    "time": "2012-05-04"
  },
  {
    "place": "Office4bfe777ce529c928955bbc8c",
    "time": "2012-05-07"
  },
  {
    "place": "Office4bfe777ce529c928955bbc8c",
    "time": "2012-05-09"
  },
  {
    "place": "Office4bfe777ce529c928955bbc8c",
    "time": "2012-05-11"
  },
  {
    "place": "Movie Theater43a72ba0f964a520672c1fe3",
    "time": "2012-05-12"
  },
  {
    "place": "Asian Restaurant40cf8d80f964a52033011fe3",
    "time": "2012-05-12"
  },
  {
    "place": "Office4bfe777ce529c928955bbc8c",
    "time": "2012-05-14"
  },
  {
    "place": "Office4bfe777ce529c928955bbc8c",
    "time": "2012-05-17"
  },
  {
    "place": "Office4bfe777ce529c928955bbc8c",
    "time": "2012-05-18"
  },
  {
    "place": "General Entertainment4dce9685b0fb25f6e346e31a",
    "time": "2012-05-19"
  },
  {
    "place": "Office4bfe777ce529c928955bbc8c",
    "time": "2012-05-22"
  },
  {
    "place": "Office4bfe777ce529c928955bbc8c",
    "time": "2012-05-25"
  },
  {
    "place": "Clothing Store4e4d5ab11f6e4ff50fe10c75",
    "time": "2012-05-28"
  },
  {
    "place": "Movie Theater4b105534f964a5200a6e23e3",
    "time": "2012-05-28"
  },
  {
    "place": "Office4bfe777ce529c928955bbc8c",
    "time": "2012-05-29"
  },
  {
    "place": "Sandwich Place4a720b8ef964a52036da1fe3",
    "time": "2012-06-01"
  },
  {
    "place": "American Restaurant49f12981f964a52094691fe3",
    "time": "2012-06-03"
  },
  {
    "place": "Office4bfe777ce529c928955bbc8c",
    "time": "2012-06-04"
  },
  {
    "place": "Office4bfe777ce529c928955bbc8c",
    "time": "2012-06-05"
  },
  {
    "place": "Food4f3251d419836c91c7cc1386",
    "time": "2012-06-09"
  },
  {
    "place": "Clothing Store4bbd18daa8cf76b07669b1fd",
    "time": "2012-06-10"
  },
  {
    "place": "Clothing Store4e4d5ab11f6e4ff50fe10c75",
    "time": "2012-06-10"
  },
  {
    "place": "Office4bfe777ce529c928955bbc8c",
    "time": "2012-06-11"
  },
  {
    "place": "Office4bfe777ce529c928955bbc8c",
    "time": "2012-06-13"
  },
  {
    "place": "Miscellaneous Shop4bf5888d0c74c9b640431828",
    "time": "2012-06-13"
  },
  {
    "place": "Clothing Store4c13d7d482a3c9b68536fcf8",
    "time": "2012-06-13"
  },
  {
    "place": "Pizza Place4adc0161f964a520492b21e3",
    "time": "2012-06-13"
  },
  {
    "place": "Office4bfe777ce529c928955bbc8c",
    "time": "2012-06-15"
  },
  {
    "place": "Restaurant4c47899e89a6c9b6c9a89a88",
    "time": "2012-06-17"
  },
  {
    "place": "Office4bfe777ce529c928955bbc8c",
    "time": "2012-06-18"
  },
  {
    "place": "Clothing Store4c13d7d482a3c9b68536fcf8",
    "time": "2012-06-18"
  },
  {
    "place": "Seafood Restaurant46e5231af964a520b54a1fe3",
    "time": "2012-06-20"
  },
  {
    "place": "Office4bfe777ce529c928955bbc8c",
    "time": "2012-06-21"
  },
  {
    "place": "Office4bfe777ce529c928955bbc8c",
    "time": "2012-06-25"
  },
  {
    "place": "Post Office4afdbc27f964a5205d2a22e3",
    "time": "2012-06-26"
  },
  {
    "place": "Movie Theater4b105534f964a5200a6e23e3",
    "time": "2012-06-26"
  },
  {
    "place": "Mexican Restaurant4e7e11a28b8195460574f16f",
    "time": "2012-07-02"
  },
  {
    "place": "Clothing Store4c0aef58a1b32d7f6f489af0",
    "time": "2012-07-02"
  },
  {
    "place": "Clothing Store4e4d5ab11f6e4ff50fe10c75",
    "time": "2012-07-02"
  },
  {
    "place": "Bar4a5e99bff964a520e2be1fe3",
    "time": "2012-07-03"
  },
  {
    "place": "Movie Theater4b105534f964a5200a6e23e3",
    "time": "2012-07-04"
  },
  {
    "place": "Office4bfe777ce529c928955bbc8c",
    "time": "2012-07-05"
  },
  {
    "place": "Public Art4be55bbcbcef2d7f52ae03e5",
    "time": "2012-07-05"
  },
  {
    "place": "Laundry Service4e386be58877541e90ef8bb5",
    "time": "2012-07-05"
  },
  {
    "place": "Office4bfe777ce529c928955bbc8c",
    "time": "2012-07-06"
  },
  {
    "place": "Automotive Shop4ede136f61af8a14ba9e629b",
    "time": "2012-07-07"
  },
  {
    "place": "Office4bfe777ce529c928955bbc8c",
    "time": "2012-07-09"
  },
  {
    "place": "Public Art4be55bbcbcef2d7f52ae03e5",
    "time": "2012-07-09"
  },
  {
    "place": "Office4bfe777ce529c928955bbc8c",
    "time": "2012-07-12"
  },
  {
    "place": "Deli / Bodega4b6caa11f964a520754a2ce3",
    "time": "2012-07-12"
  },
  {
    "place": "Cosmetics Shop4ca4dd56750ca093e6182567",
    "time": "2012-07-12"
  },
  {
    "place": "Electronics Store4bf1c48999d02d7f5487c948",
    "time": "2012-07-12"
  },
  {
    "place": "Southern / Soul Food Restaurant4d12b5be80f6721e86dd19eb",
    "time": "2012-07-12"
  },
  {
    "place": "Airport43a52546f964a520532c1fe3",
    "time": "2012-07-13"
  },
  {
    "place": "Airport49c046f1f964a5205b551fe3",
    "time": "2012-07-13"
  },
  {
    "place": "Airport43a52546f964a520532c1fe3",
    "time": "2012-07-21"
  },
  {
    "place": "Office4bfe777ce529c928955bbc8c",
    "time": "2012-07-24"
  },
  {
    "place": "Pizza Place500440efe4b09da8b0fb8756",
    "time": "2012-07-29"
  },
  {
    "place": "Food & Drink Shop4bf0977724f020a12c50684f",
    "time": "2012-07-29"
  },
  {
    "place": "Wings Joint49fa42e7f964a520e26d1fe3",
    "time": "2012-07-29"
  },
  {
    "place": "Movie Theater4b4a486bf964a520368226e3",
    "time": "2012-07-29"
  },
  {
    "place": "Office4bfe777ce529c928955bbc8c",
    "time": "2012-07-30"
  },
  {
    "place": "Office4bfe777ce529c928955bbc8c",
    "time": "2012-08-09"
  },
  {
    "place": "Clothing Store4afef80ef964a520403222e3",
    "time": "2012-08-09"
  },
  {
    "place": "Pizza Place4c72e57c8efc37046b30147d",
    "time": "2012-08-09"
  },
  {
    "place": "Deli / Bodega4b054500f964a5208f5722e3",
    "time": "2012-08-10"
  },
  {
    "place": "BBQ Joint427ff980f964a520b7211fe3",
    "time": "2012-08-11"
  },
  {
    "place": "Toy / Game Store4caf9c2a1168a0934fb32323",
    "time": "2012-08-13"
  },
  {
    "place": "Bookstore4b34535ef964a520052725e3",
    "time": "2012-08-13"
  },
  {
    "place": "Pizza Place4c72e57c8efc37046b30147d",
    "time": "2012-08-16"
  },
  {
    "place": "Food & Drink Shop4bea48bca9900f47d1641640",
    "time": "2012-08-20"
  },
  {
    "place": "Food & Drink Shop4bea48bca9900f47d1641640",
    "time": "2012-08-18"
  },
  {
    "place": "Pizza Place4c72e57c8efc37046b30147d",
    "time": "2012-08-18"
  },
  {
    "place": "Clothing Store4da9a4ea8154abafc29839b4",
    "time": "2012-09-09"
  },
  {
    "place": "Office4bfe777ce529c928955bbc8c",
    "time": "2012-09-13"
  },
  {
    "place": "Office4bfe777ce529c928955bbc8c",
    "time": "2012-09-14"
  },
  {
    "place": "Burger Joint4edcf3dea17c4dbad1071e53",
    "time": "2012-09-14"
  },
  {
    "place": "Food & Drink Shop4bea48bca9900f47d1641640",
    "time": "2012-09-15"
  },
  {
    "place": "Other Great Outdoors4c321eaea0ced13a499a146e",
    "time": "2012-09-15"
  },
  {
    "place": "Office4bfe777ce529c928955bbc8c",
    "time": "2012-10-19"
  },
  {
    "place": "Pizza Place4adc0161f964a520492b21e3",
    "time": "2012-10-19"
  },
  {
    "place": "Office4bfe777ce529c928955bbc8c",
    "time": "2012-10-25"
  },
  {
    "place": "Office4bfe777ce529c928955bbc8c",
    "time": "2012-10-26"
  },
  {
    "place": "Pizza Place4b6f201bf964a520b8de2ce3",
    "time": "2012-10-26"
  },
  {
    "place": "Zoo4492ad65f964a52075341fe3",
    "time": "2012-10-27"
  },
  {
    "place": "Food & Drink Shop4bc5bc8b5935c9b6a843a6d2",
    "time": "2012-10-31"
  },
  {
    "place": "Fast Food Restaurant4bc256eb920eb713cd1b1c2c",
    "time": "2012-10-31"
  },
  {
    "place": "Office4bfe777ce529c928955bbc8c",
    "time": "2012-11-02"
  },
  {
    "place": "Office4bfe777ce529c928955bbc8c",
    "time": "2012-11-09"
  },
  {
    "place": "Toy / Game Store4caf9c2a1168a0934fb32323",
    "time": "2012-11-10"
  },
  {
    "place": "Office4bfe777ce529c928955bbc8c",
    "time": "2012-11-12"
  },
  {
    "place": "Movie Theater4baeb44cf964a5208bd03be3",
    "time": "2012-11-17"
  },
  {
    "place": "Office4bfe777ce529c928955bbc8c",
    "time": "2012-11-20"
  },
  {
    "place": "Office4bfe777ce529c928955bbc8c",
    "time": "2012-11-21"
  },
  {
    "place": "Toy / Game Store4caf9c2a1168a0934fb32323",
    "time": "2012-11-21"
  },
  {
    "place": "Movie Theater4b105534f964a5200a6e23e3",
    "time": "2012-11-26"
  },
  {
    "place": "Office4bfe777ce529c928955bbc8c",
    "time": "2012-11-27"
  },
  {
    "place": "Department Store41102700f964a520d60b1fe3",
    "time": "2012-11-28"
  },
  {
    "place": "Mall4e8dfaade5facbf444a3f306",
    "time": "2012-12-02"
  },
  {
    "place": "Medical Center4b903833f964a5200f7d33e3",
    "time": "2012-12-04"
  },
  {
    "place": "Mall4ef39fd8e300e92b9f16d700",
    "time": "2012-12-04"
  },
  {
    "place": "Office4bfe777ce529c928955bbc8c",
    "time": "2012-12-05"
  },
  {
    "place": "Post Office4ba2ba98f964a520231438e3",
    "time": "2012-12-08"
  },
  {
    "place": "Food & Drink Shop4dc4bb17b0fb5556ccdf9306",
    "time": "2012-12-09"
  },
  {
    "place": "Sandwich Place4a720b8ef964a52036da1fe3",
    "time": "2012-12-10"
  },
  {
    "place": "Office4bfe777ce529c928955bbc8c",
    "time": "2012-12-11"
  },
  {
    "place": "Clothing Store4b1aa7c9f964a52081ee23e3",
    "time": "2012-12-11"
  },
  {
    "place": "Clothing Store4c38b5e093db0f4764102292",
    "time": "2012-12-11"
  },
  {
    "place": "Office4bfe777ce529c928955bbc8c",
    "time": "2012-12-14"
  },
  {
    "place": "Food Truck4a19d1edf964a5205a7a1fe3",
    "time": "2012-12-14"
  },
  {
    "place": "Bar50ccf34be4b0c7697142e19f",
    "time": "2012-12-15"
  },
  {
    "place": "Office4bfe777ce529c928955bbc8c",
    "time": "2012-12-17"
  },
  {
    "place": "Paper / Office Supplies Store4b8e9538f964a520232a33e3",
    "time": "2012-12-18"
  },
  {
    "place": "Drugstore / Pharmacy4c9f6aed7c096dcbb71dded1",
    "time": "2012-12-18"
  },
  {
    "place": "Office4bfe777ce529c928955bbc8c",
    "time": "2012-12-19"
  },
  {
    "place": "Fast Food Restaurant4b517d12f964a5203f4e27e3",
    "time": "2012-12-19"
  },
  {
    "place": "Clothing Store4b1aa7c9f964a52081ee23e3",
    "time": "2012-12-19"
  },
  {
    "place": "Electronics Store4b6f2ac9f964a52072e12ce3",
    "time": "2012-12-19"
  },
  {
    "place": "Bookstore4b34535ef964a520052725e3",
    "time": "2012-12-19"
  },
  {
    "place": "Office4bfe777ce529c928955bbc8c",
    "time": "2012-12-21"
  },
  {
    "place": "Candy Store4bb13b17f964a52092853ce3",
    "time": "2012-12-21"
  },
  {
    "place": "Bookstore4b34535ef964a520052725e3",
    "time": "2012-12-30"
  },
  {
    "place": "Sandwich Place4a720b8ef964a52036da1fe3",
    "time": "2012-12-31"
  },
  {
    "place": "Office4bfe777ce529c928955bbc8c",
    "time": "2013-01-04"
  },
  {
    "place": "Toy / Game Store4caf9c2a1168a0934fb32323",
    "time": "2013-01-05"
  },
  {
    "place": "Automotive Shop4c938e0194a0236a25298412",
    "time": "2013-01-06"
  },
  {
    "place": "Furniture / Home Store4dc6afe6fa76d685cdff74b7",
    "time": "2013-01-06"
  },
  {
    "place": "Ice Cream Shop4c44cfd8dcd61b8db7de7b56",
    "time": "2013-01-08"
  },
  {
    "place": "Office4bfe777ce529c928955bbc8c",
    "time": "2013-01-10"
  },
  {
    "place": "Pizza Place4c72e57c8efc37046b30147d",
    "time": "2013-01-25"
  },
  {
    "place": "American Restaurant4ac18d7ff964a5207a9720e3",
    "time": "2013-01-27"
  },
  {
    "place": "Office4bfe777ce529c928955bbc8c",
    "time": "2013-01-28"
  },
  {
    "place": "Deli / Bodega4b6caa11f964a520754a2ce3",
    "time": "2013-01-28"
  },
  {
    "place": "Food & Drink Shop4bea48bca9900f47d1641640",
    "time": "2013-01-29"
  },
  {
    "place": "Office4bfe777ce529c928955bbc8c",
    "time": "2013-01-30"
  },
  {
    "place": "Office4bfe777ce529c928955bbc8c",
    "time": "2013-01-31"
  },
  {
    "place": "Office4bfe777ce529c928955bbc8c",
    "time": "2013-02-01"
  },
  {
    "place": "Clothing Store4c432da23735be9ada061ba4",
    "time": "2013-02-01"
  },
  {
    "place": "Food & Drink Shop50a1590100cab279dee0de41",
    "time": "2013-02-01"
  },
  {
    "place": "Food & Drink Shop4dc4bb17b0fb5556ccdf9306",
    "time": "2013-02-02"
  },
  {
    "place": "Office4dd51ba5183859a589b1da58",
    "time": "2013-02-05"
  },
  {
    "place": "Office4dd51ba5183859a589b1da58",
    "time": "2013-02-07"
  },
  {
    "place": "Sandwich Place4a720b8ef964a52036da1fe3",
    "time": "2013-02-08"
  },
  {
    "place": "Fast Food Restaurant4c7ede131009a09349d1454e",
    "time": "2013-02-10"
  },
  {
    "place": "Food & Drink Shop4bea48bca9900f47d1641640",
    "time": "2013-02-10"
  },
  {
    "place": "Food & Drink Shop4ba2bc52f964a520cb1438e3",
    "time": "2013-02-10"
  },
  {
    "place": "Office4bfe777ce529c928955bbc8c",
    "time": "2013-02-11"
  },
  {
    "place": "Office4bfe777ce529c928955bbc8c",
    "time": "2013-02-12"
  },
  {
    "place": "Bar4a5e99bff964a520e2be1fe3",
    "time": "2013-02-12"
  }
]