[
  {
    "place": "Coffee Shop4e4c36afbd41b9fca431795e",
    "time": "2012-04-12"
  },
  {
    "place": "Historic Site4b6b5abff964a520fb022ce3",
    "time": "2012-04-13"
  },
  {
    "place": "Bar4a81c42ff964a52084f71fe3",
    "time": "2012-04-18"
  },
  {
    "place": "Mexican Restaurant3fd66200f964a5204de71ee3",
    "time": "2012-04-22"
  },
  {
    "place": "Home (private)4e3b522852b1a04afefc6e88",
    "time": "2012-05-02"
  },
  {
    "place": "Scenic Lookout4c04104458dad13aeb344897",
    "time": "2012-05-07"
  },
  {
    "place": "Home (private)4e3b522852b1a04afefc6e88",
    "time": "2012-05-11"
  },
  {
    "place": "Office4b460a39f964a520b81426e3",
    "time": "2012-05-11"
  },
  {
    "place": "Bar4a859ca3f964a520a5fe1fe3",
    "time": "2012-05-12"
  },
  {
    "place": "Italian Restaurant4dcf2a3288778512440b7a9c",
    "time": "2012-05-12"
  },
  {
    "place": "Italian Restaurant4dcf2a3288778512440b7a9c",
    "time": "2012-05-12"
  },
  {
    "place": "Italian Restaurant4dcf2a3288778512440b7a9c",
    "time": "2012-05-12"
  },
  {
    "place": "Asian Restaurant4baa5573f964a52022603ae3",
    "time": "2012-05-15"
  },
  {
    "place": "Pizza Place4db8b56d6a2334682d9952c3",
    "time": "2012-05-16"
  },
  {
    "place": "Sporting Goods Shop4b929d37f964a520ef0934e3",
    "time": "2012-05-17"
  },
  {
    "place": "Vegetarian / Vegan Restaurant4ec2b15e722e1441c63d5cc5",
    "time": "2012-05-17"
  },
  {
    "place": "Office44802b64f964a5200a341fe3",
    "time": "2012-05-18"
  },
  {
    "place": "Gas Station / Garage4b152407f964a520a7a823e3",
    "time": "2012-05-19"
  },
  {
    "place": "Bus Station4ae634e0f964a5209ba521e3",
    "time": "2012-05-21"
  },
  {
    "place": "Bus Station4ae634e0f964a5209ba521e3",
    "time": "2012-05-22"
  },
  {
    "place": "Sushi Restaurant49c5558cf964a520f6561fe3",
    "time": "2012-05-24"
  },
  {
    "place": "Indian Restaurant4eea3c05f79057ab3ff677eb",
    "time": "2012-05-26"
  },
  {
    "place": "Indian Restaurant4eea3c05f79057ab3ff677eb",
    "time": "2012-05-29"
  },
  {
    "place": "Office44802b64f964a5200a341fe3",
    "time": "2012-05-29"
  },
  {
    "place": "Sandwich Place4bef1089d1b7d13acd46cdec",
    "time": "2012-05-31"
  },
  {
    "place": "Airport4ace6c89f964a52078d020e3",
    "time": "2012-06-09"
  },
  {
    "place": "Home (private)4e3b522852b1a04afefc6e88",
    "time": "2012-06-10"
  },
  {
    "place": "Office44802b64f964a5200a341fe3",
    "time": "2012-06-11"
  },
  {
    "place": "Sandwich Place4bef1089d1b7d13acd46cdec",
    "time": "2012-06-11"
  },
  {
    "place": "Italian Restaurant4d0122e21ebe6dcb3d918b91",
    "time": "2012-06-11"
  },
  {
    "place": "Bus Station4ae634e0f964a5209ba521e3",
    "time": "2012-06-13"
  },
  {
    "place": "Bar4ad12d69f964a52046dd20e3",
    "time": "2012-06-13"
  },
  {
    "place": "Indian Restaurant4eea3c05f79057ab3ff677eb",
    "time": "2012-06-16"
  },
  {
    "place": "Mexican Restaurant4e972a527bebee95ad73a290",
    "time": "2012-06-17"
  },
  {
    "place": "Mexican Restaurant4e055891fa767637fd1db8e7",
    "time": "2012-06-18"
  },
  {
    "place": "Airport4ace6c89f964a52078d020e3",
    "time": "2012-06-20"
  },
  {
    "place": "Office44802b64f964a5200a341fe3",
    "time": "2012-06-26"
  },
  {
    "place": "Home (private)4e3b522852b1a04afefc6e88",
    "time": "2012-07-02"
  },
  {
    "place": "Burger Joint4a737c98f964a52095dc1fe3",
    "time": "2012-07-03"
  },
  {
    "place": "Home (private)4e3b522852b1a04afefc6e88",
    "time": "2012-07-10"
  },
  {
    "place": "Bus Station4ae634e0f964a5209ba521e3",
    "time": "2012-07-11"
  },
  {
    "place": "Office44802b64f964a5200a341fe3",
    "time": "2012-07-12"
  },
  {
    "place": "Office4bcda7a4511f9521a6e6b4c7",
    "time": "2012-07-12"
  },
  {
    "place": "BBQ Joint4a84a143f964a52028fd1fe3",
    "time": "2012-07-12"
  },
  {
    "place": "Beer Garden4de1b34ec65b7a3e2109e46f",
    "time": "2012-07-13"
  },
  {
    "place": "Bus Station4ae634e0f964a5209ba521e3",
    "time": "2012-07-13"
  },
  {
    "place": "Stadium3fd66200f964a520ddf01ee3",
    "time": "2012-07-15"
  },
  {
    "place": "Bus Station4ae634e0f964a5209ba521e3",
    "time": "2012-07-17"
  },
  {
    "place": "Office4bcda7a4511f9521a6e6b4c7",
    "time": "2012-07-17"
  },
  {
    "place": "Bus Station4ae634e0f964a5209ba521e3",
    "time": "2012-07-18"
  },
  {
    "place": "Office44802b64f964a5200a341fe3",
    "time": "2012-07-18"
  },
  {
    "place": "Office4bcda7a4511f9521a6e6b4c7",
    "time": "2012-07-18"
  },
  {
    "place": "Airport4ace6c89f964a52078d020e3",
    "time": "2012-07-18"
  },
  {
    "place": "Home (private)4e3b522852b1a04afefc6e88",
    "time": "2012-07-20"
  },
  {
    "place": "Office44802b64f964a5200a341fe3",
    "time": "2012-07-24"
  },
  {
    "place": "Bus Station4fc4ad44e4b066035cb213e0",
    "time": "2012-10-08"
  },
  {
    "place": "Home (private)4e3b522852b1a04afefc6e88",
    "time": "2012-10-12"
  },
  {
    "place": "Japanese Restaurant4c9d89017ada199cf0a493bc",
    "time": "2012-10-16"
  },
  {
    "place": "Sporting Goods Shop4a6e2923f964a52010d41fe3",
    "time": "2012-10-18"
  },
  {
    "place": "Bus Station4df641a852b100c2d8038658",
    "time": "2012-10-18"
  },
  {
    "place": "Athletic & Sport507dfa05e4b08e32fc0e4529",
    "time": "2012-10-19"
  },
  {
    "place": "Office44802b64f964a5200a341fe3",
    "time": "2012-10-22"
  },
  {
    "place": "Bus Station4b1ac0c3f964a52003f123e3",
    "time": "2012-10-26"
  },
  {
    "place": "Department Store4c34d4e46f1fef3b6ff1ec3d",
    "time": "2012-10-27"
  },
  {
    "place": "Video Game Store4c4e0d87f53d0f47826bf2a5",
    "time": "2012-10-27"
  },
  {
    "place": "Clothing Store4c4e0993fb742d7f70e4ac2d",
    "time": "2012-10-27"
  },
  {
    "place": "Food & Drink Shop4afcad9ff964a520052522e3",
    "time": "2012-10-27"
  },
  {
    "place": "Residential Building (Apartment / Condo)5053bb6ae4b01eeee52961b8",
    "time": "2012-10-28"
  },
  {
    "place": "Home (private)4e3b522852b1a04afefc6e88",
    "time": "2012-11-02"
  },
  {
    "place": "Bank4bfac7984a67c92892be28cf",
    "time": "2012-11-05"
  },
  {
    "place": "Home (private)4e3b522852b1a04afefc6e88",
    "time": "2012-11-06"
  },
  {
    "place": "Home (private)4e3b522852b1a04afefc6e88",
    "time": "2012-11-15"
  },
  {
    "place": "Bakery4a06f82df964a52010731fe3",
    "time": "2012-11-17"
  },
  {
    "place": "Bakery4a06f82df964a52010731fe3",
    "time": "2012-11-17"
  },
  {
    "place": "Office44802b64f964a5200a341fe3",
    "time": "2012-11-19"
  },
  {
    "place": "Neighborhood4c7fc79ed860b60c8ad9619d",
    "time": "2012-11-20"
  },
  {
    "place": "Mexican Restaurant3fd66200f964a5204de71ee3",
    "time": "2012-11-24"
  },
  {
    "place": "Office44802b64f964a5200a341fe3",
    "time": "2012-11-27"
  },
  {
    "place": "Sandwich Place4b6718a9f964a520353a2be3",
    "time": "2012-11-27"
  },
  {
    "place": "Bank4bfac7984a67c92892be28cf",
    "time": "2012-11-27"
  },
  {
    "place": "Furniture / Home Store4a562c06f964a520a3b41fe3",
    "time": "2012-11-28"
  },
  {
    "place": "Indian Restaurant4eea3c05f79057ab3ff677eb",
    "time": "2012-11-28"
  },
  {
    "place": "Sandwich Place4b6718a9f964a520353a2be3",
    "time": "2012-11-28"
  },
  {
    "place": "Caribbean Restaurant509f9fa2e4b0df8f7f8bf62b",
    "time": "2012-11-30"
  },
  {
    "place": "Athletic & Sport507dfa05e4b08e32fc0e4529",
    "time": "2012-12-01"
  },
  {
    "place": "Coffee Shop4ad205d0f964a520e3de20e3",
    "time": "2012-12-01"
  },
  {
    "place": "Bus Station4df641a852b100c2d8038658",
    "time": "2012-12-05"
  },
  {
    "place": "Hardware Store4a34038ef964a520929b1fe3",
    "time": "2012-12-05"
  },
  {
    "place": "Bus Station4c17f8be1436a59304a58c75",
    "time": "2012-12-06"
  },
  {
    "place": "Deli / Bodega4c5f62d01e5cd13a3c919fed",
    "time": "2012-12-09"
  },
  {
    "place": "Home (private)4e3b522852b1a04afefc6e88",
    "time": "2012-12-10"
  },
  {
    "place": "Sandwich Place4b6718a9f964a520353a2be3",
    "time": "2012-12-10"
  },
  {
    "place": "Office44802b64f964a5200a341fe3",
    "time": "2012-12-11"
  },
  {
    "place": "Theater5076fc53ebcab4316c37a830",
    "time": "2012-12-22"
  },
  {
    "place": "Bar4d97e39c0caaa1435aad9fb3",
    "time": "2012-12-22"
  },
  {
    "place": "Mediterranean Restaurant4a4792a1f964a520d7a91fe3",
    "time": "2012-12-23"
  },
  {
    "place": "Department Store41102700f964a520d60b1fe3",
    "time": "2012-12-29"
  },
  {
    "place": "Mexican Restaurant3fd66200f964a5204de71ee3",
    "time": "2012-12-29"
  },
  {
    "place": "Office44802b64f964a5200a341fe3",
    "time": "2013-01-02"
  },
  {
    "place": "Bus Station4c72ea8413228cfaa0602c65",
    "time": "2013-01-04"
  },
  {
    "place": "Bar50244fd2e4b0119b30effd06",
    "time": "2013-01-04"
  },
  {
    "place": "Athletic & Sport507dfa05e4b08e32fc0e4529",
    "time": "2013-01-06"
  },
  {
    "place": "Office44802b64f964a5200a341fe3",
    "time": "2013-01-07"
  },
  {
    "place": "Residential Building (Apartment / Condo)5053bb6ae4b01eeee52961b8",
    "time": "2013-01-12"
  },
  {
    "place": "Indian Restaurant4eea3c05f79057ab3ff677eb",
    "time": "2013-01-15"
  },
  {
    "place": "Office44802b64f964a5200a341fe3",
    "time": "2013-01-17"
  },
  {
    "place": "Event Space4babe83bf964a5202fd43ae3",
    "time": "2013-01-25"
  },
  {
    "place": "Home (private)4e3b522852b1a04afefc6e88",
    "time": "2013-01-26"
  },
  {
    "place": "Food & Drink Shop4e18c6f6d4c062b044ebf5d8",
    "time": "2013-01-26"
  },
  {
    "place": "Sandwich Place4b6718a9f964a520353a2be3",
    "time": "2013-01-29"
  },
  {
    "place": "Italian Restaurant49b7aefcf964a5202d531fe3",
    "time": "2013-01-30"
  },
  {
    "place": "Home (private)4e3b522852b1a04afefc6e88",
    "time": "2013-02-14"
  }
]