[
  {
    "place": "Breakfast Spot4c87d60a0dcb8cfa6c543e68",
    "time": "2012-04-03"
  },
  {
    "place": "Church4dd2834eb0fb0becaf99d85c",
    "time": "2012-04-04"
  },
  {
    "place": "Home (private)4e95b0b129c275d2ab04f0e2",
    "time": "2012-04-04"
  },
  {
    "place": "Church4dd2834eb0fb0becaf99d85c",
    "time": "2012-04-07"
  },
  {
    "place": "Home (private)4dd815df45ddced82097c83c",
    "time": "2012-04-07"
  },
  {
    "place": "Home (private)4dd815df45ddced82097c83c",
    "time": "2012-04-08"
  },
  {
    "place": "Church4dd2834eb0fb0becaf99d85c",
    "time": "2012-04-08"
  },
  {
    "place": "Medical Center4f8323b9e4b0c7b857b42526",
    "time": "2012-04-09"
  },
  {
    "place": "Government Building4de2946d45dd180ae549f53f",
    "time": "2012-04-09"
  },
  {
    "place": "Playground4c3a8c185810a5936e60b93c",
    "time": "2012-04-09"
  },
  {
    "place": "Sandwich Place4b7b4ad9f964a520da5c2fe3",
    "time": "2012-04-10"
  },
  {
    "place": "Government Building4de2946d45dd180ae549f53f",
    "time": "2012-04-10"
  },
  {
    "place": "Gas Station / Garage4d6e924d6458721e1ca62f20",
    "time": "2012-04-11"
  },
  {
    "place": "Gastropub4e4a9427b61c6886485c0b73",
    "time": "2012-04-12"
  },
  {
    "place": "Church4dd2834eb0fb0becaf99d85c",
    "time": "2012-04-13"
  },
  {
    "place": "Food & Drink Shop4bd0aa76caff9521a44bcff0",
    "time": "2012-04-13"
  },
  {
    "place": "Chinese Restaurant4bd0e52877b29c7433c38b82",
    "time": "2012-04-14"
  },
  {
    "place": "Performing Arts Venue4c4f611bf47476b067e548bd",
    "time": "2012-04-14"
  },
  {
    "place": "Church4d6a85d3de28224bccad50be",
    "time": "2012-04-15"
  },
  {
    "place": "Government Building4de2946d45dd180ae549f53f",
    "time": "2012-04-15"
  },
  {
    "place": "Church4dd2834eb0fb0becaf99d85c",
    "time": "2012-04-16"
  },
  {
    "place": "Sandwich Place4b7b4ad9f964a520da5c2fe3",
    "time": "2012-04-17"
  },
  {
    "place": "Post Office4c447d1e429a0f4706c9481e",
    "time": "2012-04-17"
  },
  {
    "place": "Sandwich Place4b7b4ad9f964a520da5c2fe3",
    "time": "2012-04-17"
  },
  {
    "place": "Church4dd2834eb0fb0becaf99d85c",
    "time": "2012-04-17"
  },
  {
    "place": "Church4dd2834eb0fb0becaf99d85c",
    "time": "2012-04-18"
  },
  {
    "place": "Church4dd2834eb0fb0becaf99d85c",
    "time": "2012-04-18"
  },
  {
    "place": "Diner4b12ff73f964a5205e9223e3",
    "time": "2012-04-18"
  },
  {
    "place": "Church4dd2834eb0fb0becaf99d85c",
    "time": "2012-04-18"
  },
  {
    "place": "Breakfast Spot4c87d60a0dcb8cfa6c543e68",
    "time": "2012-04-19"
  },
  {
    "place": "Church4dd2834eb0fb0becaf99d85c",
    "time": "2012-04-20"
  },
  {
    "place": "Miscellaneous Shop4ba38df2f964a520e04638e3",
    "time": "2012-04-20"
  },
  {
    "place": "Drugstore / Pharmacy4b5b78b4f964a520c40029e3",
    "time": "2012-04-20"
  },
  {
    "place": "Home (private)4dd815df45ddced82097c83c",
    "time": "2012-04-21"
  },
  {
    "place": "Home (private)4dd815df45ddced82097c83c",
    "time": "2012-04-21"
  },
  {
    "place": "Church4dd2834eb0fb0becaf99d85c",
    "time": "2012-04-22"
  },
  {
    "place": "Home (private)4f945f28e4b0ab5f0ab3f3b7",
    "time": "2012-04-22"
  },
  {
    "place": "Gastropub4e4a9427b61c6886485c0b73",
    "time": "2012-04-23"
  },
  {
    "place": "Sandwich Place4b7b4ad9f964a520da5c2fe3",
    "time": "2012-04-24"
  },
  {
    "place": "Drugstore / Pharmacy4b5b78b4f964a520c40029e3",
    "time": "2012-04-24"
  },
  {
    "place": "Church4dd2834eb0fb0becaf99d85c",
    "time": "2012-04-24"
  },
  {
    "place": "Home (private)4dd815df45ddced82097c83c",
    "time": "2012-04-24"
  },
  {
    "place": "Coffee Shop4b53be6ef964a520fba927e3",
    "time": "2012-04-27"
  },
  {
    "place": "Train Station4c682a71607ad13a90c9a72b",
    "time": "2012-04-27"
  },
  {
    "place": "Bus Station4ee4f90b490141636a554090",
    "time": "2012-04-28"
  },
  {
    "place": "Bus Station4f44229fe4b0b62885436c38",
    "time": "2012-04-28"
  },
  {
    "place": "Bus Station4af609c9f964a520770022e3",
    "time": "2012-04-28"
  },
  {
    "place": "Bus Station4f2d30ede4b0dbffdbf14488",
    "time": "2012-04-28"
  },
  {
    "place": "Bus Station4e3db0911495bf24a5deb184",
    "time": "2012-04-28"
  },
  {
    "place": "Diner4a897cb1f964a5201f0820e3",
    "time": "2012-04-28"
  },
  {
    "place": "Park4bba756698c7ef3bd8253302",
    "time": "2012-04-28"
  },
  {
    "place": "Park4bd2f53841b9ef3b9aeefee5",
    "time": "2012-04-28"
  },
  {
    "place": "Church4dd2834eb0fb0becaf99d85c",
    "time": "2012-04-28"
  },
  {
    "place": "Church4dd2834eb0fb0becaf99d85c",
    "time": "2012-04-29"
  },
  {
    "place": "Medical Center4e37eefaae6076788f186f1b",
    "time": "2012-04-29"
  },
  {
    "place": "Church4dd2834eb0fb0becaf99d85c",
    "time": "2012-05-01"
  },
  {
    "place": "Diner4b12ff73f964a5205e9223e3",
    "time": "2012-05-01"
  },
  {
    "place": "Church4dd2834eb0fb0becaf99d85c",
    "time": "2012-05-01"
  },
  {
    "place": "Fast Food Restaurant4c9675a158d4b60c1d453b29",
    "time": "2012-05-04"
  },
  {
    "place": "Home (private)4dd815df45ddced82097c83c",
    "time": "2012-05-05"
  },
  {
    "place": "Church4dd2834eb0fb0becaf99d85c",
    "time": "2012-05-05"
  },
  {
    "place": "Burger Joint4b7ffc10f964a520a74830e3",
    "time": "2012-05-05"
  },
  {
    "place": "Home (private)4dd815df45ddced82097c83c",
    "time": "2012-05-05"
  },
  {
    "place": "Church4c43b298f799e21e5be8aca2",
    "time": "2012-05-05"
  },
  {
    "place": "Sandwich Place4b7b4ad9f964a520da5c2fe3",
    "time": "2012-05-08"
  },
  {
    "place": "Church4bf87daa5317a5934bf7ff7e",
    "time": "2012-05-08"
  },
  {
    "place": "Diner4b12ff73f964a5205e9223e3",
    "time": "2012-05-08"
  },
  {
    "place": "Breakfast Spot4c87d60a0dcb8cfa6c543e68",
    "time": "2012-05-08"
  },
  {
    "place": "Government Building4de2946d45dd180ae549f53f",
    "time": "2012-05-09"
  },
  {
    "place": "Spiritual Center4e15e38c8877cd571211f40e",
    "time": "2012-05-10"
  },
  {
    "place": "Fast Food Restaurant4c9675a158d4b60c1d453b29",
    "time": "2012-05-10"
  },
  {
    "place": "Home (private)4dd815df45ddced82097c83c",
    "time": "2012-05-10"
  },
  {
    "place": "Church4dd2834eb0fb0becaf99d85c",
    "time": "2012-05-11"
  },
  {
    "place": "Mall4bbd05d34e069c74813f9ee3",
    "time": "2012-05-11"
  },
  {
    "place": "Salon / Barbershop4bdc65cfafe8c9b6563a4f85",
    "time": "2012-05-11"
  },
  {
    "place": "Medical Center4bc47b7074a9a59346d8d5f6",
    "time": "2012-05-11"
  },
  {
    "place": "Home (private)4dd815df45ddced82097c83c",
    "time": "2012-05-11"
  },
  {
    "place": "Church4dd2834eb0fb0becaf99d85c",
    "time": "2012-05-13"
  },
  {
    "place": "Home (private)4f945f28e4b0ab5f0ab3f3b7",
    "time": "2012-05-13"
  },
  {
    "place": "Sandwich Place4b7b4ad9f964a520da5c2fe3",
    "time": "2012-05-13"
  },
  {
    "place": "Office4cd050f87f56a1430f59cda6",
    "time": "2012-05-13"
  },
  {
    "place": "Government Building4de2946d45dd180ae549f53f",
    "time": "2012-05-21"
  },
  {
    "place": "Sandwich Place4b7b4ad9f964a520da5c2fe3",
    "time": "2012-05-22"
  },
  {
    "place": "Home (private)4dd815df45ddced82097c83c",
    "time": "2012-05-24"
  },
  {
    "place": "Gastropub4e4a9427b61c6886485c0b73",
    "time": "2012-05-25"
  },
  {
    "place": "Home (private)4dd815df45ddced82097c83c",
    "time": "2012-05-26"
  },
  {
    "place": "Church4dd2834eb0fb0becaf99d85c",
    "time": "2012-05-27"
  },
  {
    "place": "Home (private)4dd815df45ddced82097c83c",
    "time": "2012-05-27"
  },
  {
    "place": "Medical Center4e37eefaae6076788f186f1b",
    "time": "2012-05-27"
  },
  {
    "place": "Home (private)4dd815df45ddced82097c83c",
    "time": "2012-05-27"
  },
  {
    "place": "Church4d45961d1ed56dcb0a92bc54",
    "time": "2012-05-28"
  },
  {
    "place": "Government Building4de2946d45dd180ae549f53f",
    "time": "2012-05-28"
  },
  {
    "place": "School4e5bfd1288775cde7b3edcc1",
    "time": "2012-05-28"
  },
  {
    "place": "Government Building4de2946d45dd180ae549f53f",
    "time": "2012-05-28"
  },
  {
    "place": "Building4e96dd3de5fa60039ed9d3af",
    "time": "2012-05-28"
  },
  {
    "place": "Church4dd2834eb0fb0becaf99d85c",
    "time": "2012-06-03"
  },
  {
    "place": "Bank4de9ea2318386283a3d70945",
    "time": "2012-06-03"
  },
  {
    "place": "Medical Center4c64456d39732d7f964cd4fe",
    "time": "2012-06-03"
  },
  {
    "place": "Home (private)4dd815df45ddced82097c83c",
    "time": "2012-06-03"
  },
  {
    "place": "Medical Center4c2d18507d85a593a70752f3",
    "time": "2012-06-04"
  },
  {
    "place": "Gas Station / Garage4dce8e3eb0fb25f6e345f93f",
    "time": "2012-06-04"
  },
  {
    "place": "Government Building4de2946d45dd180ae549f53f",
    "time": "2012-06-04"
  },
  {
    "place": "Park4bf4802be5eba5931bc61f90",
    "time": "2012-06-04"
  },
  {
    "place": "Sandwich Place4b7b4ad9f964a520da5c2fe3",
    "time": "2012-06-05"
  },
  {
    "place": "Church4dd2834eb0fb0becaf99d85c",
    "time": "2012-06-05"
  },
  {
    "place": "School4dee773918385379de5cef9d",
    "time": "2012-06-05"
  },
  {
    "place": "Church4d9e41f19e138cfaf306789b",
    "time": "2012-06-05"
  },
  {
    "place": "Home (private)4e95b0b129c275d2ab04f0e2",
    "time": "2012-06-06"
  },
  {
    "place": "Post Office4d23843314f2b1f7f8af66be",
    "time": "2012-06-06"
  },
  {
    "place": "Medical Center4c2d18507d85a593a70752f3",
    "time": "2012-06-06"
  },
  {
    "place": "Home (private)4dd815df45ddced82097c83c",
    "time": "2012-06-06"
  },
  {
    "place": "Spiritual Center4e15e38c8877cd571211f40e",
    "time": "2012-06-07"
  },
  {
    "place": "Government Building4bd5803a4e32d13a7be0c080",
    "time": "2012-06-07"
  },
  {
    "place": "Medical Center4c2d18507d85a593a70752f3",
    "time": "2012-06-08"
  },
  {
    "place": "Home (private)4dd815df45ddced82097c83c",
    "time": "2012-06-09"
  },
  {
    "place": "Mall4a07ac6af964a5208f731fe3",
    "time": "2012-06-09"
  },
  {
    "place": "Mall4d7aa4c0e8b7a1cd60a89b1f",
    "time": "2012-06-09"
  },
  {
    "place": "Home (private)4dd815df45ddced82097c83c",
    "time": "2012-06-09"
  },
  {
    "place": "Church4dd2834eb0fb0becaf99d85c",
    "time": "2012-06-10"
  },
  {
    "place": "Seafood Restaurant4b527d99f964a520a87f27e3",
    "time": "2012-06-10"
  },
  {
    "place": "Medical Center4c2d18507d85a593a70752f3",
    "time": "2012-06-11"
  },
  {
    "place": "Hardware Store4bd0ed4c77b29c748ad88b82",
    "time": "2012-06-11"
  },
  {
    "place": "Post Office4ccb104e54f0b1f7ed080dca",
    "time": "2012-06-11"
  },
  {
    "place": "Food & Drink Shop4b4e4b71f964a5206de826e3",
    "time": "2012-06-11"
  },
  {
    "place": "Sandwich Place4b7b4ad9f964a520da5c2fe3",
    "time": "2012-06-12"
  },
  {
    "place": "Government Building4de2946d45dd180ae549f53f",
    "time": "2012-10-27"
  },
  {
    "place": "Food & Drink Shop4dfd3f7bd22d879302f8533e",
    "time": "2012-10-27"
  },
  {
    "place": "Church4dd2834eb0fb0becaf99d85c",
    "time": "2012-10-28"
  },
  {
    "place": "Medical Center4e37eefaae6076788f186f1b",
    "time": "2012-10-28"
  },
  {
    "place": "Government Building4de2946d45dd180ae549f53f",
    "time": "2012-10-30"
  },
  {
    "place": "Other Great Outdoors508af9ccf13627e878935855",
    "time": "2012-10-30"
  },
  {
    "place": "Church4dd2834eb0fb0becaf99d85c",
    "time": "2012-11-02"
  },
  {
    "place": "Convention Center4b60d221f964a52082fb29e3",
    "time": "2012-11-02"
  },
  {
    "place": "Medical Center4b9e3d22f964a5203bd436e3",
    "time": "2012-11-05"
  },
  {
    "place": "Sandwich Place4b7b4ad9f964a520da5c2fe3",
    "time": "2012-11-06"
  },
  {
    "place": "Parking4e471e34887781a619b51264",
    "time": "2012-11-09"
  },
  {
    "place": "Clothing Store4c0a9121bbc676b0cf0c4ad5",
    "time": "2012-11-09"
  },
  {
    "place": "Seafood Restaurant4b42a10ef964a520cdd725e3",
    "time": "2012-11-09"
  },
  {
    "place": "Gift Shop4c89684b52a98cfa46a123e9",
    "time": "2012-11-09"
  },
  {
    "place": "Convention Center4b60d221f964a52082fb29e3",
    "time": "2012-11-12"
  },
  {
    "place": "Drugstore / Pharmacy4b5b78b4f964a520c40029e3",
    "time": "2012-11-12"
  },
  {
    "place": "Medical Center4ee8bb7d722e123494cd194f",
    "time": "2012-11-12"
  },
  {
    "place": "Food & Drink Shop4b4e4b71f964a5206de826e3",
    "time": "2012-11-12"
  },
  {
    "place": "Government Building4de2946d45dd180ae549f53f",
    "time": "2012-11-12"
  },
  {
    "place": "Sandwich Place4b7b4ad9f964a520da5c2fe3",
    "time": "2012-11-13"
  },
  {
    "place": "Home (private)4dd815df45ddced82097c83c",
    "time": "2012-11-14"
  },
  {
    "place": "Convention Center4b60d221f964a52082fb29e3",
    "time": "2012-11-14"
  },
  {
    "place": "Government Building4cdd958678ddf04d4d389598",
    "time": "2012-11-15"
  },
  {
    "place": "Clothing Store4c0a9121bbc676b0cf0c4ad5",
    "time": "2012-11-15"
  },
  {
    "place": "Hotel4bb17433f964a52089943ce3",
    "time": "2012-11-15"
  },
  {
    "place": "Diner4b12ff73f964a5205e9223e3",
    "time": "2012-11-15"
  },
  {
    "place": "Airport4b3cd805f964a520218825e3",
    "time": "2012-11-16"
  },
  {
    "place": "Church4dd2834eb0fb0becaf99d85c",
    "time": "2012-11-16"
  },
  {
    "place": "Church4dd2834eb0fb0becaf99d85c",
    "time": "2012-11-16"
  },
  {
    "place": "Church4dd2834eb0fb0becaf99d85c",
    "time": "2012-11-17"
  },
  {
    "place": "American Restaurant4c1224c4f1e0b713d36a34bc",
    "time": "2012-11-17"
  },
  {
    "place": "Church4dd2834eb0fb0becaf99d85c",
    "time": "2012-11-17"
  },
  {
    "place": "Home (private)50575af6e4b01ef823471d06",
    "time": "2012-11-17"
  },
  {
    "place": "Church4dd2834eb0fb0becaf99d85c",
    "time": "2012-11-17"
  },
  {
    "place": "Home (private)4dd815df45ddced82097c83c",
    "time": "2012-11-18"
  },
  {
    "place": "Government Building4df2e5336284fefe8fc0aa5c",
    "time": "2012-11-18"
  },
  {
    "place": "Home (private)4dd815df45ddced82097c83c",
    "time": "2012-11-18"
  },
  {
    "place": "Clothing Store4c0a9121bbc676b0cf0c4ad5",
    "time": "2012-11-19"
  },
  {
    "place": "Sandwich Place4b7b4ad9f964a520da5c2fe3",
    "time": "2012-11-20"
  },
  {
    "place": "American Restaurant4f720dcbe4b04c3d16f0896e",
    "time": "2012-11-20"
  },
  {
    "place": "Office4cd050f87f56a1430f59cda6",
    "time": "2012-11-21"
  },
  {
    "place": "Gas Station / Garage4bcb10b5937ca593d4c8a892",
    "time": "2012-11-24"
  },
  {
    "place": "Church4dd2834eb0fb0becaf99d85c",
    "time": "2012-11-25"
  },
  {
    "place": "Church4dd2834eb0fb0becaf99d85c",
    "time": "2012-11-26"
  },
  {
    "place": "Convention Center4b60d221f964a52082fb29e3",
    "time": "2012-11-26"
  },
  {
    "place": "Medical Center4c2d18507d85a593a70752f3",
    "time": "2012-11-26"
  },
  {
    "place": "Fast Food Restaurant4b8aa534f964a520437732e3",
    "time": "2012-11-26"
  },
  {
    "place": "Medical Center4ee8bb7d722e123494cd194f",
    "time": "2012-11-26"
  },
  {
    "place": "Government Building4de2946d45dd180ae549f53f",
    "time": "2012-11-27"
  },
  {
    "place": "Sandwich Place4b7b4ad9f964a520da5c2fe3",
    "time": "2012-11-27"
  },
  {
    "place": "Home (private)4e95b0b129c275d2ab04f0e2",
    "time": "2012-11-28"
  },
  {
    "place": "Convention Center4b60d221f964a52082fb29e3",
    "time": "2012-11-28"
  },
  {
    "place": "Food & Drink Shop4b899cb4f964a520224632e3",
    "time": "2012-11-30"
  },
  {
    "place": "Church4dd2834eb0fb0becaf99d85c",
    "time": "2012-12-01"
  },
  {
    "place": "Home (private)4dd815df45ddced82097c83c",
    "time": "2012-12-02"
  },
  {
    "place": "Home (private)4dd815df45ddced82097c83c",
    "time": "2012-12-03"
  },
  {
    "place": "American Restaurant4c1224c4f1e0b713d36a34bc",
    "time": "2012-12-04"
  },
  {
    "place": "Drugstore / Pharmacy4b5b78b4f964a520c40029e3",
    "time": "2012-12-04"
  },
  {
    "place": "Convention Center4b60d221f964a52082fb29e3",
    "time": "2012-12-05"
  },
  {
    "place": "Home (private)4e95b0b129c275d2ab04f0e2",
    "time": "2012-12-05"
  },
  {
    "place": "Home (private)4dd815df45ddced82097c83c",
    "time": "2012-12-06"
  },
  {
    "place": "Home (private)5048d26fe4b0d6e661f6976f",
    "time": "2012-12-06"
  },
  {
    "place": "American Restaurant4f720dcbe4b04c3d16f0896e",
    "time": "2012-12-09"
  },
  {
    "place": "Church4dd2834eb0fb0becaf99d85c",
    "time": "2012-12-09"
  },
  {
    "place": "Home (private)50575af6e4b01ef823471d06",
    "time": "2012-12-09"
  },
  {
    "place": "Medical Center4ee8bb7d722e123494cd194f",
    "time": "2012-12-10"
  },
  {
    "place": "Hardware Store4b9cf2c6f964a5203b8436e3",
    "time": "2012-12-11"
  },
  {
    "place": "Gas Station / Garage4bcb10b5937ca593d4c8a892",
    "time": "2012-12-11"
  },
  {
    "place": "Office4cd050f87f56a1430f59cda6",
    "time": "2012-12-11"
  },
  {
    "place": "Home (private)50575af6e4b01ef823471d06",
    "time": "2012-12-12"
  },
  {
    "place": "Home (private)50575af6e4b01ef823471d06",
    "time": "2012-12-14"
  },
  {
    "place": "Food & Drink Shop4b4e4b71f964a5206de826e3",
    "time": "2012-12-15"
  },
  {
    "place": "Church4dd2834eb0fb0becaf99d85c",
    "time": "2012-12-16"
  },
  {
    "place": "Church4dd2834eb0fb0becaf99d85c",
    "time": "2012-12-16"
  },
  {
    "place": "Convention Center4b60d221f964a52082fb29e3",
    "time": "2012-12-17"
  },
  {
    "place": "Mall4a991c59f964a520662d20e3",
    "time": "2012-12-17"
  },
  {
    "place": "Sandwich Place4b7b4ad9f964a520da5c2fe3",
    "time": "2012-12-18"
  },
  {
    "place": "Food & Drink Shop4b42a69ff964a52043d825e3",
    "time": "2012-12-18"
  },
  {
    "place": "Home (private)4e95b0b129c275d2ab04f0e2",
    "time": "2012-12-19"
  },
  {
    "place": "Medical Center4bc47b7074a9a59346d8d5f6",
    "time": "2012-12-21"
  },
  {
    "place": "Department Store4b5e70e7f964a520d08e29e3",
    "time": "2012-12-21"
  },
  {
    "place": "Clothing Store4ee37170e4b04d23dfe6fd68",
    "time": "2012-12-21"
  },
  {
    "place": "Mall4a991c59f964a520662d20e3",
    "time": "2012-12-21"
  },
  {
    "place": "Clothing Store4c589d4bd3aee21ea8466655",
    "time": "2012-12-21"
  },
  {
    "place": "Burger Joint506b1775e4b06f77ec53e726",
    "time": "2012-12-21"
  },
  {
    "place": "Electronics Store4be5bd27910020a15369d314",
    "time": "2012-12-21"
  },
  {
    "place": "Electronics Store4c65509694160f4738022f17",
    "time": "2012-12-21"
  },
  {
    "place": "Food & Drink Shop4dfd3f7bd22d879302f8533e",
    "time": "2012-12-21"
  },
  {
    "place": "Home (private)4dd815df45ddced82097c83c",
    "time": "2012-12-22"
  },
  {
    "place": "Post Office4d23843314f2b1f7f8af66be",
    "time": "2012-12-27"
  },
  {
    "place": "Drugstore / Pharmacy4b5b7914f964a520e50029e3",
    "time": "2012-12-27"
  },
  {
    "place": "Movie Theater4c39fe351e06d13ad3797a3e",
    "time": "2012-12-28"
  },
  {
    "place": "Medical Center4e37eefaae6076788f186f1b",
    "time": "2012-12-30"
  },
  {
    "place": "Greek Restaurant4c5c7c656147be9a0b6a8f09",
    "time": "2012-12-31"
  },
  {
    "place": "Food & Drink Shop4b4e4b71f964a5206de826e3",
    "time": "2013-01-02"
  },
  {
    "place": "Home (private)4e95b0b129c275d2ab04f0e2",
    "time": "2013-01-02"
  },
  {
    "place": "Bar4bcb76b1cc8cd13a8479bfcf",
    "time": "2013-01-04"
  },
  {
    "place": "Furniture / Home Store4a8ff4acf964a520b71520e3",
    "time": "2013-01-04"
  },
  {
    "place": "Medical Center4f2d5390e4b05a84d7bd7f6c",
    "time": "2013-01-05"
  },
  {
    "place": "Food & Drink Shop4b8dbfb2f964a520d90b33e3",
    "time": "2013-01-05"
  },
  {
    "place": "Government Building4d4c52e01ae43704da69f360",
    "time": "2013-01-06"
  },
  {
    "place": "Medical Center4c64456d39732d7f964cd4fe",
    "time": "2013-01-06"
  },
  {
    "place": "Convention Center4b60d221f964a52082fb29e3",
    "time": "2013-01-07"
  },
  {
    "place": "Office4cd050f87f56a1430f59cda6",
    "time": "2013-01-07"
  },
  {
    "place": "French Restaurant3fd66200f964a52064e31ee3",
    "time": "2013-01-10"
  },
  {
    "place": "Convention Center4b60d221f964a52082fb29e3",
    "time": "2013-01-11"
  },
  {
    "place": "Convention Center4b60d221f964a52082fb29e3",
    "time": "2013-01-13"
  },
  {
    "place": "Church4dd2834eb0fb0becaf99d85c",
    "time": "2013-01-27"
  },
  {
    "place": "Medical Center4e37eefaae6076788f186f1b",
    "time": "2013-01-27"
  },
  {
    "place": "Convention Center4b60d221f964a52082fb29e3",
    "time": "2013-01-28"
  },
  {
    "place": "Drugstore / Pharmacy4b5b78b4f964a520c40029e3",
    "time": "2013-01-29"
  },
  {
    "place": "Convention Center4b60d221f964a52082fb29e3",
    "time": "2013-01-30"
  },
  {
    "place": "Food & Drink Shop4dfd3f7bd22d879302f8533e",
    "time": "2013-01-30"
  },
  {
    "place": "Theater4a246c20f964a5201e7e1fe3",
    "time": "2013-01-31"
  },
  {
    "place": "Train Station42911d00f964a520f5231fe3",
    "time": "2013-01-31"
  },
  {
    "place": "American Restaurant4f720dcbe4b04c3d16f0896e",
    "time": "2013-01-31"
  },
  {
    "place": "Church4dd2834eb0fb0becaf99d85c",
    "time": "2013-01-31"
  },
  {
    "place": "Department Store4bc48af0b492d13ab525aa60",
    "time": "2013-02-02"
  },
  {
    "place": "Clothing Store4e4995c8ae6014a2fdc805ae",
    "time": "2013-02-02"
  },
  {
    "place": "Clothing Store4dc1f53afa7608e86fcfbc70",
    "time": "2013-02-02"
  },
  {
    "place": "Salon / Barbershop4bc495e3b492d13a6837aa60",
    "time": "2013-02-02"
  },
  {
    "place": "Home (private)4dd815df45ddced82097c83c",
    "time": "2013-02-02"
  },
  {
    "place": "Food & Drink Shop4dfd3f7bd22d879302f8533e",
    "time": "2013-02-02"
  },
  {
    "place": "Food & Drink Shop4aa68df2f964a5202a4a20e3",
    "time": "2013-02-02"
  },
  {
    "place": "Home (private)50575af6e4b01ef823471d06",
    "time": "2013-02-03"
  },
  {
    "place": "Home (private)4dd815df45ddced82097c83c",
    "time": "2013-02-03"
  },
  {
    "place": "Home (private)500ed0d5e4b07e52ec4013a2",
    "time": "2013-02-03"
  },
  {
    "place": "Government Building4de2946d45dd180ae549f53f",
    "time": "2013-02-04"
  },
  {
    "place": "Spiritual Center4d260eb195e8f04d18723f4d",
    "time": "2013-02-04"
  },
  {
    "place": "Sandwich Place4b7b4ad9f964a520da5c2fe3",
    "time": "2013-02-05"
  },
  {
    "place": "Spiritual Center4d260eb195e8f04d18723f4d",
    "time": "2013-02-05"
  },
  {
    "place": "French Restaurant3fd66200f964a52064e31ee3",
    "time": "2013-02-07"
  },
  {
    "place": "Church4bf97dacb182c9b67408795a",
    "time": "2013-02-07"
  },
  {
    "place": "Home (private)4dd815df45ddced82097c83c",
    "time": "2013-02-11"
  },
  {
    "place": "Diner4b12ff73f964a5205e9223e3",
    "time": "2013-02-11"
  },
  {
    "place": "Salon / Barbershop4bdc65cfafe8c9b6563a4f85",
    "time": "2013-02-12"
  },
  {
    "place": "Food & Drink Shop4b42a69ff964a52043d825e3",
    "time": "2013-02-12"
  },
  {
    "place": "Government Building4de2946d45dd180ae549f53f",
    "time": "2013-02-13"
  },
  {
    "place": "Drugstore / Pharmacy4b5b78b4f964a520c40029e3",
    "time": "2013-02-13"
  },
  {
    "place": "Church4dd2834eb0fb0becaf99d85c",
    "time": "2013-02-13"
  },
  {
    "place": "Home (private)4dd815df45ddced82097c83c",
    "time": "2013-02-13"
  }
]