[
  {
    "place": "Home (private)4eba3331722edc0eaf1762bb",
    "time": "2012-11-12"
  },
  {
    "place": "Deli / Bodega4fe9524ce4b0d971aa120f82",
    "time": "2012-11-13"
  },
  {
    "place": "Home (private)4eba3331722edc0eaf1762bb",
    "time": "2012-11-13"
  },
  {
    "place": "Fried Chicken Joint4d5febf914963704def9dd94",
    "time": "2012-11-15"
  },
  {
    "place": "Bus Station4dd408046365c27b0dbf4239",
    "time": "2012-11-15"
  },
  {
    "place": "Subway4c66f1e5aebea5935aab74d0",
    "time": "2012-11-16"
  },
  {
    "place": "Subway4ad7a8d9f964a520640d21e3",
    "time": "2012-11-16"
  },
  {
    "place": "Office4c7f04be7fd4ef3b108394a1",
    "time": "2012-11-16"
  },
  {
    "place": "Home (private)4eba3331722edc0eaf1762bb",
    "time": "2012-11-16"
  },
  {
    "place": "General Travel4f61a8a610812ca122bde0de",
    "time": "2012-11-16"
  },
  {
    "place": "Bus Station4fed8e67e4b0005d40e0fed2",
    "time": "2012-11-16"
  },
  {
    "place": "Bus Station4d872bb1353060fc2a2816e3",
    "time": "2012-11-17"
  },
  {
    "place": "Subway4b46b4c0f964a520252726e3",
    "time": "2012-11-17"
  },
  {
    "place": "Subway4bae676cf964a520c6ad3be3",
    "time": "2012-11-17"
  },
  {
    "place": "Japanese Restaurant4ae63b5bf964a520d7a521e3",
    "time": "2012-11-17"
  },
  {
    "place": "Subway4b0e1598f964a520c85423e3",
    "time": "2012-11-17"
  },
  {
    "place": "Home (private)4eba3331722edc0eaf1762bb",
    "time": "2012-11-17"
  },
  {
    "place": "Subway4bcb46dc0687ef3b895addcc",
    "time": "2012-11-17"
  },
  {
    "place": "Subway4bebd433a9900f4799331840",
    "time": "2012-11-17"
  },
  {
    "place": "Deli / Bodega4fe9524ce4b0d971aa120f82",
    "time": "2012-11-19"
  },
  {
    "place": "Bus Station4dc9ac5145dd3449a50fbac4",
    "time": "2012-11-20"
  },
  {
    "place": "Subway4b50e721f964a520db3727e3",
    "time": "2012-11-20"
  },
  {
    "place": "Subway4a737bf8f964a52091dc1fe3",
    "time": "2012-11-20"
  },
  {
    "place": "Home (private)4c524854384c76b00080f62a",
    "time": "2012-11-20"
  },
  {
    "place": "Subway4a737bf8f964a52091dc1fe3",
    "time": "2012-11-20"
  },
  {
    "place": "Bus Station4c3b937fbe4620a1e6950c13",
    "time": "2012-11-20"
  },
  {
    "place": "Subway4b575c8df964a520993328e3",
    "time": "2012-11-21"
  },
  {
    "place": "Train Station4a513b17f964a520d2b01fe3",
    "time": "2012-11-21"
  },
  {
    "place": "Subway4b50e721f964a520db3727e3",
    "time": "2012-11-21"
  },
  {
    "place": "Bus Station4daaaa627abaf9a10c17ca32",
    "time": "2012-11-22"
  },
  {
    "place": "Bus Station4af609c9f964a520770022e3",
    "time": "2012-11-22"
  },
  {
    "place": "Bus Station4b9aac00f964a520abcb35e3",
    "time": "2012-11-22"
  },
  {
    "place": "Building4d549dc8b4deb1f71197fb79",
    "time": "2012-11-22"
  },
  {
    "place": "Bus Station4840fe6bf964a52030501fe3",
    "time": "2012-11-22"
  },
  {
    "place": "Sushi Restaurant45fa3e3df964a52050441fe3",
    "time": "2012-11-22"
  },
  {
    "place": "Subway4ae6258af964a52013a521e3",
    "time": "2012-11-22"
  },
  {
    "place": "Other Great Outdoors50abeb91e4b04d7b173c0466",
    "time": "2012-11-23"
  },
  {
    "place": "Home (private)4ceb39824cdf8eecc44052d1",
    "time": "2012-11-23"
  },
  {
    "place": "Bus Station4f21062d4fc6c2640987c5d1",
    "time": "2012-11-24"
  },
  {
    "place": "Laundry Service4d2f50add9d8a1430f1902d8",
    "time": "2012-11-25"
  },
  {
    "place": "Home (private)4ceb39824cdf8eecc44052d1",
    "time": "2012-11-26"
  },
  {
    "place": "Donut Shop4b515378f964a520f94a27e3",
    "time": "2012-11-26"
  },
  {
    "place": "Home (private)4eba3331722edc0eaf1762bb",
    "time": "2012-11-26"
  },
  {
    "place": "Subway4a7ead5ef964a5200cf21fe3",
    "time": "2012-11-26"
  },
  {
    "place": "Beach4e65a453091afcffda0a2424",
    "time": "2012-11-27"
  },
  {
    "place": "Mall4528a216f964a520173b1fe3",
    "time": "2012-11-27"
  },
  {
    "place": "Bus Station4f47eadfe4b0291e47bdec13",
    "time": "2012-11-27"
  },
  {
    "place": "Bus Station50529a3ce4b03ac261a34168",
    "time": "2012-11-27"
  },
  {
    "place": "Bus Station4840fe6bf964a52030501fe3",
    "time": "2012-11-29"
  },
  {
    "place": "Plaza49b7ed6df964a52030531fe3",
    "time": "2012-11-29"
  },
  {
    "place": "Subway4ae6258af964a52013a521e3",
    "time": "2012-11-29"
  },
  {
    "place": "Home (private)4c524854384c76b00080f62a",
    "time": "2012-12-01"
  },
  {
    "place": "Subway4b969536f964a52070d634e3",
    "time": "2012-12-01"
  },
  {
    "place": "Office4c7f04be7fd4ef3b108394a1",
    "time": "2012-12-01"
  },
  {
    "place": "Bus Station4e61358581301b932281b4a4",
    "time": "2012-12-01"
  },
  {
    "place": "Home (private)4eba3331722edc0eaf1762bb",
    "time": "2012-12-02"
  },
  {
    "place": "Home (private)4eba3331722edc0eaf1762bb",
    "time": "2012-12-02"
  },
  {
    "place": "Subway4a737bf8f964a52091dc1fe3",
    "time": "2012-12-02"
  },
  {
    "place": "Subway4b3a1855f964a520026125e3",
    "time": "2012-12-02"
  },
  {
    "place": "Law School4a3bdd50f964a520d7a01fe3",
    "time": "2012-12-02"
  },
  {
    "place": "Train Station4b37a018f964a5203a4325e3",
    "time": "2012-12-02"
  },
  {
    "place": "Bridge4b390cf4f964a5201c5525e3",
    "time": "2012-12-03"
  },
  {
    "place": "Subway4ae10ae7f964a520ce8421e3",
    "time": "2012-12-03"
  },
  {
    "place": "Subway4b2c7911f964a52044c724e3",
    "time": "2012-12-03"
  },
  {
    "place": "Office4c7f04be7fd4ef3b108394a1",
    "time": "2012-12-03"
  },
  {
    "place": "Burger Joint4eeb9b1b93ad2cbd83b62657",
    "time": "2012-12-03"
  },
  {
    "place": "Bus Station4d9abfe39298b1f78f104838",
    "time": "2012-12-03"
  },
  {
    "place": "Bus Station4dd2d58481dcfc9dcdc2163f",
    "time": "2012-12-03"
  },
  {
    "place": "Plaza4d6836169968236ac0e66da9",
    "time": "2012-12-05"
  },
  {
    "place": "Fast Food Restaurant4e7fe4729adf2271f9ace3ab",
    "time": "2012-12-05"
  },
  {
    "place": "Subway4a737bf8f964a52091dc1fe3",
    "time": "2012-12-05"
  },
  {
    "place": "Bus Station4f91ec61e4b0e03b66c4ca6b",
    "time": "2012-12-05"
  },
  {
    "place": "Bus Station4dd408046365c27b0dbf4239",
    "time": "2012-12-05"
  },
  {
    "place": "Bus Station4da27b21b521224b03dc0aee",
    "time": "2012-12-06"
  },
  {
    "place": "Subway4bae676cf964a520c6ad3be3",
    "time": "2012-12-06"
  },
  {
    "place": "Office4c7f04be7fd4ef3b108394a1",
    "time": "2012-12-06"
  },
  {
    "place": "Subway4b50e721f964a520db3727e3",
    "time": "2012-12-07"
  },
  {
    "place": "Plaza4d6836169968236ac0e66da9",
    "time": "2012-12-07"
  },
  {
    "place": "Fast Food Restaurant4e7fe4729adf2271f9ace3ab",
    "time": "2012-12-07"
  },
  {
    "place": "Bus Station4d9a0749b188721e0fc54b37",
    "time": "2012-12-07"
  },
  {
    "place": "Home (private)4eba3331722edc0eaf1762bb",
    "time": "2012-12-09"
  },
  {
    "place": "Office4c7f04be7fd4ef3b108394a1",
    "time": "2012-12-09"
  },
  {
    "place": "Bus Station4d4ac71c5129a35dab4047ac",
    "time": "2012-12-09"
  },
  {
    "place": "Hot Dog Joint4bc73d820050b713a144b83b",
    "time": "2012-12-09"
  },
  {
    "place": "Bus Station4eb8e0c8e5e874370577ab72",
    "time": "2012-12-09"
  },
  {
    "place": "Home (private)4eba3331722edc0eaf1762bb",
    "time": "2012-12-11"
  },
  {
    "place": "Bus Station4d7b9fe7645ea35da29e35f8",
    "time": "2012-12-11"
  },
  {
    "place": "Bus Station4d9f77f4fc4f721eeafb9f5f",
    "time": "2012-12-11"
  },
  {
    "place": "Bus Station4e5d8d80483b1858597630f1",
    "time": "2012-12-12"
  },
  {
    "place": "Ferry4165d880f964a5207e1d1fe3",
    "time": "2012-12-13"
  },
  {
    "place": "General College & University4c2e6918ed37a593e68b6503",
    "time": "2012-12-13"
  },
  {
    "place": "Bus Station50cba206e4b06fef1ba51324",
    "time": "2012-12-14"
  },
  {
    "place": "Airport4ace6c89f964a52078d020e3",
    "time": "2012-12-15"
  },
  {
    "place": "Bus Station50529a3ce4b03ac261a34168",
    "time": "2012-12-15"
  },
  {
    "place": "Bus Station4d59b6711d4a8cfa0a9e8fed",
    "time": "2012-12-16"
  },
  {
    "place": "Bus Station4c3b937fbe4620a1e6950c13",
    "time": "2012-12-16"
  },
  {
    "place": "Bus Station4df38371aeb7170aa2f12e06",
    "time": "2012-12-17"
  },
  {
    "place": "Bus Station4d0a5218e023224bf0615fd2",
    "time": "2012-12-17"
  },
  {
    "place": "Building4d549dc8b4deb1f71197fb79",
    "time": "2012-12-17"
  },
  {
    "place": "Train Station4bddf5530ee3a593af582fb0",
    "time": "2012-12-17"
  },
  {
    "place": "Subway4ad8fa6ef964a520ac1621e3",
    "time": "2012-12-17"
  },
  {
    "place": "Subway4b46b4c0f964a520252726e3",
    "time": "2012-12-17"
  },
  {
    "place": "Bridge4a43bd40f964a520bfa61fe3",
    "time": "2012-12-17"
  },
  {
    "place": "Bus Station4d9f77f4fc4f721eeafb9f5f",
    "time": "2012-12-17"
  },
  {
    "place": "Bus Station4e0f4ac414956c628502c637",
    "time": "2012-12-18"
  },
  {
    "place": "Bus Station4cc184d3f82ebfb75c417091",
    "time": "2012-12-18"
  },
  {
    "place": "Bus Station4e6c509f483b1f5ebe081819",
    "time": "2012-12-19"
  },
  {
    "place": "Bus Station4d85caba5091370410239e5b",
    "time": "2012-12-19"
  },
  {
    "place": "Department Store4b4cd551f964a520c8c026e3",
    "time": "2012-12-19"
  },
  {
    "place": "Deli / Bodega4fe9524ce4b0d971aa120f82",
    "time": "2012-12-19"
  },
  {
    "place": "Home (private)4c524854384c76b00080f62a",
    "time": "2012-12-19"
  },
  {
    "place": "Subway4b2c7911f964a52044c724e3",
    "time": "2012-12-19"
  },
  {
    "place": "Subway4b5d9f0df964a520d06329e3",
    "time": "2012-12-19"
  },
  {
    "place": "Bus Station4ee53f258b81bab2843b035b",
    "time": "2012-12-20"
  },
  {
    "place": "Bus Station4d7b9fe7645ea35da29e35f8",
    "time": "2012-12-20"
  },
  {
    "place": "Bus Station4cf5538b8333224bb7911f8e",
    "time": "2012-12-20"
  },
  {
    "place": "Office4f4e6c00e4b088c4af65d7b8",
    "time": "2012-12-20"
  },
  {
    "place": "Other Great Outdoors4e9bb302d5fbb0a1032c7d21",
    "time": "2012-12-20"
  },
  {
    "place": "Office4c7f04be7fd4ef3b108394a1",
    "time": "2012-12-21"
  },
  {
    "place": "Subway4b283971f964a520289124e3",
    "time": "2012-12-21"
  },
  {
    "place": "Airport4ace6c89f964a52078d020e3",
    "time": "2012-12-22"
  },
  {
    "place": "Bridge4aaf803ef964a520376420e3",
    "time": "2012-12-22"
  },
  {
    "place": "Bus Station4d9834e3b7bf2c0f4cd1ea2d",
    "time": "2012-12-22"
  },
  {
    "place": "Clothing Store4ad7e8b9f964a520fc0f21e3",
    "time": "2012-12-22"
  },
  {
    "place": "Subway4b50e721f964a520db3727e3",
    "time": "2012-12-22"
  },
  {
    "place": "Train Station42911d00f964a520f5231fe3",
    "time": "2012-12-22"
  },
  {
    "place": "Home (private)4eba3331722edc0eaf1762bb",
    "time": "2012-12-27"
  },
  {
    "place": "Office4c7f04be7fd4ef3b108394a1",
    "time": "2012-12-27"
  },
  {
    "place": "Subway4a61542bf964a5204ec21fe3",
    "time": "2012-12-27"
  },
  {
    "place": "Airport4ace6c89f964a52078d020e3",
    "time": "2012-12-28"
  },
  {
    "place": "Bridge4aaf803ef964a520376420e3",
    "time": "2012-12-28"
  },
  {
    "place": "Home (private)4c524854384c76b00080f62a",
    "time": "2012-12-28"
  },
  {
    "place": "Train Station4c3cfebb980320a1107a8be4",
    "time": "2012-12-29"
  },
  {
    "place": "Office4c7f04be7fd4ef3b108394a1",
    "time": "2012-12-29"
  },
  {
    "place": "Subway4bae676cf964a520c6ad3be3",
    "time": "2012-12-29"
  },
  {
    "place": "Home (private)4eba3331722edc0eaf1762bb",
    "time": "2012-12-29"
  },
  {
    "place": "Subway4a737bf8f964a52091dc1fe3",
    "time": "2012-12-30"
  },
  {
    "place": "Home (private)4eba3331722edc0eaf1762bb",
    "time": "2012-12-31"
  },
  {
    "place": "Home (private)4c524854384c76b00080f62a",
    "time": "2012-12-31"
  },
  {
    "place": "Subway4b2c7911f964a52044c724e3",
    "time": "2012-12-31"
  },
  {
    "place": "Train Station4a513b17f964a520d2b01fe3",
    "time": "2012-12-31"
  },
  {
    "place": "Subway4dcd69d722718eed7a1de35a",
    "time": "2013-01-01"
  },
  {
    "place": "Train Station42911d00f964a520f5231fe3",
    "time": "2013-01-01"
  },
  {
    "place": "Hotel4bc395cddce4eee1c6aa719d",
    "time": "2013-01-04"
  },
  {
    "place": "Subway4b575c8df964a520993328e3",
    "time": "2013-01-04"
  },
  {
    "place": "Bus Station4dd3fba26365c27b0dbef502",
    "time": "2013-01-04"
  },
  {
    "place": "Bus Station4d59b6711d4a8cfa0a9e8fed",
    "time": "2013-01-05"
  },
  {
    "place": "Deli / Bodega4cb8bd66a33bb1f7458683fd",
    "time": "2013-01-05"
  },
  {
    "place": "Home (private)4c524854384c76b00080f62a",
    "time": "2013-01-05"
  },
  {
    "place": "Home (private)4ceb39824cdf8eecc44052d1",
    "time": "2013-01-06"
  },
  {
    "place": "Neighborhood501b374ce4b06c31c5001715",
    "time": "2013-01-07"
  },
  {
    "place": "Office4fddb7fce4b05233742c8990",
    "time": "2013-01-07"
  },
  {
    "place": "Other Great Outdoors4f1d69060039e5a962945c07",
    "time": "2013-01-07"
  },
  {
    "place": "Bus Station4dd2d4bc81dcfc9dcdc2124f",
    "time": "2013-01-07"
  },
  {
    "place": "Bus Station4d782852c1d56ea83769cc2b",
    "time": "2013-01-07"
  },
  {
    "place": "Bus Station4e5563c8315131ee7a9352c7",
    "time": "2013-01-07"
  },
  {
    "place": "Subway4a737bf8f964a52091dc1fe3",
    "time": "2013-01-08"
  },
  {
    "place": "Subway4ad8fa6ef964a520ac1621e3",
    "time": "2013-01-08"
  },
  {
    "place": "Subway4a737bf8f964a52091dc1fe3",
    "time": "2013-01-09"
  },
  {
    "place": "Subway4b3a1855f964a520026125e3",
    "time": "2013-01-09"
  },
  {
    "place": "Subway4b969536f964a52070d634e3",
    "time": "2013-01-09"
  },
  {
    "place": "Home (private)4eba3331722edc0eaf1762bb",
    "time": "2013-01-09"
  },
  {
    "place": "Bus Station4f21062d4fc6c2640987c5d1",
    "time": "2013-01-09"
  },
  {
    "place": "Bus Station4de5334bd4c0704405ad6529",
    "time": "2013-01-10"
  },
  {
    "place": "Subway4bd1b96a77b29c7439118d82",
    "time": "2013-01-10"
  },
  {
    "place": "Plaza49b7ed6df964a52030531fe3",
    "time": "2013-01-10"
  },
  {
    "place": "Donut Shop4b515378f964a520f94a27e3",
    "time": "2013-01-10"
  },
  {
    "place": "Subway4bd1b96a77b29c7439118d82",
    "time": "2013-01-11"
  },
  {
    "place": "Office4c7f04be7fd4ef3b108394a1",
    "time": "2013-01-11"
  },
  {
    "place": "Subway4ae6258af964a52013a521e3",
    "time": "2013-01-11"
  },
  {
    "place": "Bus Station4cf5538b8333224bb7911f8e",
    "time": "2013-01-12"
  },
  {
    "place": "Plaza49b7ed6df964a52030531fe3",
    "time": "2013-01-13"
  },
  {
    "place": "Fried Chicken Joint4d72bb765f0037042585e5a0",
    "time": "2013-01-14"
  },
  {
    "place": "Bus Station4fc1d832bb3dbdc35673fd46",
    "time": "2013-01-14"
  },
  {
    "place": "Office4c7f04be7fd4ef3b108394a1",
    "time": "2013-01-14"
  },
  {
    "place": "Subway4a737bf8f964a52091dc1fe3",
    "time": "2013-01-14"
  },
  {
    "place": "Subway4b5b08c9f964a520f9df28e3",
    "time": "2013-01-15"
  },
  {
    "place": "Subway4a737bf8f964a52091dc1fe3",
    "time": "2013-01-15"
  },
  {
    "place": "Office4c7f04be7fd4ef3b108394a1",
    "time": "2013-01-15"
  },
  {
    "place": "Bus Station50e8ed15e4b07ff4593e1bf4",
    "time": "2013-01-15"
  },
  {
    "place": "Bus Station4dd2d4bc81dcfc9dcdc2124f",
    "time": "2013-01-16"
  },
  {
    "place": "Bus Station4df8089a1f6e448ec28e6fe0",
    "time": "2013-01-16"
  },
  {
    "place": "Bus Station4d22782eb69c6dcbf7be8295",
    "time": "2013-01-16"
  },
  {
    "place": "Bus Station4da61b1ea86ecc5168c8828c",
    "time": "2013-01-16"
  },
  {
    "place": "Subway4bf804ee8d30d13a1feaff17",
    "time": "2013-01-16"
  },
  {
    "place": "Subway4bae676cf964a520c6ad3be3",
    "time": "2013-01-17"
  },
  {
    "place": "Home (private)4eba3331722edc0eaf1762bb",
    "time": "2013-01-17"
  },
  {
    "place": "Subway4bd1af9b41b9ef3bca54fce5",
    "time": "2013-01-18"
  },
  {
    "place": "Subway4b5d272ef964a520c15429e3",
    "time": "2013-01-18"
  },
  {
    "place": "Office4c7f04be7fd4ef3b108394a1",
    "time": "2013-01-21"
  },
  {
    "place": "Chinese Restaurant4d9fa1d483f0b1f7ea8c9ec7",
    "time": "2013-01-22"
  },
  {
    "place": "Neighborhood4c4b52ce9e6dbe9acbd4e10b",
    "time": "2013-01-22"
  },
  {
    "place": "Office4c7f04be7fd4ef3b108394a1",
    "time": "2013-01-22"
  },
  {
    "place": "Subway4b06d110f964a520c3f022e3",
    "time": "2013-01-22"
  },
  {
    "place": "Subway4bd1af9b41b9ef3bca54fce5",
    "time": "2013-01-25"
  },
  {
    "place": "Office4c7f04be7fd4ef3b108394a1",
    "time": "2013-01-25"
  },
  {
    "place": "Plaza49b7ed6df964a52030531fe3",
    "time": "2013-01-25"
  },
  {
    "place": "Home (private)4eba3331722edc0eaf1762bb",
    "time": "2013-01-29"
  },
  {
    "place": "Subway4ad8fa6ef964a520ac1621e3",
    "time": "2013-01-30"
  },
  {
    "place": "General Travel4f61a89f10812ca122bde02d",
    "time": "2013-01-30"
  },
  {
    "place": "Subway4b1e78c2f964a520461a24e3",
    "time": "2013-01-31"
  },
  {
    "place": "Home (private)4c524854384c76b00080f62a",
    "time": "2013-01-31"
  },
  {
    "place": "Neighborhood4fc6d424e4b08f659ecd5278",
    "time": "2013-02-01"
  },
  {
    "place": "Office4c7f04be7fd4ef3b108394a1",
    "time": "2013-02-01"
  },
  {
    "place": "American Restaurant3fd66200f964a5207cf11ee3",
    "time": "2013-02-01"
  },
  {
    "place": "Fast Food Restaurant4ae3d4cef964a5203b9921e3",
    "time": "2013-02-01"
  },
  {
    "place": "Subway4ad7a8d9f964a520640d21e3",
    "time": "2013-02-01"
  },
  {
    "place": "Bus Station4e5d8d80483b1858597630f1",
    "time": "2013-02-01"
  },
  {
    "place": "Subway4b50e721f964a520db3727e3",
    "time": "2013-02-01"
  },
  {
    "place": "Home (private)4c524854384c76b00080f62a",
    "time": "2013-02-01"
  },
  {
    "place": "Home (private)4eba3331722edc0eaf1762bb",
    "time": "2013-02-01"
  },
  {
    "place": "Moving Target510c9f9de4b0ec5cc005fc87",
    "time": "2013-02-02"
  },
  {
    "place": "Train Station4bae0e67f964a520487f3be3",
    "time": "2013-02-02"
  },
  {
    "place": "Medical Center4be9e20e6295c9b61acb8508",
    "time": "2013-02-02"
  },
  {
    "place": "Bus Station4d1fdddf5c4ca1cdb4a49c3d",
    "time": "2013-02-02"
  },
  {
    "place": "Bus Station4cc744c0a32bb1f75758a7a8",
    "time": "2013-02-03"
  },
  {
    "place": "Bus Station4abd30e1f964a520ed8820e3",
    "time": "2013-02-03"
  },
  {
    "place": "Pizza Place4b60b7e5f964a520b7f529e3",
    "time": "2013-02-03"
  },
  {
    "place": "Bus Station4bea19226295c9b6b61e8608",
    "time": "2013-02-03"
  },
  {
    "place": "Bus Station4cc184d3f82ebfb75c417091",
    "time": "2013-02-03"
  },
  {
    "place": "Home (private)4eba3331722edc0eaf1762bb",
    "time": "2013-02-04"
  },
  {
    "place": "Bus Station4c65b90018b676b084a0ad0e",
    "time": "2013-02-05"
  },
  {
    "place": "Neighborhood501b374ce4b06c31c5001715",
    "time": "2013-02-05"
  },
  {
    "place": "Bus Station4cfeed7c202e224bc2a7ab2a",
    "time": "2013-02-05"
  },
  {
    "place": "Office4c7f04be7fd4ef3b108394a1",
    "time": "2013-02-05"
  },
  {
    "place": "Subway4b0737c3f964a520e4f922e3",
    "time": "2013-02-05"
  },
  {
    "place": "Bus Station4dd3fa5e6365c27b0dbeec7d",
    "time": "2013-02-05"
  },
  {
    "place": "Dessert Shop4a257482f964a520557e1fe3",
    "time": "2013-02-05"
  },
  {
    "place": "Bus Station4cd78a30a42b236ad848fb08",
    "time": "2013-02-05"
  },
  {
    "place": "Bus Station4eb71d39b8f786e275ef459e",
    "time": "2013-02-05"
  },
  {
    "place": "Train Station42911d00f964a520f5231fe3",
    "time": "2013-02-07"
  },
  {
    "place": "Subway4b1d14e9f964a520af0b24e3",
    "time": "2013-02-07"
  },
  {
    "place": "Hotel4b035c8ff964a520ee4e22e3",
    "time": "2013-02-07"
  },
  {
    "place": "Fast Food Restaurant4e7fe4729adf2271f9ace3ab",
    "time": "2013-02-07"
  },
  {
    "place": "Bus Station4e61358581301b932281b4a4",
    "time": "2013-02-07"
  },
  {
    "place": "Home (private)4ceb39824cdf8eecc44052d1",
    "time": "2013-02-07"
  },
  {
    "place": "Subway4b0737c3f964a520e4f922e3",
    "time": "2013-02-08"
  },
  {
    "place": "Office4c7f04be7fd4ef3b108394a1",
    "time": "2013-02-08"
  },
  {
    "place": "Subway4b50e721f964a520db3727e3",
    "time": "2013-02-08"
  },
  {
    "place": "Subway4ae6258af964a52013a521e3",
    "time": "2013-02-08"
  },
  {
    "place": "Subway4b0737c3f964a520e4f922e3",
    "time": "2013-02-11"
  },
  {
    "place": "Office4c7f04be7fd4ef3b108394a1",
    "time": "2013-02-11"
  },
  {
    "place": "Subway4bae676cf964a520c6ad3be3",
    "time": "2013-02-11"
  },
  {
    "place": "Subway4ae6258af964a52013a521e3",
    "time": "2013-02-11"
  },
  {
    "place": "Office4c7f04be7fd4ef3b108394a1",
    "time": "2013-02-12"
  },
  {
    "place": "Subway4ad8fa6ef964a520ac1621e3",
    "time": "2013-02-12"
  },
  {
    "place": "Subway4b21aee7f964a5201b4024e3",
    "time": "2013-02-12"
  },
  {
    "place": "Subway4b21aee7f964a5201b4024e3",
    "time": "2013-02-12"
  },
  {
    "place": "Bus Station4dfbf773d164848a03f42c2c",
    "time": "2013-02-12"
  },
  {
    "place": "Bus Station4e61358581301b932281b4a4",
    "time": "2013-02-12"
  },
  {
    "place": "Home (private)4c524854384c76b00080f62a",
    "time": "2013-02-13"
  },
  {
    "place": "Chinese Restaurant4d9fa1d483f0b1f7ea8c9ec7",
    "time": "2013-02-14"
  },
  {
    "place": "Subway4a737bf8f964a52091dc1fe3",
    "time": "2013-02-14"
  },
  {
    "place": "Bookstore49ef71e3f964a520b8681fe3",
    "time": "2013-02-14"
  },
  {
    "place": "Subway4b0b2275f964a520772d23e3",
    "time": "2013-02-14"
  },
  {
    "place": "Bus Station4dffcbf3183886b857466d36",
    "time": "2013-02-14"
  },
  {
    "place": "Bus Station4fed8e67e4b0005d40e0fed2",
    "time": "2013-02-14"
  },
  {
    "place": "Deli / Bodega4fe9524ce4b0d971aa120f82",
    "time": "2013-02-14"
  }
]