[
  {
    "place": "Bar4ca5166244a8224bc0c4f63f",
    "time": "2012-04-11"
  },
  {
    "place": "Thai Restaurant4ae91871f964a52059b421e3",
    "time": "2012-04-11"
  },
  {
    "place": "Park40b68100f964a5207d001fe3",
    "time": "2012-04-12"
  },
  {
    "place": "American Restaurant3fd66200f964a520ece91ee3",
    "time": "2012-04-13"
  },
  {
    "place": "Park4a99b48cf964a520f32f20e3",
    "time": "2012-04-13"
  },
  {
    "place": "Bar4259be00f964a520ef201fe3",
    "time": "2012-04-14"
  },
  {
    "place": "Clothing Store4afef80ef964a520403222e3",
    "time": "2012-04-15"
  },
  {
    "place": "Building4a855d7df964a5202efe1fe3",
    "time": "2012-04-16"
  },
  {
    "place": "Clothing Store4a02d6f9f964a5206e711fe3",
    "time": "2012-04-16"
  },
  {
    "place": "Hotel4b4e71caf964a520f8ed26e3",
    "time": "2012-04-17"
  },
  {
    "place": "Steakhouse451a53c7f964a5205e3a1fe3",
    "time": "2012-04-18"
  },
  {
    "place": "Thrift / Vintage Store4a9daf8ff964a520ed3820e3",
    "time": "2012-04-21"
  },
  {
    "place": "Ice Cream Shop49ce965bf964a520605a1fe3",
    "time": "2012-04-21"
  },
  {
    "place": "BBQ Joint42a78680f964a5200e251fe3",
    "time": "2012-04-25"
  },
  {
    "place": "Hotel49ccb6e0f964a5208a591fe3",
    "time": "2012-04-25"
  },
  {
    "place": "Bar4259be00f964a520ef201fe3",
    "time": "2012-04-26"
  },
  {
    "place": "Cosmetics Shop4a62452cf964a5209ac31fe3",
    "time": "2012-04-27"
  },
  {
    "place": "Department Store4a3d735cf964a5204ba21fe3",
    "time": "2012-04-28"
  },
  {
    "place": "Clothing Store4b523dd3f964a520127227e3",
    "time": "2012-04-29"
  },
  {
    "place": "Bar4eb023780cd6528d834b7b7b",
    "time": "2012-04-29"
  },
  {
    "place": "Bakery4f663439e4b0bf101381bb62",
    "time": "2012-04-29"
  },
  {
    "place": "Clothing Store4b706e02f964a520ed192de3",
    "time": "2012-04-29"
  },
  {
    "place": "American Restaurant43485d80f964a52098281fe3",
    "time": "2012-05-01"
  },
  {
    "place": "Chinese Restaurant4a038994f964a520c5711fe3",
    "time": "2012-05-02"
  },
  {
    "place": "Dessert Shop4b451781f964a520400426e3",
    "time": "2012-05-03"
  },
  {
    "place": "Coffee Shop4b5f0221f964a520fea129e3",
    "time": "2012-05-04"
  },
  {
    "place": "Electronics Store4e98aefe1081f57b9dff926a",
    "time": "2012-05-04"
  },
  {
    "place": "American Restaurant4ac4efbff964a520a79f20e3",
    "time": "2012-05-05"
  },
  {
    "place": "Bakery4a884b9bf964a520cb0520e3",
    "time": "2012-05-05"
  },
  {
    "place": "Thrift / Vintage Store4a7caa42f964a52026ed1fe3",
    "time": "2012-05-05"
  },
  {
    "place": "Mall49e4ec34f964a5206e631fe3",
    "time": "2012-05-06"
  },
  {
    "place": "Movie Theater4a31831df964a520e9991fe3",
    "time": "2012-05-06"
  },
  {
    "place": "Coffee Shop4e0dacd8e4cd27fc7d27683c",
    "time": "2012-05-07"
  },
  {
    "place": "Coffee Shop4b9d9a4ef964a520edb536e3",
    "time": "2012-05-08"
  },
  {
    "place": "Korean Restaurant4bec3943a9900f477abe1840",
    "time": "2012-05-09"
  },
  {
    "place": "Thai Restaurant4a85a0b5f964a520b3fe1fe3",
    "time": "2012-05-09"
  },
  {
    "place": "Clothing Store4cf907ea3875b1f79311973c",
    "time": "2012-05-10"
  },
  {
    "place": "Park4ddaf97b183802d5373be2eb",
    "time": "2012-05-10"
  },
  {
    "place": "Sushi Restaurant4c7fdb55d8086dcbd27c5e52",
    "time": "2012-05-10"
  },
  {
    "place": "Clothing Store4b804beef964a5205f6530e3",
    "time": "2012-05-11"
  },
  {
    "place": "Clothing Store4a02d6f9f964a5206e711fe3",
    "time": "2012-05-11"
  },
  {
    "place": "Coffee Shop49de2becf964a5202b601fe3",
    "time": "2012-05-11"
  },
  {
    "place": "Nail Salon4f99d9a7e4b03f9cffaa7678",
    "time": "2012-05-11"
  },
  {
    "place": "Sushi Restaurant4a67c01df964a52001ca1fe3",
    "time": "2012-05-12"
  },
  {
    "place": "Coffee Shop4a7c75cdf964a520a6ec1fe3",
    "time": "2012-05-12"
  },
  {
    "place": "Thrift / Vintage Store4a9daf8ff964a520ed3820e3",
    "time": "2012-05-12"
  },
  {
    "place": "Other Great Outdoors4ca766ca931bb60cdae89ce2",
    "time": "2012-05-12"
  },
  {
    "place": "Church49d9257ff964a520085e1fe3",
    "time": "2012-05-12"
  },
  {
    "place": "Tea Room3fd66200f964a520afe71ee3",
    "time": "2012-05-13"
  },
  {
    "place": "Building4da8800143a12d0c26532ae7",
    "time": "2012-05-14"
  },
  {
    "place": "Hotel4a64df96f964a520eac61fe3",
    "time": "2012-05-16"
  },
  {
    "place": "Building4e9cbd1282310f9e5f3f4a61",
    "time": "2012-05-16"
  },
  {
    "place": "Diner4656e534f964a52008471fe3",
    "time": "2012-05-16"
  },
  {
    "place": "Sushi Restaurant4a67c01df964a52001ca1fe3",
    "time": "2012-05-19"
  },
  {
    "place": "Office4d8774c140a7a35d4d4648be",
    "time": "2012-05-19"
  },
  {
    "place": "Electronics Store4bb65bcc941ad13a184d1fe3",
    "time": "2012-05-21"
  },
  {
    "place": "Taco Place4ba57e69f964a5208f0c39e3",
    "time": "2012-05-21"
  },
  {
    "place": "Clothing Store4de961ccd164ef597ccefe4a",
    "time": "2012-05-25"
  },
  {
    "place": "Food Truck4acf7cadf964a52003d420e3",
    "time": "2012-05-25"
  },
  {
    "place": "Clothing Store4b78280bf964a520dbb82ee3",
    "time": "2012-05-25"
  },
  {
    "place": "Thrift / Vintage Store4aea0574f964a5208eb821e3",
    "time": "2012-05-25"
  },
  {
    "place": "Clothing Store4a85d1a7f964a5205aff1fe3",
    "time": "2012-05-25"
  },
  {
    "place": "Bakery49dbfd0ff964a520385f1fe3",
    "time": "2012-05-25"
  },
  {
    "place": "Diner425f0400f964a5200c211fe3",
    "time": "2012-05-26"
  },
  {
    "place": "Medical Center4af04043f964a520e2da21e3",
    "time": "2012-05-29"
  },
  {
    "place": "Flea Market4d9885ae647d8cfa23ccf03d",
    "time": "2012-06-03"
  },
  {
    "place": "Food Truck4e823c0229c2dbb2b7043972",
    "time": "2012-06-03"
  },
  {
    "place": "Thrift / Vintage Store4db9a5285da3b5fa68d9b44d",
    "time": "2012-06-03"
  },
  {
    "place": "Food Truck4da759dbfa8c4175d09fd01a",
    "time": "2012-06-03"
  },
  {
    "place": "Spa / Massage4e7bc87929c2e440a898f172",
    "time": "2012-06-04"
  },
  {
    "place": "Mexican Restaurant4efd2193f790570bcf946628",
    "time": "2012-06-04"
  },
  {
    "place": "Clothing Store4a592e94f964a520e6b81fe3",
    "time": "2012-06-05"
  },
  {
    "place": "Hotel4a0e0f85f964a520bf751fe3",
    "time": "2012-06-06"
  },
  {
    "place": "Cosmetics Shop4c06cdcb8a81c9b68e4a2690",
    "time": "2012-06-06"
  },
  {
    "place": "Ice Cream Shop4bc273102a89ef3bace1f388",
    "time": "2012-06-07"
  },
  {
    "place": "Pizza Place4ea07c88754ae603f5652e63",
    "time": "2012-06-14"
  },
  {
    "place": "Park4b773b60f964a5200f8a2ee3",
    "time": "2012-06-16"
  },
  {
    "place": "Department Store4baa9975f964a52054783ae3",
    "time": "2012-06-17"
  },
  {
    "place": "Movie Theater4bb67efe2ea1952150c8ab2f",
    "time": "2012-06-17"
  },
  {
    "place": "Coffee Shop4b5f0221f964a520fea129e3",
    "time": "2012-06-18"
  },
  {
    "place": "Tea Room43c7878df964a520822d1fe3",
    "time": "2012-06-20"
  },
  {
    "place": "Sushi Restaurant4a67c01df964a52001ca1fe3",
    "time": "2012-06-21"
  },
  {
    "place": "Coffee Shop4c24b32cf7ced13a0b33236d",
    "time": "2012-07-03"
  },
  {
    "place": "Movie Theater4a4138ebf964a520f9a41fe3",
    "time": "2012-07-04"
  },
  {
    "place": "Bar4b87fff3f964a520f3d731e3",
    "time": "2012-07-05"
  },
  {
    "place": "Donut Shop4b515378f964a520f94a27e3",
    "time": "2012-07-07"
  },
  {
    "place": "Clothing Store4f2b262ee4b0ccfb1ca75dbc",
    "time": "2012-07-07"
  },
  {
    "place": "Bar3fd66200f964a520e2e51ee3",
    "time": "2012-07-07"
  },
  {
    "place": "Cupcake Shop4f36418ee4b017ad79b8e8a2",
    "time": "2012-07-07"
  },
  {
    "place": "Bar49c18298f964a520b0551fe3",
    "time": "2012-07-08"
  },
  {
    "place": "Burger Joint4c2bccc7d1a10f475a88f864",
    "time": "2012-07-08"
  },
  {
    "place": "Clothing Store4b4b43fff964a520fc9526e3",
    "time": "2012-07-08"
  },
  {
    "place": "Clothing Store4e9c91c110814f718896b31c",
    "time": "2012-07-09"
  },
  {
    "place": "Coffee Shop4b5f0221f964a520fea129e3",
    "time": "2012-07-13"
  },
  {
    "place": "Office4e15ed10d164535f062001c7",
    "time": "2012-07-15"
  },
  {
    "place": "BBQ Joint4a469916f964a5202ba91fe3",
    "time": "2012-07-21"
  },
  {
    "place": "Office4bdb42876547d13ae4167c26",
    "time": "2012-07-26"
  },
  {
    "place": "Mexican Restaurant449955b7f964a52093341fe3",
    "time": "2012-07-29"
  },
  {
    "place": "Event Space4baa4eb2f964a520495d3ae3",
    "time": "2012-07-30"
  },
  {
    "place": "Chinese Restaurant425f0400f964a52011211fe3",
    "time": "2012-08-09"
  },
  {
    "place": "Bar4f5303dbe4b02cf6be81de21",
    "time": "2012-08-10"
  },
  {
    "place": "Thrift / Vintage Store4db9a5285da3b5fa68d9b44d",
    "time": "2012-08-11"
  },
  {
    "place": "Salon / Barbershop4da0ce9e7aee54811872b3fe",
    "time": "2012-08-11"
  },
  {
    "place": "Southern / Soul Food Restaurant4a4370ecf964a52089a61fe3",
    "time": "2012-08-12"
  },
  {
    "place": "Dessert Shop4fac44bae4b03525f2c3b3e0",
    "time": "2012-08-12"
  },
  {
    "place": "Coffee Shop3fd66200f964a52048e81ee3",
    "time": "2012-08-13"
  },
  {
    "place": "Office4cd2e15d2b52a09333562139",
    "time": "2012-08-14"
  },
  {
    "place": "Other Great Outdoors44b7acf4f964a52073351fe3",
    "time": "2012-08-19"
  },
  {
    "place": "American Restaurant49f5d475f964a520bf6b1fe3",
    "time": "2012-08-19"
  },
  {
    "place": "Eastern European Restaurant4d1a5831c9868eec1031d88e",
    "time": "2012-08-17"
  },
  {
    "place": "Bar3fd66200f964a520e2e51ee3",
    "time": "2012-08-18"
  },
  {
    "place": "Salon / Barbershop4a4c5d60f964a52031ad1fe3",
    "time": "2012-08-18"
  },
  {
    "place": "Thrift / Vintage Store4db9a5285da3b5fa68d9b44d",
    "time": "2012-08-18"
  },
  {
    "place": "Food Truck4da759dbfa8c4175d09fd01a",
    "time": "2012-08-18"
  },
  {
    "place": "Bar4c6f2ad5d7fab1f716c25ac9",
    "time": "2012-08-19"
  },
  {
    "place": "Hotel3fd66200f964a52096e71ee3",
    "time": "2012-09-05"
  },
  {
    "place": "Clothing Store4b490f5df964a5201e6426e3",
    "time": "2012-09-05"
  },
  {
    "place": "Art Museum4af5a46af964a520b5fa21e3",
    "time": "2012-09-06"
  },
  {
    "place": "Hotel44ae5146f964a52021351fe3",
    "time": "2012-09-09"
  },
  {
    "place": "Bar4b1bf775f964a520d0ff23e3",
    "time": "2012-09-09"
  },
  {
    "place": "General Entertainment4f3429c5e4b0a660dd0286ec",
    "time": "2012-09-09"
  },
  {
    "place": "Design Studio4ec309de9911981872f77f76",
    "time": "2012-09-09"
  },
  {
    "place": "General Entertainment4f370a34e4b01139d561d30f",
    "time": "2012-09-09"
  },
  {
    "place": "French Restaurant3fd66200f964a520dce81ee3",
    "time": "2012-09-15"
  },
  {
    "place": "Eastern European Restaurant4d1a5831c9868eec1031d88e",
    "time": "2012-09-15"
  },
  {
    "place": "American Restaurant4a4ab03cf964a5201bac1fe3",
    "time": "2012-10-23"
  },
  {
    "place": "Bar4e2fd522c65b80dfd8448edf",
    "time": "2012-10-27"
  },
  {
    "place": "Caf\u00c3\u00a94f2afb627b0c8da979cdffdf",
    "time": "2012-10-27"
  },
  {
    "place": "Bakery4fc95a1ee4b0f9aeca457705",
    "time": "2012-10-27"
  },
  {
    "place": "Bar4a423a67f964a520aba51fe3",
    "time": "2012-11-01"
  },
  {
    "place": "Design Studio4b71af9cf964a5201b562de3",
    "time": "2012-11-05"
  },
  {
    "place": "Dessert Shop4ebda87c7ee54e4cd1b35c4d",
    "time": "2012-11-05"
  },
  {
    "place": "Asian Restaurant4bb36fa9715eef3b7e4d86bb",
    "time": "2012-11-07"
  },
  {
    "place": "Government Building4fe9eb38e4b0a53f6dca64dd",
    "time": "2012-11-07"
  },
  {
    "place": "Other Great Outdoors50988e54e4b0fd23874c1700",
    "time": "2012-11-07"
  },
  {
    "place": "Hotel4bfd63edf7c82d7f831d8e04",
    "time": "2012-11-10"
  },
  {
    "place": "Sushi Restaurant4a67c01df964a52001ca1fe3",
    "time": "2012-11-10"
  },
  {
    "place": "American Restaurant3fd66200f964a520ece91ee3",
    "time": "2012-11-17"
  },
  {
    "place": "Event Space507d81f18acab253a0b73fb4",
    "time": "2012-11-17"
  },
  {
    "place": "Park3fd66200f964a520d7f11ee3",
    "time": "2012-11-18"
  },
  {
    "place": "Food & Drink Shop4a95cf86f964a520c92420e3",
    "time": "2012-11-26"
  },
  {
    "place": "Bar50a2dcb2e4b0ca1c76b00f68",
    "time": "2012-11-29"
  },
  {
    "place": "Movie Theater4a4138ebf964a520f9a41fe3",
    "time": "2012-12-02"
  },
  {
    "place": "Clothing Store4a0efb30f964a5200b761fe3",
    "time": "2012-12-02"
  },
  {
    "place": "Coffee Shop49e8b984f964a52070651fe3",
    "time": "2012-12-02"
  },
  {
    "place": "Train Station42911d00f964a520f5231fe3",
    "time": "2012-12-02"
  },
  {
    "place": "Park3fd66200f964a520d7f11ee3",
    "time": "2012-12-19"
  },
  {
    "place": "Burger Joint4c88ea117223b1f7253e2fa8",
    "time": "2012-12-21"
  },
  {
    "place": "Plaza49b7ed6df964a52030531fe3",
    "time": "2012-12-30"
  },
  {
    "place": "Hotel4a2458a3f964a520127e1fe3",
    "time": "2012-12-31"
  },
  {
    "place": "Department Store4b3e5337f964a5204c9b25e3",
    "time": "2013-01-08"
  },
  {
    "place": "Seafood Restaurant50b6c9a6f31c2f35ed846716",
    "time": "2013-01-29"
  },
  {
    "place": "Movie Theater4a4138ebf964a520f9a41fe3",
    "time": "2013-01-30"
  },
  {
    "place": "Falafel Restaurant4aae5f71f964a520eb6120e3",
    "time": "2013-02-01"
  },
  {
    "place": "Clothing Store4a96fd05f964a520db2720e3",
    "time": "2013-02-02"
  },
  {
    "place": "Clothing Store4ad7a87ef964a5205f0d21e3",
    "time": "2013-02-10"
  },
  {
    "place": "Diner4a89cb6af964a520030920e3",
    "time": "2013-02-10"
  },
  {
    "place": "Hotel4bfd63edf7c82d7f831d8e04",
    "time": "2013-02-11"
  },
  {
    "place": "Bar41521200f964a520101d1fe3",
    "time": "2013-02-12"
  },
  {
    "place": "Japanese Restaurant42055e00f964a5206e1f1fe3",
    "time": "2013-02-12"
  },
  {
    "place": "Event Space4a4c5c64f964a52030ad1fe3",
    "time": "2013-02-13"
  },
  {
    "place": "Coffee Shop4a871b30f964a5209a0220e3",
    "time": "2013-02-13"
  }
]