[
  {
    "place": "University4a79e11af964a520e0e71fe3",
    "time": "2012-04-04"
  },
  {
    "place": "College Academic Building4bbb965dafe1b71364632f4b",
    "time": "2012-04-04"
  },
  {
    "place": "Office4b9c5a85f964a520116236e3",
    "time": "2012-04-07"
  },
  {
    "place": "General College & University4bcefaa529d4b713cd51a9dc",
    "time": "2012-04-07"
  },
  {
    "place": "Home (private)4e52ef26183813674728e6c4",
    "time": "2012-04-10"
  },
  {
    "place": "Home (private)4e52ef26183813674728e6c4",
    "time": "2012-04-12"
  },
  {
    "place": "Home (private)4e52ef26183813674728e6c4",
    "time": "2012-04-16"
  },
  {
    "place": "Office4b9c5a85f964a520116236e3",
    "time": "2012-04-19"
  },
  {
    "place": "General College & University4bcefaa529d4b713cd51a9dc",
    "time": "2012-04-19"
  },
  {
    "place": "Office4b9c5a85f964a520116236e3",
    "time": "2012-04-20"
  },
  {
    "place": "General College & University4bcefaa529d4b713cd51a9dc",
    "time": "2012-04-20"
  },
  {
    "place": "Caf\u00c3\u00a94ee78665be7b5922f8d6d661",
    "time": "2012-04-20"
  },
  {
    "place": "Fast Food Restaurant4bd873505cf276b00b489d00",
    "time": "2012-04-21"
  },
  {
    "place": "Home (private)4e52ef26183813674728e6c4",
    "time": "2012-04-21"
  },
  {
    "place": "Office4b9c5a85f964a520116236e3",
    "time": "2012-04-21"
  },
  {
    "place": "General College & University4bcefaa529d4b713cd51a9dc",
    "time": "2012-04-21"
  },
  {
    "place": "Gas Station / Garage4bc9270d3740b713f4595e65",
    "time": "2012-04-22"
  },
  {
    "place": "Home (private)4e52ef26183813674728e6c4",
    "time": "2012-04-22"
  },
  {
    "place": "Office4b9c5a85f964a520116236e3",
    "time": "2012-04-22"
  },
  {
    "place": "General College & University4bcefaa529d4b713cd51a9dc",
    "time": "2012-04-22"
  },
  {
    "place": "Church4edab8cef9abeea3da14d662",
    "time": "2012-04-22"
  },
  {
    "place": "Home (private)4e52ef26183813674728e6c4",
    "time": "2012-04-23"
  },
  {
    "place": "University4a79e11af964a520e0e71fe3",
    "time": "2012-04-23"
  },
  {
    "place": "College Academic Building4bbb965dafe1b71364632f4b",
    "time": "2012-04-23"
  },
  {
    "place": "Home (private)4e52ef26183813674728e6c4",
    "time": "2012-04-24"
  },
  {
    "place": "Office4b9c5a85f964a520116236e3",
    "time": "2012-04-24"
  },
  {
    "place": "University4a79e11af964a520e0e71fe3",
    "time": "2012-04-25"
  },
  {
    "place": "College Academic Building4bbb965dafe1b71364632f4b",
    "time": "2012-04-25"
  },
  {
    "place": "Office4b9c5a85f964a520116236e3",
    "time": "2012-04-26"
  },
  {
    "place": "General College & University4bcefaa529d4b713cd51a9dc",
    "time": "2012-04-26"
  },
  {
    "place": "University4a79e11af964a520e0e71fe3",
    "time": "2012-04-27"
  },
  {
    "place": "American Restaurant4bbbb9c5e4529521b41655a4",
    "time": "2012-04-28"
  },
  {
    "place": "Movie Theater4bda5808a8d976b0c67e0cb5",
    "time": "2012-04-28"
  },
  {
    "place": "Movie Theater4bda5808a8d976b0c67e0cb5",
    "time": "2012-04-28"
  },
  {
    "place": "College Academic Building4bf40a98706e20a1e4d8a898",
    "time": "2012-04-28"
  },
  {
    "place": "University4a79e11af964a520e0e71fe3",
    "time": "2012-05-02"
  },
  {
    "place": "College Academic Building4bbb965dafe1b71364632f4b",
    "time": "2012-05-02"
  },
  {
    "place": "General College & University4bcc43030687ef3bece4decc",
    "time": "2012-05-03"
  },
  {
    "place": "Department Store4e666a5f227168062a3b81bc",
    "time": "2012-05-03"
  },
  {
    "place": "College Academic Building4c3d0c9a7ea895214a6f2247",
    "time": "2012-05-04"
  },
  {
    "place": "Office4b9c5a85f964a520116236e3",
    "time": "2012-05-05"
  },
  {
    "place": "General College & University4bcefaa529d4b713cd51a9dc",
    "time": "2012-05-05"
  },
  {
    "place": "Food & Drink Shop4f00cbfc0aaffcf6f55290b7",
    "time": "2012-05-05"
  },
  {
    "place": "University4a79e11af964a520e0e71fe3",
    "time": "2012-05-07"
  },
  {
    "place": "College Academic Building4bbb965dafe1b71364632f4b",
    "time": "2012-05-07"
  },
  {
    "place": "Office4b9c5a85f964a520116236e3",
    "time": "2012-05-08"
  },
  {
    "place": "General College & University4bcefaa529d4b713cd51a9dc",
    "time": "2012-05-08"
  },
  {
    "place": "University4a79e11af964a520e0e71fe3",
    "time": "2012-05-09"
  },
  {
    "place": "College Academic Building4bbb965dafe1b71364632f4b",
    "time": "2012-05-09"
  },
  {
    "place": "Office4b9c5a85f964a520116236e3",
    "time": "2012-05-11"
  },
  {
    "place": "General College & University4bcefaa529d4b713cd51a9dc",
    "time": "2012-05-11"
  },
  {
    "place": "Automotive Shop4bfe8f5e4cf820a1020beef4",
    "time": "2012-05-11"
  },
  {
    "place": "Pet Store4b7c497bf964a520e0892fe3",
    "time": "2012-05-11"
  },
  {
    "place": "Home (private)4e52ef26183813674728e6c4",
    "time": "2012-05-11"
  },
  {
    "place": "Office4b9c5a85f964a520116236e3",
    "time": "2012-05-12"
  },
  {
    "place": "General College & University4bcefaa529d4b713cd51a9dc",
    "time": "2012-05-12"
  },
  {
    "place": "University4a79e11af964a520e0e71fe3",
    "time": "2012-05-14"
  },
  {
    "place": "College Academic Building4bbb965dafe1b71364632f4b",
    "time": "2012-05-14"
  },
  {
    "place": "University4a79e11af964a520e0e71fe3",
    "time": "2012-05-16"
  },
  {
    "place": "College Academic Building4bbb965dafe1b71364632f4b",
    "time": "2012-05-16"
  },
  {
    "place": "Movie Theater4bda5808a8d976b0c67e0cb5",
    "time": "2012-05-19"
  },
  {
    "place": "Office4b9c5a85f964a520116236e3",
    "time": "2012-05-19"
  },
  {
    "place": "General College & University4bcefaa529d4b713cd51a9dc",
    "time": "2012-05-19"
  },
  {
    "place": "Department Store4aff40e7f964a520833622e3",
    "time": "2012-05-19"
  },
  {
    "place": "University4a79e11af964a520e0e71fe3",
    "time": "2012-05-19"
  },
  {
    "place": "College Academic Building4bccba5e8920b71351a39edc",
    "time": "2012-05-19"
  },
  {
    "place": "University4a79e11af964a520e0e71fe3",
    "time": "2012-05-21"
  },
  {
    "place": "Drugstore / Pharmacy4bf225093fa220a1881d1920",
    "time": "2012-05-21"
  },
  {
    "place": "Paper / Office Supplies Store4c572cd86201e21e7fe8586e",
    "time": "2012-05-21"
  },
  {
    "place": "Office4b9c5a85f964a520116236e3",
    "time": "2012-05-22"
  },
  {
    "place": "General College & University4bcefaa529d4b713cd51a9dc",
    "time": "2012-05-22"
  },
  {
    "place": "General College & University4bcc43030687ef3bece4decc",
    "time": "2012-05-23"
  },
  {
    "place": "Office4b9c5a85f964a520116236e3",
    "time": "2012-05-25"
  },
  {
    "place": "General College & University4bcefaa529d4b713cd51a9dc",
    "time": "2012-05-25"
  },
  {
    "place": "Caf\u00c3\u00a94ee78665be7b5922f8d6d661",
    "time": "2012-05-25"
  },
  {
    "place": "Office4b9c5a85f964a520116236e3",
    "time": "2012-05-27"
  },
  {
    "place": "General College & University4bcefaa529d4b713cd51a9dc",
    "time": "2012-05-27"
  },
  {
    "place": "General College & University4bcefaa529d4b713cd51a9dc",
    "time": "2012-05-28"
  },
  {
    "place": "Beach4c006f47efa2ef3bf74baa8c",
    "time": "2012-05-29"
  },
  {
    "place": "American Restaurant4bbbb9c5e4529521b41655a4",
    "time": "2012-05-29"
  },
  {
    "place": "Caf\u00c3\u00a94ee78665be7b5922f8d6d661",
    "time": "2012-05-31"
  },
  {
    "place": "Office4b9c5a85f964a520116236e3",
    "time": "2012-06-04"
  },
  {
    "place": "General College & University4bcefaa529d4b713cd51a9dc",
    "time": "2012-06-04"
  },
  {
    "place": "Hardware Store4e139523a809548274a4a0e1",
    "time": "2012-06-07"
  },
  {
    "place": "Hardware Store4b92bb5ef964a5203c1634e3",
    "time": "2012-06-07"
  },
  {
    "place": "American Restaurant4bbbb9c5e4529521b41655a4",
    "time": "2012-06-07"
  },
  {
    "place": "Home (private)4ed80b6d775bcc53f7b5bf76",
    "time": "2012-06-08"
  },
  {
    "place": "Pet Store4b7c497bf964a520e0892fe3",
    "time": "2012-06-08"
  },
  {
    "place": "Tattoo Parlor4bca6feacc8cd13a7bd0bdcf",
    "time": "2012-06-09"
  },
  {
    "place": "Drugstore / Pharmacy4bae3fd7f964a5205e983be3",
    "time": "2012-06-09"
  },
  {
    "place": "Office4b9c5a85f964a520116236e3",
    "time": "2012-06-09"
  },
  {
    "place": "General College & University4bcefaa529d4b713cd51a9dc",
    "time": "2012-06-09"
  },
  {
    "place": "Caf\u00c3\u00a94ee78665be7b5922f8d6d661",
    "time": "2012-06-09"
  },
  {
    "place": "Ice Cream Shop4c784bfe3badb1f74d624b54",
    "time": "2012-06-10"
  },
  {
    "place": "Office4b9c5a85f964a520116236e3",
    "time": "2012-06-11"
  },
  {
    "place": "General College & University4bcefaa529d4b713cd51a9dc",
    "time": "2012-06-11"
  },
  {
    "place": "Drugstore / Pharmacy4bf225093fa220a1881d1920",
    "time": "2012-06-11"
  },
  {
    "place": "Automotive Shop4bfe8f5e4cf820a1020beef4",
    "time": "2012-06-11"
  },
  {
    "place": "Department Store4aff40e7f964a520833622e3",
    "time": "2012-06-11"
  },
  {
    "place": "Office4b9c5a85f964a520116236e3",
    "time": "2012-06-13"
  },
  {
    "place": "General College & University4bcefaa529d4b713cd51a9dc",
    "time": "2012-06-13"
  },
  {
    "place": "Caf\u00c3\u00a94ee78665be7b5922f8d6d661",
    "time": "2012-06-13"
  },
  {
    "place": "University4a79e11af964a520e0e71fe3",
    "time": "2012-06-13"
  },
  {
    "place": "College Academic Building4bccba5e8920b71351a39edc",
    "time": "2012-06-13"
  },
  {
    "place": "American Restaurant4bbbb9c5e4529521b41655a4",
    "time": "2012-06-16"
  },
  {
    "place": "Office4b9c5a85f964a520116236e3",
    "time": "2012-06-17"
  },
  {
    "place": "General College & University4bcefaa529d4b713cd51a9dc",
    "time": "2012-06-17"
  },
  {
    "place": "Automotive Shop4c3b4fce1a1cd13ad424b60d",
    "time": "2012-06-18"
  },
  {
    "place": "Automotive Shop4f491f1de4b08f45dd98002f",
    "time": "2012-06-18"
  },
  {
    "place": "Beach4bc9c4ea937ca593fa40a692",
    "time": "2012-06-18"
  },
  {
    "place": "Office4b9c5a85f964a520116236e3",
    "time": "2012-06-21"
  },
  {
    "place": "General College & University4bcefaa529d4b713cd51a9dc",
    "time": "2012-06-21"
  },
  {
    "place": "Caf\u00c3\u00a94ee78665be7b5922f8d6d661",
    "time": "2012-06-21"
  },
  {
    "place": "Office4b9c5a85f964a520116236e3",
    "time": "2012-06-27"
  },
  {
    "place": "General College & University4bcefaa529d4b713cd51a9dc",
    "time": "2012-06-27"
  },
  {
    "place": "Office4b9c5a85f964a520116236e3",
    "time": "2012-07-02"
  },
  {
    "place": "General College & University4bcefaa529d4b713cd51a9dc",
    "time": "2012-07-02"
  },
  {
    "place": "Pizza Place49d006ccf964a520f85a1fe3",
    "time": "2012-07-02"
  },
  {
    "place": "Office4b9c5a85f964a520116236e3",
    "time": "2012-07-04"
  },
  {
    "place": "General College & University4bcefaa529d4b713cd51a9dc",
    "time": "2012-07-04"
  },
  {
    "place": "Office4b9c5a85f964a520116236e3",
    "time": "2012-07-06"
  },
  {
    "place": "General College & University4bcefaa529d4b713cd51a9dc",
    "time": "2012-07-06"
  },
  {
    "place": "Office4b9c5a85f964a520116236e3",
    "time": "2012-07-07"
  },
  {
    "place": "General College & University4bcefaa529d4b713cd51a9dc",
    "time": "2012-07-07"
  },
  {
    "place": "Automotive Shop4bfe8f5e4cf820a1020beef4",
    "time": "2012-07-07"
  },
  {
    "place": "Automotive Shop4bf3e1f03f86c9b61990b21c",
    "time": "2012-07-07"
  },
  {
    "place": "Office4b9c5a85f964a520116236e3",
    "time": "2012-07-08"
  },
  {
    "place": "General College & University4bcefaa529d4b713cd51a9dc",
    "time": "2012-07-08"
  },
  {
    "place": "Performing Arts Venue4b65d44df964a5207d022be3",
    "time": "2012-07-08"
  },
  {
    "place": "Other Great Outdoors4c2f8037a0ced13a40a4106e",
    "time": "2012-07-08"
  },
  {
    "place": "Ice Cream Shop4a790e8bf964a520e3e61fe3",
    "time": "2012-07-08"
  },
  {
    "place": "Ferry4a478d19f964a520d2a91fe3",
    "time": "2012-07-09"
  },
  {
    "place": "Ferry4c1a94bcb4e62d7f0c08d893",
    "time": "2012-07-09"
  },
  {
    "place": "Ferry4165d880f964a5207e1d1fe3",
    "time": "2012-07-09"
  },
  {
    "place": "Subway4b466b09f964a520452026e3",
    "time": "2012-07-09"
  },
  {
    "place": "Science Museum4297b480f964a52062241fe3",
    "time": "2012-07-09"
  },
  {
    "place": "History Museum4de53b42d4c0704405ae2b63",
    "time": "2012-07-09"
  },
  {
    "place": "Science Museum4d44976614aa8cfa149f683d",
    "time": "2012-07-09"
  },
  {
    "place": "History Museum4de53c75d22d7fddb9bb4cdb",
    "time": "2012-07-09"
  },
  {
    "place": "History Museum4bbcaefef57ba593aa10adb9",
    "time": "2012-07-09"
  },
  {
    "place": "Science Museum4de2b43d8877bcb6864b6ab1",
    "time": "2012-07-09"
  },
  {
    "place": "Science Museum4d703bf995acb1f7494103b9",
    "time": "2012-07-09"
  },
  {
    "place": "Planetarium4b9af865f964a520fde735e3",
    "time": "2012-07-09"
  },
  {
    "place": "Park412d2800f964a520df0c1fe3",
    "time": "2012-07-09"
  },
  {
    "place": "Park4a318fe7f964a520f2991fe3",
    "time": "2012-07-09"
  },
  {
    "place": "American Restaurant4bbbb9c5e4529521b41655a4",
    "time": "2012-07-11"
  },
  {
    "place": "Office4b9c5a85f964a520116236e3",
    "time": "2012-07-13"
  },
  {
    "place": "General College & University4bcefaa529d4b713cd51a9dc",
    "time": "2012-07-13"
  },
  {
    "place": "Italian Restaurant4b8a719df964a520016d32e3",
    "time": "2012-07-14"
  },
  {
    "place": "Office4b9c5a85f964a520116236e3",
    "time": "2012-07-14"
  },
  {
    "place": "General College & University4bcefaa529d4b713cd51a9dc",
    "time": "2012-07-14"
  },
  {
    "place": "University4a79e11af964a520e0e71fe3",
    "time": "2012-07-16"
  },
  {
    "place": "Ferry4a478d19f964a520d2a91fe3",
    "time": "2012-07-16"
  },
  {
    "place": "Ferry4c1a94bcb4e62d7f0c08d893",
    "time": "2012-07-16"
  },
  {
    "place": "Home (private)4e52ef26183813674728e6c4",
    "time": "2012-07-17"
  },
  {
    "place": "Office4b9c5a85f964a520116236e3",
    "time": "2012-07-17"
  },
  {
    "place": "General College & University4bcefaa529d4b713cd51a9dc",
    "time": "2012-07-17"
  },
  {
    "place": "University4a79e11af964a520e0e71fe3",
    "time": "2012-07-17"
  },
  {
    "place": "Ice Cream Shop4a790e8bf964a520e3e61fe3",
    "time": "2012-07-17"
  },
  {
    "place": "Beach4bc9c4ea937ca593fa40a692",
    "time": "2012-07-21"
  },
  {
    "place": "Office4b9c5a85f964a520116236e3",
    "time": "2012-07-22"
  },
  {
    "place": "General College & University4bcefaa529d4b713cd51a9dc",
    "time": "2012-07-22"
  },
  {
    "place": "Office4b9c5a85f964a520116236e3",
    "time": "2012-07-24"
  },
  {
    "place": "General College & University4bcefaa529d4b713cd51a9dc",
    "time": "2012-07-24"
  },
  {
    "place": "General College & University4bcefaa529d4b713cd51a9dc",
    "time": "2012-07-28"
  },
  {
    "place": "Office4b9c5a85f964a520116236e3",
    "time": "2012-07-29"
  },
  {
    "place": "General College & University4bcefaa529d4b713cd51a9dc",
    "time": "2012-07-29"
  },
  {
    "place": "University4a79e11af964a520e0e71fe3",
    "time": "2012-07-29"
  },
  {
    "place": "Office4b9c5a85f964a520116236e3",
    "time": "2012-07-30"
  },
  {
    "place": "General College & University4bcefaa529d4b713cd51a9dc",
    "time": "2012-07-30"
  },
  {
    "place": "Office4b9c5a85f964a520116236e3",
    "time": "2012-08-05"
  },
  {
    "place": "General College & University4bcefaa529d4b713cd51a9dc",
    "time": "2012-08-05"
  },
  {
    "place": "Office4b9c5a85f964a520116236e3",
    "time": "2012-08-06"
  },
  {
    "place": "General College & University4bcefaa529d4b713cd51a9dc",
    "time": "2012-08-06"
  },
  {
    "place": "Caf\u00c3\u00a94ee78665be7b5922f8d6d661",
    "time": "2012-08-09"
  },
  {
    "place": "Movie Theater4bda5808a8d976b0c67e0cb5",
    "time": "2012-08-10"
  },
  {
    "place": "Office4b9c5a85f964a520116236e3",
    "time": "2012-08-11"
  },
  {
    "place": "General College & University4bcefaa529d4b713cd51a9dc",
    "time": "2012-08-12"
  },
  {
    "place": "American Restaurant4eb31040dab4b138c5b93fe2",
    "time": "2012-08-13"
  },
  {
    "place": "Office4b9c5a85f964a520116236e3",
    "time": "2012-08-14"
  },
  {
    "place": "General College & University4bcefaa529d4b713cd51a9dc",
    "time": "2012-08-14"
  },
  {
    "place": "Department Store4aff40e7f964a520833622e3",
    "time": "2012-08-17"
  },
  {
    "place": "Automotive Shop4bfe8f5e4cf820a1020beef4",
    "time": "2012-08-17"
  },
  {
    "place": "Tanning Salon4b8ac50ef964a520ce7f32e3",
    "time": "2012-08-19"
  },
  {
    "place": "Ferry4a478d19f964a520d2a91fe3",
    "time": "2012-08-19"
  },
  {
    "place": "Subway4b44a049f964a5201cf825e3",
    "time": "2012-08-19"
  },
  {
    "place": "Other Great Outdoors4e8b92c493adecfdb91d2727",
    "time": "2012-08-19"
  },
  {
    "place": "Other Great Outdoors4b47cdd5f964a520693f26e3",
    "time": "2012-08-19"
  },
  {
    "place": "Plaza49b7ed6df964a52030531fe3",
    "time": "2012-08-19"
  },
  {
    "place": "Home (private)4e52ef26183813674728e6c4",
    "time": "2012-08-20"
  },
  {
    "place": "College Academic Building4bbb965dafe1b71364632f4b",
    "time": "2012-09-05"
  },
  {
    "place": "General College & University4bcefaa529d4b713cd51a9dc",
    "time": "2012-09-09"
  },
  {
    "place": "Tanning Salon4b8ac50ef964a520ce7f32e3",
    "time": "2012-09-09"
  },
  {
    "place": "Diner4bdc24922a3a0f47a39db1b6",
    "time": "2012-09-10"
  }
]