[
  {
    "place": "Japanese Restaurant4a96e0a7f964a520592720e3",
    "time": "2012-04-04"
  },
  {
    "place": "Bowling Alley3fd66200f964a5200ae91ee3",
    "time": "2012-04-04"
  },
  {
    "place": "Office49d164f1f964a5207c5b1fe3",
    "time": "2012-04-04"
  },
  {
    "place": "Deli / Bodega4b790229f964a520cce82ee3",
    "time": "2012-04-04"
  },
  {
    "place": "Gym / Fitness Center4cbe5493611abfb717f5a405",
    "time": "2012-04-04"
  },
  {
    "place": "Bank4d7ba99779c4b1f7bc16ecf2",
    "time": "2012-04-06"
  },
  {
    "place": "Food & Drink Shop4a35477cf964a520b79c1fe3",
    "time": "2012-04-06"
  },
  {
    "place": "Food & Drink Shop3fd66200f964a520b6e41ee3",
    "time": "2012-04-06"
  },
  {
    "place": "Convenience Store4a723953f964a520a2da1fe3",
    "time": "2012-04-06"
  },
  {
    "place": "Eastern European Restaurant4b031d37f964a520bf4c22e3",
    "time": "2012-04-06"
  },
  {
    "place": "Food & Drink Shop4b2415fdf964a520c26024e3",
    "time": "2012-04-06"
  },
  {
    "place": "Coffee Shop4f0eea15c2eeb8e9e165bb60",
    "time": "2012-04-07"
  },
  {
    "place": "Flea Market4e2aefd4aeb745b1fabd9ba8",
    "time": "2012-04-07"
  },
  {
    "place": "Food & Drink Shop4da4881522a5f04d67b03a55",
    "time": "2012-04-07"
  },
  {
    "place": "Train Station42911d00f964a520f5231fe3",
    "time": "2012-04-07"
  },
  {
    "place": "Mexican Restaurant4cf7ddac665854813d15d198",
    "time": "2012-04-08"
  },
  {
    "place": "Tapas Restaurant45697387f964a520e53d1fe3",
    "time": "2012-04-08"
  },
  {
    "place": "Park40b68100f964a5207d001fe3",
    "time": "2012-04-08"
  },
  {
    "place": "Caf\u00c3\u00a94ddecc7ad4c01aeee905c13b",
    "time": "2012-04-08"
  },
  {
    "place": "Home (private)4f1af1e6e5e85dca13107267",
    "time": "2012-04-08"
  },
  {
    "place": "Park3fd66200f964a520d7f11ee3",
    "time": "2012-04-08"
  },
  {
    "place": "Drugstore / Pharmacy4adf4335f964a520df7821e3",
    "time": "2012-04-08"
  },
  {
    "place": "Bookstore4b0ff4a0f964a520b16623e3",
    "time": "2012-04-08"
  },
  {
    "place": "Salon / Barbershop4c88fe59da5da1cd318738e9",
    "time": "2012-04-09"
  },
  {
    "place": "Office49d164f1f964a5207c5b1fe3",
    "time": "2012-04-09"
  },
  {
    "place": "Scenic Lookout4ba0dd15f964a520078337e3",
    "time": "2012-04-09"
  },
  {
    "place": "Vegetarian / Vegan Restaurant4b2fadfdf964a520e6ed24e3",
    "time": "2012-04-09"
  },
  {
    "place": "Office49d164f1f964a5207c5b1fe3",
    "time": "2012-04-10"
  },
  {
    "place": "Mexican Restaurant49c7029ef964a52096571fe3",
    "time": "2012-04-10"
  },
  {
    "place": "Bowling Alley3fd66200f964a5200ae91ee3",
    "time": "2012-04-10"
  },
  {
    "place": "Latin American Restaurant4a667506f964a52093c81fe3",
    "time": "2012-04-11"
  },
  {
    "place": "Gastropub4cccb964c9b8468815d4bec3",
    "time": "2012-04-13"
  },
  {
    "place": "Fast Food Restaurant4e344839d4c06343482138b5",
    "time": "2012-04-13"
  },
  {
    "place": "Office49d164f1f964a5207c5b1fe3",
    "time": "2012-04-13"
  },
  {
    "place": "Sandwich Place4f5aa0f8e4b01219aa6f6c6a",
    "time": "2012-04-14"
  },
  {
    "place": "Bar3fd66200f964a52003e51ee3",
    "time": "2012-04-14"
  },
  {
    "place": "Bar3fd66200f964a52029e31ee3",
    "time": "2012-04-14"
  },
  {
    "place": "BBQ Joint43fec232f964a520fd2f1fe3",
    "time": "2012-04-14"
  },
  {
    "place": "Sporting Goods Shop4a789701f964a520f9e51fe3",
    "time": "2012-04-14"
  },
  {
    "place": "Coffee Shop4a560cd1f964a5205cb41fe3",
    "time": "2012-04-14"
  },
  {
    "place": "Drugstore / Pharmacy4a72802cf964a52021db1fe3",
    "time": "2012-04-14"
  },
  {
    "place": "Park412d2800f964a520df0c1fe3",
    "time": "2012-04-14"
  },
  {
    "place": "Food & Drink Shop4c225ae47e85c9283ee5bb21",
    "time": "2012-04-14"
  },
  {
    "place": "Coffee Shop4eb811f629c212fb6d8158e5",
    "time": "2012-04-15"
  },
  {
    "place": "Train Station42911d00f964a520f5231fe3",
    "time": "2012-04-15"
  },
  {
    "place": "Train Station4ab38f3df964a520ca6d20e3",
    "time": "2012-04-15"
  },
  {
    "place": "Light Rail4dbc3b684df044e524de5a82",
    "time": "2012-04-15"
  },
  {
    "place": "Airport4ada8cf5f964a520712321e3",
    "time": "2012-04-15"
  },
  {
    "place": "Airport4459d2f1f964a520d7321fe3",
    "time": "2012-04-24"
  },
  {
    "place": "Chinese Restaurant4e7fc0019adffe8cdf3b2198",
    "time": "2012-04-24"
  },
  {
    "place": "Food & Drink Shop4a98599ef964a520a62b20e3",
    "time": "2012-04-24"
  },
  {
    "place": "Food & Drink Shop3fd66200f964a520b6e41ee3",
    "time": "2012-04-24"
  },
  {
    "place": "Food & Drink Shop4a35477cf964a520b79c1fe3",
    "time": "2012-04-24"
  },
  {
    "place": "Office49d164f1f964a5207c5b1fe3",
    "time": "2012-04-25"
  },
  {
    "place": "Gym / Fitness Center4cbe5493611abfb717f5a405",
    "time": "2012-04-25"
  },
  {
    "place": "Vegetarian / Vegan Restaurant4b2fadfdf964a520e6ed24e3",
    "time": "2012-04-25"
  },
  {
    "place": "Scenic Lookout4ba0dd15f964a520078337e3",
    "time": "2012-04-27"
  },
  {
    "place": "Chinese Restaurant46936ee3f964a520d0481fe3",
    "time": "2012-04-27"
  },
  {
    "place": "Middle Eastern Restaurant4a9c77ebf964a520493720e3",
    "time": "2012-04-28"
  },
  {
    "place": "Snack Place4f6ff655e4b0ad1af6cc40d3",
    "time": "2012-04-28"
  },
  {
    "place": "Bar3fd66200f964a52015e31ee3",
    "time": "2012-04-28"
  },
  {
    "place": "Bar3fd66200f964a52060e81ee3",
    "time": "2012-04-28"
  },
  {
    "place": "Flea Market4bcc90d00687ef3b3c76dfcc",
    "time": "2012-04-28"
  },
  {
    "place": "Food Truck4aa3efbdf964a5206d4420e3",
    "time": "2012-04-28"
  },
  {
    "place": "Coffee Shop4ee13a16775b24730288e9f3",
    "time": "2012-04-28"
  },
  {
    "place": "Pizza Place4a595407f964a5203cb91fe3",
    "time": "2012-04-29"
  },
  {
    "place": "Bar3fd66200f964a52005e41ee3",
    "time": "2012-04-29"
  },
  {
    "place": "Bar3fd66200f964a520dfe31ee3",
    "time": "2012-04-29"
  },
  {
    "place": "Bar41a91500f964a520511e1fe3",
    "time": "2012-04-29"
  },
  {
    "place": "Bar3fd66200f964a5203fe41ee3",
    "time": "2012-04-29"
  },
  {
    "place": "Cuban Restaurant4d960605daec224beab30c3e",
    "time": "2012-04-29"
  },
  {
    "place": "BBQ Joint43fec232f964a520fd2f1fe3",
    "time": "2012-04-29"
  },
  {
    "place": "Food & Drink Shop4a35477cf964a520b79c1fe3",
    "time": "2012-04-29"
  },
  {
    "place": "Drugstore / Pharmacy4a8f7ba5f964a520601520e3",
    "time": "2012-04-29"
  },
  {
    "place": "Dumpling Restaurant3fd66200f964a52069e61ee3",
    "time": "2012-05-01"
  },
  {
    "place": "Gym / Fitness Center4cbe5493611abfb717f5a405",
    "time": "2012-05-01"
  },
  {
    "place": "Electronics Store3fd66200f964a5205fe41ee3",
    "time": "2012-05-01"
  },
  {
    "place": "Vegetarian / Vegan Restaurant4f54152ee4b0b5d9df5b4753",
    "time": "2012-05-01"
  },
  {
    "place": "Sandwich Place4a7a7a8ef964a5205de91fe3",
    "time": "2012-05-03"
  },
  {
    "place": "Sushi Restaurant49bfcd11f964a52026551fe3",
    "time": "2012-05-04"
  },
  {
    "place": "Office49d164f1f964a5207c5b1fe3",
    "time": "2012-05-04"
  },
  {
    "place": "Sandwich Place4a7a7a8ef964a5205de91fe3",
    "time": "2012-05-04"
  },
  {
    "place": "Pizza Place4fa34aa4e4b0bbcd4859bd53",
    "time": "2012-05-05"
  },
  {
    "place": "Bar3fd66200f964a5202fe41ee3",
    "time": "2012-05-05"
  },
  {
    "place": "Australian Restaurant4572f7fbf964a520823e1fe3",
    "time": "2012-05-05"
  },
  {
    "place": "Beer Garden40870b00f964a520b7f21ee3",
    "time": "2012-05-05"
  },
  {
    "place": "Indian Restaurant43a7557bf964a5206b2c1fe3",
    "time": "2012-05-05"
  },
  {
    "place": "Bank4d7ba99779c4b1f7bc16ecf2",
    "time": "2012-05-05"
  },
  {
    "place": "Food & Drink Shop4a35477cf964a520b79c1fe3",
    "time": "2012-05-05"
  },
  {
    "place": "Snack Place4f6ff655e4b0ad1af6cc40d3",
    "time": "2012-05-05"
  },
  {
    "place": "Bar3fd66200f964a52044e51ee3",
    "time": "2012-05-05"
  },
  {
    "place": "Bar40f47780f964a5208e0a1fe3",
    "time": "2012-05-05"
  },
  {
    "place": "Art Gallery4f854d1abb3d670e74af1871",
    "time": "2012-05-06"
  },
  {
    "place": "Mexican Restaurant4ac2a8abf964a520349a20e3",
    "time": "2012-05-06"
  },
  {
    "place": "Office49d164f1f964a5207c5b1fe3",
    "time": "2012-05-07"
  },
  {
    "place": "Gym / Fitness Center4cbe5493611abfb717f5a405",
    "time": "2012-05-07"
  },
  {
    "place": "Office49d164f1f964a5207c5b1fe3",
    "time": "2012-05-08"
  },
  {
    "place": "Fried Chicken Joint4eab5c9029c2152debbb6a71",
    "time": "2012-05-08"
  },
  {
    "place": "Coffee Shop49d2b43ef964a520cb5b1fe3",
    "time": "2012-05-08"
  },
  {
    "place": "Japanese Restaurant4cf9655334c1a09374cb390e",
    "time": "2012-05-08"
  },
  {
    "place": "Latin American Restaurant4a667506f964a52093c81fe3",
    "time": "2012-05-09"
  },
  {
    "place": "Cuban Restaurant4d220ee98629224b0f542087",
    "time": "2012-05-09"
  },
  {
    "place": "Sandwich Place4b5b6cdaf964a52012fd28e3",
    "time": "2012-05-10"
  },
  {
    "place": "Bar3fd66200f964a520c0e61ee3",
    "time": "2012-05-10"
  },
  {
    "place": "Food & Drink Shop4a35477cf964a520b79c1fe3",
    "time": "2012-05-10"
  },
  {
    "place": "Middle Eastern Restaurant457bfac7f964a520fa3e1fe3",
    "time": "2012-05-11"
  },
  {
    "place": "Office49d164f1f964a5207c5b1fe3",
    "time": "2012-05-11"
  },
  {
    "place": "Pizza Place4ba4706df964a5206e9d38e3",
    "time": "2012-05-11"
  },
  {
    "place": "Thai Restaurant4d8bee4dc640224bd8cc6d54",
    "time": "2012-05-12"
  },
  {
    "place": "Ice Cream Shop49c26973f964a520eb551fe3",
    "time": "2012-05-12"
  },
  {
    "place": "Drugstore / Pharmacy4a9c8a06f964a520813720e3",
    "time": "2012-05-12"
  },
  {
    "place": "Bagel Shop4a830890f964a520e4f91fe3",
    "time": "2012-05-12"
  },
  {
    "place": "Hotel4ae626b1f964a52019a521e3",
    "time": "2012-05-13"
  },
  {
    "place": "Bakery4e81fe84b803d162dfa34590",
    "time": "2012-05-13"
  },
  {
    "place": "Italian Restaurant4d461e6dbf61a1cd960d1aac",
    "time": "2012-05-13"
  },
  {
    "place": "Burger Joint4e80ba3493ad6c288946becc",
    "time": "2012-05-13"
  },
  {
    "place": "Drugstore / Pharmacy4b2c1d0df964a520f1c124e3",
    "time": "2012-05-14"
  },
  {
    "place": "Office49d164f1f964a5207c5b1fe3",
    "time": "2012-05-14"
  },
  {
    "place": "Steakhouse4a565991f964a5200bb51fe3",
    "time": "2012-05-14"
  },
  {
    "place": "Sandwich Place4fa9779ae4b01db688d9f555",
    "time": "2012-05-14"
  },
  {
    "place": "Office49d164f1f964a5207c5b1fe3",
    "time": "2012-05-15"
  },
  {
    "place": "Food Truck4d6ee122b45b59417c6a6778",
    "time": "2012-05-15"
  },
  {
    "place": "Mexican Restaurant457be73df964a520f73e1fe3",
    "time": "2012-05-15"
  },
  {
    "place": "Seafood Restaurant4d863becf1e56ea852a5998a",
    "time": "2012-05-16"
  },
  {
    "place": "Office49d164f1f964a5207c5b1fe3",
    "time": "2012-05-16"
  },
  {
    "place": "Electronics Store4aabf955f964a520505b20e3",
    "time": "2012-05-16"
  },
  {
    "place": "Gym / Fitness Center4cbe5493611abfb717f5a405",
    "time": "2012-05-16"
  },
  {
    "place": "Hot Dog Joint3fd66200f964a520a5e41ee3",
    "time": "2012-05-17"
  },
  {
    "place": "Office49d164f1f964a5207c5b1fe3",
    "time": "2012-05-17"
  },
  {
    "place": "Food Truck4fa40fdee4b02175370b126d",
    "time": "2012-05-17"
  },
  {
    "place": "Scenic Lookout4ba0dd15f964a520078337e3",
    "time": "2012-05-17"
  },
  {
    "place": "Art Gallery49d675c5f964a520d15c1fe3",
    "time": "2012-05-18"
  },
  {
    "place": "Mexican Restaurant449955b7f964a52093341fe3",
    "time": "2012-05-18"
  },
  {
    "place": "Bank4d7ba99779c4b1f7bc16ecf2",
    "time": "2012-05-19"
  },
  {
    "place": "Italian Restaurant4bba63621261d13a5093ea98",
    "time": "2012-05-19"
  },
  {
    "place": "Food & Drink Shop3fd66200f964a520b6e41ee3",
    "time": "2012-05-19"
  },
  {
    "place": "Spanish Restaurant4a771190f964a5207ce31fe3",
    "time": "2012-05-19"
  },
  {
    "place": "Flea Market4dd7c0afd1647fcf3e518ff3",
    "time": "2012-05-19"
  },
  {
    "place": "Sandwich Place4e6ab88a091a37e2ddc6177d",
    "time": "2012-05-19"
  },
  {
    "place": "Pizza Place4e91dd7f8231d8feae885861",
    "time": "2012-05-19"
  },
  {
    "place": "Beer Garden40807380f964a52080f21ee3",
    "time": "2012-05-19"
  },
  {
    "place": "Bar4d34a091c6cba35dec2f357a",
    "time": "2012-05-19"
  },
  {
    "place": "Bagel Shop4dd10cf4b0fb25f6e3817b33",
    "time": "2012-05-19"
  },
  {
    "place": "Clothing Store4aac4964f964a5204c5d20e3",
    "time": "2012-05-19"
  },
  {
    "place": "Office49d164f1f964a5207c5b1fe3",
    "time": "2012-05-21"
  },
  {
    "place": "Bar42586c80f964a520dd201fe3",
    "time": "2012-05-21"
  },
  {
    "place": "Chinese Restaurant4c2a81398abca59393c8fe1f",
    "time": "2012-05-21"
  },
  {
    "place": "Office49d164f1f964a5207c5b1fe3",
    "time": "2012-05-22"
  },
  {
    "place": "Breakfast Spot40f1d480f964a5205b0a1fe3",
    "time": "2012-05-23"
  },
  {
    "place": "Gym / Fitness Center4cbe5493611abfb717f5a405",
    "time": "2012-05-23"
  },
  {
    "place": "Drugstore / Pharmacy4b5a028bf964a52078a728e3",
    "time": "2012-05-23"
  },
  {
    "place": "Bank4d7ba99779c4b1f7bc16ecf2",
    "time": "2012-05-23"
  },
  {
    "place": "Electronics Store4afd738bf964a520e92722e3",
    "time": "2012-05-23"
  },
  {
    "place": "Drugstore / Pharmacy4a011ecef964a520d9701fe3",
    "time": "2012-05-23"
  },
  {
    "place": "Mediterranean Restaurant4f5e9155e4b0b97ed8e94884",
    "time": "2012-05-24"
  },
  {
    "place": "Airport4ace6c89f964a52078d020e3",
    "time": "2012-05-29"
  },
  {
    "place": "Office49d164f1f964a5207c5b1fe3",
    "time": "2012-05-29"
  },
  {
    "place": "Food Truck4cf2c5321d18a143951b5cec",
    "time": "2012-05-29"
  },
  {
    "place": "Gym / Fitness Center4cbe5493611abfb717f5a405",
    "time": "2012-05-29"
  },
  {
    "place": "Office49d164f1f964a5207c5b1fe3",
    "time": "2012-05-31"
  },
  {
    "place": "Office49d164f1f964a5207c5b1fe3",
    "time": "2012-06-01"
  },
  {
    "place": "Scenic Lookout4ba0dd15f964a520078337e3",
    "time": "2012-06-01"
  },
  {
    "place": "Vegetarian / Vegan Restaurant3fd66200f964a5203fe31ee3",
    "time": "2012-06-03"
  },
  {
    "place": "Vietnamese Restaurant49ddea20f964a5201f601fe3",
    "time": "2012-06-03"
  },
  {
    "place": "Bar4adc960bf964a520932d21e3",
    "time": "2012-06-03"
  },
  {
    "place": "Bar3fd66200f964a52021e41ee3",
    "time": "2012-06-03"
  },
  {
    "place": "Music Venue3fd66200f964a520dce31ee3",
    "time": "2012-06-03"
  },
  {
    "place": "Bar3fd66200f964a520dfe31ee3",
    "time": "2012-06-03"
  },
  {
    "place": "Bar45142c75f964a520dc391fe3",
    "time": "2012-06-03"
  },
  {
    "place": "Bagel Shop4a33c0f6f964a520419b1fe3",
    "time": "2012-06-03"
  },
  {
    "place": "Clothing Store4ccf110f32e776b0a7d2dc27",
    "time": "2012-06-03"
  },
  {
    "place": "Thrift / Vintage Store4ab68661f964a520987720e3",
    "time": "2012-06-03"
  },
  {
    "place": "Food & Drink Shop4c225ae47e85c9283ee5bb21",
    "time": "2012-06-03"
  },
  {
    "place": "Office49d164f1f964a5207c5b1fe3",
    "time": "2012-06-04"
  },
  {
    "place": "Gym / Fitness Center4cbe5493611abfb717f5a405",
    "time": "2012-06-04"
  },
  {
    "place": "Pizza Place4f045eeb00399761c77301e3",
    "time": "2012-06-05"
  },
  {
    "place": "Office49d164f1f964a5207c5b1fe3",
    "time": "2012-06-05"
  },
  {
    "place": "Deli / Bodega4bda525dc79cc928fd8e7ee9",
    "time": "2012-06-06"
  },
  {
    "place": "Scenic Lookout4ba0dd15f964a520078337e3",
    "time": "2012-06-06"
  },
  {
    "place": "Gym / Fitness Center4cbe5493611abfb717f5a405",
    "time": "2012-06-06"
  },
  {
    "place": "Bar4101a680f964a5205a0b1fe3",
    "time": "2012-06-07"
  },
  {
    "place": "Bar49f68bb6f964a5204f6c1fe3",
    "time": "2012-06-07"
  },
  {
    "place": "Office49d164f1f964a5207c5b1fe3",
    "time": "2012-06-08"
  },
  {
    "place": "Chinese Restaurant4bcf9774a8b3a5939497625f",
    "time": "2012-06-08"
  },
  {
    "place": "Chinese Restaurant482c4142f964a520d14f1fe3",
    "time": "2012-06-08"
  },
  {
    "place": "Bar4d682ce42ab82d4338bdc7d5",
    "time": "2012-06-09"
  },
  {
    "place": "Bar4602f901f964a520ab441fe3",
    "time": "2012-06-09"
  },
  {
    "place": "Bar3fd66200f964a520d5e61ee3",
    "time": "2012-06-09"
  },
  {
    "place": "Bar3fd66200f964a52081e61ee3",
    "time": "2012-06-09"
  },
  {
    "place": "Pizza Place4e962624775b4d5028f9e3a3",
    "time": "2012-06-09"
  },
  {
    "place": "BBQ Joint4fd2931ee4b0052fbb25ca41",
    "time": "2012-06-09"
  },
  {
    "place": "Park4ba0e4e3f964a520498537e3",
    "time": "2012-06-10"
  },
  {
    "place": "Bagel Shop4a706a71f964a5206ed71fe3",
    "time": "2012-06-10"
  },
  {
    "place": "Bar4a423a67f964a520aba51fe3",
    "time": "2012-06-10"
  },
  {
    "place": "Paper / Office Supplies Store4b8c7409f964a52090d132e3",
    "time": "2012-06-10"
  },
  {
    "place": "Cuban Restaurant4a3d47fdf964a52010a21fe3",
    "time": "2012-06-10"
  },
  {
    "place": "Other Great Outdoors4c04084c9a7920a178b3d079",
    "time": "2012-06-11"
  },
  {
    "place": "Other Great Outdoors4c04084c9a7920a178b3d079",
    "time": "2012-06-11"
  },
  {
    "place": "Bagel Shop49d8ddb1f964a520d15d1fe3",
    "time": "2012-06-11"
  },
  {
    "place": "Thai Restaurant4a4b787bf964a52064ac1fe3",
    "time": "2012-06-11"
  },
  {
    "place": "Gym / Fitness Center4cbe5493611abfb717f5a405",
    "time": "2012-06-11"
  },
  {
    "place": "Sushi Restaurant3fd66200f964a5201ae61ee3",
    "time": "2012-06-11"
  },
  {
    "place": "Office49d164f1f964a5207c5b1fe3",
    "time": "2012-06-12"
  },
  {
    "place": "Food Truck4cf2c5321d18a143951b5cec",
    "time": "2012-06-12"
  },
  {
    "place": "Beer Garden4a7dff4df964a52091f01fe3",
    "time": "2012-06-13"
  },
  {
    "place": "Beer Garden4a7dff4df964a52091f01fe3",
    "time": "2012-06-13"
  },
  {
    "place": "Comedy Club3fd66200f964a52051e61ee3",
    "time": "2012-06-13"
  },
  {
    "place": "Deli / Bodega4b790229f964a520cce82ee3",
    "time": "2012-06-13"
  },
  {
    "place": "Office49d164f1f964a5207c5b1fe3",
    "time": "2012-06-13"
  },
  {
    "place": "Food Truck4fa016cbe4b05d0fc11262c5",
    "time": "2012-06-13"
  },
  {
    "place": "Greek Restaurant4d86c784af642c0f4f8d0fb1",
    "time": "2012-06-14"
  },
  {
    "place": "Bar3fd66200f964a520f6e41ee3",
    "time": "2012-06-14"
  },
  {
    "place": "Other Great Outdoors4c04084c9a7920a178b3d079",
    "time": "2012-06-15"
  },
  {
    "place": "Bagel Shop49d8ddb1f964a520d15d1fe3",
    "time": "2012-06-15"
  },
  {
    "place": "Office49d164f1f964a5207c5b1fe3",
    "time": "2012-06-15"
  },
  {
    "place": "Train Station4ad77a2bf964a520280b21e3",
    "time": "2012-06-16"
  },
  {
    "place": "Tapas Restaurant41abb800f964a520581e1fe3",
    "time": "2012-06-16"
  },
  {
    "place": "Train Station4ad77a2bf964a520280b21e3",
    "time": "2012-06-17"
  },
  {
    "place": "Home (private)4c06da90b4aa0f4710c26462",
    "time": "2012-06-17"
  },
  {
    "place": "Home (private)4c06da90b4aa0f4710c26462",
    "time": "2012-06-17"
  },
  {
    "place": "Home (private)4c06da90b4aa0f4710c26462",
    "time": "2012-06-18"
  },
  {
    "place": "Home (private)4c06da90b4aa0f4710c26462",
    "time": "2012-06-18"
  },
  {
    "place": "Office49d164f1f964a5207c5b1fe3",
    "time": "2012-06-18"
  },
  {
    "place": "Chinese Restaurant4dd5751a1fc7d8d86636b3b6",
    "time": "2012-06-18"
  },
  {
    "place": "Office4a774f23f964a5201fe41fe3",
    "time": "2012-06-20"
  },
  {
    "place": "Gym / Fitness Center4cbe5493611abfb717f5a405",
    "time": "2012-06-20"
  },
  {
    "place": "Mediterranean Restaurant4f5e9155e4b0b97ed8e94884",
    "time": "2012-06-21"
  },
  {
    "place": "Salon / Barbershop4c88fe59da5da1cd318738e9",
    "time": "2012-06-21"
  },
  {
    "place": "Office49d164f1f964a5207c5b1fe3",
    "time": "2012-06-21"
  },
  {
    "place": "Food Truck4c1bf13763750f476ebdb567",
    "time": "2012-06-26"
  },
  {
    "place": "Food Truck4c1bf13763750f476ebdb567",
    "time": "2012-06-26"
  },
  {
    "place": "Food Truck4cf2c5321d18a143951b5cec",
    "time": "2012-06-26"
  },
  {
    "place": "Office49d164f1f964a5207c5b1fe3",
    "time": "2012-06-26"
  },
  {
    "place": "Pizza Place4a455daff964a52014a81fe3",
    "time": "2012-06-26"
  },
  {
    "place": "Chinese Restaurant4f8a09f0e4b037c01f7a37bd",
    "time": "2012-06-27"
  },
  {
    "place": "Chinese Restaurant4fb17687e4b02fcbfc7aa2d7",
    "time": "2012-06-27"
  },
  {
    "place": "Office49d164f1f964a5207c5b1fe3",
    "time": "2012-06-27"
  },
  {
    "place": "Food Truck4ebd2a9bb8f7b504a754c130",
    "time": "2012-06-27"
  },
  {
    "place": "Food & Drink Shop4a35477cf964a520b79c1fe3",
    "time": "2012-06-30"
  },
  {
    "place": "Building4bad9a3ff964a520625e3be3",
    "time": "2012-06-30"
  },
  {
    "place": "Latin American Restaurant4a8eef1ef964a5203b1320e3",
    "time": "2012-06-30"
  },
  {
    "place": "Music Venue4fa87072e4b00b5cf09c811d",
    "time": "2012-07-01"
  },
  {
    "place": "Office49d164f1f964a5207c5b1fe3",
    "time": "2012-07-02"
  },
  {
    "place": "Food & Drink Shop43dd08c1f964a520a52e1fe3",
    "time": "2012-07-02"
  },
  {
    "place": "Office4a774f23f964a5201fe41fe3",
    "time": "2012-07-02"
  },
  {
    "place": "Gym / Fitness Center4cbe5493611abfb717f5a405",
    "time": "2012-07-02"
  },
  {
    "place": "Middle Eastern Restaurant457bfac7f964a520fa3e1fe3",
    "time": "2012-07-03"
  },
  {
    "place": "Food Truck4a6640b3f964a5204cc81fe3",
    "time": "2012-07-03"
  },
  {
    "place": "Home (private)4f1af1e6e5e85dca13107267",
    "time": "2012-07-03"
  },
  {
    "place": "Bar4e67f4e26365d0e7120734fb",
    "time": "2012-07-03"
  },
  {
    "place": "Pizza Place4a89cd2ff964a520100920e3",
    "time": "2012-07-04"
  },
  {
    "place": "Bar4fe50b08e4b08674c9dd2bd4",
    "time": "2012-07-04"
  },
  {
    "place": "Bar3fd66200f964a520b7e41ee3",
    "time": "2012-07-04"
  },
  {
    "place": "Bar451aa7d8f964a520653a1fe3",
    "time": "2012-07-04"
  },
  {
    "place": "Bar4656e1ebf964a52007471fe3",
    "time": "2012-07-04"
  },
  {
    "place": "Chinese Restaurant4c2a81398abca59393c8fe1f",
    "time": "2012-07-05"
  },
  {
    "place": "Office49d164f1f964a5207c5b1fe3",
    "time": "2012-07-05"
  },
  {
    "place": "Office4a774f23f964a5201fe41fe3",
    "time": "2012-07-05"
  },
  {
    "place": "Train Station42911d00f964a520f5231fe3",
    "time": "2012-07-08"
  },
  {
    "place": "Asian Restaurant4c3e5b3cca012d7fa96f2fbe",
    "time": "2012-07-08"
  },
  {
    "place": "Food & Drink Shop3fd66200f964a520b6e41ee3",
    "time": "2012-07-08"
  },
  {
    "place": "Electronics Store3fd66200f964a5205fe41ee3",
    "time": "2012-07-08"
  },
  {
    "place": "Drugstore / Pharmacy4bfd356783bbd13a73f162c5",
    "time": "2012-07-09"
  },
  {
    "place": "Drugstore / Pharmacy4a577f9df964a52043b61fe3",
    "time": "2012-07-09"
  },
  {
    "place": "Office49d164f1f964a5207c5b1fe3",
    "time": "2012-07-09"
  },
  {
    "place": "Deli / Bodega4f0dcbdce4b0d8e3c0d911a8",
    "time": "2012-07-09"
  },
  {
    "place": "Scenic Lookout4ba0dd15f964a520078337e3",
    "time": "2012-07-09"
  },
  {
    "place": "Gym / Fitness Center4cbe5493611abfb717f5a405",
    "time": "2012-07-09"
  },
  {
    "place": "Cuban Restaurant3fd66200f964a520b5ea1ee3",
    "time": "2012-07-11"
  },
  {
    "place": "Asian Restaurant4fad45e8e4b00911a72a8438",
    "time": "2012-07-12"
  },
  {
    "place": "Home (private)4f1af1e6e5e85dca13107267",
    "time": "2012-07-12"
  },
  {
    "place": "Pizza Place4b116915f964a520047c23e3",
    "time": "2012-07-12"
  },
  {
    "place": "Food & Drink Shop4a59208ef964a520beb81fe3",
    "time": "2012-07-12"
  },
  {
    "place": "Office49d164f1f964a5207c5b1fe3",
    "time": "2012-07-12"
  },
  {
    "place": "Outdoors & Recreation4e1f1035c65bd9e1fde3a0f7",
    "time": "2012-07-12"
  },
  {
    "place": "French Restaurant3fd66200f964a520d7e61ee3",
    "time": "2012-07-12"
  },
  {
    "place": "Bar3fd66200f964a520c0e61ee3",
    "time": "2012-07-12"
  },
  {
    "place": "Mexican Restaurant4bb270a8a32876b0d39900fe",
    "time": "2012-07-13"
  },
  {
    "place": "Bar4fefc29de4b0b61f2a3a5129",
    "time": "2012-07-13"
  },
  {
    "place": "French Restaurant3fd66200f964a5203be51ee3",
    "time": "2012-07-13"
  },
  {
    "place": "Office49d164f1f964a5207c5b1fe3",
    "time": "2012-07-13"
  },
  {
    "place": "Coffee Shop4a6dea38f964a52052d31fe3",
    "time": "2012-07-13"
  },
  {
    "place": "Home (private)4f1af1e6e5e85dca13107267",
    "time": "2012-07-13"
  },
  {
    "place": "Fast Food Restaurant4e823dadf790103b982ad147",
    "time": "2012-07-14"
  },
  {
    "place": "Clothing Store4aac4964f964a5204c5d20e3",
    "time": "2012-07-15"
  },
  {
    "place": "Food & Drink Shop441a8599f964a52036311fe3",
    "time": "2012-07-15"
  },
  {
    "place": "Office49d164f1f964a5207c5b1fe3",
    "time": "2012-07-16"
  },
  {
    "place": "Sandwich Place49bd4d49f964a52065541fe3",
    "time": "2012-07-16"
  },
  {
    "place": "Food Truck4bc1ff3ff8219c745110b410",
    "time": "2012-07-16"
  },
  {
    "place": "Gym / Fitness Center4cbe5493611abfb717f5a405",
    "time": "2012-07-16"
  },
  {
    "place": "Food & Drink Shop460d4b1ef964a52004451fe3",
    "time": "2012-07-17"
  },
  {
    "place": "Office49d164f1f964a5207c5b1fe3",
    "time": "2012-07-17"
  },
  {
    "place": "Food Truck4cf2c5321d18a143951b5cec",
    "time": "2012-07-17"
  },
  {
    "place": "Office4a774f23f964a5201fe41fe3",
    "time": "2012-07-17"
  },
  {
    "place": "Gym / Fitness Center4cbe5493611abfb717f5a405",
    "time": "2012-07-17"
  },
  {
    "place": "Food & Drink Shop460d4b1ef964a52004451fe3",
    "time": "2012-07-18"
  },
  {
    "place": "Office49d164f1f964a5207c5b1fe3",
    "time": "2012-07-18"
  },
  {
    "place": "Hot Dog Joint4ff755e3c84c9ddd721d5ceb",
    "time": "2012-07-18"
  },
  {
    "place": "Miscellaneous Shop4cc8b401e7926dcbe0c05777",
    "time": "2012-07-20"
  },
  {
    "place": "Office49d164f1f964a5207c5b1fe3",
    "time": "2012-07-24"
  },
  {
    "place": "Indian Restaurant4d992c1e942ba093ebb5968c",
    "time": "2012-07-24"
  },
  {
    "place": "Park3fd66200f964a520def11ee3",
    "time": "2012-07-28"
  },
  {
    "place": "Bar4d90fce35091a1cdc365c701",
    "time": "2012-07-28"
  },
  {
    "place": "Sandwich Place4b97bb2cf964a520541235e3",
    "time": "2012-07-28"
  },
  {
    "place": "Pizza Place4a595407f964a5203cb91fe3",
    "time": "2012-07-28"
  },
  {
    "place": "Bar4aabdcddf964a520805a20e3",
    "time": "2012-07-29"
  },
  {
    "place": "Bar3fd66200f964a52026eb1ee3",
    "time": "2012-07-29"
  },
  {
    "place": "Italian Restaurant4aef614bf964a520f5d721e3",
    "time": "2012-07-29"
  },
  {
    "place": "Drugstore / Pharmacy4a011ecef964a520d9701fe3",
    "time": "2012-07-30"
  },
  {
    "place": "Food & Drink Shop465597a5f964a52000471fe3",
    "time": "2012-07-30"
  },
  {
    "place": "Chinese Restaurant4b5236c1f964a520427027e3",
    "time": "2012-07-30"
  },
  {
    "place": "Office4a774f23f964a5201fe41fe3",
    "time": "2012-07-30"
  },
  {
    "place": "American Restaurant3fd66200f964a52044e61ee3",
    "time": "2012-08-05"
  },
  {
    "place": "Drugstore / Pharmacy4b5a028bf964a52078a728e3",
    "time": "2012-08-05"
  },
  {
    "place": "Bank4d7ba99779c4b1f7bc16ecf2",
    "time": "2012-08-09"
  },
  {
    "place": "Cuban Restaurant4b311e89f964a520890025e3",
    "time": "2012-08-09"
  },
  {
    "place": "Office4b9281dff964a52021ff33e3",
    "time": "2012-08-09"
  },
  {
    "place": "Bar3fd66200f964a52040e41ee3",
    "time": "2012-08-10"
  },
  {
    "place": "Bar4d90fce35091a1cdc365c701",
    "time": "2012-08-10"
  },
  {
    "place": "Bar40be6a00f964a520c9001fe3",
    "time": "2012-08-11"
  },
  {
    "place": "Eastern European Restaurant4a24628ef964a520187e1fe3",
    "time": "2012-08-11"
  },
  {
    "place": "Convenience Store4fadd4ade4b0fc5eaab96b7c",
    "time": "2012-08-11"
  },
  {
    "place": "Food & Drink Shop4a35477cf964a520b79c1fe3",
    "time": "2012-08-11"
  },
  {
    "place": "Park3fd66200f964a520def11ee3",
    "time": "2012-08-11"
  },
  {
    "place": "Bar4a556dc4f964a5202eb41fe3",
    "time": "2012-08-11"
  },
  {
    "place": "Bar3fd66200f964a52084e81ee3",
    "time": "2012-08-12"
  },
  {
    "place": "Bagel Shop4ba022cef964a520c45c37e3",
    "time": "2012-08-12"
  },
  {
    "place": "Food & Drink Shop4b3fe657f964a52098b125e3",
    "time": "2012-08-12"
  },
  {
    "place": "Clothing Store4eea9bbe0e01182caf934819",
    "time": "2012-08-12"
  },
  {
    "place": "Office49d164f1f964a5207c5b1fe3",
    "time": "2012-08-13"
  },
  {
    "place": "Deli / Bodega49ccdad4f964a52099591fe3",
    "time": "2012-08-13"
  },
  {
    "place": "Home (private)4c06da90b4aa0f4710c26462",
    "time": "2012-08-13"
  },
  {
    "place": "Gym / Fitness Center4af1909ff964a52062e121e3",
    "time": "2012-08-13"
  },
  {
    "place": "Portuguese Restaurant3fd66200f964a520e2e91ee3",
    "time": "2012-08-16"
  },
  {
    "place": "Coffee Shop49d2b43ef964a520cb5b1fe3",
    "time": "2012-08-16"
  },
  {
    "place": "Filipino Restaurant4e34496fa8092599edf845bb",
    "time": "2012-08-17"
  },
  {
    "place": "Office49d164f1f964a5207c5b1fe3",
    "time": "2012-08-17"
  },
  {
    "place": "Music Venue48f0fcdcf964a52041521fe3",
    "time": "2012-08-17"
  },
  {
    "place": "Convenience Store4f17456ee4b0ebf9e37f7dde",
    "time": "2012-08-19"
  },
  {
    "place": "Performing Arts Venue4e287606814df9e4be546316",
    "time": "2012-08-19"
  },
  {
    "place": "Gym / Fitness Center4cbe5493611abfb717f5a405",
    "time": "2012-08-20"
  },
  {
    "place": "Convenience Store4ee95e33f9ab8fc95df017e1",
    "time": "2012-08-20"
  },
  {
    "place": "Office4a774f23f964a5201fe41fe3",
    "time": "2012-08-17"
  },
  {
    "place": "Gym / Fitness Center4cbe5493611abfb717f5a405",
    "time": "2012-08-17"
  },
  {
    "place": "Convenience Store4ee95e33f9ab8fc95df017e1",
    "time": "2012-08-18"
  },
  {
    "place": "Tapas Restaurant44f4b0ebf964a52036381fe3",
    "time": "2012-08-18"
  },
  {
    "place": "Bar406dfe80f964a52048f21ee3",
    "time": "2012-08-18"
  },
  {
    "place": "Home (private)4f1af1e6e5e85dca13107267",
    "time": "2012-08-18"
  },
  {
    "place": "Bakery49c51362f964a520de561fe3",
    "time": "2012-08-18"
  },
  {
    "place": "Food & Drink Shop4b003e80f964a520e53b22e3",
    "time": "2012-08-18"
  },
  {
    "place": "Bagel Shop3fd66200f964a52098e51ee3",
    "time": "2012-08-18"
  },
  {
    "place": "Furniture / Home Store4a43a242f964a5209da61fe3",
    "time": "2012-08-18"
  },
  {
    "place": "Food & Drink Shop4c225ae47e85c9283ee5bb21",
    "time": "2012-08-18"
  },
  {
    "place": "Food & Drink Shop49f1e49ef964a520c1691fe3",
    "time": "2012-08-19"
  },
  {
    "place": "Coffee Shop4f6a28d5e4b085e9a4b3c5e1",
    "time": "2012-08-22"
  },
  {
    "place": "Coffee Shop4aeedbe6f964a5206cd421e3",
    "time": "2012-09-05"
  },
  {
    "place": "Office49d164f1f964a5207c5b1fe3",
    "time": "2012-09-05"
  },
  {
    "place": "Asian Restaurant4acb6fbcf964a520bec320e3",
    "time": "2012-09-05"
  },
  {
    "place": "Dim Sum Restaurant49f220a3f964a520ee691fe3",
    "time": "2012-09-06"
  },
  {
    "place": "Bagel Shop4afcac62f964a520fd2422e3",
    "time": "2012-09-09"
  },
  {
    "place": "Thrift / Vintage Store4aac0359f964a5209c5b20e3",
    "time": "2012-09-09"
  },
  {
    "place": "Sandwich Place49cbcc5cf964a5201d591fe3",
    "time": "2012-09-09"
  },
  {
    "place": "Spa / Massage4b48fd5cf964a520f66026e3",
    "time": "2012-09-09"
  },
  {
    "place": "Chinese Restaurant4b5236c1f964a520427027e3",
    "time": "2012-09-09"
  },
  {
    "place": "Office49d164f1f964a5207c5b1fe3",
    "time": "2012-09-13"
  },
  {
    "place": "Bar4fbe6828e4b09976861dca54",
    "time": "2012-09-13"
  },
  {
    "place": "Bank4d7e5016b25d6dcb622fb742",
    "time": "2012-09-13"
  },
  {
    "place": "Furniture / Home Store4d3756bd4d8a6dcbd3e7693f",
    "time": "2012-09-13"
  },
  {
    "place": "Food & Drink Shop4b06ceddf964a5209df022e3",
    "time": "2012-09-13"
  },
  {
    "place": "Fair4e72a6ffaeb74f9f48eb61fe",
    "time": "2012-09-13"
  },
  {
    "place": "Food & Drink Shop504209e4e4b00a58046eb65c",
    "time": "2012-09-14"
  },
  {
    "place": "Food & Drink Shop4b511af1f964a520b64227e3",
    "time": "2012-09-14"
  },
  {
    "place": "Middle Eastern Restaurant4e51d319814d2a4139acfd25",
    "time": "2012-09-14"
  },
  {
    "place": "Bar49d964c4f964a520305e1fe3",
    "time": "2012-09-15"
  },
  {
    "place": "Bar3fd66200f964a52026eb1ee3",
    "time": "2012-09-15"
  },
  {
    "place": "Music Venue3fd66200f964a520a2e41ee3",
    "time": "2012-09-15"
  },
  {
    "place": "Bagel Shop4afcac62f964a520fd2422e3",
    "time": "2012-09-15"
  },
  {
    "place": "Thrift / Vintage Store4aac0359f964a5209c5b20e3",
    "time": "2012-09-15"
  },
  {
    "place": "Furniture / Home Store4c54431a5b839521c752c531",
    "time": "2012-09-15"
  },
  {
    "place": "Furniture / Home Store4d3756bd4d8a6dcbd3e7693f",
    "time": "2012-09-15"
  },
  {
    "place": "Bank4d7e5016b25d6dcb622fb742",
    "time": "2012-09-15"
  },
  {
    "place": "Fair4e72a6ffaeb74f9f48eb61fe",
    "time": "2012-09-15"
  },
  {
    "place": "Pizza Place4f045eeb00399761c77301e3",
    "time": "2012-09-15"
  },
  {
    "place": "Miscellaneous Shop4b1c2e6cf964a520b90324e3",
    "time": "2012-09-15"
  },
  {
    "place": "Food & Drink Shop4a35477cf964a520b79c1fe3",
    "time": "2012-09-15"
  },
  {
    "place": "Food & Drink Shop4e028dacb0fb88a1209ac864",
    "time": "2012-09-15"
  },
  {
    "place": "Furniture / Home Store4a5d186ff964a5202bbd1fe3",
    "time": "2012-09-15"
  },
  {
    "place": "Bar4d310f2a5017a093b9b83b9b",
    "time": "2012-09-16"
  },
  {
    "place": "Pizza Place4fe4fe21e4b0989608fd47b1",
    "time": "2012-10-03"
  },
  {
    "place": "Drugstore / Pharmacy4ae1ed7cf964a520d58821e3",
    "time": "2012-10-08"
  },
  {
    "place": "Office49d164f1f964a5207c5b1fe3",
    "time": "2012-10-16"
  },
  {
    "place": "Bakery4b4c863cf964a52026b526e3",
    "time": "2012-10-16"
  },
  {
    "place": "Office49d164f1f964a5207c5b1fe3",
    "time": "2012-10-18"
  },
  {
    "place": "Food & Drink Shop507758eae4b00277f1f8d1bf",
    "time": "2012-10-18"
  },
  {
    "place": "Bar4fefc29de4b0b61f2a3a5129",
    "time": "2012-10-18"
  },
  {
    "place": "Filipino Restaurant503f293c19a9def238a153b3",
    "time": "2012-10-19"
  },
  {
    "place": "Food & Drink Shop441a8599f964a52036311fe3",
    "time": "2012-10-19"
  },
  {
    "place": "Office49d164f1f964a5207c5b1fe3",
    "time": "2012-10-19"
  },
  {
    "place": "Food Truck4daf10f2f7b17488f49ec9e4",
    "time": "2012-10-22"
  },
  {
    "place": "Office49d164f1f964a5207c5b1fe3",
    "time": "2012-10-23"
  },
  {
    "place": "Indian Restaurant4b117a8df964a520737d23e3",
    "time": "2012-10-23"
  },
  {
    "place": "Beer Garden4cb34b64aef16dcb6287c754",
    "time": "2012-10-23"
  },
  {
    "place": "Office49d164f1f964a5207c5b1fe3",
    "time": "2012-10-24"
  },
  {
    "place": "Hot Dog Joint4ff755e3c84c9ddd721d5ceb",
    "time": "2012-10-24"
  },
  {
    "place": "Building4bad9a3ff964a520625e3be3",
    "time": "2012-10-24"
  },
  {
    "place": "Office49d164f1f964a5207c5b1fe3",
    "time": "2012-10-25"
  },
  {
    "place": "Deli / Bodega49ccdad4f964a52099591fe3",
    "time": "2012-10-25"
  },
  {
    "place": "Mexican Restaurant4ce41edf2407a1cd3bde51d0",
    "time": "2012-10-25"
  },
  {
    "place": "Food & Drink Shop4e626f13e4cdf1e2bf4cea31",
    "time": "2012-10-26"
  },
  {
    "place": "Office49d164f1f964a5207c5b1fe3",
    "time": "2012-10-26"
  },
  {
    "place": "Office4a774f23f964a5201fe41fe3",
    "time": "2012-10-26"
  },
  {
    "place": "Train Station42911d00f964a520f5231fe3",
    "time": "2012-10-28"
  },
  {
    "place": "Drugstore / Pharmacy4be047c66af676b02a3c51d4",
    "time": "2012-10-28"
  },
  {
    "place": "Drugstore / Pharmacy4b64b967f964a5204dcb2ae3",
    "time": "2012-10-28"
  },
  {
    "place": "Other Great Outdoors508af9ccf13627e878935855",
    "time": "2012-10-29"
  },
  {
    "place": "American Restaurant4f54e133e4b036244ce58fc7",
    "time": "2012-10-31"
  },
  {
    "place": "Bar49f4c1e8f964a520496b1fe3",
    "time": "2012-11-02"
  },
  {
    "place": "Bar40bbc700f964a520af001fe3",
    "time": "2012-11-02"
  },
  {
    "place": "Thai Restaurant4cba161bbac93704c43de97c",
    "time": "2012-11-02"
  },
  {
    "place": "Office49d164f1f964a5207c5b1fe3",
    "time": "2012-11-05"
  },
  {
    "place": "Bakery4caceedc36fa6dcb7cd6e278",
    "time": "2012-11-05"
  },
  {
    "place": "Gym / Fitness Center4cbe5493611abfb717f5a405",
    "time": "2012-11-05"
  },
  {
    "place": "Chinese Restaurant4c2a81398abca59393c8fe1f",
    "time": "2012-11-06"
  },
  {
    "place": "Hardware Store4af6e844f964a5200b0422e3",
    "time": "2012-11-06"
  },
  {
    "place": "Government Building5097f4ff4b9033ce2158290e",
    "time": "2012-11-06"
  },
  {
    "place": "Electronics Store49bbd648f964a520f3531fe3",
    "time": "2012-11-06"
  },
  {
    "place": "Office49d164f1f964a5207c5b1fe3",
    "time": "2012-11-06"
  },
  {
    "place": "Asian Restaurant42055e00f964a5206f1f1fe3",
    "time": "2012-11-06"
  },
  {
    "place": "Bar45d78933f964a520e1421fe3",
    "time": "2012-11-07"
  },
  {
    "place": "Office49d164f1f964a5207c5b1fe3",
    "time": "2012-11-07"
  },
  {
    "place": "Fried Chicken Joint50493e39e4b0cc0cf113ae30",
    "time": "2012-11-09"
  },
  {
    "place": "Building4bad9a3ff964a520625e3be3",
    "time": "2012-11-10"
  },
  {
    "place": "American Restaurant4d01634c527e236ac073c285",
    "time": "2012-11-10"
  },
  {
    "place": "Bar41059b00f964a5207b0b1fe3",
    "time": "2012-11-11"
  },
  {
    "place": "Train Station4ad77a2bf964a520280b21e3",
    "time": "2012-11-11"
  },
  {
    "place": "Movie Theater4a31831df964a520e9991fe3",
    "time": "2012-11-12"
  },
  {
    "place": "South American Restaurant4e512deaa80997aa8a50f5b5",
    "time": "2012-11-12"
  },
  {
    "place": "Gastropub4d7d34577498a1cdb4bc8bfc",
    "time": "2012-11-12"
  },
  {
    "place": "Home (private)4f1af1e6e5e85dca13107267",
    "time": "2012-11-13"
  },
  {
    "place": "Clothing Store3fd66200f964a52048e61ee3",
    "time": "2012-11-15"
  },
  {
    "place": "Thrift / Vintage Store4a58ebfaf964a5202fb81fe3",
    "time": "2012-11-16"
  },
  {
    "place": "Pizza Place4a595407f964a5203cb91fe3",
    "time": "2012-11-16"
  },
  {
    "place": "Thai Restaurant4c0c92f2b1b676b0c753df86",
    "time": "2012-11-17"
  },
  {
    "place": "Convenience Store4f493041e4b00005b93df2c8",
    "time": "2012-11-17"
  },
  {
    "place": "Food & Drink Shop4e74c92b7d8b917602c21be2",
    "time": "2012-11-17"
  },
  {
    "place": "Bar4a116491f964a52011771fe3",
    "time": "2012-11-18"
  },
  {
    "place": "Bar3fd66200f964a52029e31ee3",
    "time": "2012-11-18"
  },
  {
    "place": "Music Venue3fd66200f964a520a2e41ee3",
    "time": "2012-11-18"
  },
  {
    "place": "Food & Drink Shop504209e4e4b00a58046eb65c",
    "time": "2012-11-19"
  },
  {
    "place": "Gym / Fitness Center4cbe5493611abfb717f5a405",
    "time": "2012-11-19"
  },
  {
    "place": "Scandinavian Restaurant4ea5be9d77c8d0ce5f53a7fe",
    "time": "2012-11-20"
  },
  {
    "place": "Mediterranean Restaurant4f5e9155e4b0b97ed8e94884",
    "time": "2012-11-21"
  },
  {
    "place": "Flea Market509aaca2fe70fdaaea894fd3",
    "time": "2012-11-21"
  },
  {
    "place": "Train Station42911d00f964a520f5231fe3",
    "time": "2012-11-21"
  },
  {
    "place": "Food Truck4c75c2908d70b713d5dcdaad",
    "time": "2012-11-24"
  },
  {
    "place": "Bank4d7e5016b25d6dcb622fb742",
    "time": "2012-11-24"
  },
  {
    "place": "Deli / Bodega49ccdad4f964a52099591fe3",
    "time": "2012-11-24"
  },
  {
    "place": "Food & Drink Shop49dad010f964a520b15e1fe3",
    "time": "2012-11-24"
  },
  {
    "place": "Italian Restaurant42225f00f964a520b21f1fe3",
    "time": "2012-11-24"
  },
  {
    "place": "Electronics Store4afd738bf964a520e92722e3",
    "time": "2012-11-25"
  },
  {
    "place": "Drugstore / Pharmacy4c34e81009a99c7406490c2a",
    "time": "2012-11-25"
  },
  {
    "place": "Flea Market509aaca2fe70fdaaea894fd3",
    "time": "2012-11-25"
  },
  {
    "place": "Electronics Store4af35a0df964a520d2ec21e3",
    "time": "2012-11-25"
  },
  {
    "place": "Office49d164f1f964a5207c5b1fe3",
    "time": "2012-11-26"
  },
  {
    "place": "Tapas Restaurant460af097f964a520f4441fe3",
    "time": "2012-11-27"
  },
  {
    "place": "Office49d164f1f964a5207c5b1fe3",
    "time": "2012-11-28"
  },
  {
    "place": "Food Truck4daf10f2f7b17488f49ec9e4",
    "time": "2012-11-28"
  },
  {
    "place": "Food & Drink Shop49f37c28f964a520a36a1fe3",
    "time": "2012-11-28"
  },
  {
    "place": "Food & Drink Shop460d4b1ef964a52004451fe3",
    "time": "2012-11-29"
  },
  {
    "place": "Bar422b9980f964a520d71f1fe3",
    "time": "2012-11-29"
  },
  {
    "place": "Office49d164f1f964a5207c5b1fe3",
    "time": "2012-11-30"
  },
  {
    "place": "Chinese Restaurant4bcf9774a8b3a5939497625f",
    "time": "2012-11-30"
  },
  {
    "place": "Sushi Restaurant4e38253f1f6ebc502ce78da4",
    "time": "2012-12-02"
  },
  {
    "place": "Food & Drink Shop4a5b6a4df964a52023bb1fe3",
    "time": "2012-12-02"
  },
  {
    "place": "Plaza4b947435f964a520277a34e3",
    "time": "2012-12-02"
  },
  {
    "place": "Plaza49b7ed6df964a52030531fe3",
    "time": "2012-12-02"
  },
  {
    "place": "Park40b68100f964a5207d001fe3",
    "time": "2012-12-02"
  },
  {
    "place": "Food & Drink Shop4c225ae47e85c9283ee5bb21",
    "time": "2012-12-02"
  },
  {
    "place": "Food & Drink Shop4add1db0f964a520286421e3",
    "time": "2012-12-02"
  },
  {
    "place": "Train Station4ad77a2bf964a520280b21e3",
    "time": "2012-12-02"
  },
  {
    "place": "Other Great Outdoors4c04084c9a7920a178b3d079",
    "time": "2012-12-02"
  },
  {
    "place": "Office49d164f1f964a5207c5b1fe3",
    "time": "2012-12-03"
  },
  {
    "place": "Burger Joint4e031ac452b10583352d4e83",
    "time": "2012-12-04"
  },
  {
    "place": "Convenience Store4f493041e4b00005b93df2c8",
    "time": "2012-12-04"
  },
  {
    "place": "Bakery4b4c863cf964a52026b526e3",
    "time": "2012-12-04"
  },
  {
    "place": "Bar46cbf0e3f964a520374a1fe3",
    "time": "2012-12-04"
  },
  {
    "place": "BBQ Joint4b6ca1dff964a5200a482ce3",
    "time": "2012-12-05"
  },
  {
    "place": "Food & Drink Shop4a35477cf964a520b79c1fe3",
    "time": "2012-12-05"
  },
  {
    "place": "Hardware Store4af6e844f964a5200b0422e3",
    "time": "2012-12-05"
  },
  {
    "place": "Convenience Store4f493041e4b00005b93df2c8",
    "time": "2012-12-05"
  },
  {
    "place": "Office49d164f1f964a5207c5b1fe3",
    "time": "2012-12-05"
  },
  {
    "place": "Office4a774f23f964a5201fe41fe3",
    "time": "2012-12-05"
  },
  {
    "place": "Gym / Fitness Center4cbe5493611abfb717f5a405",
    "time": "2012-12-05"
  },
  {
    "place": "Sushi Restaurant4a7af711f964a520b4e91fe3",
    "time": "2012-12-06"
  },
  {
    "place": "Office49d164f1f964a5207c5b1fe3",
    "time": "2012-12-06"
  },
  {
    "place": "Movie Theater4fc10ef6e4b0f6b4edcd8db6",
    "time": "2012-12-06"
  },
  {
    "place": "Convenience Store4f493041e4b00005b93df2c8",
    "time": "2012-12-06"
  },
  {
    "place": "Bar4ba449f2f964a5204c9338e3",
    "time": "2012-12-07"
  },
  {
    "place": "Bagel Shop4afcac62f964a520fd2422e3",
    "time": "2012-12-07"
  },
  {
    "place": "Food & Drink Shop3fd66200f964a5203ee71ee3",
    "time": "2012-12-07"
  },
  {
    "place": "Deli / Bodega4a74a36af964a520fede1fe3",
    "time": "2012-12-07"
  },
  {
    "place": "Food & Drink Shop4e18bf9d183880768f44c1f8",
    "time": "2012-12-07"
  },
  {
    "place": "Food & Drink Shop4b003e80f964a520e53b22e3",
    "time": "2012-12-07"
  },
  {
    "place": "Bar40fc6080f964a520300b1fe3",
    "time": "2012-12-07"
  },
  {
    "place": "Bank4ada2175f964a520d61e21e3",
    "time": "2012-12-07"
  },
  {
    "place": "Trade School4ac68b8ef964a520feb420e3",
    "time": "2012-12-07"
  },
  {
    "place": "Bar49a71dd1f964a520a0521fe3",
    "time": "2012-12-08"
  },
  {
    "place": "Bar3fd66200f964a5208fe41ee3",
    "time": "2012-12-08"
  },
  {
    "place": "Bar4ef814d19a52c90841a52f78",
    "time": "2012-12-09"
  },
  {
    "place": "Department Store49ff62f9f964a52013701fe3",
    "time": "2012-12-09"
  },
  {
    "place": "Department Store49ff62f9f964a52013701fe3",
    "time": "2012-12-09"
  },
  {
    "place": "Food & Drink Shop4c225ae47e85c9283ee5bb21",
    "time": "2012-12-11"
  },
  {
    "place": "Office49d164f1f964a5207c5b1fe3",
    "time": "2012-12-11"
  },
  {
    "place": "Deli / Bodega4bda525dc79cc928fd8e7ee9",
    "time": "2012-12-12"
  },
  {
    "place": "Gym / Fitness Center4cbe5493611abfb717f5a405",
    "time": "2012-12-12"
  },
  {
    "place": "Salon / Barbershop4c88fe59da5da1cd318738e9",
    "time": "2012-12-13"
  },
  {
    "place": "Office49d164f1f964a5207c5b1fe3",
    "time": "2012-12-13"
  },
  {
    "place": "Food & Drink Shop4b06ceddf964a5209df022e3",
    "time": "2012-12-13"
  },
  {
    "place": "Food & Drink Shop49dad010f964a520b15e1fe3",
    "time": "2012-12-13"
  },
  {
    "place": "Pizza Place4fe4fe21e4b0989608fd47b1",
    "time": "2012-12-13"
  },
  {
    "place": "Sandwich Place49bd4d49f964a52065541fe3",
    "time": "2012-12-13"
  },
  {
    "place": "Office49d164f1f964a5207c5b1fe3",
    "time": "2012-12-14"
  },
  {
    "place": "Italian Restaurant4533d338f964a5208f3b1fe3",
    "time": "2012-12-15"
  },
  {
    "place": "Bar406dfe80f964a52048f21ee3",
    "time": "2012-12-15"
  },
  {
    "place": "Hotel4bbcc82aa8cf76b0f6f1b0fd",
    "time": "2012-12-15"
  },
  {
    "place": "Food & Drink Shop4a35477cf964a520b79c1fe3",
    "time": "2012-12-16"
  },
  {
    "place": "Food & Drink Shop3fd66200f964a520b6e41ee3",
    "time": "2012-12-16"
  },
  {
    "place": "Subway4aad466df964a5206f5f20e3",
    "time": "2012-12-16"
  },
  {
    "place": "Other Great Outdoors4c04084c9a7920a178b3d079",
    "time": "2012-12-17"
  },
  {
    "place": "Food & Drink Shop45940e37f964a52055401fe3",
    "time": "2012-12-17"
  },
  {
    "place": "Food & Drink Shop4b01c0b3f964a520254522e3",
    "time": "2012-12-18"
  },
  {
    "place": "Sushi Restaurant4e38253f1f6ebc502ce78da4",
    "time": "2012-12-18"
  },
  {
    "place": "Bank4d7e5016b25d6dcb622fb742",
    "time": "2012-12-18"
  },
  {
    "place": "Drugstore / Pharmacy4a577f9df964a52043b61fe3",
    "time": "2012-12-18"
  },
  {
    "place": "Office49d164f1f964a5207c5b1fe3",
    "time": "2012-12-18"
  },
  {
    "place": "Food & Drink Shop4a35477cf964a520b79c1fe3",
    "time": "2012-12-18"
  },
  {
    "place": "Electronics Store3fd66200f964a5205fe41ee3",
    "time": "2012-12-18"
  },
  {
    "place": "Office4a774f23f964a5201fe41fe3",
    "time": "2012-12-18"
  },
  {
    "place": "Theater4a7a17c6f964a52081e81fe3",
    "time": "2012-12-18"
  },
  {
    "place": "Home (private)4f1af1e6e5e85dca13107267",
    "time": "2012-12-19"
  },
  {
    "place": "Airport4ace6c89f964a52078d020e3",
    "time": "2012-12-19"
  },
  {
    "place": "Train Station42911d00f964a520f5231fe3",
    "time": "2012-12-22"
  },
  {
    "place": "Train Station42911d00f964a520f5231fe3",
    "time": "2012-12-28"
  },
  {
    "place": "Home (private)4f1af1e6e5e85dca13107267",
    "time": "2012-12-28"
  },
  {
    "place": "Clothing Store4af6e841f964a5200a0422e3",
    "time": "2012-12-28"
  },
  {
    "place": "Clothing Store4ba29206f964a520490538e3",
    "time": "2012-12-28"
  },
  {
    "place": "Food & Drink Shop4a35477cf964a520b79c1fe3",
    "time": "2012-12-29"
  },
  {
    "place": "Italian Restaurant40f47780f964a520920a1fe3",
    "time": "2012-12-30"
  },
  {
    "place": "Bar4a116491f964a52011771fe3",
    "time": "2012-12-30"
  },
  {
    "place": "Home (private)4f1af1e6e5e85dca13107267",
    "time": "2012-12-30"
  },
  {
    "place": "Food & Drink Shop43bba61df964a520eb2c1fe3",
    "time": "2012-12-30"
  },
  {
    "place": "Food & Drink Shop4a35477cf964a520b79c1fe3",
    "time": "2012-12-30"
  },
  {
    "place": "Drugstore / Pharmacy4b2c1d0df964a520f1c124e3",
    "time": "2012-12-31"
  },
  {
    "place": "Coffee Shop4bcefda6cc8cd13a7821c5cf",
    "time": "2012-12-31"
  },
  {
    "place": "Home (private)4f1af1e6e5e85dca13107267",
    "time": "2012-12-31"
  },
  {
    "place": "Convenience Store4f493041e4b00005b93df2c8",
    "time": "2013-01-01"
  },
  {
    "place": "Sushi Restaurant4de96fe9d4c00071b808e890",
    "time": "2013-01-01"
  },
  {
    "place": "Home (private)4f1af1e6e5e85dca13107267",
    "time": "2013-01-01"
  },
  {
    "place": "Korean Restaurant4af4c165f964a520d1f521e3",
    "time": "2013-01-02"
  },
  {
    "place": "Ice Cream Shop4a1de847f964a520aa7b1fe3",
    "time": "2013-01-02"
  },
  {
    "place": "Food & Drink Shop4a35477cf964a520b79c1fe3",
    "time": "2013-01-03"
  },
  {
    "place": "Japanese Restaurant50424b7be4b08d95c1db920d",
    "time": "2013-01-03"
  },
  {
    "place": "Office49d164f1f964a5207c5b1fe3",
    "time": "2013-01-03"
  },
  {
    "place": "Chinese Restaurant3fd66200f964a52099e61ee3",
    "time": "2013-01-03"
  },
  {
    "place": "Office49d164f1f964a5207c5b1fe3",
    "time": "2013-01-04"
  },
  {
    "place": "Plaza49c64842f964a5202e571fe3",
    "time": "2013-01-05"
  },
  {
    "place": "Hotel4ac289e3f964a5209f9920e3",
    "time": "2013-01-05"
  },
  {
    "place": "Mexican Restaurant3fd66200f964a52034e81ee3",
    "time": "2013-01-05"
  },
  {
    "place": "Tea Room4bdf16230ee3a59337e832b0",
    "time": "2013-01-05"
  },
  {
    "place": "Ice Cream Shop4be45cffcf200f4739da113c",
    "time": "2013-01-05"
  },
  {
    "place": "Building4bad9a3ff964a520625e3be3",
    "time": "2013-01-05"
  },
  {
    "place": "American Restaurant3fd66200f964a52044e61ee3",
    "time": "2013-01-06"
  },
  {
    "place": "Home (private)4f1af1e6e5e85dca13107267",
    "time": "2013-01-06"
  },
  {
    "place": "Food & Drink Shop4b2eb792f964a52092e524e3",
    "time": "2013-01-06"
  },
  {
    "place": "Office49d164f1f964a5207c5b1fe3",
    "time": "2013-01-07"
  },
  {
    "place": "Vietnamese Restaurant4fabedeee4b09a6d7b0797d2",
    "time": "2013-01-07"
  },
  {
    "place": "Gym / Fitness Center4cbe5493611abfb717f5a405",
    "time": "2013-01-07"
  },
  {
    "place": "Tapas Restaurant4e7bded0183878cd62c1e771",
    "time": "2013-01-08"
  },
  {
    "place": "Bakery4b4c863cf964a52026b526e3",
    "time": "2013-01-08"
  },
  {
    "place": "Train Station4ad77a2bf964a520280b21e3",
    "time": "2013-01-08"
  },
  {
    "place": "Home (private)4c06da90b4aa0f4710c26462",
    "time": "2013-01-08"
  },
  {
    "place": "Home (private)4f1af1e6e5e85dca13107267",
    "time": "2013-01-09"
  },
  {
    "place": "Office49d164f1f964a5207c5b1fe3",
    "time": "2013-01-09"
  },
  {
    "place": "Office4a774f23f964a5201fe41fe3",
    "time": "2013-01-09"
  },
  {
    "place": "Korean Restaurant503411c3e4b0bf8f2cda4749",
    "time": "2013-01-10"
  },
  {
    "place": "Korean Restaurant506f6675498e0b3d248589dc",
    "time": "2013-01-10"
  },
  {
    "place": "Deli / Bodega49ccdad4f964a52099591fe3",
    "time": "2013-01-10"
  },
  {
    "place": "Food & Drink Shop49dad010f964a520b15e1fe3",
    "time": "2013-01-10"
  },
  {
    "place": "Bar3fd66200f964a520b7e41ee3",
    "time": "2013-01-12"
  },
  {
    "place": "Bar4a6e6084f964a5209cd41fe3",
    "time": "2013-01-12"
  },
  {
    "place": "Bar410c3280f964a520b80b1fe3",
    "time": "2013-01-12"
  },
  {
    "place": "Asian Restaurant4acb6fbcf964a520bec320e3",
    "time": "2013-01-12"
  },
  {
    "place": "Park4aac087ff964a520c35b20e3",
    "time": "2013-01-12"
  },
  {
    "place": "Office4f5f54fae4b01e3f069e79c5",
    "time": "2013-01-12"
  },
  {
    "place": "Market41390580f964a520dc1a1fe3",
    "time": "2013-01-12"
  },
  {
    "place": "Building4f513d70e4b063296bba53cc",
    "time": "2013-01-12"
  },
  {
    "place": "Home (private)4f1af1e6e5e85dca13107267",
    "time": "2013-01-13"
  },
  {
    "place": "Bar3fd66200f964a52025e41ee3",
    "time": "2013-01-13"
  },
  {
    "place": "Australian Restaurant4572f7fbf964a520823e1fe3",
    "time": "2013-01-13"
  },
  {
    "place": "Hot Dog Joint3fd66200f964a520a5e41ee3",
    "time": "2013-01-13"
  },
  {
    "place": "Coffee Shop4ee13a16775b24730288e9f3",
    "time": "2013-01-13"
  },
  {
    "place": "Ice Cream Shop4a414e48f964a52010a51fe3",
    "time": "2013-01-13"
  },
  {
    "place": "Office49d164f1f964a5207c5b1fe3",
    "time": "2013-01-14"
  },
  {
    "place": "Bank4bdb17753904a59311b6489e",
    "time": "2013-01-14"
  },
  {
    "place": "Bar3fd66200f964a520f6ea1ee3",
    "time": "2013-01-15"
  },
  {
    "place": "Deli / Bodega4bda525dc79cc928fd8e7ee9",
    "time": "2013-01-16"
  },
  {
    "place": "Pizza Place47e100b9f964a520414e1fe3",
    "time": "2013-01-17"
  },
  {
    "place": "Office49d164f1f964a5207c5b1fe3",
    "time": "2013-01-17"
  },
  {
    "place": "Food Truck4ade0324f964a520586721e3",
    "time": "2013-01-17"
  },
  {
    "place": "Office4a774f23f964a5201fe41fe3",
    "time": "2013-01-17"
  },
  {
    "place": "Gym / Fitness Center4cbe5493611abfb717f5a405",
    "time": "2013-01-18"
  },
  {
    "place": "Other Great Outdoors4a58f861f964a52058b81fe3",
    "time": "2013-01-21"
  },
  {
    "place": "Drugstore / Pharmacy4be46d552468c928aac2fe42",
    "time": "2013-01-21"
  },
  {
    "place": "Park4a569506f964a52076b51fe3",
    "time": "2013-01-21"
  },
  {
    "place": "General Travel4cfaf868feec6dcba9c04336",
    "time": "2013-01-21"
  },
  {
    "place": "Drugstore / Pharmacy4eb2b70bb63435b07e3715fe",
    "time": "2013-01-21"
  },
  {
    "place": "Sushi Restaurant4a42d717f964a5204ba61fe3",
    "time": "2013-01-22"
  },
  {
    "place": "Swiss Restaurant49bc236af964a5201b541fe3",
    "time": "2013-01-25"
  },
  {
    "place": "Home (private)4f1af1e6e5e85dca13107267",
    "time": "2013-01-26"
  },
  {
    "place": "Bar3fd66200f964a520b7e41ee3",
    "time": "2013-01-27"
  },
  {
    "place": "Pizza Place4e6aafb488772457c492d54a",
    "time": "2013-01-27"
  },
  {
    "place": "Convenience Store4d2276bae56f6ea82a9a851d",
    "time": "2013-01-27"
  },
  {
    "place": "Drugstore / Pharmacy4b56032bf964a520e7fb27e3",
    "time": "2013-01-28"
  },
  {
    "place": "Bank4fb533877beb65c72e11e61c",
    "time": "2013-01-28"
  },
  {
    "place": "Pizza Place4a537663f964a5204cb21fe3",
    "time": "2013-01-28"
  },
  {
    "place": "Home (private)4f1af1e6e5e85dca13107267",
    "time": "2013-01-29"
  },
  {
    "place": "Office49d164f1f964a5207c5b1fe3",
    "time": "2013-01-29"
  },
  {
    "place": "Deli / Bodega4bda525dc79cc928fd8e7ee9",
    "time": "2013-01-29"
  },
  {
    "place": "Home (private)5053dddfe4b0c6835f175e31",
    "time": "2013-01-30"
  },
  {
    "place": "Burger Joint4dda977ad22d38ef4332c419",
    "time": "2013-01-31"
  },
  {
    "place": "Ramen /  Noodle House43dba4e0f964a520942e1fe3",
    "time": "2013-02-01"
  },
  {
    "place": "Drugstore / Pharmacy4b2c1d0df964a520f1c124e3",
    "time": "2013-02-01"
  },
  {
    "place": "Gym / Fitness Center4cbe5493611abfb717f5a405",
    "time": "2013-02-01"
  },
  {
    "place": "Bank4ada2175f964a520d61e21e3",
    "time": "2013-02-02"
  },
  {
    "place": "Bar4ad778a8f964a520030b21e3",
    "time": "2013-02-02"
  },
  {
    "place": "Home (private)4f1af1e6e5e85dca13107267",
    "time": "2013-02-02"
  },
  {
    "place": "Sandwich Place4b97bb2cf964a520541235e3",
    "time": "2013-02-02"
  },
  {
    "place": "Japanese Restaurant4ff86516e4b02b9715a93bc6",
    "time": "2013-02-03"
  },
  {
    "place": "Diner49f4b6fdf964a5203d6b1fe3",
    "time": "2013-02-03"
  },
  {
    "place": "Stadium4f2ed748e4b062ad2c7ce2db",
    "time": "2013-02-04"
  },
  {
    "place": "Bakery4a75cfdff964a52056e11fe3",
    "time": "2013-02-04"
  },
  {
    "place": "Office49d164f1f964a5207c5b1fe3",
    "time": "2013-02-05"
  },
  {
    "place": "Gym / Fitness Center4cbe5493611abfb717f5a405",
    "time": "2013-02-05"
  },
  {
    "place": "Bakery4b4c863cf964a52026b526e3",
    "time": "2013-02-07"
  },
  {
    "place": "Food & Drink Shop4b4ff774f964a5207f1a27e3",
    "time": "2013-02-08"
  },
  {
    "place": "Home (private)5053dddfe4b0c6835f175e31",
    "time": "2013-02-08"
  },
  {
    "place": "Home (private)5053dddfe4b0c6835f175e31",
    "time": "2013-02-10"
  },
  {
    "place": "Home (private)4f1af1e6e5e85dca13107267",
    "time": "2013-02-10"
  },
  {
    "place": "Office49d164f1f964a5207c5b1fe3",
    "time": "2013-02-11"
  },
  {
    "place": "Home (private)5053dddfe4b0c6835f175e31",
    "time": "2013-02-12"
  },
  {
    "place": "Sandwich Place4bc1e64b4cdfc9b6892b9521",
    "time": "2013-02-12"
  },
  {
    "place": "General Entertainment4f390d59e4b0a1f1987cdaef",
    "time": "2013-02-12"
  },
  {
    "place": "Bar42756d80f964a5207d211fe3",
    "time": "2013-02-13"
  },
  {
    "place": "Office4a774f23f964a5201fe41fe3",
    "time": "2013-02-13"
  },
  {
    "place": "Gym / Fitness Center4cbe5493611abfb717f5a405",
    "time": "2013-02-13"
  }
]