[
  {
    "place": "Clothing Store4af74e12f964a520330822e3",
    "time": "2012-04-13"
  },
  {
    "place": "Bakery43276800f964a520b7271fe3",
    "time": "2012-04-13"
  },
  {
    "place": "Home (private)4e3c857652b1a04aff0c2d34",
    "time": "2012-04-15"
  },
  {
    "place": "Gym / Fitness Center4b3e1843f964a520589825e3",
    "time": "2012-04-17"
  },
  {
    "place": "Vegetarian / Vegan Restaurant4b490423f964a5201d6226e3",
    "time": "2012-04-17"
  },
  {
    "place": "Medical Center4b5f248bf964a520c0a829e3",
    "time": "2012-04-19"
  },
  {
    "place": "Medical Center4afd7232f964a520df2722e3",
    "time": "2012-04-20"
  },
  {
    "place": "Vegetarian / Vegan Restaurant4b490423f964a5201d6226e3",
    "time": "2012-04-20"
  },
  {
    "place": "Coffee Shop4ed152e40e61efa3322ea7dd",
    "time": "2012-04-24"
  },
  {
    "place": "Moving Target4c263af6a852c9287537e66c",
    "time": "2012-04-26"
  },
  {
    "place": "Coffee Shop4a58d0acf964a520f6b71fe3",
    "time": "2012-04-26"
  },
  {
    "place": "Coffee Shop4a58d0acf964a520f6b71fe3",
    "time": "2012-05-03"
  },
  {
    "place": "Moving Target4c263af6a852c9287537e66c",
    "time": "2012-05-03"
  },
  {
    "place": "Moving Target4c263af6a852c9287537e66c",
    "time": "2012-05-03"
  },
  {
    "place": "Vegetarian / Vegan Restaurant4b02fe5cf964a520b74b22e3",
    "time": "2012-05-05"
  },
  {
    "place": "Breakfast Spot4b376f0bf964a5200a4125e3",
    "time": "2012-05-05"
  },
  {
    "place": "Ethiopian Restaurant4c0ad4b37e3fc9280a5af482",
    "time": "2012-05-06"
  },
  {
    "place": "Home (private)4e3c857652b1a04aff0c2d34",
    "time": "2012-05-10"
  },
  {
    "place": "Food & Drink Shop3fd66200f964a5209de51ee3",
    "time": "2012-05-11"
  },
  {
    "place": "Pool4be1b1f0a145c92873404e80",
    "time": "2012-05-11"
  },
  {
    "place": "Temple4b673166f964a5208b402be3",
    "time": "2012-05-19"
  },
  {
    "place": "Coffee Shop4a58d0acf964a520f6b71fe3",
    "time": "2012-05-22"
  },
  {
    "place": "Moving Target4c263af6a852c9287537e66c",
    "time": "2012-06-07"
  },
  {
    "place": "Bar4b3d01f6f964a520ca8b25e3",
    "time": "2012-06-10"
  },
  {
    "place": "Bar4b3d01f6f964a520ca8b25e3",
    "time": "2012-06-10"
  },
  {
    "place": "Medical Center4b4c9380f964a5208ab626e3",
    "time": "2012-06-11"
  },
  {
    "place": "Medical Center4ec42b148b812a2064759a2c",
    "time": "2012-06-12"
  },
  {
    "place": "Medical Center4d5bdc945d15370485526be7",
    "time": "2012-06-12"
  },
  {
    "place": "Home (private)4e3c857652b1a04aff0c2d34",
    "time": "2012-06-15"
  },
  {
    "place": "Gym / Fitness Center4b3e1843f964a520589825e3",
    "time": "2012-06-25"
  },
  {
    "place": "Gym / Fitness Center4b3e1843f964a520589825e3",
    "time": "2012-07-02"
  },
  {
    "place": "Cupcake Shop4aa519dbf964a520654720e3",
    "time": "2012-07-03"
  },
  {
    "place": "Gym / Fitness Center4b3e1843f964a520589825e3",
    "time": "2012-07-08"
  },
  {
    "place": "Gym / Fitness Center4b3e1843f964a520589825e3",
    "time": "2012-07-09"
  },
  {
    "place": "Train Station4af18817f964a5203fe121e3",
    "time": "2012-07-09"
  },
  {
    "place": "Moving Target4c263af6a852c9287537e66c",
    "time": "2012-07-09"
  },
  {
    "place": "Gym / Fitness Center4b3e1843f964a520589825e3",
    "time": "2012-07-11"
  },
  {
    "place": "Vegetarian / Vegan Restaurant4b76e514f964a5200c682ee3",
    "time": "2012-07-11"
  },
  {
    "place": "Ethiopian Restaurant4c0ad4b37e3fc9280a5af482",
    "time": "2012-07-14"
  },
  {
    "place": "Vegetarian / Vegan Restaurant4b76e514f964a5200c682ee3",
    "time": "2012-07-16"
  },
  {
    "place": "Medical Center4c87aefe9c808cfac563161e",
    "time": "2012-08-10"
  },
  {
    "place": "Medical Center4b4c9380f964a5208ab626e3",
    "time": "2012-08-10"
  },
  {
    "place": "Vegetarian / Vegan Restaurant4bd9c4310115c9b696977880",
    "time": "2012-08-11"
  },
  {
    "place": "Gym / Fitness Center4b3e1843f964a520589825e3",
    "time": "2012-08-14"
  },
  {
    "place": "Diner49ef93faf964a520d0681fe3",
    "time": "2012-08-14"
  },
  {
    "place": "Furniture / Home Store4c4b557bc668e21e0839ebf9",
    "time": "2012-08-17"
  },
  {
    "place": "Medical Center4b4c9380f964a5208ab626e3",
    "time": "2012-09-13"
  },
  {
    "place": "Medical Center4b4c9380f964a5208ab626e3",
    "time": "2012-09-13"
  },
  {
    "place": "Gym / Fitness Center4b3e1843f964a520589825e3",
    "time": "2012-10-17"
  },
  {
    "place": "Airport4459d2f1f964a520d7321fe3",
    "time": "2012-10-23"
  },
  {
    "place": "Airport4b3cd805f964a520218825e3",
    "time": "2012-10-23"
  },
  {
    "place": "Gym / Fitness Center4b3e1843f964a520589825e3",
    "time": "2012-10-24"
  },
  {
    "place": "Medical Center4b5f248bf964a520c0a829e3",
    "time": "2012-10-24"
  },
  {
    "place": "Medical Center4c87aefe9c808cfac563161e",
    "time": "2012-10-26"
  },
  {
    "place": "Pet Service4a889b61f964a520180720e3",
    "time": "2012-10-27"
  },
  {
    "place": "Bar3fd66200f964a520f2e61ee3",
    "time": "2012-10-27"
  },
  {
    "place": "Medical Center4b5f248bf964a520c0a829e3",
    "time": "2012-10-28"
  },
  {
    "place": "Medical Center4b5f248bf964a520c0a829e3",
    "time": "2012-11-05"
  },
  {
    "place": "Train Station4ac290a3f964a520c29920e3",
    "time": "2012-11-12"
  },
  {
    "place": "Bus Station4840fe6bf964a52030501fe3",
    "time": "2012-11-12"
  },
  {
    "place": "Medical Center4b5f248bf964a520c0a829e3",
    "time": "2012-11-12"
  },
  {
    "place": "Gym / Fitness Center4b3e1843f964a520589825e3",
    "time": "2012-11-13"
  },
  {
    "place": "Coffee Shop4a58d0acf964a520f6b71fe3",
    "time": "2012-11-13"
  },
  {
    "place": "Bank4e318836d4c0b2aebf717741",
    "time": "2012-11-13"
  },
  {
    "place": "Medical Center4c87aefe9c808cfac563161e",
    "time": "2012-11-16"
  },
  {
    "place": "Vegetarian / Vegan Restaurant4b76e514f964a5200c682ee3",
    "time": "2012-11-21"
  },
  {
    "place": "Coffee Shop4a58d0acf964a520f6b71fe3",
    "time": "2012-11-21"
  },
  {
    "place": "Gym / Fitness Center4b3e1843f964a520589825e3",
    "time": "2012-11-22"
  },
  {
    "place": "Gym / Fitness Center4b3e1843f964a520589825e3",
    "time": "2012-11-26"
  },
  {
    "place": "Medical Center4b5f248bf964a520c0a829e3",
    "time": "2012-11-26"
  },
  {
    "place": "Bank4ae9fbbbf964a52032b821e3",
    "time": "2012-11-26"
  },
  {
    "place": "Salon / Barbershop4bba2442935e9521fcc92790",
    "time": "2012-11-26"
  },
  {
    "place": "Gym / Fitness Center4b3e1843f964a520589825e3",
    "time": "2012-11-27"
  },
  {
    "place": "Medical Center4b5f248bf964a520c0a829e3",
    "time": "2012-11-28"
  },
  {
    "place": "Gym / Fitness Center4b3e1843f964a520589825e3",
    "time": "2012-12-05"
  },
  {
    "place": "Bar3fd66200f964a52099e41ee3",
    "time": "2012-12-08"
  },
  {
    "place": "Salon / Barbershop4bba2442935e9521fcc92790",
    "time": "2012-12-10"
  },
  {
    "place": "Gym / Fitness Center4b3e1843f964a520589825e3",
    "time": "2012-12-12"
  },
  {
    "place": "Gym / Fitness Center4b3e1843f964a520589825e3",
    "time": "2012-12-12"
  },
  {
    "place": "Gym / Fitness Center4b3e1843f964a520589825e3",
    "time": "2012-12-13"
  },
  {
    "place": "Gym / Fitness Center4b3e1843f964a520589825e3",
    "time": "2012-12-14"
  },
  {
    "place": "Hotel4ae0fa2ff964a5203d8421e3",
    "time": "2012-12-16"
  },
  {
    "place": "Gym / Fitness Center4b3e1843f964a520589825e3",
    "time": "2012-12-17"
  },
  {
    "place": "Gym / Fitness Center4b3e1843f964a520589825e3",
    "time": "2012-12-18"
  },
  {
    "place": "Medical Center4e1db316a809ef911ebdf782",
    "time": "2012-12-18"
  },
  {
    "place": "Gym / Fitness Center4b3e1843f964a520589825e3",
    "time": "2012-12-19"
  },
  {
    "place": "Gym / Fitness Center4b3e1843f964a520589825e3",
    "time": "2012-12-19"
  },
  {
    "place": "Gas Station / Garage4c2de3d6e760c9b6b48e4549",
    "time": "2012-12-23"
  },
  {
    "place": "Breakfast Spot4b376f0bf964a5200a4125e3",
    "time": "2012-12-23"
  },
  {
    "place": "Gym / Fitness Center4b3e1843f964a520589825e3",
    "time": "2012-12-27"
  },
  {
    "place": "Medical Center4c87aefe9c808cfac563161e",
    "time": "2012-12-28"
  },
  {
    "place": "Gym / Fitness Center4b3e1843f964a520589825e3",
    "time": "2012-12-30"
  },
  {
    "place": "Restaurant4b64e534f964a52020d82ae3",
    "time": "2012-12-30"
  },
  {
    "place": "Gym / Fitness Center4b3e1843f964a520589825e3",
    "time": "2013-01-02"
  },
  {
    "place": "Airport4dd2b2f0c65b9d071fa27338",
    "time": "2013-01-03"
  },
  {
    "place": "Airport4b9e75cef964a520c6e536e3",
    "time": "2013-01-03"
  },
  {
    "place": "Airport4459d2f1f964a520d7321fe3",
    "time": "2013-01-09"
  },
  {
    "place": "Medical Center4b5f248bf964a520c0a829e3",
    "time": "2013-01-09"
  },
  {
    "place": "Gym / Fitness Center4b3e1843f964a520589825e3",
    "time": "2013-01-10"
  },
  {
    "place": "Bar4b3d01f6f964a520ca8b25e3",
    "time": "2013-01-16"
  },
  {
    "place": "Gym / Fitness Center4b3e1843f964a520589825e3",
    "time": "2013-01-18"
  },
  {
    "place": "Gym / Fitness Center4b3e1843f964a520589825e3",
    "time": "2013-01-21"
  },
  {
    "place": "Gym / Fitness Center4b3e1843f964a520589825e3",
    "time": "2013-01-26"
  },
  {
    "place": "Hotel439c437bf964a520f02b1fe3",
    "time": "2013-01-26"
  },
  {
    "place": "Gym / Fitness Center4b3e1843f964a520589825e3",
    "time": "2013-01-28"
  },
  {
    "place": "Medical Center4afd7232f964a520df2722e3",
    "time": "2013-01-28"
  },
  {
    "place": "Clothing Store45113817f964a52092391fe3",
    "time": "2013-01-28"
  },
  {
    "place": "Gym / Fitness Center4b3e1843f964a520589825e3",
    "time": "2013-01-29"
  },
  {
    "place": "Cosmetics Shop4bc9fa0afb84c9b6e10d1c3e",
    "time": "2013-01-30"
  },
  {
    "place": "Gym / Fitness Center4b3e1843f964a520589825e3",
    "time": "2013-01-31"
  },
  {
    "place": "Airport4ada8cf5f964a520712321e3",
    "time": "2013-01-31"
  },
  {
    "place": "General Travel4e2d3dde45dd3272c824fb48",
    "time": "2013-02-10"
  }
]