[
  {
    "place": "Neighborhood4bdc9fb73904a59345084f9e",
    "time": "2012-04-03"
  },
  {
    "place": "BBQ Joint4d3e1d2c6e0aa1cdb0fcf12c",
    "time": "2012-04-03"
  },
  {
    "place": "Coffee Shop4eba99d3be7b1e562036cb46",
    "time": "2012-04-12"
  },
  {
    "place": "Spanish Restaurant49cf8a7af964a520ac5a1fe3",
    "time": "2012-04-15"
  },
  {
    "place": "American Restaurant3fd66200f964a52007ea1ee3",
    "time": "2012-04-16"
  },
  {
    "place": "Coffee Shop49be9afef964a520c5541fe3",
    "time": "2012-04-16"
  },
  {
    "place": "American Restaurant4758483af964a520cc4c1fe3",
    "time": "2012-04-18"
  },
  {
    "place": "Scenic Lookout4db1b56143a1bea42bd2574e",
    "time": "2012-04-23"
  },
  {
    "place": "Burger Joint4d004d2f202e224bd8fab22a",
    "time": "2012-04-23"
  },
  {
    "place": "French Restaurant3fd66200f964a5208ae91ee3",
    "time": "2012-04-25"
  },
  {
    "place": "Bridge49ecd458f964a52099671fe3",
    "time": "2012-04-27"
  },
  {
    "place": "Burger Joint4a23d6c0f964a520dd7d1fe3",
    "time": "2012-04-27"
  },
  {
    "place": "Salon / Barbershop4a663c57f964a52042c81fe3",
    "time": "2012-05-04"
  },
  {
    "place": "Australian Restaurant4993f345f964a52082521fe3",
    "time": "2012-05-04"
  },
  {
    "place": "Neighborhood4be43a08bcef2d7f9b3a02e5",
    "time": "2012-05-04"
  },
  {
    "place": "Bar3fd66200f964a52088e51ee3",
    "time": "2012-05-04"
  },
  {
    "place": "Bar40da1980f964a5206d011fe3",
    "time": "2012-05-10"
  },
  {
    "place": "French Restaurant3fd66200f964a5208ae91ee3",
    "time": "2012-05-11"
  },
  {
    "place": "Bar427c0500f964a5209a211fe3",
    "time": "2012-05-12"
  },
  {
    "place": "Beer Garden474d3e5df964a520a24c1fe3",
    "time": "2012-05-12"
  },
  {
    "place": "Office4b4c888df964a52062b526e3",
    "time": "2012-05-16"
  },
  {
    "place": "Office4b4c888df964a52062b526e3",
    "time": "2012-05-17"
  },
  {
    "place": "Pizza Place49cebf8cf964a520835a1fe3",
    "time": "2012-05-27"
  },
  {
    "place": "Food & Drink Shop49c170abf964a520a7551fe3",
    "time": "2012-05-28"
  },
  {
    "place": "Office4b4c888df964a52062b526e3",
    "time": "2012-05-29"
  },
  {
    "place": "Office4b4c888df964a52062b526e3",
    "time": "2012-06-01"
  },
  {
    "place": "Italian Restaurant4dcabca41f6e2812677e3598",
    "time": "2012-06-02"
  },
  {
    "place": "Japanese Restaurant4f73a168e4b026e79106d7c5",
    "time": "2012-06-02"
  },
  {
    "place": "Chinese Restaurant46936ee3f964a520d0481fe3",
    "time": "2012-06-03"
  },
  {
    "place": "Office4b4c888df964a52062b526e3",
    "time": "2012-06-04"
  },
  {
    "place": "Korean Restaurant40bbc700f964a520a2001fe3",
    "time": "2012-06-04"
  },
  {
    "place": "Office4b4c888df964a52062b526e3",
    "time": "2012-06-06"
  },
  {
    "place": "Office4b4c888df964a52062b526e3",
    "time": "2012-06-07"
  },
  {
    "place": "Building4d4e52814a38b60cefe9e866",
    "time": "2012-06-08"
  },
  {
    "place": "Office4b4c888df964a52062b526e3",
    "time": "2012-06-08"
  },
  {
    "place": "Thai Restaurant4b009bbaf964a520ee3f22e3",
    "time": "2012-06-10"
  },
  {
    "place": "Indian Restaurant4d59e9e1c88da1cd92803f68",
    "time": "2012-06-13"
  },
  {
    "place": "Office4b4c888df964a52062b526e3",
    "time": "2012-06-13"
  },
  {
    "place": "Thai Restaurant49bc064ff964a5200a541fe3",
    "time": "2012-06-13"
  },
  {
    "place": "Office4b4c888df964a52062b526e3",
    "time": "2012-06-13"
  },
  {
    "place": "Office4b4c888df964a52062b526e3",
    "time": "2012-06-15"
  },
  {
    "place": "Diner478b771ef964a520414d1fe3",
    "time": "2012-06-17"
  },
  {
    "place": "Furniture / Home Store4858e403f964a520bf501fe3",
    "time": "2012-06-17"
  },
  {
    "place": "Subway4ad68321f964a5208e0721e3",
    "time": "2012-06-18"
  },
  {
    "place": "Office4b4c888df964a52062b526e3",
    "time": "2012-06-18"
  },
  {
    "place": "Office4b4c888df964a52062b526e3",
    "time": "2012-06-27"
  },
  {
    "place": "Bar4a8e031cf964a520be1120e3",
    "time": "2012-07-02"
  },
  {
    "place": "Rental Car Location4e58f4098877c8a76dddfe03",
    "time": "2012-07-03"
  },
  {
    "place": "Steakhouse3fd66200f964a5209beb1ee3",
    "time": "2012-07-03"
  },
  {
    "place": "Building4d4e52814a38b60cefe9e866",
    "time": "2012-07-03"
  },
  {
    "place": "Taco Place4e302cb1c65b80dfd84807cc",
    "time": "2012-07-04"
  },
  {
    "place": "Building4d4e52814a38b60cefe9e866",
    "time": "2012-07-04"
  },
  {
    "place": "French Restaurant4554c3b0f964a520113d1fe3",
    "time": "2012-07-04"
  },
  {
    "place": "Cuban Restaurant4c54404806901b8d10d67b4b",
    "time": "2012-07-04"
  },
  {
    "place": "Music Venue40c10d00f964a520da001fe3",
    "time": "2012-07-05"
  },
  {
    "place": "Japanese Restaurant4c7f0887fb74236a7727f9b9",
    "time": "2012-07-06"
  },
  {
    "place": "Scenic Lookout4df2a196b0fb807158bfa147",
    "time": "2012-07-07"
  },
  {
    "place": "Office4b4c888df964a52062b526e3",
    "time": "2012-07-09"
  },
  {
    "place": "Middle Eastern Restaurant4b1407d3f964a520159c23e3",
    "time": "2012-07-09"
  },
  {
    "place": "Office4b4c888df964a52062b526e3",
    "time": "2012-07-16"
  },
  {
    "place": "Office4b4c888df964a52062b526e3",
    "time": "2012-07-17"
  },
  {
    "place": "Office4b30ff65f964a520eafd24e3",
    "time": "2012-07-17"
  },
  {
    "place": "Airport43a52546f964a520532c1fe3",
    "time": "2012-07-22"
  },
  {
    "place": "Airport43a52546f964a520532c1fe3",
    "time": "2012-07-30"
  },
  {
    "place": "Mexican Restaurant49d2b3f8f964a520ca5b1fe3",
    "time": "2012-08-05"
  },
  {
    "place": "Scenic Lookout4df2a196b0fb807158bfa147",
    "time": "2012-08-09"
  },
  {
    "place": "Pizza Place4cc6222106c25481d7a4a047",
    "time": "2012-08-11"
  },
  {
    "place": "Bridge49ecd458f964a52099671fe3",
    "time": "2012-08-12"
  },
  {
    "place": "Office4b4c888df964a52062b526e3",
    "time": "2012-08-13"
  },
  {
    "place": "Bar4c18fe064ff90f47d1370f49",
    "time": "2012-10-13"
  },
  {
    "place": "Airport43a52546f964a520532c1fe3",
    "time": "2012-10-17"
  },
  {
    "place": "Office4b4c888df964a52062b526e3",
    "time": "2012-10-18"
  },
  {
    "place": "Office4b4c888df964a52062b526e3",
    "time": "2012-10-22"
  },
  {
    "place": "Coffee Shop4eba99d3be7b1e562036cb46",
    "time": "2012-10-24"
  },
  {
    "place": "Japanese Restaurant4f7b61f6e4b07aaa5d524842",
    "time": "2012-10-24"
  },
  {
    "place": "Building4d4e52814a38b60cefe9e866",
    "time": "2012-10-25"
  },
  {
    "place": "Office4b4c888df964a52062b526e3",
    "time": "2012-10-25"
  },
  {
    "place": "Bar4e977a92f790dd407e8fe7a6",
    "time": "2012-10-27"
  },
  {
    "place": "Thai Restaurant4a0de8e9f964a520af751fe3",
    "time": "2012-10-30"
  },
  {
    "place": "Coffee Shop4eba99d3be7b1e562036cb46",
    "time": "2012-10-31"
  },
  {
    "place": "Office4b4c888df964a52062b526e3",
    "time": "2012-11-07"
  },
  {
    "place": "Seafood Restaurant4e02a608e4cdbd9a517532eb",
    "time": "2012-11-16"
  },
  {
    "place": "Record Shop4adc8847f964a520f12c21e3",
    "time": "2012-11-18"
  },
  {
    "place": "Coffee Shop4eba99d3be7b1e562036cb46",
    "time": "2012-11-21"
  },
  {
    "place": "Food & Drink Shop4d18d6a46d103704bb2042bd",
    "time": "2012-11-21"
  },
  {
    "place": "Burger Joint3fd66200f964a52096e91ee3",
    "time": "2012-11-26"
  },
  {
    "place": "Vietnamese Restaurant49d0f222f964a520485b1fe3",
    "time": "2012-11-28"
  },
  {
    "place": "General Travel4f8a5348e4b09efba25ead9a",
    "time": "2012-11-30"
  },
  {
    "place": "Office4b4c888df964a52062b526e3",
    "time": "2012-12-17"
  },
  {
    "place": "Eastern European Restaurant4a7dc42af964a52085ef1fe3",
    "time": "2012-12-18"
  },
  {
    "place": "Middle Eastern Restaurant4b1407d3f964a520159c23e3",
    "time": "2012-12-20"
  },
  {
    "place": "Airport43a52546f964a520532c1fe3",
    "time": "2013-01-08"
  },
  {
    "place": "Neighborhood4bdc9fb73904a59345084f9e",
    "time": "2013-01-08"
  },
  {
    "place": "Office4b4c888df964a52062b526e3",
    "time": "2013-01-08"
  },
  {
    "place": "Taco Place4e302cb1c65b80dfd84807cc",
    "time": "2013-01-11"
  },
  {
    "place": "Neighborhood4fec4c01e4b06e7fdf8594e8",
    "time": "2013-01-12"
  },
  {
    "place": "Thai Restaurant4b009bbaf964a520ee3f22e3",
    "time": "2013-01-12"
  },
  {
    "place": "Neighborhood4bd36b2541b9ef3b412600e6",
    "time": "2013-01-12"
  },
  {
    "place": "Bridge49ecd458f964a52099671fe3",
    "time": "2013-01-14"
  },
  {
    "place": "Office4b4c888df964a52062b526e3",
    "time": "2013-01-25"
  },
  {
    "place": "Stadium4b992b04f964a520726635e3",
    "time": "2013-02-14"
  }
]