[
  {
    "place": "Post Office4b63388af964a520956b2ae3",
    "time": "2012-04-03"
  },
  {
    "place": "Home (private)4e0d14a7d22d8582bdb23cc9",
    "time": "2012-04-04"
  },
  {
    "place": "Building4aca10d4f964a5205dc020e3",
    "time": "2012-04-04"
  },
  {
    "place": "Bank4ce00eeac4f6a35d1abdd36c",
    "time": "2012-04-04"
  },
  {
    "place": "Gym / Fitness Center4a1f0bf5f964a520fb7b1fe3",
    "time": "2012-04-06"
  },
  {
    "place": "Deli / Bodega46d43138f964a520634a1fe3",
    "time": "2012-04-06"
  },
  {
    "place": "Pizza Place4b194799f964a52065da23e3",
    "time": "2012-04-06"
  },
  {
    "place": "Moving Target4f7f171ce4b06838144f311c",
    "time": "2012-04-06"
  },
  {
    "place": "Bank4cd56b3a2944b1f7b4cd5cec",
    "time": "2012-04-08"
  },
  {
    "place": "Clothing Store4b8f114af964a520794733e3",
    "time": "2012-04-08"
  },
  {
    "place": "Drugstore / Pharmacy4c7c68dc3e90a1cdcb9a42be",
    "time": "2012-04-08"
  },
  {
    "place": "Building4aca10d4f964a5205dc020e3",
    "time": "2012-04-09"
  },
  {
    "place": "Italian Restaurant44390b49f964a52018321fe3",
    "time": "2012-04-09"
  },
  {
    "place": "Building4aca10d4f964a5205dc020e3",
    "time": "2012-04-10"
  },
  {
    "place": "Bar4af59b37f964a5203efa21e3",
    "time": "2012-04-10"
  },
  {
    "place": "Building4aca10d4f964a5205dc020e3",
    "time": "2012-04-11"
  },
  {
    "place": "Gas Station / Garage4cd83f6b1647a09321f4e04c",
    "time": "2012-04-11"
  },
  {
    "place": "Deli / Bodega46d43138f964a520634a1fe3",
    "time": "2012-04-11"
  },
  {
    "place": "Building4aca10d4f964a5205dc020e3",
    "time": "2012-04-12"
  },
  {
    "place": "Building4aca10d4f964a5205dc020e3",
    "time": "2012-04-12"
  },
  {
    "place": "Bakery4b7d51f3f964a52013b82fe3",
    "time": "2012-04-12"
  },
  {
    "place": "Building4aca10d4f964a5205dc020e3",
    "time": "2012-04-13"
  },
  {
    "place": "Deli / Bodega46d43138f964a520634a1fe3",
    "time": "2012-04-13"
  },
  {
    "place": "Bar4b5bdbf0f964a5202f1a29e3",
    "time": "2012-04-14"
  },
  {
    "place": "Home (private)4e0d14a7d22d8582bdb23cc9",
    "time": "2012-04-15"
  },
  {
    "place": "Home (private)4e0d14a7d22d8582bdb23cc9",
    "time": "2012-04-15"
  },
  {
    "place": "Building4aca10d4f964a5205dc020e3",
    "time": "2012-04-16"
  },
  {
    "place": "Nail Salon4c796eb1566db60c52f3440e",
    "time": "2012-04-16"
  },
  {
    "place": "Bank4c2a61b9c758e21ee68b3a3f",
    "time": "2012-04-16"
  },
  {
    "place": "Building4aca10d4f964a5205dc020e3",
    "time": "2012-04-17"
  },
  {
    "place": "Road4b659666f964a52078f52ae3",
    "time": "2012-04-17"
  },
  {
    "place": "Building4aca10d4f964a5205dc020e3",
    "time": "2012-04-18"
  },
  {
    "place": "Deli / Bodega46d43138f964a520634a1fe3",
    "time": "2012-04-18"
  },
  {
    "place": "Bar4af59b37f964a5203efa21e3",
    "time": "2012-04-18"
  },
  {
    "place": "Building4aca10d4f964a5205dc020e3",
    "time": "2012-04-19"
  },
  {
    "place": "Gas Station / Garage4cd83f6b1647a09321f4e04c",
    "time": "2012-04-19"
  },
  {
    "place": "Building4aca10d4f964a5205dc020e3",
    "time": "2012-04-19"
  },
  {
    "place": "Bar4af59b37f964a5203efa21e3",
    "time": "2012-04-19"
  },
  {
    "place": "Deli / Bodega46d43138f964a520634a1fe3",
    "time": "2012-04-19"
  },
  {
    "place": "Burger Joint4e13a205d16447c40d118c9c",
    "time": "2012-04-19"
  },
  {
    "place": "Bakery4b7d51f3f964a52013b82fe3",
    "time": "2012-04-19"
  },
  {
    "place": "Building4aca10d4f964a5205dc020e3",
    "time": "2012-04-20"
  },
  {
    "place": "Mall4b8023c7f964a520cd5530e3",
    "time": "2012-04-20"
  },
  {
    "place": "Bar4ec546395c5c09569ba970f6",
    "time": "2012-04-20"
  },
  {
    "place": "Cajun / Creole Restaurant4b5a7d26f964a520fcc728e3",
    "time": "2012-04-20"
  },
  {
    "place": "Bar4ba543eaf964a5209ef338e3",
    "time": "2012-04-20"
  },
  {
    "place": "Building4aca10d4f964a5205dc020e3",
    "time": "2012-04-20"
  },
  {
    "place": "Deli / Bodega46d43138f964a520634a1fe3",
    "time": "2012-04-20"
  },
  {
    "place": "Garden42717900f964a5206f211fe3",
    "time": "2012-04-20"
  },
  {
    "place": "Southern / Soul Food Restaurant4c5cb5cc6147be9a58319009",
    "time": "2012-04-20"
  },
  {
    "place": "Burger Joint4ba0049df964a520b05237e3",
    "time": "2012-04-21"
  },
  {
    "place": "Building4aca10d4f964a5205dc020e3",
    "time": "2012-04-21"
  },
  {
    "place": "Cosmetics Shop4bdb160b2a3a0f478357adb6",
    "time": "2012-04-21"
  },
  {
    "place": "Bank4bee8b6c2c082d7fc6843042",
    "time": "2012-04-21"
  },
  {
    "place": "Donut Shop4baa01d5f964a52045433ae3",
    "time": "2012-04-21"
  },
  {
    "place": "Home (private)4e0d14a7d22d8582bdb23cc9",
    "time": "2012-04-22"
  },
  {
    "place": "Bakery4bb7a0a253649c74e0ff45fb",
    "time": "2012-04-22"
  },
  {
    "place": "Other Great Outdoors4ee03cc6d3e38ddb2a91672f",
    "time": "2012-04-22"
  },
  {
    "place": "Home (private)4e0d14a7d22d8582bdb23cc9",
    "time": "2012-04-23"
  },
  {
    "place": "Outdoors & Recreation4e87991f02d55a682739cf76",
    "time": "2012-04-23"
  },
  {
    "place": "Building4aca10d4f964a5205dc020e3",
    "time": "2012-04-23"
  },
  {
    "place": "Fast Food Restaurant4e823597775b368bbbffb549",
    "time": "2012-04-23"
  },
  {
    "place": "Donut Shop4b2e59caf964a520a9de24e3",
    "time": "2012-04-23"
  },
  {
    "place": "Bank4ba7ba93f964a520baad39e3",
    "time": "2012-04-24"
  },
  {
    "place": "Gas Station / Garage4cd83f6b1647a09321f4e04c",
    "time": "2012-04-24"
  },
  {
    "place": "Building4aca10d4f964a5205dc020e3",
    "time": "2012-04-24"
  },
  {
    "place": "Deli / Bodega46d43138f964a520634a1fe3",
    "time": "2012-04-24"
  },
  {
    "place": "Bar4af59b37f964a5203efa21e3",
    "time": "2012-04-24"
  },
  {
    "place": "Pizza Place4b194799f964a52065da23e3",
    "time": "2012-04-24"
  },
  {
    "place": "Bar4af59b37f964a5203efa21e3",
    "time": "2012-04-25"
  },
  {
    "place": "Food & Drink Shop4a60bee9f964a52020c11fe3",
    "time": "2012-04-25"
  },
  {
    "place": "Building4aca10d4f964a5205dc020e3",
    "time": "2012-04-26"
  },
  {
    "place": "Building4aca10d4f964a5205dc020e3",
    "time": "2012-04-26"
  },
  {
    "place": "Deli / Bodega46d43138f964a520634a1fe3",
    "time": "2012-04-26"
  },
  {
    "place": "Building4aca10d4f964a5205dc020e3",
    "time": "2012-04-27"
  },
  {
    "place": "Deli / Bodega46d43138f964a520634a1fe3",
    "time": "2012-04-27"
  },
  {
    "place": "Building4aca10d4f964a5205dc020e3",
    "time": "2012-04-28"
  },
  {
    "place": "Deli / Bodega4be04c33358fef3b2156648a",
    "time": "2012-04-28"
  },
  {
    "place": "Home (private)4e1b1fc3fa7652e581d8db70",
    "time": "2012-04-28"
  },
  {
    "place": "Salon / Barbershop4aec5e5af964a5206ac621e3",
    "time": "2012-04-28"
  },
  {
    "place": "Italian Restaurant4d4e0113869cf04dd10ce4ae",
    "time": "2012-04-29"
  },
  {
    "place": "Building4aca10d4f964a5205dc020e3",
    "time": "2012-05-03"
  },
  {
    "place": "Deli / Bodega46d43138f964a520634a1fe3",
    "time": "2012-05-03"
  },
  {
    "place": "Bakery4b7d51f3f964a52013b82fe3",
    "time": "2012-05-03"
  },
  {
    "place": "Building4aca10d4f964a5205dc020e3",
    "time": "2012-05-04"
  },
  {
    "place": "Building4aca10d4f964a5205dc020e3",
    "time": "2012-05-04"
  },
  {
    "place": "Building4aca10d4f964a5205dc020e3",
    "time": "2012-05-05"
  },
  {
    "place": "Building4aca10d4f964a5205dc020e3",
    "time": "2012-05-07"
  },
  {
    "place": "Bank4c7e5603d461a14349b07ff5",
    "time": "2012-05-07"
  },
  {
    "place": "Bank4c6313bcedd320a1b881ae29",
    "time": "2012-05-07"
  },
  {
    "place": "Building4c0188d70bce20a1b7eef6c6",
    "time": "2012-05-07"
  },
  {
    "place": "Building4aca10d4f964a5205dc020e3",
    "time": "2012-05-08"
  },
  {
    "place": "Deli / Bodega46d43138f964a520634a1fe3",
    "time": "2012-05-08"
  },
  {
    "place": "Building4aca10d4f964a5205dc020e3",
    "time": "2012-05-09"
  },
  {
    "place": "Building4aca10d4f964a5205dc020e3",
    "time": "2012-05-09"
  },
  {
    "place": "Building4aca10d4f964a5205dc020e3",
    "time": "2012-05-10"
  },
  {
    "place": "Building4aca10d4f964a5205dc020e3",
    "time": "2012-05-11"
  },
  {
    "place": "Deli / Bodega46d43138f964a520634a1fe3",
    "time": "2012-05-11"
  },
  {
    "place": "Building4aca10d4f964a5205dc020e3",
    "time": "2012-05-14"
  },
  {
    "place": "Bar42c9cd80f964a520df251fe3",
    "time": "2012-05-14"
  },
  {
    "place": "Building4aca10d4f964a5205dc020e3",
    "time": "2012-05-15"
  },
  {
    "place": "Bakery4a9e748df964a5203a3a20e3",
    "time": "2012-05-15"
  },
  {
    "place": "Building4aca10d4f964a5205dc020e3",
    "time": "2012-05-16"
  },
  {
    "place": "Home (private)4e0d14a7d22d8582bdb23cc9",
    "time": "2012-05-16"
  },
  {
    "place": "Building4aca10d4f964a5205dc020e3",
    "time": "2012-05-16"
  },
  {
    "place": "Building4aca10d4f964a5205dc020e3",
    "time": "2012-05-16"
  },
  {
    "place": "Home (private)4e0d14a7d22d8582bdb23cc9",
    "time": "2012-05-17"
  },
  {
    "place": "Road4bae1d87f964a52011863be3",
    "time": "2012-05-17"
  },
  {
    "place": "Building4aca10d4f964a5205dc020e3",
    "time": "2012-05-17"
  },
  {
    "place": "Road4bae1d87f964a52011863be3",
    "time": "2012-05-18"
  },
  {
    "place": "Building4aca10d4f964a5205dc020e3",
    "time": "2012-05-18"
  },
  {
    "place": "Bar4af59b37f964a5203efa21e3",
    "time": "2012-05-18"
  },
  {
    "place": "Building4aca10d4f964a5205dc020e3",
    "time": "2012-05-19"
  },
  {
    "place": "Nail Salon4c796eb1566db60c52f3440e",
    "time": "2012-05-19"
  },
  {
    "place": "Road4bae1d87f964a52011863be3",
    "time": "2012-05-21"
  },
  {
    "place": "Building4aca10d4f964a5205dc020e3",
    "time": "2012-05-21"
  },
  {
    "place": "Donut Shop4b2e59caf964a520a9de24e3",
    "time": "2012-05-21"
  },
  {
    "place": "Building4aca10d4f964a5205dc020e3",
    "time": "2012-05-21"
  },
  {
    "place": "Building4aca10d4f964a5205dc020e3",
    "time": "2012-05-22"
  },
  {
    "place": "Deli / Bodega46d43138f964a520634a1fe3",
    "time": "2012-05-22"
  },
  {
    "place": "Building4aca10d4f964a5205dc020e3",
    "time": "2012-05-24"
  },
  {
    "place": "Building4aca10d4f964a5205dc020e3",
    "time": "2012-05-25"
  },
  {
    "place": "Building4aca10d4f964a5205dc020e3",
    "time": "2012-05-25"
  },
  {
    "place": "Building4aca10d4f964a5205dc020e3",
    "time": "2012-05-29"
  },
  {
    "place": "Electronics Store4b0f9431f964a520586323e3",
    "time": "2012-05-29"
  },
  {
    "place": "Bar4ec546395c5c09569ba970f6",
    "time": "2012-06-03"
  },
  {
    "place": "Donut Shop4a5c7989f964a52041bc1fe3",
    "time": "2012-06-03"
  },
  {
    "place": "Gas Station / Garage4c031f0a0d0e0f478138029a",
    "time": "2012-06-03"
  },
  {
    "place": "Building4aca10d4f964a5205dc020e3",
    "time": "2012-06-04"
  },
  {
    "place": "Building4aca10d4f964a5205dc020e3",
    "time": "2012-06-05"
  },
  {
    "place": "Building4aca10d4f964a5205dc020e3",
    "time": "2012-06-05"
  },
  {
    "place": "Building4aca10d4f964a5205dc020e3",
    "time": "2012-06-06"
  },
  {
    "place": "Deli / Bodega46d43138f964a520634a1fe3",
    "time": "2012-06-06"
  },
  {
    "place": "Building4aca10d4f964a5205dc020e3",
    "time": "2012-06-07"
  },
  {
    "place": "Building4aca10d4f964a5205dc020e3",
    "time": "2012-06-07"
  },
  {
    "place": "Road4bae1d87f964a52011863be3",
    "time": "2012-06-08"
  },
  {
    "place": "Building4aca10d4f964a5205dc020e3",
    "time": "2012-06-08"
  },
  {
    "place": "Salon / Barbershop4aec5e5af964a5206ac621e3",
    "time": "2012-06-09"
  },
  {
    "place": "Beer Garden4a083214f964a520a3731fe3",
    "time": "2012-06-10"
  },
  {
    "place": "Building4aca10d4f964a5205dc020e3",
    "time": "2012-06-11"
  },
  {
    "place": "Bagel Shop4cc2ddcdc844721eda12df01",
    "time": "2012-06-11"
  },
  {
    "place": "Bar4af59b37f964a5203efa21e3",
    "time": "2012-06-11"
  },
  {
    "place": "Building4aca10d4f964a5205dc020e3",
    "time": "2012-06-12"
  },
  {
    "place": "Building4aca10d4f964a5205dc020e3",
    "time": "2012-06-12"
  },
  {
    "place": "Bar4af59b37f964a5203efa21e3",
    "time": "2012-06-12"
  },
  {
    "place": "Building4aca10d4f964a5205dc020e3",
    "time": "2012-06-13"
  },
  {
    "place": "Building4aca10d4f964a5205dc020e3",
    "time": "2012-06-13"
  },
  {
    "place": "Deli / Bodega46d43138f964a520634a1fe3",
    "time": "2012-06-13"
  },
  {
    "place": "Building4aca10d4f964a5205dc020e3",
    "time": "2012-06-14"
  },
  {
    "place": "Building4aca10d4f964a5205dc020e3",
    "time": "2012-06-15"
  },
  {
    "place": "Hotel4bf9bcfdb182c9b69a78795a",
    "time": "2012-06-17"
  },
  {
    "place": "Building4aca10d4f964a5205dc020e3",
    "time": "2012-06-27"
  },
  {
    "place": "Building4aca10d4f964a5205dc020e3",
    "time": "2012-07-02"
  },
  {
    "place": "Building4aca10d4f964a5205dc020e3",
    "time": "2012-07-03"
  },
  {
    "place": "Building4aca10d4f964a5205dc020e3",
    "time": "2012-07-03"
  },
  {
    "place": "Building4aca10d4f964a5205dc020e3",
    "time": "2012-07-05"
  },
  {
    "place": "Building4aca10d4f964a5205dc020e3",
    "time": "2012-07-06"
  },
  {
    "place": "Building4aca10d4f964a5205dc020e3",
    "time": "2012-07-07"
  },
  {
    "place": "Building4aca10d4f964a5205dc020e3",
    "time": "2012-07-09"
  },
  {
    "place": "Building4aca10d4f964a5205dc020e3",
    "time": "2012-07-09"
  },
  {
    "place": "Building4aca10d4f964a5205dc020e3",
    "time": "2012-07-12"
  },
  {
    "place": "Building4aca10d4f964a5205dc020e3",
    "time": "2012-07-13"
  },
  {
    "place": "Building4aca10d4f964a5205dc020e3",
    "time": "2012-07-13"
  },
  {
    "place": "Building4aca10d4f964a5205dc020e3",
    "time": "2012-07-16"
  },
  {
    "place": "Bar4af59b37f964a5203efa21e3",
    "time": "2012-07-16"
  },
  {
    "place": "Building4aca10d4f964a5205dc020e3",
    "time": "2012-07-17"
  },
  {
    "place": "Building4aca10d4f964a5205dc020e3",
    "time": "2012-07-19"
  },
  {
    "place": "Gas Station / Garage4cd83f6b1647a09321f4e04c",
    "time": "2012-07-19"
  },
  {
    "place": "American Restaurant4b8087f0f964a520727a30e3",
    "time": "2012-07-28"
  },
  {
    "place": "Food & Drink Shop4ba28ac0f964a520820238e3",
    "time": "2012-07-28"
  },
  {
    "place": "Food & Drink Shop4dab26e35da3ba8a479ac4f2",
    "time": "2012-07-29"
  },
  {
    "place": "Building4aca10d4f964a5205dc020e3",
    "time": "2012-07-30"
  }
]