[
  {
    "place": "Department Store4a6a2fecf964a520cacc1fe3",
    "time": "2012-04-06"
  },
  {
    "place": "Salon / Barbershop4bd362ada8b3a5935ddf695f",
    "time": "2012-04-07"
  },
  {
    "place": "College Academic Building4b95995af964a52075ab34e3",
    "time": "2012-04-09"
  },
  {
    "place": "Gym / Fitness Center4c419ad3cc410f471767ab61",
    "time": "2012-04-09"
  },
  {
    "place": "Salon / Barbershop49f4eaebf964a520756b1fe3",
    "time": "2012-04-10"
  },
  {
    "place": "College Academic Building4b95995af964a52075ab34e3",
    "time": "2012-04-10"
  },
  {
    "place": "Office4c20cb6cd4dec928cbec1b3e",
    "time": "2012-04-12"
  },
  {
    "place": "College Academic Building4b95995af964a52075ab34e3",
    "time": "2012-04-13"
  },
  {
    "place": "Medical Center4ca4d712d7c3370404d7ac62",
    "time": "2012-04-16"
  },
  {
    "place": "Medical Center4a7722d4f964a520b2e31fe3",
    "time": "2012-04-17"
  },
  {
    "place": "College Academic Building4b95995af964a52075ab34e3",
    "time": "2012-04-19"
  },
  {
    "place": "Gym / Fitness Center4c419ad3cc410f471767ab61",
    "time": "2012-04-19"
  },
  {
    "place": "College Academic Building4b95995af964a52075ab34e3",
    "time": "2012-04-19"
  },
  {
    "place": "College Academic Building4b95995af964a52075ab34e3",
    "time": "2012-04-23"
  },
  {
    "place": "Gym / Fitness Center4c419ad3cc410f471767ab61",
    "time": "2012-04-23"
  },
  {
    "place": "College Academic Building4b95995af964a52075ab34e3",
    "time": "2012-04-24"
  },
  {
    "place": "Government Building4b1edcd2f964a520ad2024e3",
    "time": "2012-04-25"
  },
  {
    "place": "College Academic Building4b95995af964a52075ab34e3",
    "time": "2012-04-26"
  },
  {
    "place": "College Academic Building4b95995af964a52075ab34e3",
    "time": "2012-04-27"
  },
  {
    "place": "College Academic Building4b95995af964a52075ab34e3",
    "time": "2012-04-27"
  },
  {
    "place": "Home (private)4befe44bf831c9285b5d01f2",
    "time": "2012-04-29"
  },
  {
    "place": "Salon / Barbershop49f4eaebf964a520756b1fe3",
    "time": "2012-05-01"
  },
  {
    "place": "College Academic Building4b95995af964a52075ab34e3",
    "time": "2012-05-01"
  },
  {
    "place": "Airport4b3cd805f964a520218825e3",
    "time": "2012-05-01"
  },
  {
    "place": "College Academic Building4b95995af964a52075ab34e3",
    "time": "2012-05-10"
  },
  {
    "place": "Gym / Fitness Center4c419ad3cc410f471767ab61",
    "time": "2012-05-11"
  },
  {
    "place": "Gym / Fitness Center4c419ad3cc410f471767ab61",
    "time": "2012-05-12"
  },
  {
    "place": "College Academic Building4b95995af964a52075ab34e3",
    "time": "2012-05-14"
  },
  {
    "place": "Gym / Fitness Center4c419ad3cc410f471767ab61",
    "time": "2012-05-14"
  },
  {
    "place": "College Academic Building4b95995af964a52075ab34e3",
    "time": "2012-05-14"
  },
  {
    "place": "College Academic Building4b95995af964a52075ab34e3",
    "time": "2012-05-15"
  },
  {
    "place": "Gym / Fitness Center4c419ad3cc410f471767ab61",
    "time": "2012-05-15"
  },
  {
    "place": "College Academic Building4b95995af964a52075ab34e3",
    "time": "2012-05-15"
  },
  {
    "place": "College Academic Building4b95995af964a52075ab34e3",
    "time": "2012-05-16"
  },
  {
    "place": "Gym / Fitness Center4c419ad3cc410f471767ab61",
    "time": "2012-05-16"
  },
  {
    "place": "College Academic Building4b95995af964a52075ab34e3",
    "time": "2012-05-16"
  },
  {
    "place": "Salon / Barbershop49f4eaebf964a520756b1fe3",
    "time": "2012-05-17"
  },
  {
    "place": "College Academic Building4b95995af964a52075ab34e3",
    "time": "2012-05-17"
  },
  {
    "place": "Drugstore / Pharmacy4af8f9a1f964a520bd1022e3",
    "time": "2012-05-17"
  },
  {
    "place": "Gym / Fitness Center4c419ad3cc410f471767ab61",
    "time": "2012-05-18"
  },
  {
    "place": "Sandwich Place4bd32f27a8b3a593ec48695f",
    "time": "2012-05-19"
  },
  {
    "place": "Gym / Fitness Center4c419ad3cc410f471767ab61",
    "time": "2012-05-19"
  },
  {
    "place": "College Academic Building4b95995af964a52075ab34e3",
    "time": "2012-05-21"
  },
  {
    "place": "Gym / Fitness Center4c419ad3cc410f471767ab61",
    "time": "2012-05-21"
  },
  {
    "place": "Home (private)4befe44bf831c9285b5d01f2",
    "time": "2012-05-21"
  },
  {
    "place": "Gym / Fitness Center4c419ad3cc410f471767ab61",
    "time": "2012-05-22"
  },
  {
    "place": "Bakery4f10bf19e4b01eefed6deaae",
    "time": "2012-05-23"
  },
  {
    "place": "College Academic Building4b95995af964a52075ab34e3",
    "time": "2012-05-23"
  },
  {
    "place": "American Restaurant4ad89c0bf964a520d31221e3",
    "time": "2012-05-23"
  },
  {
    "place": "Gym / Fitness Center4c419ad3cc410f471767ab61",
    "time": "2012-05-25"
  },
  {
    "place": "Burger Joint4b1f3784f964a520ec2424e3",
    "time": "2012-05-27"
  },
  {
    "place": "Train Station4af18817f964a5203fe121e3",
    "time": "2012-05-28"
  },
  {
    "place": "Train Station4a63d085f964a520dac51fe3",
    "time": "2012-05-28"
  },
  {
    "place": "Tea Room41311c80f964a520400d1fe3",
    "time": "2012-05-28"
  },
  {
    "place": "Train Station4a63d085f964a520dac51fe3",
    "time": "2012-05-28"
  },
  {
    "place": "Department Store4a6a2fecf964a520cacc1fe3",
    "time": "2012-05-28"
  },
  {
    "place": "Gym / Fitness Center4c419ad3cc410f471767ab61",
    "time": "2012-05-29"
  },
  {
    "place": "College Academic Building4b95995af964a52075ab34e3",
    "time": "2012-05-29"
  },
  {
    "place": "Home (private)4befe44bf831c9285b5d01f2",
    "time": "2012-05-31"
  },
  {
    "place": "College Academic Building4b95995af964a52075ab34e3",
    "time": "2012-05-31"
  },
  {
    "place": "College Academic Building4b95995af964a52075ab34e3",
    "time": "2012-06-01"
  },
  {
    "place": "College Academic Building4b95995af964a52075ab34e3",
    "time": "2012-06-01"
  },
  {
    "place": "Stadium4840fef8f964a52031501fe3",
    "time": "2012-06-02"
  },
  {
    "place": "College Academic Building4b95995af964a52075ab34e3",
    "time": "2012-06-06"
  },
  {
    "place": "College Academic Building4b95995af964a52075ab34e3",
    "time": "2012-06-06"
  },
  {
    "place": "College Academic Building4b95995af964a52075ab34e3",
    "time": "2012-06-07"
  },
  {
    "place": "Gym / Fitness Center4c419ad3cc410f471767ab61",
    "time": "2012-06-07"
  },
  {
    "place": "College Academic Building4b95995af964a52075ab34e3",
    "time": "2012-06-07"
  },
  {
    "place": "Plaza49e36914f964a5207b621fe3",
    "time": "2012-06-08"
  },
  {
    "place": "Train Station4af18817f964a5203fe121e3",
    "time": "2012-06-09"
  },
  {
    "place": "Home (private)4befe44bf831c9285b5d01f2",
    "time": "2012-06-09"
  },
  {
    "place": "Train Station49f76cc2f964a5209d6c1fe3",
    "time": "2012-06-09"
  },
  {
    "place": "Train Station4abbe19ef964a520548520e3",
    "time": "2012-06-09"
  },
  {
    "place": "Train Station4af18817f964a5203fe121e3",
    "time": "2012-06-09"
  },
  {
    "place": "College Academic Building4b95995af964a52075ab34e3",
    "time": "2012-06-11"
  },
  {
    "place": "Sandwich Place4bd32f27a8b3a593ec48695f",
    "time": "2012-06-11"
  },
  {
    "place": "College Academic Building4b95995af964a52075ab34e3",
    "time": "2012-06-12"
  },
  {
    "place": "Indian Restaurant4aa69eaef964a520674a20e3",
    "time": "2012-06-12"
  },
  {
    "place": "College Academic Building4b95995af964a52075ab34e3",
    "time": "2012-06-12"
  },
  {
    "place": "College Academic Building4b95995af964a52075ab34e3",
    "time": "2012-06-13"
  },
  {
    "place": "College Academic Building4b95995af964a52075ab34e3",
    "time": "2012-06-13"
  },
  {
    "place": "Salon / Barbershop49f4eaebf964a520756b1fe3",
    "time": "2012-06-15"
  },
  {
    "place": "Train Station4a63d085f964a520dac51fe3",
    "time": "2012-06-17"
  },
  {
    "place": "Train Station4af18817f964a5203fe121e3",
    "time": "2012-06-17"
  },
  {
    "place": "College Academic Building4b95995af964a52075ab34e3",
    "time": "2012-06-18"
  },
  {
    "place": "College Academic Building4b95995af964a52075ab34e3",
    "time": "2012-06-18"
  },
  {
    "place": "High School4c0e3a8398102d7f2441e306",
    "time": "2012-07-02"
  },
  {
    "place": "Sandwich Place4bd32f27a8b3a593ec48695f",
    "time": "2012-07-03"
  },
  {
    "place": "Mall4a07ac6af964a5208f731fe3",
    "time": "2012-07-03"
  },
  {
    "place": "Breakfast Spot4b2530a6f964a520ab6d24e3",
    "time": "2012-07-04"
  },
  {
    "place": "Food & Drink Shop4a7cebcff964a52019ee1fe3",
    "time": "2012-07-04"
  },
  {
    "place": "High School4c0e3a8398102d7f2441e306",
    "time": "2012-07-05"
  },
  {
    "place": "High School4c0e3a8398102d7f2441e306",
    "time": "2012-07-09"
  },
  {
    "place": "High School4c0e3a8398102d7f2441e306",
    "time": "2012-07-09"
  },
  {
    "place": "Park49ecbea3f964a5207c671fe3",
    "time": "2012-07-09"
  },
  {
    "place": "High School4c0e3a8398102d7f2441e306",
    "time": "2012-07-11"
  },
  {
    "place": "High School4c0e3a8398102d7f2441e306",
    "time": "2012-07-11"
  },
  {
    "place": "High School4c0e3a8398102d7f2441e306",
    "time": "2012-07-12"
  },
  {
    "place": "High School4c0e3a8398102d7f2441e306",
    "time": "2012-07-12"
  },
  {
    "place": "Salon / Barbershop4bd362ada8b3a5935ddf695f",
    "time": "2012-07-15"
  },
  {
    "place": "High School4c0e3a8398102d7f2441e306",
    "time": "2012-07-16"
  },
  {
    "place": "High School4c0e3a8398102d7f2441e306",
    "time": "2012-07-17"
  },
  {
    "place": "Salon / Barbershop49f4eaebf964a520756b1fe3",
    "time": "2012-07-28"
  },
  {
    "place": "Airport4fe25c42e4b053fe13937b3b",
    "time": "2012-07-28"
  },
  {
    "place": "General Entertainment4f6deef9e4b0e0075b058a43",
    "time": "2012-08-12"
  },
  {
    "place": "Bridge4aea4ec4f964a520eaba21e3",
    "time": "2012-08-13"
  },
  {
    "place": "Pizza Place4a343f1ef964a520f69b1fe3",
    "time": "2012-08-13"
  },
  {
    "place": "American Restaurant4c472ee531e41b8d0ef84b35",
    "time": "2012-08-14"
  }
]