[
  {
    "place": "Office4f66477ee4b04b2445517eab",
    "time": "2012-04-06"
  },
  {
    "place": "Building4bec3db9b3352d7f9c7157d2",
    "time": "2012-04-10"
  },
  {
    "place": "Caf\u00c3\u00a94a425271f964a520bba51fe3",
    "time": "2012-04-10"
  },
  {
    "place": "Arts & Crafts Store4aec9693f964a5201dc921e3",
    "time": "2012-04-16"
  },
  {
    "place": "Sandwich Place4b17e419f964a52051c923e3",
    "time": "2012-04-17"
  },
  {
    "place": "Pizza Place4c6bf600d68a9c741978646b",
    "time": "2012-04-17"
  },
  {
    "place": "Asian Restaurant43125000f964a52057271fe3",
    "time": "2012-04-19"
  },
  {
    "place": "Office4f66477ee4b04b2445517eab",
    "time": "2012-04-20"
  },
  {
    "place": "Food & Drink Shop49c27575f964a520f1551fe3",
    "time": "2012-04-25"
  },
  {
    "place": "Arts & Crafts Store4a2ec1cdf964a5204b981fe3",
    "time": "2012-04-25"
  },
  {
    "place": "Office4c3480ba452620a1072c250f",
    "time": "2012-04-25"
  },
  {
    "place": "Hobby Shop3fd66200f964a52038e41ee3",
    "time": "2012-04-25"
  },
  {
    "place": "Bookstore4a24458bf964a5200b7e1fe3",
    "time": "2012-04-27"
  },
  {
    "place": "Beer Garden49c84e8bf964a52010581fe3",
    "time": "2012-04-28"
  },
  {
    "place": "Mexican Restaurant48970bc2f964a52077511fe3",
    "time": "2012-04-28"
  },
  {
    "place": "Gym / Fitness Center49bbf847f964a520ff531fe3",
    "time": "2012-05-04"
  },
  {
    "place": "Bridge4e79f9ce091ad14ff7119b42",
    "time": "2012-05-07"
  },
  {
    "place": "Deli / Bodega4c86aed051ada1cdc4544210",
    "time": "2012-05-08"
  },
  {
    "place": "Falafel Restaurant447a1926f964a520df331fe3",
    "time": "2012-05-08"
  },
  {
    "place": "Design Studio4b23e667f964a520635c24e3",
    "time": "2012-05-08"
  },
  {
    "place": "Cosmetics Shop4b5e8425f964a5206a9129e3",
    "time": "2012-05-08"
  },
  {
    "place": "Clothing Store4ab3e1eff964a520e46e20e3",
    "time": "2012-05-08"
  },
  {
    "place": "Music Store4c8c122ecf3ea14347fff151",
    "time": "2012-05-08"
  },
  {
    "place": "Clothing Store4dd2d622c65b47384cea9ec9",
    "time": "2012-05-08"
  },
  {
    "place": "Bookstore4caeb2c4562d224b3a630888",
    "time": "2012-05-08"
  },
  {
    "place": "Gym / Fitness Center49bbf847f964a520ff531fe3",
    "time": "2012-05-08"
  },
  {
    "place": "Food & Drink Shop4b676b35f964a520c74d2be3",
    "time": "2012-05-09"
  },
  {
    "place": "Sushi Restaurant423e0e80f964a52048201fe3",
    "time": "2012-05-11"
  },
  {
    "place": "Gym / Fitness Center49bbf847f964a520ff531fe3",
    "time": "2012-05-14"
  },
  {
    "place": "Park3fd66200f964a520d7f11ee3",
    "time": "2012-05-15"
  },
  {
    "place": "Office4f66477ee4b04b2445517eab",
    "time": "2012-05-15"
  },
  {
    "place": "Pizza Place4a895649f964a520e60720e3",
    "time": "2012-05-17"
  },
  {
    "place": "Mexican Restaurant48970bc2f964a52077511fe3",
    "time": "2012-05-17"
  },
  {
    "place": "Office4c976dd8f244b1f7796d3c1d",
    "time": "2012-05-18"
  },
  {
    "place": "Mexican Restaurant4e49b0742271ac3f6bcc2dc0",
    "time": "2012-05-18"
  },
  {
    "place": "Mexican Restaurant48970bc2f964a52077511fe3",
    "time": "2012-05-22"
  },
  {
    "place": "Park3fd66200f964a520d7f11ee3",
    "time": "2012-05-29"
  },
  {
    "place": "Park4081c500f964a52081f21ee3",
    "time": "2012-05-29"
  },
  {
    "place": "Gym / Fitness Center49bbf847f964a520ff531fe3",
    "time": "2012-05-29"
  },
  {
    "place": "Deli / Bodega4c86aed051ada1cdc4544210",
    "time": "2012-06-01"
  },
  {
    "place": "Park4081c500f964a52081f21ee3",
    "time": "2012-06-03"
  },
  {
    "place": "Art Gallery4b12dc90f964a520a48f23e3",
    "time": "2012-06-06"
  },
  {
    "place": "Plaza4ad53cf1f964a5207b0221e3",
    "time": "2012-06-06"
  },
  {
    "place": "Beer Garden4eed52130e61a418651773d0",
    "time": "2012-06-07"
  },
  {
    "place": "Cupcake Shop4ca4cf53a73cb60c16582478",
    "time": "2012-06-07"
  },
  {
    "place": "Pizza Place4f045eeb00399761c77301e3",
    "time": "2012-06-11"
  },
  {
    "place": "Sporting Goods Shop4e4e2e1662844166697bd28c",
    "time": "2012-06-12"
  },
  {
    "place": "Diner4a8995a1f964a5207b0820e3",
    "time": "2012-06-12"
  },
  {
    "place": "Shop & Service4dc1c865d22dc3fc30ef6e35",
    "time": "2012-06-12"
  },
  {
    "place": "Food & Drink Shop460d4b1ef964a52004451fe3",
    "time": "2012-06-12"
  },
  {
    "place": "Mexican Restaurant4c38ced2ae2da593576301c6",
    "time": "2012-06-12"
  },
  {
    "place": "Gym / Fitness Center49bbf847f964a520ff531fe3",
    "time": "2012-07-02"
  },
  {
    "place": "Pool4e14347fd16447c40d15cbb0",
    "time": "2012-07-09"
  },
  {
    "place": "Clothing Store4fbbbed9e4b0c852de73d243",
    "time": "2012-10-22"
  },
  {
    "place": "Gym / Fitness Center49bbf847f964a520ff531fe3",
    "time": "2012-10-22"
  },
  {
    "place": "Mexican Restaurant502add84e4b0c7b78f8e8884",
    "time": "2012-10-23"
  },
  {
    "place": "Bar4dd6b3bd81dcd5bca59a8276",
    "time": "2012-10-27"
  },
  {
    "place": "Deli / Bodega4fd295c3e4b0211978a5a881",
    "time": "2012-10-28"
  },
  {
    "place": "Bar4f2cca80e4b0bd78b62f5542",
    "time": "2012-10-28"
  },
  {
    "place": "Park4081c500f964a52081f21ee3",
    "time": "2012-11-05"
  },
  {
    "place": "Ferry4de798361fc7fcfe04ac2330",
    "time": "2012-11-05"
  },
  {
    "place": "Ferry4de7987e1fc7fcfe04ac252b",
    "time": "2012-11-05"
  },
  {
    "place": "Food & Drink Shop4c225ae47e85c9283ee5bb21",
    "time": "2012-11-06"
  },
  {
    "place": "Bar4d57475d58856dcb655a646d",
    "time": "2012-11-06"
  },
  {
    "place": "Ferry4df5fac0d22d8c5470e5bbd4",
    "time": "2012-11-06"
  },
  {
    "place": "Ferry4de7987e1fc7fcfe04ac252b",
    "time": "2012-11-06"
  },
  {
    "place": "Clothing Store4a57b809f964a520a9b61fe3",
    "time": "2012-11-06"
  },
  {
    "place": "Clothing Store4ba2a65af964a5209b0c38e3",
    "time": "2012-11-06"
  },
  {
    "place": "Ferry4de7987e1fc7fcfe04ac252b",
    "time": "2012-11-07"
  },
  {
    "place": "Ferry4df5fac0d22d8c5470e5bbd4",
    "time": "2012-11-07"
  },
  {
    "place": "Moroccan Restaurant4f551c48e4b0ce972e8c5224",
    "time": "2012-11-07"
  },
  {
    "place": "Ferry4de797f51fc7fcfe04ac20f0",
    "time": "2012-11-07"
  },
  {
    "place": "Ferry4df5fac0d22d8c5470e5bbd4",
    "time": "2012-11-07"
  },
  {
    "place": "Office4f0ee80be4b08f6699cc6a75",
    "time": "2012-11-07"
  },
  {
    "place": "Mexican Restaurant4a345963f964a5201a9c1fe3",
    "time": "2012-11-12"
  },
  {
    "place": "Office4f0ee80be4b08f6699cc6a75",
    "time": "2012-11-12"
  },
  {
    "place": "Coffee Shop4b5df26cf964a5206a7529e3",
    "time": "2012-11-12"
  },
  {
    "place": "Park42daf100f964a52035261fe3",
    "time": "2012-11-12"
  },
  {
    "place": "Gym / Fitness Center49bbf847f964a520ff531fe3",
    "time": "2012-11-13"
  },
  {
    "place": "Food & Drink Shop4d6973d582cba0931b05dbd8",
    "time": "2012-11-15"
  },
  {
    "place": "Gym / Fitness Center49bbf847f964a520ff531fe3",
    "time": "2012-11-17"
  },
  {
    "place": "Gift Shop50a79ae7e4b0ee89cf7a4221",
    "time": "2012-11-17"
  },
  {
    "place": "Moroccan Restaurant4f551c48e4b0ce972e8c5224",
    "time": "2012-11-17"
  },
  {
    "place": "Bar45f0c3cbf964a520c4431fe3",
    "time": "2012-11-18"
  },
  {
    "place": "Music Venue4901ef67f964a5205b521fe3",
    "time": "2012-11-18"
  },
  {
    "place": "Park41196180f964a5200b0c1fe3",
    "time": "2012-11-18"
  },
  {
    "place": "Clothing Store4ad0c6bef964a520b8d920e3",
    "time": "2012-11-20"
  },
  {
    "place": "Clothing Store4c54a3b8f5f3d13a27be73fa",
    "time": "2012-11-20"
  },
  {
    "place": "Clothing Store4b280fa1f964a5206b8e24e3",
    "time": "2012-11-20"
  },
  {
    "place": "Bar4b1b3958f964a520d1f923e3",
    "time": "2012-11-20"
  },
  {
    "place": "Clothing Store4a9c20e8f964a520153620e3",
    "time": "2012-11-20"
  },
  {
    "place": "Gym / Fitness Center49bbf847f964a520ff531fe3",
    "time": "2012-11-28"
  },
  {
    "place": "Italian Restaurant4ff37cb9e4b0b8fda883be7f",
    "time": "2012-12-06"
  },
  {
    "place": "Bar4e98efc56da1ff6171feed91",
    "time": "2012-12-06"
  },
  {
    "place": "Bar4cf5cb53c020b60c9bd81c75",
    "time": "2012-12-06"
  },
  {
    "place": "Sporting Goods Shop4e4e2e1662844166697bd28c",
    "time": "2012-12-08"
  },
  {
    "place": "Bar411ff900f964a520290c1fe3",
    "time": "2012-12-08"
  },
  {
    "place": "Gym / Fitness Center49bbf847f964a520ff531fe3",
    "time": "2012-12-08"
  },
  {
    "place": "Food & Drink Shop49c2b82ef964a5201e561fe3",
    "time": "2012-12-08"
  },
  {
    "place": "Vegetarian / Vegan Restaurant3fd66200f964a52098eb1ee3",
    "time": "2012-12-10"
  },
  {
    "place": "Gym / Fitness Center49bbf847f964a520ff531fe3",
    "time": "2012-12-15"
  },
  {
    "place": "Bar4fa01906e4b0dc03c7171c7a",
    "time": "2012-12-15"
  },
  {
    "place": "American Restaurant48f1a197f964a52042521fe3",
    "time": "2012-12-15"
  },
  {
    "place": "Other Nightlife4d0382fa30a58cfa181399e7",
    "time": "2012-12-15"
  },
  {
    "place": "Bar50bacc5ae4b054161cb7f1f0",
    "time": "2012-12-15"
  },
  {
    "place": "Bar40749600f964a52051f21ee3",
    "time": "2012-12-15"
  },
  {
    "place": "Beer Garden474d3e5df964a520a24c1fe3",
    "time": "2012-12-16"
  },
  {
    "place": "Coffee Shop49df6421f964a520c4601fe3",
    "time": "2012-12-16"
  },
  {
    "place": "Bar43276800f964a520bc271fe3",
    "time": "2012-12-18"
  },
  {
    "place": "Gym / Fitness Center49bbf847f964a520ff531fe3",
    "time": "2012-12-18"
  },
  {
    "place": "Moroccan Restaurant4f551c48e4b0ce972e8c5224",
    "time": "2012-12-20"
  },
  {
    "place": "Clothing Store4f7dcffbe4b0bf87a9ea5e65",
    "time": "2012-12-23"
  },
  {
    "place": "Bar3fd66200f964a52025e41ee3",
    "time": "2013-01-11"
  },
  {
    "place": "Food & Drink Shop4a242d0ff964a520fd7d1fe3",
    "time": "2013-01-11"
  },
  {
    "place": "Food & Drink Shop460d4b1ef964a52004451fe3",
    "time": "2013-01-13"
  },
  {
    "place": "Stadium4c138eb6f1e0b7136cab34bc",
    "time": "2013-01-15"
  },
  {
    "place": "Office4a86fe6cf964a520020220e3",
    "time": "2013-01-25"
  },
  {
    "place": "Athletic & Sport4f65a99ae4b0aa8f682fe2d9",
    "time": "2013-01-27"
  }
]