[
  {
    "place": "Road4bf5cedf4d5f20a1833d98fe",
    "time": "2012-04-03"
  },
  {
    "place": "Medical Center4e6657e7d4c06542ac9acee2",
    "time": "2012-04-03"
  },
  {
    "place": "Residential Building (Apartment / Condo)4f4c8043e4b0393385cf7b81",
    "time": "2012-04-04"
  },
  {
    "place": "Residential Building (Apartment / Condo)4e3c2d30ae6045423653c241",
    "time": "2012-04-04"
  },
  {
    "place": "Drugstore / Pharmacy4f397e3ae4b0e313d5b1429a",
    "time": "2012-04-04"
  },
  {
    "place": "Residential Building (Apartment / Condo)4f4c8043e4b0393385cf7b81",
    "time": "2012-04-04"
  },
  {
    "place": "Residential Building (Apartment / Condo)4e3c2d30ae6045423653c241",
    "time": "2012-04-05"
  },
  {
    "place": "Diner4b93629cf964a5203d4234e3",
    "time": "2012-04-06"
  },
  {
    "place": "Diner4b93629cf964a5203d4234e3",
    "time": "2012-04-06"
  },
  {
    "place": "Residential Building (Apartment / Condo)4e3c2d30ae6045423653c241",
    "time": "2012-04-07"
  },
  {
    "place": "Residential Building (Apartment / Condo)4f4c8043e4b0393385cf7b81",
    "time": "2012-04-07"
  },
  {
    "place": "Residential Building (Apartment / Condo)4f4c81fae4b0accb0372041f",
    "time": "2012-04-08"
  },
  {
    "place": "Residential Building (Apartment / Condo)4e3c2d30ae6045423653c241",
    "time": "2012-04-08"
  },
  {
    "place": "Residential Building (Apartment / Condo)4f4c8043e4b0393385cf7b81",
    "time": "2012-04-08"
  },
  {
    "place": "Residential Building (Apartment / Condo)4e3c2d30ae6045423653c241",
    "time": "2012-04-08"
  },
  {
    "place": "Residential Building (Apartment / Condo)4f4c8043e4b0393385cf7b81",
    "time": "2012-04-08"
  },
  {
    "place": "Food & Drink Shop4b70977af964a520f7232de3",
    "time": "2012-04-08"
  },
  {
    "place": "Food & Drink Shop4b7c5919f964a520ee8d2fe3",
    "time": "2012-04-08"
  },
  {
    "place": "Residential Building (Apartment / Condo)4e3c2d30ae6045423653c241",
    "time": "2012-04-08"
  },
  {
    "place": "Residential Building (Apartment / Condo)4f4c8043e4b0393385cf7b81",
    "time": "2012-04-09"
  },
  {
    "place": "Residential Building (Apartment / Condo)4e3c2d30ae6045423653c241",
    "time": "2012-04-09"
  },
  {
    "place": "Residential Building (Apartment / Condo)4e3c2d30ae6045423653c241",
    "time": "2012-04-09"
  },
  {
    "place": "Residential Building (Apartment / Condo)4f4c8043e4b0393385cf7b81",
    "time": "2012-04-09"
  },
  {
    "place": "Drugstore / Pharmacy4b9a5fdff964a520ddaf35e3",
    "time": "2012-04-10"
  },
  {
    "place": "Food & Drink Shop4b70977af964a520f7232de3",
    "time": "2012-04-10"
  },
  {
    "place": "Residential Building (Apartment / Condo)4f4c8043e4b0393385cf7b81",
    "time": "2012-04-11"
  },
  {
    "place": "Residential Building (Apartment / Condo)4e3c2d30ae6045423653c241",
    "time": "2012-04-11"
  },
  {
    "place": "Residential Building (Apartment / Condo)4f4c8043e4b0393385cf7b81",
    "time": "2012-04-11"
  },
  {
    "place": "Residential Building (Apartment / Condo)4f4c8043e4b0393385cf7b81",
    "time": "2012-04-11"
  },
  {
    "place": "Residential Building (Apartment / Condo)4e3c2d30ae6045423653c241",
    "time": "2012-04-12"
  },
  {
    "place": "Residential Building (Apartment / Condo)4f4c8043e4b0393385cf7b81",
    "time": "2012-04-12"
  },
  {
    "place": "Residential Building (Apartment / Condo)4f4c8043e4b0393385cf7b81",
    "time": "2012-04-12"
  },
  {
    "place": "Residential Building (Apartment / Condo)4f4c8043e4b0393385cf7b81",
    "time": "2012-04-13"
  },
  {
    "place": "Residential Building (Apartment / Condo)4f4c8043e4b0393385cf7b81",
    "time": "2012-04-13"
  },
  {
    "place": "Residential Building (Apartment / Condo)4e3c2d30ae6045423653c241",
    "time": "2012-04-14"
  },
  {
    "place": "Medical Center4f674129e4b02cbb81861258",
    "time": "2012-04-14"
  },
  {
    "place": "Residential Building (Apartment / Condo)4e3c2d30ae6045423653c241",
    "time": "2012-04-14"
  },
  {
    "place": "Residential Building (Apartment / Condo)4f4c8043e4b0393385cf7b81",
    "time": "2012-04-15"
  },
  {
    "place": "Residential Building (Apartment / Condo)4f4c8043e4b0393385cf7b81",
    "time": "2012-04-15"
  },
  {
    "place": "Food & Drink Shop4b70977af964a520f7232de3",
    "time": "2012-04-15"
  },
  {
    "place": "Drugstore / Pharmacy4f397e3ae4b0e313d5b1429a",
    "time": "2012-04-15"
  },
  {
    "place": "Food & Drink Shop4b70977af964a520f7232de3",
    "time": "2012-04-15"
  },
  {
    "place": "Residential Building (Apartment / Condo)4f4c8043e4b0393385cf7b81",
    "time": "2012-04-15"
  },
  {
    "place": "Home (private)4f1601afe4b0804e8ef0b154",
    "time": "2012-04-15"
  },
  {
    "place": "Residential Building (Apartment / Condo)4f4c8043e4b0393385cf7b81",
    "time": "2012-04-16"
  },
  {
    "place": "Furniture / Home Store4c5b951885a1e21e0c8f5411",
    "time": "2012-04-16"
  },
  {
    "place": "Residential Building (Apartment / Condo)4f4c8043e4b0393385cf7b81",
    "time": "2012-04-16"
  },
  {
    "place": "General Entertainment4eb73e948b81a81f9154fb16",
    "time": "2012-04-18"
  },
  {
    "place": "Residential Building (Apartment / Condo)4e3c2d30ae6045423653c241",
    "time": "2012-04-18"
  },
  {
    "place": "Residential Building (Apartment / Condo)4e3c2d30ae6045423653c241",
    "time": "2012-04-18"
  },
  {
    "place": "Medical Center4e6657e7d4c06542ac9acee2",
    "time": "2012-04-18"
  },
  {
    "place": "Drugstore / Pharmacy4f397e3ae4b0e313d5b1429a",
    "time": "2012-04-18"
  },
  {
    "place": "Food & Drink Shop4b70977af964a520f7232de3",
    "time": "2012-04-18"
  },
  {
    "place": "Residential Building (Apartment / Condo)4f4c8043e4b0393385cf7b81",
    "time": "2012-04-19"
  },
  {
    "place": "Residential Building (Apartment / Condo)4f4c8043e4b0393385cf7b81",
    "time": "2012-04-20"
  },
  {
    "place": "Residential Building (Apartment / Condo)4f4c8043e4b0393385cf7b81",
    "time": "2012-04-20"
  },
  {
    "place": "Residential Building (Apartment / Condo)4e3c2d30ae6045423653c241",
    "time": "2012-04-20"
  },
  {
    "place": "Medical Center4ebae77b4690c3136244fab0",
    "time": "2012-04-20"
  },
  {
    "place": "Food & Drink Shop4b70977af964a520f7232de3",
    "time": "2012-04-20"
  },
  {
    "place": "Residential Building (Apartment / Condo)4f4c8043e4b0393385cf7b81",
    "time": "2012-04-20"
  },
  {
    "place": "Residential Building (Apartment / Condo)4f4c8043e4b0393385cf7b81",
    "time": "2012-04-21"
  },
  {
    "place": "Residential Building (Apartment / Condo)4f4c8043e4b0393385cf7b81",
    "time": "2012-04-21"
  },
  {
    "place": "Furniture / Home Store4a8ff4acf964a520b71520e3",
    "time": "2012-04-21"
  },
  {
    "place": "Residential Building (Apartment / Condo)4f4c8043e4b0393385cf7b81",
    "time": "2012-04-22"
  },
  {
    "place": "Food & Drink Shop4b3e1f5cf964a520969825e3",
    "time": "2012-04-22"
  },
  {
    "place": "Italian Restaurant4b3bef07f964a520ba7e25e3",
    "time": "2012-04-22"
  },
  {
    "place": "General Entertainment4eb73e948b81a81f9154fb16",
    "time": "2012-04-23"
  },
  {
    "place": "General Entertainment4e41dc7d62843d3dc3583c33",
    "time": "2012-04-23"
  },
  {
    "place": "Residential Building (Apartment / Condo)4f4c8043e4b0393385cf7b81",
    "time": "2012-04-23"
  },
  {
    "place": "Residential Building (Apartment / Condo)4f4c8043e4b0393385cf7b81",
    "time": "2012-04-23"
  },
  {
    "place": "General Entertainment4f95ebabe4b00200cd25694a",
    "time": "2012-04-24"
  },
  {
    "place": "Residential Building (Apartment / Condo)4e3c2d30ae6045423653c241",
    "time": "2012-04-26"
  },
  {
    "place": "Residential Building (Apartment / Condo)4e3c2d30ae6045423653c241",
    "time": "2012-04-27"
  },
  {
    "place": "Diner4b93629cf964a5203d4234e3",
    "time": "2012-04-29"
  },
  {
    "place": "Thai Restaurant4e45615414959d51c1546258",
    "time": "2012-05-03"
  },
  {
    "place": "Residential Building (Apartment / Condo)4e3c2d30ae6045423653c241",
    "time": "2012-05-04"
  },
  {
    "place": "Medical Center4c5038a0f080a593bff824e2",
    "time": "2012-05-04"
  },
  {
    "place": "Drugstore / Pharmacy4b9a5fdff964a520ddaf35e3",
    "time": "2012-05-04"
  },
  {
    "place": "Residential Building (Apartment / Condo)4f4c8043e4b0393385cf7b81",
    "time": "2012-05-04"
  },
  {
    "place": "Deli / Bodega4b70b45ff964a520ab2a2de3",
    "time": "2012-05-04"
  },
  {
    "place": "Residential Building (Apartment / Condo)4e3c2d30ae6045423653c241",
    "time": "2012-05-05"
  },
  {
    "place": "Residential Building (Apartment / Condo)4f4c8043e4b0393385cf7b81",
    "time": "2012-05-05"
  },
  {
    "place": "Residential Building (Apartment / Condo)4e3c2d30ae6045423653c241",
    "time": "2012-05-07"
  },
  {
    "place": "Medical Center4f674129e4b02cbb81861258",
    "time": "2012-05-08"
  },
  {
    "place": "Medical Center4f674129e4b02cbb81861258",
    "time": "2012-05-08"
  },
  {
    "place": "Medical Center4f674129e4b02cbb81861258",
    "time": "2012-05-09"
  },
  {
    "place": "Medical Center4f674129e4b02cbb81861258",
    "time": "2012-05-09"
  },
  {
    "place": "Medical Center4b06ab0bf964a5206dee22e3",
    "time": "2012-05-11"
  },
  {
    "place": "Food & Drink Shop4bbfb114920eb71354cb172c",
    "time": "2012-05-28"
  },
  {
    "place": "Residential Building (Apartment / Condo)4f4c8043e4b0393385cf7b81",
    "time": "2012-06-09"
  },
  {
    "place": "Medical Center4f674129e4b02cbb81861258",
    "time": "2012-06-11"
  },
  {
    "place": "Medical Center4f674129e4b02cbb81861258",
    "time": "2012-06-12"
  },
  {
    "place": "Medical Center4f674129e4b02cbb81861258",
    "time": "2012-06-12"
  },
  {
    "place": "Medical Center4b06ab0bf964a5206dee22e3",
    "time": "2012-06-13"
  },
  {
    "place": "Medical Center4b06ab0bf964a5206dee22e3",
    "time": "2012-06-13"
  },
  {
    "place": "Automotive Shop4c5ff4cacd522d7f7defcc3f",
    "time": "2012-07-17"
  },
  {
    "place": "Residential Building (Apartment / Condo)4e3c2d30ae6045423653c241",
    "time": "2012-07-21"
  },
  {
    "place": "Residential Building (Apartment / Condo)4e3c2d30ae6045423653c241",
    "time": "2012-07-28"
  },
  {
    "place": "Mexican Restaurant4ad4fe47f964a520280121e3",
    "time": "2012-08-14"
  },
  {
    "place": "Medical Center4c2e2699260bc928c0311bd3",
    "time": "2012-10-22"
  },
  {
    "place": "Medical Center4f674129e4b02cbb81861258",
    "time": "2012-11-28"
  },
  {
    "place": "Residential Building (Apartment / Condo)505f66bde4b0be434f8408d4",
    "time": "2012-12-13"
  },
  {
    "place": "Gym / Fitness Center4ea808f09a526de96a882056",
    "time": "2013-01-08"
  }
]