[
  {
    "place": "Indian Restaurant4c472be3972c0f4711ec2221",
    "time": "2012-04-04"
  },
  {
    "place": "Food & Drink Shop4b294004f964a520b59b24e3",
    "time": "2012-04-07"
  },
  {
    "place": "Salon / Barbershop4f068094b63440fe20188463",
    "time": "2012-04-08"
  },
  {
    "place": "Pizza Place4b34fd6cf964a520902925e3",
    "time": "2012-04-08"
  },
  {
    "place": "Pizza Place4b4f7cf1f964a520940827e3",
    "time": "2012-04-08"
  },
  {
    "place": "Coffee Shop4eef2cf202d514a36be765a1",
    "time": "2012-04-08"
  },
  {
    "place": "General Entertainment4db44994cda1c57c82583709",
    "time": "2012-04-08"
  },
  {
    "place": "Indian Restaurant4c472be3972c0f4711ec2221",
    "time": "2012-04-10"
  },
  {
    "place": "Bar4c00ac9fdf6c0f478cd28b22",
    "time": "2012-04-14"
  },
  {
    "place": "Pizza Place4b4f7cf1f964a520940827e3",
    "time": "2012-04-14"
  },
  {
    "place": "Coffee Shop4eef2cf202d514a36be765a1",
    "time": "2012-04-14"
  },
  {
    "place": "Bakery4c3349f116adc928f556c39c",
    "time": "2012-04-17"
  },
  {
    "place": "Bar4c00ac9fdf6c0f478cd28b22",
    "time": "2012-04-17"
  },
  {
    "place": "Thai Restaurant4cd0a452f6378cfaa2a2b6d6",
    "time": "2012-04-18"
  },
  {
    "place": "Bar4c00ac9fdf6c0f478cd28b22",
    "time": "2012-04-19"
  },
  {
    "place": "Caf\u00c3\u00a94cd722fd94848cfa2f2cf1b1",
    "time": "2012-04-20"
  },
  {
    "place": "Bar4c00ac9fdf6c0f478cd28b22",
    "time": "2012-04-21"
  },
  {
    "place": "Ice Cream Shop4f356964e4b051869fea488c",
    "time": "2012-04-21"
  },
  {
    "place": "Bakery49c68da1f964a5205b571fe3",
    "time": "2012-04-23"
  },
  {
    "place": "Taco Place4b833571f964a5207cfd30e3",
    "time": "2012-04-23"
  },
  {
    "place": "Sushi Restaurant4b398a16f964a520905d25e3",
    "time": "2012-04-24"
  },
  {
    "place": "Other Great Outdoors4e8b92c493adecfdb91d2727",
    "time": "2012-04-25"
  },
  {
    "place": "Bar4c00ac9fdf6c0f478cd28b22",
    "time": "2012-04-26"
  },
  {
    "place": "Coffee Shop4eef2cf202d514a36be765a1",
    "time": "2012-04-26"
  },
  {
    "place": "Caf\u00c3\u00a94aa54f31f964a520f74720e3",
    "time": "2012-04-28"
  },
  {
    "place": "Caf\u00c3\u00a94cd722fd94848cfa2f2cf1b1",
    "time": "2012-04-28"
  },
  {
    "place": "Bakery4a9ad45af964a520033320e3",
    "time": "2012-04-28"
  },
  {
    "place": "Bar4b5bd63af964a520051929e3",
    "time": "2012-04-29"
  },
  {
    "place": "Bar4c00ac9fdf6c0f478cd28b22",
    "time": "2012-04-29"
  },
  {
    "place": "Mexican Restaurant4edaa750b6344371f737d93b",
    "time": "2012-04-29"
  },
  {
    "place": "Caf\u00c3\u00a94aa54f31f964a520f74720e3",
    "time": "2012-05-02"
  },
  {
    "place": "Chinese Restaurant4a7e0fd0f964a520d1f01fe3",
    "time": "2012-05-02"
  },
  {
    "place": "Bar4daaae37cda1652a2b928de7",
    "time": "2012-05-02"
  },
  {
    "place": "Middle Eastern Restaurant4bd1fad4a8b3a5936fda665f",
    "time": "2012-05-03"
  },
  {
    "place": "Bar4c00ac9fdf6c0f478cd28b22",
    "time": "2012-05-04"
  },
  {
    "place": "School4eb466ff0aaf1abededb6030",
    "time": "2012-05-04"
  },
  {
    "place": "Bar4c00ac9fdf6c0f478cd28b22",
    "time": "2012-05-04"
  },
  {
    "place": "Pizza Place4b34fd6cf964a520902925e3",
    "time": "2012-05-05"
  },
  {
    "place": "Taxi4d41ca11255d8cfad9fa7305",
    "time": "2012-05-05"
  },
  {
    "place": "Pizza Place4b4f7cf1f964a520940827e3",
    "time": "2012-05-05"
  },
  {
    "place": "Middle Eastern Restaurant4c12cc8ca1010f478c8f4918",
    "time": "2012-05-05"
  },
  {
    "place": "Movie Theater482af93cf964a520cd4f1fe3",
    "time": "2012-05-06"
  },
  {
    "place": "School4eb466ff0aaf1abededb6030",
    "time": "2012-05-11"
  },
  {
    "place": "Fast Food Restaurant4ab14f02f964a520f76820e3",
    "time": "2012-05-11"
  },
  {
    "place": "Bar4c00ac9fdf6c0f478cd28b22",
    "time": "2012-05-12"
  },
  {
    "place": "Internet Cafe4d606ed2865a224b1050ab85",
    "time": "2012-05-12"
  },
  {
    "place": "Internet Cafe4d606ed2865a224b1050ab85",
    "time": "2012-05-13"
  },
  {
    "place": "Home (private)4f921dbfe4b0e2dc95a9c783",
    "time": "2012-05-13"
  },
  {
    "place": "Indian Restaurant4c472be3972c0f4711ec2221",
    "time": "2012-05-14"
  },
  {
    "place": "School4eb466ff0aaf1abededb6030",
    "time": "2012-05-16"
  },
  {
    "place": "Caf\u00c3\u00a94aa54f31f964a520f74720e3",
    "time": "2012-05-16"
  },
  {
    "place": "Internet Cafe4d606ed2865a224b1050ab85",
    "time": "2012-05-19"
  },
  {
    "place": "Thai Restaurant4b6b1845f964a52073f22be3",
    "time": "2012-05-19"
  },
  {
    "place": "School4eb466ff0aaf1abededb6030",
    "time": "2012-05-21"
  },
  {
    "place": "Movie Theater4ccb72f9c9b84688f816b6c3",
    "time": "2012-05-22"
  },
  {
    "place": "American Restaurant4b242e0df964a520166324e3",
    "time": "2012-05-22"
  },
  {
    "place": "Mosque4bc508a40969a5938566636e",
    "time": "2012-05-25"
  },
  {
    "place": "Bar4c00ac9fdf6c0f478cd28b22",
    "time": "2012-05-26"
  },
  {
    "place": "Chinese Restaurant4e91e32a30f81ec6000513ad",
    "time": "2012-05-26"
  },
  {
    "place": "Bar4affa1bcf964a520cb3922e3",
    "time": "2012-05-26"
  },
  {
    "place": "Caf\u00c3\u00a94cd722fd94848cfa2f2cf1b1",
    "time": "2012-05-28"
  },
  {
    "place": "Caf\u00c3\u00a94a5f5fdff964a52079bf1fe3",
    "time": "2012-05-28"
  },
  {
    "place": "Park43222200f964a5209a271fe3",
    "time": "2012-05-28"
  },
  {
    "place": "Bar4b5bd63af964a520051929e3",
    "time": "2012-05-29"
  },
  {
    "place": "Middle Eastern Restaurant4b5b2634f964a5209be628e3",
    "time": "2012-05-29"
  },
  {
    "place": "Bar4c00ac9fdf6c0f478cd28b22",
    "time": "2012-05-30"
  },
  {
    "place": "Bar4b2b0669f964a520cab324e3",
    "time": "2012-05-30"
  },
  {
    "place": "Mediterranean Restaurant4ac653b9f964a520c2b320e3",
    "time": "2012-06-03"
  },
  {
    "place": "Bar4bafdf26f964a520c5273ce3",
    "time": "2012-06-03"
  },
  {
    "place": "Coffee Shop4eef2cf202d514a36be765a1",
    "time": "2012-06-03"
  },
  {
    "place": "Caf\u00c3\u00a94aa54f31f964a520f74720e3",
    "time": "2012-06-04"
  },
  {
    "place": "Diner40da1980f964a5206c011fe3",
    "time": "2012-06-04"
  },
  {
    "place": "Bar4bafdf26f964a520c5273ce3",
    "time": "2012-06-05"
  },
  {
    "place": "Bar4e4851db887781a619c43d11",
    "time": "2012-06-07"
  },
  {
    "place": "School4eb466ff0aaf1abededb6030",
    "time": "2012-06-08"
  },
  {
    "place": "Chinese Restaurant4aa9b377f964a520f15420e3",
    "time": "2012-06-08"
  },
  {
    "place": "Bar4e4851db887781a619c43d11",
    "time": "2012-06-09"
  },
  {
    "place": "Building4d8e23c8788c5481d5ad31fd",
    "time": "2012-06-09"
  },
  {
    "place": "Cupcake Shop4eb65614d5fb442a675d629c",
    "time": "2012-06-09"
  },
  {
    "place": "Caf\u00c3\u00a94a09d5aaf964a5205f741fe3",
    "time": "2012-06-10"
  },
  {
    "place": "Caf\u00c3\u00a94cd722fd94848cfa2f2cf1b1",
    "time": "2012-06-11"
  },
  {
    "place": "Bar4d69f050de28224b66164abe",
    "time": "2012-06-11"
  },
  {
    "place": "Bar4c00ac9fdf6c0f478cd28b22",
    "time": "2012-06-14"
  },
  {
    "place": "Fast Food Restaurant4d89108876e1236a9b4cfd42",
    "time": "2012-06-14"
  },
  {
    "place": "Pool Hall4f32c12b19836c91c7f6eadb",
    "time": "2012-06-17"
  },
  {
    "place": "Bar4bafdf26f964a520c5273ce3",
    "time": "2012-06-17"
  },
  {
    "place": "Caf\u00c3\u00a94cd722fd94848cfa2f2cf1b1",
    "time": "2012-06-18"
  },
  {
    "place": "Pool Hall4f32c12b19836c91c7f6eadb",
    "time": "2012-06-18"
  },
  {
    "place": "Pool Hall4f32c12b19836c91c7f6eadb",
    "time": "2012-06-21"
  },
  {
    "place": "Bar4c00ac9fdf6c0f478cd28b22",
    "time": "2012-06-21"
  },
  {
    "place": "Coffee Shop4c1ea461eac020a19b0e4ac2",
    "time": "2012-06-21"
  },
  {
    "place": "Bar4c00ac9fdf6c0f478cd28b22",
    "time": "2012-06-27"
  },
  {
    "place": "Athletic & Sport4b23af24f964a5200f5824e3",
    "time": "2012-06-27"
  },
  {
    "place": "Park4a739c82f964a520eedc1fe3",
    "time": "2012-07-04"
  },
  {
    "place": "Movie Theater482af93cf964a520cd4f1fe3",
    "time": "2012-07-04"
  },
  {
    "place": "Fast Food Restaurant4b28b4b4f964a520bc9424e3",
    "time": "2012-07-05"
  },
  {
    "place": "Bar4ff4e82be4b0cc077d04f08d",
    "time": "2012-07-05"
  },
  {
    "place": "Mosque4bfab1cb633d9c74961f0843",
    "time": "2012-07-05"
  },
  {
    "place": "Bar4ff22d07e4b01a15214c1736",
    "time": "2012-07-05"
  },
  {
    "place": "Bakery4c3349f116adc928f556c39c",
    "time": "2012-07-06"
  },
  {
    "place": "Chinese Restaurant4a909c0df964a520c01820e3",
    "time": "2012-07-08"
  },
  {
    "place": "Caf\u00c3\u00a94aa54f31f964a520f74720e3",
    "time": "2012-07-08"
  },
  {
    "place": "Movie Theater482af93cf964a520cd4f1fe3",
    "time": "2012-07-08"
  },
  {
    "place": "Bar4e34c95b7d8b0c62b2ce3b2e",
    "time": "2012-07-08"
  },
  {
    "place": "Indian Restaurant4c472be3972c0f4711ec2221",
    "time": "2012-07-09"
  },
  {
    "place": "Bar4c00ac9fdf6c0f478cd28b22",
    "time": "2012-07-11"
  },
  {
    "place": "Bar4fee6aa2e4b05029cc3ffae8",
    "time": "2012-07-13"
  },
  {
    "place": "School4eb466ff0aaf1abededb6030",
    "time": "2012-07-13"
  },
  {
    "place": "Bar4daaae37cda1652a2b928de7",
    "time": "2012-07-14"
  },
  {
    "place": "Park4b969c09f964a52062d834e3",
    "time": "2012-07-14"
  },
  {
    "place": "Donut Shop4bb7f526314e9521e0fc479d",
    "time": "2012-07-14"
  },
  {
    "place": "Bar4ff4e82be4b0cc077d04f08d",
    "time": "2012-07-16"
  },
  {
    "place": "Indian Restaurant4c472be3972c0f4711ec2221",
    "time": "2012-07-17"
  },
  {
    "place": "Bar4bafdf26f964a520c5273ce3",
    "time": "2012-07-28"
  },
  {
    "place": "Bar4ff22d07e4b01a15214c1736",
    "time": "2012-07-29"
  },
  {
    "place": "Building4e33a32c1838df3b5f70dbbb",
    "time": "2012-08-19"
  },
  {
    "place": "Restaurant4ead0d5f754a69d6773f1cdb",
    "time": "2012-08-19"
  },
  {
    "place": "School4eb466ff0aaf1abededb6030",
    "time": "2012-09-14"
  },
  {
    "place": "Gym / Fitness Center503568d0e4b02de9367f934e",
    "time": "2012-09-15"
  },
  {
    "place": "Coffee Shop4eef2cf202d514a36be765a1",
    "time": "2012-09-15"
  },
  {
    "place": "Mexican Restaurant4edaa750b6344371f737d93b",
    "time": "2012-09-16"
  },
  {
    "place": "Bar4fc98019e4b0ddddfbb5eeaa",
    "time": "2012-10-18"
  },
  {
    "place": "School4eb466ff0aaf1abededb6030",
    "time": "2012-10-19"
  }
]