[
  {
    "place": "Residential Building (Apartment / Condo)4e3ef5d462e19d610982fa0f",
    "time": "2012-04-03"
  },
  {
    "place": "Neighborhood4ce44fc14eb46a314b225ba3",
    "time": "2012-04-03"
  },
  {
    "place": "Neighborhood4ce44fc14eb46a314b225ba3",
    "time": "2012-04-04"
  },
  {
    "place": "Government Building4c7c0f00794e224b4b266d28",
    "time": "2012-04-04"
  },
  {
    "place": "Other Great Outdoors4ea423759a527d6517c36619",
    "time": "2012-04-07"
  },
  {
    "place": "Road4e506ad61f6eae4d2529439f",
    "time": "2012-04-07"
  },
  {
    "place": "Neighborhood4ce44fc14eb46a314b225ba3",
    "time": "2012-04-07"
  },
  {
    "place": "Residential Building (Apartment / Condo)4e278f841f6e88a15459fc8f",
    "time": "2012-04-07"
  },
  {
    "place": "Residential Building (Apartment / Condo)4e278f841f6e88a15459fc8f",
    "time": "2012-04-09"
  },
  {
    "place": "Neighborhood4ce44fc14eb46a314b225ba3",
    "time": "2012-04-09"
  },
  {
    "place": "Neighborhood4ce44fc14eb46a314b225ba3",
    "time": "2012-04-10"
  },
  {
    "place": "Home (private)4ee556da5c5cfa48fb4f80af",
    "time": "2012-04-11"
  },
  {
    "place": "Neighborhood4ce44fc14eb46a314b225ba3",
    "time": "2012-04-11"
  },
  {
    "place": "Residential Building (Apartment / Condo)4e278f841f6e88a15459fc8f",
    "time": "2012-04-11"
  },
  {
    "place": "Bagel Shop4f05098830f801541e30334a",
    "time": "2012-04-11"
  },
  {
    "place": "Building4c408a40da3dc9280379c7b9",
    "time": "2012-04-11"
  },
  {
    "place": "Seafood Restaurant4bf458c3706e20a1a63ba998",
    "time": "2012-04-12"
  },
  {
    "place": "Clothing Store4eeb777b7716f3951bdd4ad2",
    "time": "2012-04-12"
  },
  {
    "place": "Neighborhood4ce44fc14eb46a314b225ba3",
    "time": "2012-04-12"
  },
  {
    "place": "Residential Building (Apartment / Condo)4e278f841f6e88a15459fc8f",
    "time": "2012-04-12"
  },
  {
    "place": "Other Great Outdoors4ea423759a527d6517c36619",
    "time": "2012-04-14"
  },
  {
    "place": "Gas Station / Garage4e2c9042483bb05f05aa6cda",
    "time": "2012-04-14"
  },
  {
    "place": "Clothing Store4eeb777b7716f3951bdd4ad2",
    "time": "2012-04-16"
  },
  {
    "place": "Automotive Shop4e9f072e55037bf9333c4f02",
    "time": "2012-04-16"
  },
  {
    "place": "Residential Building (Apartment / Condo)4e278f841f6e88a15459fc8f",
    "time": "2012-04-16"
  },
  {
    "place": "Park4c8e5e5e1664b1f784d39f2f",
    "time": "2012-04-17"
  },
  {
    "place": "Park4c8e5e5e1664b1f784d39f2f",
    "time": "2012-04-18"
  },
  {
    "place": "Residential Building (Apartment / Condo)4e278f841f6e88a15459fc8f",
    "time": "2012-04-19"
  },
  {
    "place": "Medical Center4ca1f458542b224bd3a412a0",
    "time": "2012-04-19"
  },
  {
    "place": "Other Great Outdoors4ead940729c2a9bb97ae980a",
    "time": "2012-04-19"
  },
  {
    "place": "Medical Center4ca1f458542b224bd3a412a0",
    "time": "2012-04-19"
  },
  {
    "place": "Neighborhood4ce44fc14eb46a314b225ba3",
    "time": "2012-04-20"
  },
  {
    "place": "Residential Building (Apartment / Condo)4e278f841f6e88a15459fc8f",
    "time": "2012-04-20"
  },
  {
    "place": "Train Station4e7baab82c5bf851fdc1b4e0",
    "time": "2012-04-21"
  },
  {
    "place": "Residential Building (Apartment / Condo)4e278f841f6e88a15459fc8f",
    "time": "2012-04-22"
  },
  {
    "place": "Housing Development4d331847f8c9224b7d34b7d2",
    "time": "2012-04-23"
  },
  {
    "place": "Housing Development4c4a368c712ac928cd831b6b",
    "time": "2012-04-23"
  },
  {
    "place": "Home (private)4e4bc491a8097d9c84bf6fa6",
    "time": "2012-04-23"
  },
  {
    "place": "Ice Cream Shop4b30200ef964a5207ff624e3",
    "time": "2012-04-23"
  },
  {
    "place": "Residential Building (Apartment / Condo)4e278f841f6e88a15459fc8f",
    "time": "2012-04-23"
  },
  {
    "place": "Neighborhood4ce44fc14eb46a314b225ba3",
    "time": "2012-04-23"
  },
  {
    "place": "Building4c408a40da3dc9280379c7b9",
    "time": "2012-04-24"
  },
  {
    "place": "Office4e2d8527b0fbc2edac36e30d",
    "time": "2012-04-24"
  },
  {
    "place": "Bagel Shop4f05098830f801541e30334a",
    "time": "2012-04-24"
  },
  {
    "place": "Bridge4b68283bf964a5209c692be3",
    "time": "2012-04-24"
  },
  {
    "place": "Office4e2d8527b0fbc2edac36e30d",
    "time": "2012-04-24"
  },
  {
    "place": "Building4c408a40da3dc9280379c7b9",
    "time": "2012-04-25"
  },
  {
    "place": "Medical Center4a856435f964a5203afe1fe3",
    "time": "2012-04-25"
  },
  {
    "place": "Neighborhood4ce44fc14eb46a314b225ba3",
    "time": "2012-04-25"
  },
  {
    "place": "Automotive Shop4e9f072e55037bf9333c4f02",
    "time": "2012-04-25"
  },
  {
    "place": "Residential Building (Apartment / Condo)4e278f841f6e88a15459fc8f",
    "time": "2012-04-25"
  },
  {
    "place": "Fast Food Restaurant4b914c8ff964a5200eb133e3",
    "time": "2012-04-28"
  },
  {
    "place": "Medical Center4b631654f964a5200c622ae3",
    "time": "2012-04-28"
  },
  {
    "place": "Office4e2d8527b0fbc2edac36e30d",
    "time": "2012-04-28"
  },
  {
    "place": "Residential Building (Apartment / Condo)4e278f841f6e88a15459fc8f",
    "time": "2012-04-29"
  },
  {
    "place": "Office4e2d8527b0fbc2edac36e30d",
    "time": "2012-05-03"
  },
  {
    "place": "Neighborhood4ce44fc14eb46a314b225ba3",
    "time": "2012-05-04"
  },
  {
    "place": "Residential Building (Apartment / Condo)4e278f841f6e88a15459fc8f",
    "time": "2012-05-04"
  },
  {
    "place": "Bridge4b68283bf964a5209c692be3",
    "time": "2012-05-04"
  },
  {
    "place": "Bagel Shop4f05098830f801541e30334a",
    "time": "2012-05-04"
  },
  {
    "place": "Office4e2d8527b0fbc2edac36e30d",
    "time": "2012-05-04"
  },
  {
    "place": "Spa / Massage4f1b2858e4b0f271e662881f",
    "time": "2012-05-04"
  },
  {
    "place": "Automotive Shop4d55852758856dcb35214b6d",
    "time": "2012-05-04"
  },
  {
    "place": "Neighborhood4b100fd4f964a5204a6823e3",
    "time": "2012-05-04"
  },
  {
    "place": "Neighborhood4ce44fc14eb46a314b225ba3",
    "time": "2012-05-04"
  },
  {
    "place": "Residential Building (Apartment / Condo)4e278f841f6e88a15459fc8f",
    "time": "2012-05-04"
  },
  {
    "place": "Residential Building (Apartment / Condo)4e278f841f6e88a15459fc8f",
    "time": "2012-05-05"
  },
  {
    "place": "Gas Station / Garage4e868a716c250a5f6272d17b",
    "time": "2012-05-05"
  },
  {
    "place": "Other Great Outdoors4d2b4fa3c406721e9d478bb6",
    "time": "2012-05-05"
  },
  {
    "place": "Other Great Outdoors4ea423759a527d6517c36619",
    "time": "2012-05-05"
  },
  {
    "place": "Office4e2d8527b0fbc2edac36e30d",
    "time": "2012-05-07"
  },
  {
    "place": "Fast Food Restaurant4b914c8ff964a5200eb133e3",
    "time": "2012-05-07"
  },
  {
    "place": "Clothing Store4eeb777b7716f3951bdd4ad2",
    "time": "2012-05-07"
  },
  {
    "place": "Seafood Restaurant4bf458c3706e20a1a63ba998",
    "time": "2012-05-07"
  },
  {
    "place": "Automotive Shop4e9f072e55037bf9333c4f02",
    "time": "2012-05-07"
  },
  {
    "place": "Residential Building (Apartment / Condo)4e278f841f6e88a15459fc8f",
    "time": "2012-05-07"
  },
  {
    "place": "Bridge4b68283bf964a5209c692be3",
    "time": "2012-05-08"
  },
  {
    "place": "Office4e2d8527b0fbc2edac36e30d",
    "time": "2012-05-08"
  },
  {
    "place": "Office4e2d8527b0fbc2edac36e30d",
    "time": "2012-05-08"
  },
  {
    "place": "Office4e2d8527b0fbc2edac36e30d",
    "time": "2012-05-08"
  },
  {
    "place": "General Entertainment4f32effbe4b04d44b44d6a18",
    "time": "2012-05-08"
  },
  {
    "place": "Miscellaneous Shop4e7128fce4cdcd92f54a0260",
    "time": "2012-05-08"
  },
  {
    "place": "Residential Building (Apartment / Condo)4e278f841f6e88a15459fc8f",
    "time": "2012-05-09"
  },
  {
    "place": "Office4e2d8527b0fbc2edac36e30d",
    "time": "2012-05-09"
  },
  {
    "place": "Residential Building (Apartment / Condo)4e278f841f6e88a15459fc8f",
    "time": "2012-05-10"
  },
  {
    "place": "Food & Drink Shop4c163485a9c220a16b385a9d",
    "time": "2012-05-10"
  },
  {
    "place": "Other Great Outdoors4d2b4fa3c406721e9d478bb6",
    "time": "2012-05-10"
  },
  {
    "place": "Residential Building (Apartment / Condo)4e278f841f6e88a15459fc8f",
    "time": "2012-05-10"
  },
  {
    "place": "Deli / Bodega4ea9d2a929c2152deb11adcb",
    "time": "2012-05-10"
  },
  {
    "place": "Residential Building (Apartment / Condo)4e278f841f6e88a15459fc8f",
    "time": "2012-05-11"
  },
  {
    "place": "Residential Building (Apartment / Condo)4e278f841f6e88a15459fc8f",
    "time": "2012-05-11"
  },
  {
    "place": "Residential Building (Apartment / Condo)4e278f841f6e88a15459fc8f",
    "time": "2012-05-11"
  },
  {
    "place": "Neighborhood4ce44fc14eb46a314b225ba3",
    "time": "2012-05-11"
  },
  {
    "place": "Deli / Bodega4ea9d2a929c2152deb11adcb",
    "time": "2012-05-13"
  },
  {
    "place": "Residential Building (Apartment / Condo)4e278f841f6e88a15459fc8f",
    "time": "2012-05-13"
  },
  {
    "place": "Movie Theater4bb8fc8cb35776b0b27bc901",
    "time": "2012-05-13"
  },
  {
    "place": "Home (private)4ee556da5c5cfa48fb4f80af",
    "time": "2012-05-14"
  },
  {
    "place": "Residential Building (Apartment / Condo)4e278f841f6e88a15459fc8f",
    "time": "2012-05-14"
  },
  {
    "place": "Office4e2d8527b0fbc2edac36e30d",
    "time": "2012-05-14"
  },
  {
    "place": "Park4c8e5e5e1664b1f784d39f2f",
    "time": "2012-05-14"
  },
  {
    "place": "Neighborhood4ce44fc14eb46a314b225ba3",
    "time": "2012-05-14"
  },
  {
    "place": "Office4e2d8527b0fbc2edac36e30d",
    "time": "2012-05-15"
  },
  {
    "place": "Neighborhood4ce44fc14eb46a314b225ba3",
    "time": "2012-05-15"
  },
  {
    "place": "Automotive Shop4d55852758856dcb35214b6d",
    "time": "2012-05-16"
  },
  {
    "place": "Moving Target4f91ded8e4b0ccf07189c44c",
    "time": "2012-05-16"
  },
  {
    "place": "Park4c8e5e5e1664b1f784d39f2f",
    "time": "2012-05-16"
  },
  {
    "place": "Neighborhood4ce44fc14eb46a314b225ba3",
    "time": "2012-05-16"
  },
  {
    "place": "Residential Building (Apartment / Condo)4e278f841f6e88a15459fc8f",
    "time": "2012-05-16"
  },
  {
    "place": "Residential Building (Apartment / Condo)4e3ef5d462e19d610982fa0f",
    "time": "2012-05-16"
  },
  {
    "place": "Park4c8e5e5e1664b1f784d39f2f",
    "time": "2012-05-17"
  },
  {
    "place": "Neighborhood4ce44fc14eb46a314b225ba3",
    "time": "2012-05-17"
  },
  {
    "place": "Residential Building (Apartment / Condo)4e3ef5d462e19d610982fa0f",
    "time": "2012-05-18"
  },
  {
    "place": "Residential Building (Apartment / Condo)4e278f841f6e88a15459fc8f",
    "time": "2012-05-18"
  },
  {
    "place": "Office4e2d8527b0fbc2edac36e30d",
    "time": "2012-05-21"
  },
  {
    "place": "Office4e2d8527b0fbc2edac36e30d",
    "time": "2012-05-21"
  },
  {
    "place": "Office4e2d8527b0fbc2edac36e30d",
    "time": "2012-05-22"
  },
  {
    "place": "Office4e2d8527b0fbc2edac36e30d",
    "time": "2012-05-22"
  },
  {
    "place": "Art Gallery4cba006b7148f04d35ebd9ab",
    "time": "2012-05-22"
  },
  {
    "place": "Building4c408a40da3dc9280379c7b9",
    "time": "2012-05-22"
  },
  {
    "place": "Office4e2d8527b0fbc2edac36e30d",
    "time": "2012-05-23"
  },
  {
    "place": "General Travel4b3505e6f964a520c42925e3",
    "time": "2012-05-23"
  },
  {
    "place": "Other Great Outdoors4d2b4fa3c406721e9d478bb6",
    "time": "2012-05-23"
  },
  {
    "place": "Plaza4bcfc1fc9854d13abec4f64d",
    "time": "2012-05-23"
  },
  {
    "place": "Post Office4c33404e452620a14b3f230f",
    "time": "2012-05-23"
  },
  {
    "place": "Playground4c4c768942b4d13a10fe2280",
    "time": "2012-05-23"
  },
  {
    "place": "Residential Building (Apartment / Condo)4e3ef5d462e19d610982fa0f",
    "time": "2012-05-23"
  },
  {
    "place": "Residential Building (Apartment / Condo)4e278f841f6e88a15459fc8f",
    "time": "2012-05-24"
  },
  {
    "place": "Salon / Barbershop4e318b161495f249f76ca9b2",
    "time": "2012-05-25"
  },
  {
    "place": "General Travel4b3505e6f964a520c42925e3",
    "time": "2012-05-25"
  },
  {
    "place": "Plaza4bcfc1fc9854d13abec4f64d",
    "time": "2012-05-27"
  },
  {
    "place": "Fast Food Restaurant4b64a9fff964a520b1c62ae3",
    "time": "2012-05-28"
  },
  {
    "place": "Residential Building (Apartment / Condo)4e278f841f6e88a15459fc8f",
    "time": "2012-05-29"
  },
  {
    "place": "Office4e2d8527b0fbc2edac36e30d",
    "time": "2012-05-29"
  },
  {
    "place": "Neighborhood4bc259d4920eb713a3211c2c",
    "time": "2012-05-29"
  },
  {
    "place": "Medical Center4fc4f540e4b0500aa59f84fc",
    "time": "2012-05-29"
  },
  {
    "place": "Office4e2d8527b0fbc2edac36e30d",
    "time": "2012-05-29"
  },
  {
    "place": "Residential Building (Apartment / Condo)4e278f841f6e88a15459fc8f",
    "time": "2012-05-29"
  },
  {
    "place": "Office4e2d8527b0fbc2edac36e30d",
    "time": "2012-05-31"
  },
  {
    "place": "Building4c408a40da3dc9280379c7b9",
    "time": "2012-05-31"
  },
  {
    "place": "Office4e2d8527b0fbc2edac36e30d",
    "time": "2012-05-31"
  },
  {
    "place": "Office4e2d8527b0fbc2edac36e30d",
    "time": "2012-05-31"
  },
  {
    "place": "Deli / Bodega4ea9d2a929c2152deb11adcb",
    "time": "2012-05-31"
  },
  {
    "place": "Residential Building (Apartment / Condo)4e278f841f6e88a15459fc8f",
    "time": "2012-05-31"
  },
  {
    "place": "Neighborhood4ce44fc14eb46a314b225ba3",
    "time": "2012-05-31"
  },
  {
    "place": "Deli / Bodega4ea9d2a929c2152deb11adcb",
    "time": "2012-05-31"
  },
  {
    "place": "Smoke Shop4b4fd6d6f964a5203b1727e3",
    "time": "2012-06-01"
  },
  {
    "place": "Home (private)4ee556da5c5cfa48fb4f80af",
    "time": "2012-06-02"
  },
  {
    "place": "Food & Drink Shop4bbf3377ba9776b0e0affec8",
    "time": "2012-06-02"
  },
  {
    "place": "Toy / Game Store4ce577fc023676ebb8efeab9",
    "time": "2012-06-02"
  },
  {
    "place": "General Travel4ec14e0a775b98876ed78800",
    "time": "2012-06-02"
  },
  {
    "place": "Bridge4a43bd40f964a520bfa61fe3",
    "time": "2012-06-02"
  },
  {
    "place": "Building4bc9fefc3740b713e9c05f65",
    "time": "2012-06-03"
  },
  {
    "place": "Residential Building (Apartment / Condo)4e278f841f6e88a15459fc8f",
    "time": "2012-06-03"
  },
  {
    "place": "Convenience Store4b5b887ef964a5203f0529e3",
    "time": "2012-06-04"
  },
  {
    "place": "Food & Drink Shop4bfafccdab180f47203eb3ce",
    "time": "2012-06-04"
  },
  {
    "place": "Church4c82ba96e602b1f741909f7a",
    "time": "2012-06-04"
  },
  {
    "place": "Playground4bf923eb8d30d13ac1bb0118",
    "time": "2012-06-04"
  },
  {
    "place": "Church4c2ab2b0d1a10f471aecf664",
    "time": "2012-06-04"
  },
  {
    "place": "Residential Building (Apartment / Condo)4f930bb5e4b0c03d2a336649",
    "time": "2012-06-04"
  },
  {
    "place": "Bridge4b68283bf964a5209c692be3",
    "time": "2012-06-05"
  },
  {
    "place": "School4bb73f151344b713cb7b9e04",
    "time": "2012-06-05"
  },
  {
    "place": "Automotive Shop4d55852758856dcb35214b6d",
    "time": "2012-06-05"
  },
  {
    "place": "Office4e2d8527b0fbc2edac36e30d",
    "time": "2012-06-05"
  },
  {
    "place": "Building4c408a40da3dc9280379c7b9",
    "time": "2012-06-05"
  },
  {
    "place": "Bridge4b68283bf964a5209c692be3",
    "time": "2012-06-06"
  },
  {
    "place": "Automotive Shop4d55852758856dcb35214b6d",
    "time": "2012-06-06"
  },
  {
    "place": "Office4e2d8527b0fbc2edac36e30d",
    "time": "2012-06-06"
  },
  {
    "place": "Park4c8e5e5e1664b1f784d39f2f",
    "time": "2012-06-06"
  },
  {
    "place": "Neighborhood4f3cdb63a17c8a4ed1dbd51e",
    "time": "2012-06-06"
  },
  {
    "place": "Train Station4be0952f4f15c92877b5cb0b",
    "time": "2012-06-06"
  },
  {
    "place": "Office4d2a148a849f3704c1ba8441",
    "time": "2012-06-06"
  },
  {
    "place": "Deli / Bodega4ea9d2a929c2152deb11adcb",
    "time": "2012-06-06"
  },
  {
    "place": "Residential Building (Apartment / Condo)4f930bb5e4b0c03d2a336649",
    "time": "2012-06-06"
  },
  {
    "place": "Bar4f974508e4b0e09d5c82ff3a",
    "time": "2012-06-06"
  },
  {
    "place": "Neighborhood4f3cdb63a17c8a4ed1dbd51e",
    "time": "2012-06-07"
  },
  {
    "place": "Home (private)4fcfe459e4b0d0cfee4aa3e0",
    "time": "2012-06-07"
  },
  {
    "place": "Road4dbd62936a23e294ba43f080",
    "time": "2012-06-08"
  },
  {
    "place": "Office4e2d8527b0fbc2edac36e30d",
    "time": "2012-06-08"
  },
  {
    "place": "Moving Target4f5bda56e4b0838067c51fcb",
    "time": "2012-06-08"
  },
  {
    "place": "Professional & Other Places4e2dac1d14955dbf7af114b7",
    "time": "2012-06-08"
  },
  {
    "place": "Deli / Bodega4ea9d2a929c2152deb11adcb",
    "time": "2012-06-08"
  },
  {
    "place": "Playground4c4c768942b4d13a10fe2280",
    "time": "2012-06-09"
  },
  {
    "place": "Residential Building (Apartment / Condo)4f930bb5e4b0c03d2a336649",
    "time": "2012-06-09"
  },
  {
    "place": "Residential Building (Apartment / Condo)4e278f841f6e88a15459fc8f",
    "time": "2012-06-09"
  },
  {
    "place": "Home (private)4fcfe459e4b0d0cfee4aa3e0",
    "time": "2012-06-09"
  },
  {
    "place": "Neighborhood4ce44fc14eb46a314b225ba3",
    "time": "2012-06-09"
  },
  {
    "place": "Food & Drink Shop4d5244499b27721e3948c046",
    "time": "2012-06-10"
  },
  {
    "place": "Deli / Bodega4ea9d2a929c2152deb11adcb",
    "time": "2012-06-10"
  },
  {
    "place": "Neighborhood4ce44fc14eb46a314b225ba3",
    "time": "2012-06-11"
  },
  {
    "place": "Residential Building (Apartment / Condo)4f930bb5e4b0c03d2a336649",
    "time": "2012-06-11"
  },
  {
    "place": "Residential Building (Apartment / Condo)4e278f841f6e88a15459fc8f",
    "time": "2012-06-11"
  },
  {
    "place": "Medical Center4a856435f964a5203afe1fe3",
    "time": "2012-06-11"
  },
  {
    "place": "Bridge4b68283bf964a5209c692be3",
    "time": "2012-06-11"
  },
  {
    "place": "Bridge4b68283bf964a5209c692be3",
    "time": "2012-06-12"
  },
  {
    "place": "Bus Station4da27b21b521224b03dc0aee",
    "time": "2012-06-12"
  },
  {
    "place": "Donut Shop4c408818e26920a14d035de7",
    "time": "2012-06-12"
  },
  {
    "place": "Bagel Shop4f05098830f801541e30334a",
    "time": "2012-06-12"
  },
  {
    "place": "Office4e2d8527b0fbc2edac36e30d",
    "time": "2012-06-12"
  },
  {
    "place": "Office4e2d8527b0fbc2edac36e30d",
    "time": "2012-06-12"
  },
  {
    "place": "Playground4eeb7a0b4fc6029e35e99fae",
    "time": "2012-06-12"
  },
  {
    "place": "Playground4eeb7a0b4fc6029e35e99fae",
    "time": "2012-06-13"
  },
  {
    "place": "Bike Rental / Bike Share4f775918e4b040208c20d392",
    "time": "2012-06-13"
  },
  {
    "place": "Neighborhood4ce44fc14eb46a314b225ba3",
    "time": "2012-06-13"
  },
  {
    "place": "Playground4eeb7a0b4fc6029e35e99fae",
    "time": "2012-06-15"
  },
  {
    "place": "Park4c8e5e5e1664b1f784d39f2f",
    "time": "2012-06-15"
  },
  {
    "place": "Road4dbd62936a23e294ba43f080",
    "time": "2012-06-15"
  },
  {
    "place": "Other Great Outdoors4ea423759a527d6517c36619",
    "time": "2012-06-16"
  },
  {
    "place": "Home (private)4fcfe459e4b0d0cfee4aa3e0",
    "time": "2012-06-17"
  },
  {
    "place": "Donut Shop4c408818e26920a14d035de7",
    "time": "2012-06-18"
  },
  {
    "place": "Bridge4b68283bf964a5209c692be3",
    "time": "2012-06-18"
  },
  {
    "place": "Neighborhood4f3cdb63a17c8a4ed1dbd51e",
    "time": "2012-06-18"
  },
  {
    "place": "Park4c68a710710b2d7f27d65c73",
    "time": "2012-06-18"
  },
  {
    "place": "Playground4c4c768942b4d13a10fe2280",
    "time": "2012-06-20"
  },
  {
    "place": "Residential Building (Apartment / Condo)4e3ef5d462e19d610982fa0f",
    "time": "2012-06-20"
  },
  {
    "place": "Coffee Shop4cfe98937945224be08396e7",
    "time": "2012-06-21"
  },
  {
    "place": "Library4bfd70a98992a5932321acb0",
    "time": "2012-06-21"
  },
  {
    "place": "Neighborhood4c12c5d5a1010f47e17f4918",
    "time": "2012-06-26"
  },
  {
    "place": "Plaza4aaf807ff964a520386420e3",
    "time": "2012-06-26"
  },
  {
    "place": "Hobby Shop4fe4f476e4b079b380addfc4",
    "time": "2012-06-26"
  },
  {
    "place": "Neighborhood4c1a47228b3aa5936051955f",
    "time": "2012-06-27"
  },
  {
    "place": "Gas Station / Garage4bed6b0bbac3c9b63e3afee9",
    "time": "2012-06-27"
  }
]