[
  {
    "place": "Food & Drink Shop4c87e78a6f14a093feedab10",
    "time": "2012-04-04"
  },
  {
    "place": "Food & Drink Shop4d4cad0ea9086ea8d5537485",
    "time": "2012-04-04"
  },
  {
    "place": "Food & Drink Shop4ae21adef964a520c48a21e3",
    "time": "2012-04-04"
  },
  {
    "place": "Diner4b9c9c6af964a520b27236e3",
    "time": "2012-04-04"
  },
  {
    "place": "Diner4c190682fe5a76b0c9ee0215",
    "time": "2012-04-04"
  },
  {
    "place": "Vegetarian / Vegan Restaurant4e4e4bb9bd4101d0d7a714cf",
    "time": "2012-04-04"
  },
  {
    "place": "Vegetarian / Vegan Restaurant4b02f734f964a520814b22e3",
    "time": "2012-04-04"
  },
  {
    "place": "Vegetarian / Vegan Restaurant4c0eb436336220a147a4cc77",
    "time": "2012-04-04"
  },
  {
    "place": "Bar4aaaf5cdf964a520475820e3",
    "time": "2012-04-04"
  },
  {
    "place": "Office4c61bbfdfa7bc928f8750c27",
    "time": "2012-04-04"
  },
  {
    "place": "Bakery4079dc00f964a52070f21ee3",
    "time": "2012-04-04"
  },
  {
    "place": "Bakery4a19d10ff964a520597a1fe3",
    "time": "2012-04-04"
  },
  {
    "place": "Bakery4be4646bcf200f473be5113c",
    "time": "2012-04-04"
  },
  {
    "place": "Record Shop3fd66200f964a52011e91ee3",
    "time": "2012-04-04"
  },
  {
    "place": "Record Shop4cc8a5dfe7926dcbc4575777",
    "time": "2012-04-04"
  },
  {
    "place": "Record Shop4c7814c697028cfa8f93d6fe",
    "time": "2012-04-04"
  },
  {
    "place": "Arts & Crafts Store4c3b7febbe4620a14b750c13",
    "time": "2012-04-04"
  },
  {
    "place": "Arts & Crafts Store4b72e5a4f964a520208e2de3",
    "time": "2012-04-04"
  },
  {
    "place": "Arts & Crafts Store4d9b551a7709cbff0c7e3ab2",
    "time": "2012-04-04"
  },
  {
    "place": "Office451287ebf964a520a1391fe3",
    "time": "2012-04-04"
  },
  {
    "place": "Bowling Alley4d95f52e7cfc1456a1652af6",
    "time": "2012-04-05"
  },
  {
    "place": "Ski Area4dcefe8fd164679b8d0ea4aa",
    "time": "2012-04-05"
  },
  {
    "place": "Ski Area4c41b5c0d691c9b6a21a8d0a",
    "time": "2012-04-05"
  },
  {
    "place": "Ski Area4eb8ac218231316270a0aeb7",
    "time": "2012-04-05"
  },
  {
    "place": "Playground4ec13ee177c885a64f1067e5",
    "time": "2012-04-05"
  },
  {
    "place": "Playground4c02b7bbf56c2d7f6ed61b66",
    "time": "2012-04-05"
  },
  {
    "place": "Playground4b9fdf1bf964a5203f4637e3",
    "time": "2012-04-05"
  },
  {
    "place": "Movie Theater4e15bfae1fc7ec1006520be6",
    "time": "2012-04-05"
  },
  {
    "place": "Movie Theater4be5bb648a8cb7132a6ac4a0",
    "time": "2012-04-05"
  },
  {
    "place": "Other Great Outdoors4ba0098ff964a520775437e3",
    "time": "2012-04-05"
  },
  {
    "place": "Office451287ebf964a520a1391fe3",
    "time": "2012-04-06"
  },
  {
    "place": "Office451287ebf964a520a1391fe3",
    "time": "2012-04-07"
  },
  {
    "place": "Office451287ebf964a520a1391fe3",
    "time": "2012-04-08"
  },
  {
    "place": "Office451287ebf964a520a1391fe3",
    "time": "2012-04-09"
  },
  {
    "place": "Stadium4ae6363ef964a520aba521e3",
    "time": "2012-04-10"
  },
  {
    "place": "Stadium4ae6363ef964a520aba521e3",
    "time": "2012-04-12"
  },
  {
    "place": "Office451287ebf964a520a1391fe3",
    "time": "2012-04-13"
  },
  {
    "place": "Office451287ebf964a520a1391fe3",
    "time": "2012-04-14"
  },
  {
    "place": "Stadium4b9a58e0f964a520e0ad35e3",
    "time": "2012-04-14"
  },
  {
    "place": "Office451287ebf964a520a1391fe3",
    "time": "2012-04-16"
  },
  {
    "place": "Office451287ebf964a520a1391fe3",
    "time": "2012-04-17"
  },
  {
    "place": "Office451287ebf964a520a1391fe3",
    "time": "2012-04-18"
  },
  {
    "place": "Art Museum427c0500f964a52097211fe3",
    "time": "2012-04-19"
  },
  {
    "place": "Bar4aaaf5cdf964a520475820e3",
    "time": "2012-04-20"
  },
  {
    "place": "Bar4aaaf5cdf964a520475820e3",
    "time": "2012-04-20"
  },
  {
    "place": "Bike Shop4a75fc17f964a520dfe11fe3",
    "time": "2012-04-21"
  },
  {
    "place": "Bike Shop4af6ea9ff964a5201c0422e3",
    "time": "2012-04-21"
  },
  {
    "place": "Bike Shop4a9ad452f964a520013320e3",
    "time": "2012-04-21"
  },
  {
    "place": "Bike Shop4bc0ef3bf8219c748085b210",
    "time": "2012-04-21"
  },
  {
    "place": "Bike Shop4b8359e0f964a520830331e3",
    "time": "2012-04-21"
  },
  {
    "place": "Bike Shop4a3545adf964a520b39c1fe3",
    "time": "2012-04-21"
  },
  {
    "place": "Motorcycle Shop4b2fb49ff964a52055ee24e3",
    "time": "2012-04-21"
  },
  {
    "place": "Bike Shop4be2017dae55a593185f5c62",
    "time": "2012-04-21"
  },
  {
    "place": "Bike Shop4ab92bc4f964a520557e20e3",
    "time": "2012-04-21"
  },
  {
    "place": "Bike Shop4ab64569f964a520637620e3",
    "time": "2012-04-21"
  },
  {
    "place": "Stadium4f331385e4b0a3e721d4334e",
    "time": "2012-04-21"
  },
  {
    "place": "Stadium4c138eb6f1e0b7136cab34bc",
    "time": "2012-04-21"
  },
  {
    "place": "Stadium4cfac128feec6dcb44254236",
    "time": "2012-04-21"
  },
  {
    "place": "Stadium4f47c6c6e4b07d0ddce8bd32",
    "time": "2012-04-21"
  },
  {
    "place": "Stadium4edb68989911a3e78e5cd6b1",
    "time": "2012-04-21"
  },
  {
    "place": "Gym / Fitness Center4b665f3df964a520611f2be3",
    "time": "2012-04-21"
  },
  {
    "place": "College Stadium4d93b045220188bf7b940d0e",
    "time": "2012-04-21"
  },
  {
    "place": "College Stadium4c882dc9ed0aa143bb8ca7f3",
    "time": "2012-04-21"
  },
  {
    "place": "College Stadium4d0d36693bbaa143cb633bda",
    "time": "2012-04-21"
  },
  {
    "place": "Bar4aaaf5cdf964a520475820e3",
    "time": "2012-04-21"
  },
  {
    "place": "College Stadium4d93b045220188bf7b940d0e",
    "time": "2012-04-22"
  },
  {
    "place": "College Stadium4c882dc9ed0aa143bb8ca7f3",
    "time": "2012-04-22"
  },
  {
    "place": "College Stadium4d0d36693bbaa143cb633bda",
    "time": "2012-04-22"
  },
  {
    "place": "Bar4aaaf5cdf964a520475820e3",
    "time": "2012-04-22"
  },
  {
    "place": "Stadium4ae6363ef964a520aba521e3",
    "time": "2012-04-23"
  },
  {
    "place": "College Stadium4d93b045220188bf7b940d0e",
    "time": "2012-04-23"
  },
  {
    "place": "College Stadium4c882dc9ed0aa143bb8ca7f3",
    "time": "2012-04-23"
  },
  {
    "place": "College Stadium4d0d36693bbaa143cb633bda",
    "time": "2012-04-23"
  },
  {
    "place": "Bar4ad15b84f964a5202dde20e3",
    "time": "2012-04-23"
  },
  {
    "place": "Bar4b513135f964a520bb4627e3",
    "time": "2012-04-23"
  },
  {
    "place": "Bar4ad9f641f964a5206e1c21e3",
    "time": "2012-04-23"
  },
  {
    "place": "Bar499415def964a52083521fe3",
    "time": "2012-04-23"
  },
  {
    "place": "Bar40a2ba80f964a520fef21ee3",
    "time": "2012-04-23"
  },
  {
    "place": "Bar4aaaf5cdf964a520475820e3",
    "time": "2012-04-23"
  },
  {
    "place": "College Stadium4d93b045220188bf7b940d0e",
    "time": "2012-04-24"
  },
  {
    "place": "College Stadium4c882dc9ed0aa143bb8ca7f3",
    "time": "2012-04-24"
  },
  {
    "place": "College Stadium4d0d36693bbaa143cb633bda",
    "time": "2012-04-24"
  },
  {
    "place": "Bar4aaaf5cdf964a520475820e3",
    "time": "2012-04-24"
  },
  {
    "place": "College Stadium4d93b045220188bf7b940d0e",
    "time": "2012-04-25"
  },
  {
    "place": "College Stadium4c882dc9ed0aa143bb8ca7f3",
    "time": "2012-04-25"
  },
  {
    "place": "College Stadium4d0d36693bbaa143cb633bda",
    "time": "2012-04-25"
  },
  {
    "place": "Gym / Fitness Center4db6c24a93a017099e064c1d",
    "time": "2012-04-26"
  },
  {
    "place": "College Stadium4d93b045220188bf7b940d0e",
    "time": "2012-04-26"
  },
  {
    "place": "College Stadium4c882dc9ed0aa143bb8ca7f3",
    "time": "2012-04-26"
  },
  {
    "place": "College Stadium4d0d36693bbaa143cb633bda",
    "time": "2012-04-26"
  },
  {
    "place": "Food Truck4dc81239b0fb5556cd2f3023",
    "time": "2012-04-27"
  },
  {
    "place": "Turkish Restaurant4d5afdd8cc656dcbdda2cacb",
    "time": "2012-04-27"
  },
  {
    "place": "College Stadium4d93b045220188bf7b940d0e",
    "time": "2012-04-27"
  },
  {
    "place": "College Stadium4c882dc9ed0aa143bb8ca7f3",
    "time": "2012-04-27"
  },
  {
    "place": "College Stadium4d0d36693bbaa143cb633bda",
    "time": "2012-04-27"
  },
  {
    "place": "Bar4aaaf5cdf964a520475820e3",
    "time": "2012-04-27"
  },
  {
    "place": "College Stadium4d93b045220188bf7b940d0e",
    "time": "2012-04-28"
  },
  {
    "place": "College Stadium4c882dc9ed0aa143bb8ca7f3",
    "time": "2012-04-28"
  },
  {
    "place": "College Stadium4d0d36693bbaa143cb633bda",
    "time": "2012-04-28"
  },
  {
    "place": "Stadium4b9a58e0f964a520e0ad35e3",
    "time": "2012-04-28"
  },
  {
    "place": "Bar4aaaf5cdf964a520475820e3",
    "time": "2012-04-28"
  },
  {
    "place": "College Stadium4d93b045220188bf7b940d0e",
    "time": "2012-04-29"
  },
  {
    "place": "College Stadium4c882dc9ed0aa143bb8ca7f3",
    "time": "2012-04-29"
  },
  {
    "place": "College Stadium4d0d36693bbaa143cb633bda",
    "time": "2012-04-29"
  },
  {
    "place": "Bar4aaaf5cdf964a520475820e3",
    "time": "2012-04-29"
  },
  {
    "place": "Bar4aaaf5cdf964a520475820e3",
    "time": "2012-05-01"
  },
  {
    "place": "Bar4aaaf5cdf964a520475820e3",
    "time": "2012-05-04"
  },
  {
    "place": "Art Museum427d5680f964a520a8211fe3",
    "time": "2012-05-05"
  },
  {
    "place": "Bar4aaaf5cdf964a520475820e3",
    "time": "2012-05-08"
  },
  {
    "place": "Bar4aaaf5cdf964a520475820e3",
    "time": "2012-05-08"
  },
  {
    "place": "Bar4aaaf5cdf964a520475820e3",
    "time": "2012-05-09"
  },
  {
    "place": "Ice Cream Shop4abd01bbf964a5200a8820e3",
    "time": "2012-05-10"
  },
  {
    "place": "Bar4aaaf5cdf964a520475820e3",
    "time": "2012-05-11"
  },
  {
    "place": "Bar4aaaf5cdf964a520475820e3",
    "time": "2012-05-12"
  },
  {
    "place": "Bar4aaaf5cdf964a520475820e3",
    "time": "2012-05-13"
  },
  {
    "place": "Gym / Fitness Center4d4620689c426a314fbbaa8c",
    "time": "2012-05-14"
  },
  {
    "place": "Gym / Fitness Center4b689dfdf964a52010832be3",
    "time": "2012-05-14"
  },
  {
    "place": "Gym / Fitness Center4ae89ee6f964a520f2b021e3",
    "time": "2012-05-14"
  },
  {
    "place": "Gym / Fitness Center4af0cc9ff964a5204adf21e3",
    "time": "2012-05-14"
  },
  {
    "place": "Gym / Fitness Center4ca76f98b0b8236adf53a9e6",
    "time": "2012-05-14"
  },
  {
    "place": "Gym / Fitness Center4b67625ef964a520a54b2be3",
    "time": "2012-05-14"
  },
  {
    "place": "Gym / Fitness Center4b7e98f7f964a5209ef42fe3",
    "time": "2012-05-14"
  },
  {
    "place": "Gym / Fitness Center4e4ff8f818505e3814e8dab3",
    "time": "2012-05-14"
  },
  {
    "place": "Church4a3d4aecf964a52012a21fe3",
    "time": "2012-05-14"
  },
  {
    "place": "Concert Hall3fd66200f964a520b6e71ee3",
    "time": "2012-05-14"
  },
  {
    "place": "Bar4aaaf5cdf964a520475820e3",
    "time": "2012-05-14"
  },
  {
    "place": "Bar4aaaf5cdf964a520475820e3",
    "time": "2012-05-15"
  },
  {
    "place": "Bar4aaaf5cdf964a520475820e3",
    "time": "2012-05-16"
  },
  {
    "place": "Clothing Store4db5ecc10cb6729b6aaf077c",
    "time": "2012-05-17"
  },
  {
    "place": "Clothing Store4f3e997ce4b0ea2109ef824b",
    "time": "2012-05-17"
  },
  {
    "place": "Clothing Store4babc818f964a52015c93ae3",
    "time": "2012-05-17"
  },
  {
    "place": "Clothing Store4bfea7c6ca1920a18f9ceb81",
    "time": "2012-05-17"
  },
  {
    "place": "Clothing Store4b957003f964a5208ea234e3",
    "time": "2012-05-17"
  },
  {
    "place": "Clothing Store4d892c8c1508a1431968081e",
    "time": "2012-05-17"
  },
  {
    "place": "Clothing Store4c014eae6f422d7f380b411e",
    "time": "2012-05-17"
  },
  {
    "place": "Clothing Store4bae240af964a52037893be3",
    "time": "2012-05-17"
  },
  {
    "place": "Clothing Store4bdf8f7c0d69b713682166d3",
    "time": "2012-05-17"
  },
  {
    "place": "Bar4aaaf5cdf964a520475820e3",
    "time": "2012-05-17"
  },
  {
    "place": "Bar4aaaf5cdf964a520475820e3",
    "time": "2012-05-18"
  },
  {
    "place": "Bar4aaaf5cdf964a520475820e3",
    "time": "2012-05-19"
  },
  {
    "place": "Bar4aaaf5cdf964a520475820e3",
    "time": "2012-05-21"
  },
  {
    "place": "College Academic Building4cd03c82a03a9eb0bd58b103",
    "time": "2012-05-22"
  },
  {
    "place": "American Restaurant3fd66200f964a520bfe41ee3",
    "time": "2012-05-22"
  },
  {
    "place": "Bar48399e48f964a5200d501fe3",
    "time": "2012-05-22"
  },
  {
    "place": "College Academic Building4cd03c82a03a9eb0bd58b103",
    "time": "2012-05-23"
  },
  {
    "place": "Bar4aaaf5cdf964a520475820e3",
    "time": "2012-05-23"
  },
  {
    "place": "Bar4aaaf5cdf964a520475820e3",
    "time": "2012-05-25"
  },
  {
    "place": "College Academic Building4cd03c82a03a9eb0bd58b103",
    "time": "2012-05-27"
  },
  {
    "place": "College Academic Building4cd03c82a03a9eb0bd58b103",
    "time": "2012-05-28"
  },
  {
    "place": "Bar4aaaf5cdf964a520475820e3",
    "time": "2012-05-28"
  },
  {
    "place": "College Academic Building4cd03c82a03a9eb0bd58b103",
    "time": "2012-05-29"
  },
  {
    "place": "Bar4aaaf5cdf964a520475820e3",
    "time": "2012-05-31"
  },
  {
    "place": "College Academic Building4cd03c82a03a9eb0bd58b103",
    "time": "2012-06-01"
  },
  {
    "place": "Bar4aaaf5cdf964a520475820e3",
    "time": "2012-06-01"
  },
  {
    "place": "Bar4aaaf5cdf964a520475820e3",
    "time": "2012-06-03"
  },
  {
    "place": "College Academic Building4cd03c82a03a9eb0bd58b103",
    "time": "2012-06-06"
  },
  {
    "place": "Bar4aaaf5cdf964a520475820e3",
    "time": "2012-06-06"
  },
  {
    "place": "College Academic Building4cd03c82a03a9eb0bd58b103",
    "time": "2012-06-07"
  },
  {
    "place": "Bar4aaaf5cdf964a520475820e3",
    "time": "2012-06-07"
  },
  {
    "place": "Bar4aaaf5cdf964a520475820e3",
    "time": "2012-06-08"
  },
  {
    "place": "Bar4aaaf5cdf964a520475820e3",
    "time": "2012-06-09"
  },
  {
    "place": "College Academic Building4cd03c82a03a9eb0bd58b103",
    "time": "2012-06-10"
  },
  {
    "place": "Bar4aaaf5cdf964a520475820e3",
    "time": "2012-06-11"
  },
  {
    "place": "College Academic Building4cd03c82a03a9eb0bd58b103",
    "time": "2012-06-12"
  },
  {
    "place": "Bar4aaaf5cdf964a520475820e3",
    "time": "2012-06-12"
  },
  {
    "place": "College Academic Building4cd03c82a03a9eb0bd58b103",
    "time": "2012-06-13"
  },
  {
    "place": "Bar4aaaf5cdf964a520475820e3",
    "time": "2012-06-13"
  },
  {
    "place": "College Academic Building4cd03c82a03a9eb0bd58b103",
    "time": "2012-06-17"
  },
  {
    "place": "Bar4aaaf5cdf964a520475820e3",
    "time": "2012-06-17"
  },
  {
    "place": "College Academic Building4cd03c82a03a9eb0bd58b103",
    "time": "2012-06-18"
  },
  {
    "place": "College Academic Building4cd03c82a03a9eb0bd58b103",
    "time": "2012-06-26"
  },
  {
    "place": "Bar4aaaf5cdf964a520475820e3",
    "time": "2012-06-26"
  },
  {
    "place": "College Academic Building4cd03c82a03a9eb0bd58b103",
    "time": "2012-07-02"
  },
  {
    "place": "College Academic Building4cd03c82a03a9eb0bd58b103",
    "time": "2012-07-03"
  },
  {
    "place": "Bar4aaaf5cdf964a520475820e3",
    "time": "2012-07-03"
  },
  {
    "place": "College Academic Building4cd03c82a03a9eb0bd58b103",
    "time": "2012-07-04"
  },
  {
    "place": "Bar4aaaf5cdf964a520475820e3",
    "time": "2012-07-04"
  },
  {
    "place": "College Academic Building4cd03c82a03a9eb0bd58b103",
    "time": "2012-07-05"
  },
  {
    "place": "Bar4aaaf5cdf964a520475820e3",
    "time": "2012-07-05"
  },
  {
    "place": "Bar4aaaf5cdf964a520475820e3",
    "time": "2012-07-06"
  },
  {
    "place": "College Academic Building4cd03c82a03a9eb0bd58b103",
    "time": "2012-07-07"
  },
  {
    "place": "Bar4aaaf5cdf964a520475820e3",
    "time": "2012-07-07"
  },
  {
    "place": "College Academic Building4cd03c82a03a9eb0bd58b103",
    "time": "2012-07-08"
  },
  {
    "place": "Bar4aaaf5cdf964a520475820e3",
    "time": "2012-07-08"
  },
  {
    "place": "College Academic Building4cd03c82a03a9eb0bd58b103",
    "time": "2012-07-11"
  },
  {
    "place": "Bar4aaaf5cdf964a520475820e3",
    "time": "2012-07-11"
  },
  {
    "place": "College Academic Building4cd03c82a03a9eb0bd58b103",
    "time": "2012-07-12"
  },
  {
    "place": "College Academic Building4cd03c82a03a9eb0bd58b103",
    "time": "2012-07-13"
  },
  {
    "place": "Bar4aaaf5cdf964a520475820e3",
    "time": "2012-07-13"
  },
  {
    "place": "Bar4aaaf5cdf964a520475820e3",
    "time": "2012-07-15"
  },
  {
    "place": "College Academic Building4cd03c82a03a9eb0bd58b103",
    "time": "2012-07-16"
  },
  {
    "place": "Bar4aaaf5cdf964a520475820e3",
    "time": "2012-07-16"
  },
  {
    "place": "College Academic Building4cd03c82a03a9eb0bd58b103",
    "time": "2012-07-17"
  },
  {
    "place": "Bar4aaaf5cdf964a520475820e3",
    "time": "2012-07-17"
  },
  {
    "place": "College Academic Building4cd03c82a03a9eb0bd58b103",
    "time": "2012-07-18"
  },
  {
    "place": "College Academic Building4cd03c82a03a9eb0bd58b103",
    "time": "2012-07-24"
  },
  {
    "place": "Bar4aaaf5cdf964a520475820e3",
    "time": "2012-07-24"
  },
  {
    "place": "College Academic Building4cd03c82a03a9eb0bd58b103",
    "time": "2012-07-29"
  },
  {
    "place": "Bar4aaaf5cdf964a520475820e3",
    "time": "2012-07-29"
  },
  {
    "place": "College Academic Building4cd03c82a03a9eb0bd58b103",
    "time": "2012-07-30"
  },
  {
    "place": "Bar4aaaf5cdf964a520475820e3",
    "time": "2012-07-30"
  },
  {
    "place": "Convention Center4283ee00f964a5209d221fe3",
    "time": "2012-10-13"
  },
  {
    "place": "Other Great Outdoors508af9ccf13627e878935855",
    "time": "2012-10-29"
  },
  {
    "place": "Stadium4ae6363ef964a520aba521e3",
    "time": "2012-12-01"
  },
  {
    "place": "German Restaurant45633154f964a520a53d1fe3",
    "time": "2012-12-08"
  },
  {
    "place": "German Restaurant4cd0a38cf6378cfa169cb6d6",
    "time": "2012-12-08"
  },
  {
    "place": "German Restaurant3fd66200f964a5207ae51ee3",
    "time": "2012-12-08"
  },
  {
    "place": "Bagel Shop4a68a1c6f964a520b5ca1fe3",
    "time": "2012-12-20"
  },
  {
    "place": "Bagel Shop49c406a8f964a5208d561fe3",
    "time": "2012-12-20"
  }
]