[
  {
    "place": "Student Center4c922cde7f3b8cfadacca21e",
    "time": "2012-04-03"
  },
  {
    "place": "Coffee Shop4abe6469f964a5202f8d20e3",
    "time": "2012-04-03"
  },
  {
    "place": "Road4bfbd408f214a59364abaf0e",
    "time": "2012-04-03"
  },
  {
    "place": "Home (private)4eb9f83ccc21a9a7a1b2c579",
    "time": "2012-04-03"
  },
  {
    "place": "Mall4c7be24f566db60c98054c0e",
    "time": "2012-04-03"
  },
  {
    "place": "Department Store4a6f8c85f964a52079d61fe3",
    "time": "2012-04-03"
  },
  {
    "place": "Home (private)4f48749de4b0e13229e306a7",
    "time": "2012-04-04"
  },
  {
    "place": "Residential Building (Apartment / Condo)4de02100d4c040523e9ce093",
    "time": "2012-04-04"
  },
  {
    "place": "Road4c60ac321e5cd13aa461a2ed",
    "time": "2012-04-04"
  },
  {
    "place": "Road4e613927d164ddd5e53e9c3e",
    "time": "2012-04-04"
  },
  {
    "place": "General College & University4bc39a73461576b0e8e17e32",
    "time": "2012-04-04"
  },
  {
    "place": "Community College4afb4334f964a520791c22e3",
    "time": "2012-04-04"
  },
  {
    "place": "Student Center4c922cde7f3b8cfadacca21e",
    "time": "2012-04-04"
  },
  {
    "place": "College Academic Building4e1660e91fc7d99db5c75bdd",
    "time": "2012-04-04"
  },
  {
    "place": "College Academic Building4cb9f7de0180721e426b9761",
    "time": "2012-04-04"
  },
  {
    "place": "Other Great Outdoors4eb1384a30f855c20f134902",
    "time": "2012-04-04"
  },
  {
    "place": "Building4c6345dc69a1c9b686e23aa4",
    "time": "2012-04-04"
  },
  {
    "place": "Home (private)4f48749de4b0e13229e306a7",
    "time": "2012-04-04"
  },
  {
    "place": "Drugstore / Pharmacy4c7d6e3db33a224ba00cd881",
    "time": "2012-04-06"
  },
  {
    "place": "Office4ec7c0f5722e143796a232c3",
    "time": "2012-04-07"
  },
  {
    "place": "Bar4cc36edbb2beb1f762b9164c",
    "time": "2012-04-07"
  },
  {
    "place": "Home (private)4f48749de4b0e13229e306a7",
    "time": "2012-04-07"
  },
  {
    "place": "Other Great Outdoors4cb1e95deb65b1f7025278cd",
    "time": "2012-04-08"
  },
  {
    "place": "Home (private)4f39c3a7e4b0b6d3bb20411d",
    "time": "2012-04-08"
  },
  {
    "place": "Other Great Outdoors4cb1e95deb65b1f7025278cd",
    "time": "2012-04-08"
  },
  {
    "place": "Bar4c312226a0ced13ad939136e",
    "time": "2012-04-08"
  },
  {
    "place": "Other Great Outdoors4f818240e4b024a26e417db1",
    "time": "2012-04-08"
  },
  {
    "place": "Home (private)4f48749de4b0e13229e306a7",
    "time": "2012-04-08"
  },
  {
    "place": "General Entertainment4db44994cda1c57c82583709",
    "time": "2012-04-08"
  },
  {
    "place": "Home (private)4eb9f83ccc21a9a7a1b2c579",
    "time": "2012-04-08"
  },
  {
    "place": "Hardware Store4b54916cf964a52065c027e3",
    "time": "2012-04-08"
  },
  {
    "place": "Miscellaneous Shop4bb8f48f7421a593a350c240",
    "time": "2012-04-08"
  },
  {
    "place": "Home (private)4f7f8876e4b02cb6c81c2c4b",
    "time": "2012-04-08"
  },
  {
    "place": "Other Great Outdoors4cb1e95deb65b1f7025278cd",
    "time": "2012-04-09"
  },
  {
    "place": "Neighborhood4bc8756114d79521650f69e9",
    "time": "2012-04-09"
  },
  {
    "place": "Mall4b5175f7f964a520bc4d27e3",
    "time": "2012-04-09"
  },
  {
    "place": "Furniture / Home Store4c0ac565009a0f47ce08eabf",
    "time": "2012-04-09"
  },
  {
    "place": "College Academic Building4ccf295f7b6854814e14baf8",
    "time": "2012-04-09"
  },
  {
    "place": "Road4bd6f47d29eb9c7462db95e1",
    "time": "2012-04-09"
  },
  {
    "place": "Road4f7f5887e4b00502a96dc7d1",
    "time": "2012-04-09"
  },
  {
    "place": "Other Great Outdoors4ca6923314c33704b345c13b",
    "time": "2012-04-09"
  },
  {
    "place": "Bakery4bd3b00a9854d13a247afe4d",
    "time": "2012-04-09"
  },
  {
    "place": "Other Great Outdoors4cb1e95deb65b1f7025278cd",
    "time": "2012-04-10"
  },
  {
    "place": "Other Great Outdoors4b8578daf964a520206031e3",
    "time": "2012-04-10"
  },
  {
    "place": "Road4e541c1c22711d4da5c53769",
    "time": "2012-04-10"
  },
  {
    "place": "Other Great Outdoors4ca38721d7c337043fc0a162",
    "time": "2012-04-10"
  },
  {
    "place": "Student Center4c922cde7f3b8cfadacca21e",
    "time": "2012-04-10"
  },
  {
    "place": "College Academic Building4cb9f7de0180721e426b9761",
    "time": "2012-04-10"
  },
  {
    "place": "Mall4c7be24f566db60c98054c0e",
    "time": "2012-04-10"
  },
  {
    "place": "Gym / Fitness Center4d56bce5e7f1a1cda66d0aa5",
    "time": "2012-04-10"
  },
  {
    "place": "Gym / Fitness Center4d56bce5e7f1a1cda66d0aa5",
    "time": "2012-04-10"
  },
  {
    "place": "College Academic Building4e1660e91fc7d99db5c75bdd",
    "time": "2012-04-10"
  },
  {
    "place": "Medical Center4e1f02c4fa76920758b2ee89",
    "time": "2012-04-11"
  },
  {
    "place": "Medical Center4f85b99de4b0d19a2f21e5a1",
    "time": "2012-04-11"
  },
  {
    "place": "Fast Food Restaurant4bc8a2cd92b376b0bdd5513a",
    "time": "2012-04-11"
  },
  {
    "place": "Home (private)4f39c3a7e4b0b6d3bb20411d",
    "time": "2012-04-11"
  },
  {
    "place": "Other Great Outdoors4ca6923314c33704b345c13b",
    "time": "2012-04-11"
  },
  {
    "place": "Home (private)4f48749de4b0e13229e306a7",
    "time": "2012-04-11"
  },
  {
    "place": "Road4de94ed6b0fbcb7c9ada3448",
    "time": "2012-04-11"
  },
  {
    "place": "Gym / Fitness Center4d56bce5e7f1a1cda66d0aa5",
    "time": "2012-04-11"
  },
  {
    "place": "Food & Drink Shop4bb3db7d42959c743b8d222c",
    "time": "2012-04-11"
  },
  {
    "place": "Home (private)4c37801edfb0e21e52e7aca8",
    "time": "2012-04-12"
  },
  {
    "place": "Other Great Outdoors4cb1e95deb65b1f7025278cd",
    "time": "2012-04-12"
  },
  {
    "place": "Outdoors & Recreation4de05953c65bcc724f3e0d5a",
    "time": "2012-04-12"
  },
  {
    "place": "Residential Building (Apartment / Condo)4de02100d4c040523e9ce093",
    "time": "2012-04-12"
  },
  {
    "place": "Neighborhood4bc8756114d79521650f69e9",
    "time": "2012-04-12"
  },
  {
    "place": "Home (private)4eb9f83ccc21a9a7a1b2c579",
    "time": "2012-04-12"
  },
  {
    "place": "Mall4a991c59f964a520662d20e3",
    "time": "2012-04-12"
  },
  {
    "place": "Student Center4c922cde7f3b8cfadacca21e",
    "time": "2012-04-12"
  },
  {
    "place": "College Academic Building4cb9f7de0180721e426b9761",
    "time": "2012-04-12"
  },
  {
    "place": "Other Great Outdoors4ca6923314c33704b345c13b",
    "time": "2012-04-12"
  },
  {
    "place": "Gym / Fitness Center4d56bce5e7f1a1cda66d0aa5",
    "time": "2012-04-12"
  },
  {
    "place": "Home (private)4f48749de4b0e13229e306a7",
    "time": "2012-04-13"
  },
  {
    "place": "Home (private)4eb9f83ccc21a9a7a1b2c579",
    "time": "2012-04-13"
  },
  {
    "place": "Community College4afb4334f964a520791c22e3",
    "time": "2012-04-13"
  },
  {
    "place": "Student Center4c922cde7f3b8cfadacca21e",
    "time": "2012-04-13"
  },
  {
    "place": "Home (private)4c90e2a9b641236adbae7c79",
    "time": "2012-04-13"
  },
  {
    "place": "Road4bfbd408f214a59364abaf0e",
    "time": "2012-04-13"
  },
  {
    "place": "Other Great Outdoors4b8578daf964a520206031e3",
    "time": "2012-04-13"
  },
  {
    "place": "Home (private)4eb9f83ccc21a9a7a1b2c579",
    "time": "2012-04-13"
  },
  {
    "place": "Road4bb904a753649c743e9e47fb",
    "time": "2012-04-13"
  },
  {
    "place": "Neighborhood4bc8756114d79521650f69e9",
    "time": "2012-04-13"
  },
  {
    "place": "Sandwich Place4b705ef7f964a520fa152de3",
    "time": "2012-04-13"
  },
  {
    "place": "Road4ebba3285c5c3157fddbccd3",
    "time": "2012-04-14"
  },
  {
    "place": "Home (private)4f66375be4b06b3089f12351",
    "time": "2012-04-14"
  },
  {
    "place": "Neighborhood4f3fe987e4b02d0e6c0c4f38",
    "time": "2012-04-14"
  },
  {
    "place": "Mexican Restaurant4bb6b19146d4a593efb0c6c0",
    "time": "2012-04-14"
  },
  {
    "place": "Department Store4b5b389ff964a5203fec28e3",
    "time": "2012-04-14"
  },
  {
    "place": "Office4ec7c0f5722e143796a232c3",
    "time": "2012-04-14"
  },
  {
    "place": "Residential Building (Apartment / Condo)4c7b66d22d3ba14302f793d0",
    "time": "2012-04-14"
  },
  {
    "place": "Neighborhood4bc8756114d79521650f69e9",
    "time": "2012-04-14"
  },
  {
    "place": "Deli / Bodega4c41ead2d7fad13a6d4208da",
    "time": "2012-04-14"
  },
  {
    "place": "Diner4b021b27f964a520bf4722e3",
    "time": "2012-04-15"
  },
  {
    "place": "Home (private)4f48749de4b0e13229e306a7",
    "time": "2012-04-15"
  },
  {
    "place": "Office4ec7c0f5722e143796a232c3",
    "time": "2012-04-15"
  },
  {
    "place": "Home (private)4eb9f83ccc21a9a7a1b2c579",
    "time": "2012-04-16"
  },
  {
    "place": "Plaza4e0b79a818a86d2caa7b8886",
    "time": "2012-04-16"
  },
  {
    "place": "Sandwich Place4a7dac9df964a52021ef1fe3",
    "time": "2012-04-16"
  },
  {
    "place": "Post Office4c33727a66e40f478904c88b",
    "time": "2012-04-16"
  },
  {
    "place": "General College & University4bc39a73461576b0e8e17e32",
    "time": "2012-04-16"
  },
  {
    "place": "Community College4afb4334f964a520791c22e3",
    "time": "2012-04-16"
  },
  {
    "place": "College Academic Building4ccf295f7b6854814e14baf8",
    "time": "2012-04-16"
  },
  {
    "place": "Other Great Outdoors4e93e20bd5fb27b8eadd05ca",
    "time": "2012-04-17"
  },
  {
    "place": "Bar4cc36edbb2beb1f762b9164c",
    "time": "2012-04-17"
  },
  {
    "place": "Home (private)4eb9f83ccc21a9a7a1b2c579",
    "time": "2012-04-17"
  },
  {
    "place": "Burrito Place4d66b1ef84f28cfa548a6e69",
    "time": "2012-04-17"
  },
  {
    "place": "Coffee Shop4af1904ef964a52061e121e3",
    "time": "2012-04-17"
  },
  {
    "place": "Other Great Outdoors4cc1bb32d363721e87045cc9",
    "time": "2012-04-17"
  },
  {
    "place": "Community College4afb4334f964a520791c22e3",
    "time": "2012-04-17"
  },
  {
    "place": "Student Center4c922cde7f3b8cfadacca21e",
    "time": "2012-04-17"
  },
  {
    "place": "Road4cae1376628cb1f752433115",
    "time": "2012-04-17"
  },
  {
    "place": "Other Great Outdoors4b8578daf964a520206031e3",
    "time": "2012-04-17"
  },
  {
    "place": "Home (private)4eb9f83ccc21a9a7a1b2c579",
    "time": "2012-04-17"
  },
  {
    "place": "Road4bf81a008d30d13a4f1c0018",
    "time": "2012-04-17"
  },
  {
    "place": "Neighborhood4f2a141ee4b0837d0c520419",
    "time": "2012-04-17"
  },
  {
    "place": "Park4bf02057c8d920a148729430",
    "time": "2012-04-17"
  },
  {
    "place": "Road4bd02e66b221c9b6f62dd3d0",
    "time": "2012-04-18"
  },
  {
    "place": "Other Great Outdoors4e3b2bc67d8b0e96104bb2c4",
    "time": "2012-04-18"
  },
  {
    "place": "Mall4b5175f7f964a520bc4d27e3",
    "time": "2012-04-18"
  },
  {
    "place": "Department Store4b773c7df964a5207a8a2ee3",
    "time": "2012-04-18"
  },
  {
    "place": "Neighborhood4bc8756114d79521650f69e9",
    "time": "2012-04-18"
  },
  {
    "place": "High School4b6a153bf964a5206ac62be3",
    "time": "2012-04-18"
  },
  {
    "place": "Community College4afb4334f964a520791c22e3",
    "time": "2012-04-18"
  },
  {
    "place": "General College & University4bc39a73461576b0e8e17e32",
    "time": "2012-04-18"
  },
  {
    "place": "Outdoors & Recreation4e5e62ded22d7239c1a1c4a8",
    "time": "2012-04-18"
  },
  {
    "place": "Other Great Outdoors4ca6923314c33704b345c13b",
    "time": "2012-04-18"
  },
  {
    "place": "Other Great Outdoors4cb1e95deb65b1f7025278cd",
    "time": "2012-04-18"
  },
  {
    "place": "Other Great Outdoors4e3c576852b1a04aff09376f",
    "time": "2012-04-18"
  },
  {
    "place": "Home (private)4f48749de4b0e13229e306a7",
    "time": "2012-04-18"
  },
  {
    "place": "Home (private)4f48749de4b0e13229e306a7",
    "time": "2012-04-18"
  },
  {
    "place": "Mall4c7be24f566db60c98054c0e",
    "time": "2012-04-18"
  },
  {
    "place": "Gym / Fitness Center4d56bce5e7f1a1cda66d0aa5",
    "time": "2012-04-18"
  },
  {
    "place": "Spanish Restaurant4b6a162af964a520adc62be3",
    "time": "2012-04-19"
  },
  {
    "place": "Mall4c7be24f566db60c98054c0e",
    "time": "2012-04-19"
  },
  {
    "place": "Gym / Fitness Center4d56bce5e7f1a1cda66d0aa5",
    "time": "2012-04-19"
  },
  {
    "place": "Pizza Place4b840dc0f964a5209d1d31e3",
    "time": "2012-04-19"
  },
  {
    "place": "High School4bbd0054a0a0c9b68c181b0f",
    "time": "2012-04-19"
  },
  {
    "place": "Spanish Restaurant4ba7d400f964a520f9b639e3",
    "time": "2012-04-20"
  },
  {
    "place": "Home (private)4eb9f83ccc21a9a7a1b2c579",
    "time": "2012-04-20"
  },
  {
    "place": "Community College4afb4334f964a520791c22e3",
    "time": "2012-04-20"
  },
  {
    "place": "Student Center4c922cde7f3b8cfadacca21e",
    "time": "2012-04-20"
  },
  {
    "place": "Mall4c7be24f566db60c98054c0e",
    "time": "2012-04-21"
  },
  {
    "place": "American Restaurant4b91ae4cf964a5207acf33e3",
    "time": "2012-04-21"
  },
  {
    "place": "Movie Theater4b1158fdf964a520b07a23e3",
    "time": "2012-04-21"
  },
  {
    "place": "Home (private)4eb9f83ccc21a9a7a1b2c579",
    "time": "2012-04-21"
  },
  {
    "place": "Office4ec7c0f5722e143796a232c3",
    "time": "2012-04-21"
  },
  {
    "place": "Food & Drink Shop4b51109ff964a5207c4027e3",
    "time": "2012-04-22"
  },
  {
    "place": "Deli / Bodega4c41ead2d7fad13a6d4208da",
    "time": "2012-04-22"
  },
  {
    "place": "Office4ec7c0f5722e143796a232c3",
    "time": "2012-04-22"
  },
  {
    "place": "Other Great Outdoors4ee03cc6d3e38ddb2a91672f",
    "time": "2012-04-23"
  },
  {
    "place": "Neighborhood4bc8756114d79521650f69e9",
    "time": "2012-04-23"
  },
  {
    "place": "Home (private)4eb9f83ccc21a9a7a1b2c579",
    "time": "2012-04-23"
  },
  {
    "place": "Road4e541c1c22711d4da5c53769",
    "time": "2012-04-23"
  },
  {
    "place": "Community College4afb4334f964a520791c22e3",
    "time": "2012-04-23"
  },
  {
    "place": "Student Center4c922cde7f3b8cfadacca21e",
    "time": "2012-04-23"
  },
  {
    "place": "Student Center4e9ece470aaf5cc08f9fb6aa",
    "time": "2012-04-23"
  },
  {
    "place": "Pizza Place4f5e2689e4b0695cbca2403d",
    "time": "2012-04-23"
  },
  {
    "place": "Student Center4e9ece470aaf5cc08f9fb6aa",
    "time": "2012-04-23"
  },
  {
    "place": "College Academic Building4cb9f7de0180721e426b9761",
    "time": "2012-04-23"
  },
  {
    "place": "Bank4d3f3c07cb84b60ce1527bab",
    "time": "2012-04-23"
  },
  {
    "place": "Mall4a991c59f964a520662d20e3",
    "time": "2012-04-23"
  },
  {
    "place": "Sandwich Place4b82ba3df964a520bfe030e3",
    "time": "2012-04-23"
  },
  {
    "place": "Other Great Outdoors4c7c071181bca09382ee0415",
    "time": "2012-04-23"
  },
  {
    "place": "Other Great Outdoors4ca6923314c33704b345c13b",
    "time": "2012-04-23"
  },
  {
    "place": "Home (private)4f48749de4b0e13229e306a7",
    "time": "2012-04-23"
  },
  {
    "place": "Automotive Shop4cb2306aef1b370403604900",
    "time": "2012-04-23"
  },
  {
    "place": "Gym / Fitness Center4d56bce5e7f1a1cda66d0aa5",
    "time": "2012-04-23"
  },
  {
    "place": "Community College4afb4334f964a520791c22e3",
    "time": "2012-04-24"
  },
  {
    "place": "College Academic Building4cb9f7de0180721e426b9761",
    "time": "2012-04-24"
  },
  {
    "place": "Food & Drink Shop4bb3db7d42959c743b8d222c",
    "time": "2012-04-24"
  },
  {
    "place": "Home (private)4eb9f83ccc21a9a7a1b2c579",
    "time": "2012-04-25"
  },
  {
    "place": "Parking4be17076d816c928f40bf0d9",
    "time": "2012-04-25"
  },
  {
    "place": "Home (private)4f48749de4b0e13229e306a7",
    "time": "2012-04-25"
  },
  {
    "place": "Neighborhood4bc8756114d79521650f69e9",
    "time": "2012-04-25"
  },
  {
    "place": "Home (private)4eb9f83ccc21a9a7a1b2c579",
    "time": "2012-04-26"
  },
  {
    "place": "Medical Center4f0c500be4b06b1f3e779e06",
    "time": "2012-04-26"
  },
  {
    "place": "Hardware Store4b54916cf964a52065c027e3",
    "time": "2012-04-26"
  },
  {
    "place": "High School4b6a153bf964a5206ac62be3",
    "time": "2012-04-27"
  },
  {
    "place": "Mexican Restaurant4c6ab6e1c946e21e0563ed8e",
    "time": "2012-04-27"
  },
  {
    "place": "Other Great Outdoors4cb1e95deb65b1f7025278cd",
    "time": "2012-04-27"
  },
  {
    "place": "Office4aca3b76f964a520f7c020e3",
    "time": "2012-04-27"
  },
  {
    "place": "Food & Drink Shop4b10af77f964a520c37423e3",
    "time": "2012-04-27"
  },
  {
    "place": "Outdoors & Recreation4de05953c65bcc724f3e0d5a",
    "time": "2012-04-27"
  },
  {
    "place": "Other Great Outdoors4c6b1adca48420a13b66090b",
    "time": "2012-04-27"
  },
  {
    "place": "Other Great Outdoors4b8578daf964a520206031e3",
    "time": "2012-04-27"
  },
  {
    "place": "Road4cae1376628cb1f752433115",
    "time": "2012-04-27"
  },
  {
    "place": "Road4c60ac321e5cd13aa461a2ed",
    "time": "2012-04-27"
  },
  {
    "place": "Bank4e6b953cb61cc3728e1889ed",
    "time": "2012-04-27"
  },
  {
    "place": "River4e412a59ae60920b0175b562",
    "time": "2012-04-27"
  },
  {
    "place": "Road4f7f5887e4b00502a96dc7d1",
    "time": "2012-04-27"
  },
  {
    "place": "Neighborhood4f3fe987e4b02d0e6c0c4f38",
    "time": "2012-04-27"
  },
  {
    "place": "Miscellaneous Shop4c5c8e457f661b8dfbec481c",
    "time": "2012-04-27"
  },
  {
    "place": "American Restaurant4ada577af964a520932121e3",
    "time": "2012-04-27"
  },
  {
    "place": "Movie Theater4b1158fdf964a520b07a23e3",
    "time": "2012-04-28"
  },
  {
    "place": "Office4ec7c0f5722e143796a232c3",
    "time": "2012-04-28"
  },
  {
    "place": "Home (private)4eb9f83ccc21a9a7a1b2c579",
    "time": "2012-04-29"
  },
  {
    "place": "Deli / Bodega4c41ead2d7fad13a6d4208da",
    "time": "2012-04-29"
  },
  {
    "place": "Office4ec7c0f5722e143796a232c3",
    "time": "2012-04-29"
  },
  {
    "place": "Road4e541c1c22711d4da5c53769",
    "time": "2012-05-01"
  },
  {
    "place": "Other Great Outdoors4ca38721d7c337043fc0a162",
    "time": "2012-05-01"
  },
  {
    "place": "Community College4afb4334f964a520791c22e3",
    "time": "2012-05-01"
  },
  {
    "place": "General College & University4bc39a73461576b0e8e17e32",
    "time": "2012-05-01"
  },
  {
    "place": "Student Center4c922cde7f3b8cfadacca21e",
    "time": "2012-05-01"
  },
  {
    "place": "Road4bd6f47d29eb9c7462db95e1",
    "time": "2012-05-01"
  },
  {
    "place": "Other Great Outdoors4cc1bb32d363721e87045cc9",
    "time": "2012-05-01"
  },
  {
    "place": "Road4f7f5887e4b00502a96dc7d1",
    "time": "2012-05-01"
  },
  {
    "place": "High School4bbd0054a0a0c9b68c181b0f",
    "time": "2012-05-01"
  },
  {
    "place": "Neighborhood4bc8756114d79521650f69e9",
    "time": "2012-05-03"
  },
  {
    "place": "Home (private)4eb9f83ccc21a9a7a1b2c579",
    "time": "2012-05-03"
  },
  {
    "place": "Mexican Restaurant4c6ab6e1c946e21e0563ed8e",
    "time": "2012-05-03"
  },
  {
    "place": "Plaza4e0b79a818a86d2caa7b8886",
    "time": "2012-05-03"
  },
  {
    "place": "Parking4be17076d816c928f40bf0d9",
    "time": "2012-05-03"
  },
  {
    "place": "Other Great Outdoors4cb1e95deb65b1f7025278cd",
    "time": "2012-05-03"
  },
  {
    "place": "Gas Station / Garage4c43360b3735be9a4c151ba4",
    "time": "2012-05-03"
  },
  {
    "place": "Road4e541c1c22711d4da5c53769",
    "time": "2012-05-03"
  },
  {
    "place": "General College & University4bc39a73461576b0e8e17e32",
    "time": "2012-05-03"
  },
  {
    "place": "Community College4afb4334f964a520791c22e3",
    "time": "2012-05-03"
  },
  {
    "place": "Student Center4c922cde7f3b8cfadacca21e",
    "time": "2012-05-03"
  },
  {
    "place": "Road4bd6f47d29eb9c7462db95e1",
    "time": "2012-05-03"
  },
  {
    "place": "Road4f7f5887e4b00502a96dc7d1",
    "time": "2012-05-03"
  },
  {
    "place": "River4e412a59ae60920b0175b562",
    "time": "2012-05-03"
  },
  {
    "place": "Other Great Outdoors4ca6923314c33704b345c13b",
    "time": "2012-05-03"
  },
  {
    "place": "American Restaurant4b91ae4cf964a5207acf33e3",
    "time": "2012-05-04"
  },
  {
    "place": "Mall4a07ac6af964a5208f731fe3",
    "time": "2012-05-04"
  },
  {
    "place": "Movie Theater4b23edfcf964a5201e5d24e3",
    "time": "2012-05-04"
  },
  {
    "place": "Home (private)4eb9f83ccc21a9a7a1b2c579",
    "time": "2012-05-04"
  },
  {
    "place": "Diner4b4037eef964a520f0b625e3",
    "time": "2012-05-04"
  },
  {
    "place": "Home (private)4eb9f83ccc21a9a7a1b2c579",
    "time": "2012-05-04"
  },
  {
    "place": "Community College4afb4334f964a520791c22e3",
    "time": "2012-05-04"
  },
  {
    "place": "Student Center4c922cde7f3b8cfadacca21e",
    "time": "2012-05-04"
  },
  {
    "place": "Coffee Shop4abe6469f964a5202f8d20e3",
    "time": "2012-05-04"
  },
  {
    "place": "Gym / Fitness Center4d56bce5e7f1a1cda66d0aa5",
    "time": "2012-05-04"
  },
  {
    "place": "American Restaurant4c4c5da1959220a11c02e910",
    "time": "2012-05-04"
  },
  {
    "place": "Food & Drink Shop4b51109ff964a5207c4027e3",
    "time": "2012-05-04"
  },
  {
    "place": "Home (private)4eb9f83ccc21a9a7a1b2c579",
    "time": "2012-05-04"
  },
  {
    "place": "Office4ec7c0f5722e143796a232c3",
    "time": "2012-05-05"
  },
  {
    "place": "Mexican Restaurant4fa4a231e4b09571de93b9a7",
    "time": "2012-05-05"
  },
  {
    "place": "Home (private)4eb9f83ccc21a9a7a1b2c579",
    "time": "2012-05-05"
  },
  {
    "place": "Bakery4bd3b00a9854d13a247afe4d",
    "time": "2012-05-05"
  },
  {
    "place": "Home (private)4f48749de4b0e13229e306a7",
    "time": "2012-05-06"
  },
  {
    "place": "Home (private)4eb9f83ccc21a9a7a1b2c579",
    "time": "2012-05-07"
  },
  {
    "place": "Community College4afb4334f964a520791c22e3",
    "time": "2012-05-07"
  },
  {
    "place": "College Academic Building4ccf295f7b6854814e14baf8",
    "time": "2012-05-07"
  },
  {
    "place": "Home (private)4eb9f83ccc21a9a7a1b2c579",
    "time": "2012-05-08"
  },
  {
    "place": "Other Great Outdoors4e1934d9aeb7eb0120d35557",
    "time": "2012-05-08"
  },
  {
    "place": "American Restaurant4c4c5da1959220a11c02e910",
    "time": "2012-05-08"
  },
  {
    "place": "Other Great Outdoors4e93e20bd5fb27b8eadd05ca",
    "time": "2012-05-08"
  },
  {
    "place": "Hardware Store4b54916cf964a52065c027e3",
    "time": "2012-05-08"
  },
  {
    "place": "Other Great Outdoors4c7c071181bca09382ee0415",
    "time": "2012-05-08"
  },
  {
    "place": "Outdoors & Recreation4de05953c65bcc724f3e0d5a",
    "time": "2012-05-08"
  },
  {
    "place": "Office4aca3b76f964a520f7c020e3",
    "time": "2012-05-08"
  },
  {
    "place": "Road4e541c1c22711d4da5c53769",
    "time": "2012-05-08"
  },
  {
    "place": "Community College4afb4334f964a520791c22e3",
    "time": "2012-05-08"
  },
  {
    "place": "General College & University4bc39a73461576b0e8e17e32",
    "time": "2012-05-08"
  },
  {
    "place": "Student Center4c922cde7f3b8cfadacca21e",
    "time": "2012-05-08"
  },
  {
    "place": "College Academic Building4cb9f7de0180721e426b9761",
    "time": "2012-05-08"
  },
  {
    "place": "Road4bd6f47d29eb9c7462db95e1",
    "time": "2012-05-08"
  },
  {
    "place": "Road4f7f5887e4b00502a96dc7d1",
    "time": "2012-05-08"
  },
  {
    "place": "High School4bbd0054a0a0c9b68c181b0f",
    "time": "2012-05-08"
  },
  {
    "place": "Food & Drink Shop4a58dba5f964a5200fb81fe3",
    "time": "2012-05-09"
  },
  {
    "place": "Other Great Outdoors4cb1e95deb65b1f7025278cd",
    "time": "2012-05-09"
  },
  {
    "place": "Road4e541c1c22711d4da5c53769",
    "time": "2012-05-09"
  },
  {
    "place": "Community College4afb4334f964a520791c22e3",
    "time": "2012-05-09"
  },
  {
    "place": "General College & University4bc39a73461576b0e8e17e32",
    "time": "2012-05-09"
  },
  {
    "place": "Student Center4c922cde7f3b8cfadacca21e",
    "time": "2012-05-09"
  },
  {
    "place": "College Academic Building4cb9f7de0180721e426b9761",
    "time": "2012-05-09"
  },
  {
    "place": "Gym / Fitness Center4d56bce5e7f1a1cda66d0aa5",
    "time": "2012-05-09"
  },
  {
    "place": "Bank4c5227e77f6e20a1afd33deb",
    "time": "2012-05-10"
  },
  {
    "place": "Home (private)4f48749de4b0e13229e306a7",
    "time": "2012-05-10"
  },
  {
    "place": "American Restaurant4a8ed014f964a520bd1220e3",
    "time": "2012-05-11"
  },
  {
    "place": "Home (private)4eb9f83ccc21a9a7a1b2c579",
    "time": "2012-05-11"
  },
  {
    "place": "Hardware Store4b54916cf964a52065c027e3",
    "time": "2012-05-11"
  },
  {
    "place": "Parking4be17076d816c928f40bf0d9",
    "time": "2012-05-11"
  },
  {
    "place": "Community College4afb4334f964a520791c22e3",
    "time": "2012-05-11"
  },
  {
    "place": "Student Center4c922cde7f3b8cfadacca21e",
    "time": "2012-05-11"
  },
  {
    "place": "Diner4b4902fcf964a520ee6126e3",
    "time": "2012-05-12"
  },
  {
    "place": "Office4ec7c0f5722e143796a232c3",
    "time": "2012-05-12"
  },
  {
    "place": "Bowling Alley4ba032ecf964a520096137e3",
    "time": "2012-05-13"
  },
  {
    "place": "Office4ec7c0f5722e143796a232c3",
    "time": "2012-05-13"
  },
  {
    "place": "Other Great Outdoors4c1d8fb5b306c92891dc65b7",
    "time": "2012-05-13"
  },
  {
    "place": "Other Great Outdoors4d3b72841fc36dcb14dd71f5",
    "time": "2012-05-13"
  },
  {
    "place": "Home (private)4f48749de4b0e13229e306a7",
    "time": "2012-05-14"
  },
  {
    "place": "Residential Building (Apartment / Condo)4de02100d4c040523e9ce093",
    "time": "2012-05-14"
  },
  {
    "place": "Neighborhood4bc8756114d79521650f69e9",
    "time": "2012-05-14"
  },
  {
    "place": "Home (private)4eb9f83ccc21a9a7a1b2c579",
    "time": "2012-05-14"
  },
  {
    "place": "City4cb1e95deb65b1f7025278cd",
    "time": "2012-05-14"
  },
  {
    "place": "Home (private)4f39c3a7e4b0b6d3bb20411d",
    "time": "2012-05-14"
  },
  {
    "place": "Medical Center4b36413cf964a520b13125e3",
    "time": "2012-05-14"
  },
  {
    "place": "Department Store4b773c7df964a5207a8a2ee3",
    "time": "2012-05-14"
  },
  {
    "place": "Mall4b5175f7f964a520bc4d27e3",
    "time": "2012-05-14"
  },
  {
    "place": "Department Store4b1ab9c6f964a52060f023e3",
    "time": "2012-05-14"
  },
  {
    "place": "Department Store4b704e68f964a52064112de3",
    "time": "2012-05-14"
  },
  {
    "place": "Food & Drink Shop4a58dba5f964a5200fb81fe3",
    "time": "2012-05-14"
  },
  {
    "place": "Spanish Restaurant4d43017265ea6ea8cfb9af79",
    "time": "2012-05-14"
  },
  {
    "place": "City4ca6923314c33704b345c13b",
    "time": "2012-05-14"
  },
  {
    "place": "City4cb1e95deb65b1f7025278cd",
    "time": "2012-05-14"
  },
  {
    "place": "Home (private)4f48749de4b0e13229e306a7",
    "time": "2012-05-14"
  },
  {
    "place": "Food & Drink Shop4bb3db7d42959c743b8d222c",
    "time": "2012-05-14"
  },
  {
    "place": "Home (private)4eb9f83ccc21a9a7a1b2c579",
    "time": "2012-05-15"
  },
  {
    "place": "Laundry Service4e343ea462845cff5a48185b",
    "time": "2012-05-15"
  },
  {
    "place": "Scenic Lookout4e5ab4cdd164da2b2773ff74",
    "time": "2012-05-15"
  },
  {
    "place": "Spanish Restaurant4e9dbef302d5277806459f37",
    "time": "2012-05-15"
  },
  {
    "place": "Light Rail4ba8c5a9f964a520aced39e3",
    "time": "2012-05-15"
  },
  {
    "place": "Other Great Outdoors4b857b2ff964a520b66031e3",
    "time": "2012-05-15"
  },
  {
    "place": "Residential Building (Apartment / Condo)4de02100d4c040523e9ce093",
    "time": "2012-05-15"
  },
  {
    "place": "Home (private)4eb9f83ccc21a9a7a1b2c579",
    "time": "2012-05-16"
  },
  {
    "place": "Medical Center4f85b99de4b0d19a2f21e5a1",
    "time": "2012-05-16"
  },
  {
    "place": "Housing Development4f3f1a33e4b045d4ebee87d2",
    "time": "2012-05-16"
  },
  {
    "place": "Home (private)4eb9f83ccc21a9a7a1b2c579",
    "time": "2012-05-16"
  },
  {
    "place": "Gym / Fitness Center4d56bce5e7f1a1cda66d0aa5",
    "time": "2012-05-16"
  },
  {
    "place": "Pet Store4a6f8cd1f964a5207bd61fe3",
    "time": "2012-05-17"
  },
  {
    "place": "Home (private)4eb9f83ccc21a9a7a1b2c579",
    "time": "2012-05-17"
  },
  {
    "place": "Other Great Outdoors4e1266e0fa769d21e9f5ff9f",
    "time": "2012-05-17"
  },
  {
    "place": "Italian Restaurant4bafe389f964a52028293ce3",
    "time": "2012-05-17"
  },
  {
    "place": "Laundry Service4e343ea462845cff5a48185b",
    "time": "2012-05-17"
  },
  {
    "place": "Food & Drink Shop4b51109ff964a5207c4027e3",
    "time": "2012-05-17"
  },
  {
    "place": "Parking4be17076d816c928f40bf0d9",
    "time": "2012-05-17"
  },
  {
    "place": "Gas Station / Garage4bdba4b32a3a0f479e3fb0b6",
    "time": "2012-05-18"
  },
  {
    "place": "Gas Station / Garage4bdba4b32a3a0f479e3fb0b6",
    "time": "2012-05-18"
  },
  {
    "place": "Office4ec7c0f5722e143796a232c3",
    "time": "2012-05-19"
  },
  {
    "place": "Other Great Outdoors4d3b72841fc36dcb14dd71f5",
    "time": "2012-05-21"
  },
  {
    "place": "Community College4afb4334f964a520791c22e3",
    "time": "2012-05-21"
  },
  {
    "place": "Student Center4e9ece470aaf5cc08f9fb6aa",
    "time": "2012-05-21"
  },
  {
    "place": "College Academic Building4e0c7369aeb7af850d68ac1d",
    "time": "2012-05-21"
  },
  {
    "place": "College Academic Building4cb9f7de0180721e426b9761",
    "time": "2012-05-21"
  },
  {
    "place": "Student Center4c922cde7f3b8cfadacca21e",
    "time": "2012-05-21"
  },
  {
    "place": "Bus Station4db5c82e4b226b343da790fa",
    "time": "2012-05-21"
  },
  {
    "place": "Department Store4b5b389ff964a5203fec28e3",
    "time": "2012-05-21"
  },
  {
    "place": "Community College4afb4334f964a520791c22e3",
    "time": "2012-05-22"
  },
  {
    "place": "College Academic Building4cb9f7de0180721e426b9761",
    "time": "2012-05-22"
  },
  {
    "place": "Pizza Place4f5e2689e4b0695cbca2403d",
    "time": "2012-05-23"
  },
  {
    "place": "Moving Target4fbfe16ae4b05190680fe0b1",
    "time": "2012-05-28"
  },
  {
    "place": "Home (private)4eb9f83ccc21a9a7a1b2c579",
    "time": "2012-05-28"
  },
  {
    "place": "General College & University4bc39a73461576b0e8e17e32",
    "time": "2012-05-29"
  },
  {
    "place": "Community College4afb4334f964a520791c22e3",
    "time": "2012-05-29"
  },
  {
    "place": "Student Center4c922cde7f3b8cfadacca21e",
    "time": "2012-05-29"
  },
  {
    "place": "College Academic Building4e1660e91fc7d99db5c75bdd",
    "time": "2012-05-31"
  },
  {
    "place": "Diner4b021b27f964a520bf4722e3",
    "time": "2012-06-03"
  },
  {
    "place": "Chinese Restaurant49fe10d9f964a520676f1fe3",
    "time": "2012-06-03"
  },
  {
    "place": "Bowling Alley4a6645fcf964a52051c81fe3",
    "time": "2012-06-03"
  },
  {
    "place": "Gas Station / Garage4bdba4b32a3a0f479e3fb0b6",
    "time": "2012-06-05"
  },
  {
    "place": "Community College4afb4334f964a520791c22e3",
    "time": "2012-06-05"
  },
  {
    "place": "Community College4afb4334f964a520791c22e3",
    "time": "2012-06-06"
  },
  {
    "place": "Home (private)4eb9f83ccc21a9a7a1b2c579",
    "time": "2012-06-06"
  },
  {
    "place": "Mall4b5175f7f964a520bc4d27e3",
    "time": "2012-06-07"
  },
  {
    "place": "Department Store4a68ba97f964a520e1ca1fe3",
    "time": "2012-06-08"
  },
  {
    "place": "Home (private)4f48749de4b0e13229e306a7",
    "time": "2012-06-08"
  },
  {
    "place": "Road4bf81a008d30d13a4f1c0018",
    "time": "2012-06-08"
  },
  {
    "place": "Community College4afb4334f964a520791c22e3",
    "time": "2012-06-13"
  },
  {
    "place": "Home (private)4eb9f83ccc21a9a7a1b2c579",
    "time": "2012-06-14"
  },
  {
    "place": "Community College4afb4334f964a520791c22e3",
    "time": "2012-06-18"
  },
  {
    "place": "Other Great Outdoors4f8c5995e4b00597a0fd48fe",
    "time": "2012-06-20"
  },
  {
    "place": "City4ca6923314c33704b345c13b",
    "time": "2012-06-20"
  },
  {
    "place": "Medical Center4fe229a2e4b0b93c90c5161d",
    "time": "2012-06-20"
  },
  {
    "place": "Community College4afb4334f964a520791c22e3",
    "time": "2012-06-21"
  },
  {
    "place": "Student Center4c922cde7f3b8cfadacca21e",
    "time": "2012-06-21"
  },
  {
    "place": "Home (private)4f48749de4b0e13229e306a7",
    "time": "2012-06-26"
  },
  {
    "place": "Caribbean Restaurant4c197d85d4d9c9281425f129",
    "time": "2012-06-26"
  },
  {
    "place": "Community College4afb4334f964a520791c22e3",
    "time": "2012-06-27"
  },
  {
    "place": "Student Center4c922cde7f3b8cfadacca21e",
    "time": "2012-06-27"
  },
  {
    "place": "Home (private)4eb9f83ccc21a9a7a1b2c579",
    "time": "2012-06-30"
  },
  {
    "place": "Chinese Restaurant4b5b7472f964a5204aff28e3",
    "time": "2012-07-04"
  },
  {
    "place": "Home (private)4eb9f83ccc21a9a7a1b2c579",
    "time": "2012-07-05"
  },
  {
    "place": "Office4ec7c0f5722e143796a232c3",
    "time": "2012-07-07"
  },
  {
    "place": "Office4ec7c0f5722e143796a232c3",
    "time": "2012-07-08"
  },
  {
    "place": "Home (private)4eb9f83ccc21a9a7a1b2c579",
    "time": "2012-07-14"
  },
  {
    "place": "Caf\u00c3\u00a94c029587f56c2d7ff3981b66",
    "time": "2012-07-22"
  },
  {
    "place": "Office4ec7c0f5722e143796a232c3",
    "time": "2012-07-22"
  },
  {
    "place": "Home (private)4eb9f83ccc21a9a7a1b2c579",
    "time": "2012-07-26"
  },
  {
    "place": "Movie Theater4b1158fdf964a520b07a23e3",
    "time": "2012-07-28"
  },
  {
    "place": "Mexican Restaurant49e37784f964a52083621fe3",
    "time": "2012-07-29"
  },
  {
    "place": "Home (private)50115c25e4b0073bcf08a4f2",
    "time": "2012-07-29"
  },
  {
    "place": "Fast Food Restaurant4b8ba85af964a520e2a532e3",
    "time": "2012-07-30"
  },
  {
    "place": "Office4ec7c0f5722e143796a232c3",
    "time": "2012-08-05"
  },
  {
    "place": "American Restaurant4b8bb4cff964a520c2a732e3",
    "time": "2012-08-05"
  },
  {
    "place": "Automotive Shop4e4ed48fae6051db8dc381ce",
    "time": "2012-08-09"
  },
  {
    "place": "Home (private)50115c25e4b0073bcf08a4f2",
    "time": "2012-08-09"
  },
  {
    "place": "Bank4c5227e77f6e20a1afd33deb",
    "time": "2012-08-09"
  },
  {
    "place": "Residential Building (Apartment / Condo)4de02100d4c040523e9ce093",
    "time": "2012-08-09"
  },
  {
    "place": "Bank4c01224bcf3aa5932e7cccb0",
    "time": "2012-08-09"
  },
  {
    "place": "Home (private)4f66375be4b06b3089f12351",
    "time": "2012-08-10"
  },
  {
    "place": "Department Store4a6f8c85f964a52079d61fe3",
    "time": "2012-08-10"
  },
  {
    "place": "Gym / Fitness Center4d56bce5e7f1a1cda66d0aa5",
    "time": "2012-08-11"
  },
  {
    "place": "Road4bd75fc3e914a593a11751fa",
    "time": "2012-08-11"
  },
  {
    "place": "Department Store4ba174b3f964a52082b837e3",
    "time": "2012-08-11"
  },
  {
    "place": "Home (private)4eb9f83ccc21a9a7a1b2c579",
    "time": "2012-08-11"
  },
  {
    "place": "Home (private)4fe7a0bce4b04318c491d952",
    "time": "2012-08-11"
  },
  {
    "place": "Stadium5013ce50e4b02c1e0bf6f7ba",
    "time": "2012-08-12"
  },
  {
    "place": "Other Great Outdoors4f774755e4b08e5a677ec021",
    "time": "2012-08-12"
  },
  {
    "place": "Home (private)50115c25e4b0073bcf08a4f2",
    "time": "2012-08-13"
  },
  {
    "place": "Home (private)4eb9f83ccc21a9a7a1b2c579",
    "time": "2012-08-14"
  },
  {
    "place": "Airport4ace6c89f964a52078d020e3",
    "time": "2012-08-14"
  },
  {
    "place": "Airport4ef3bb232c5b6efc365a98df",
    "time": "2012-08-14"
  },
  {
    "place": "Airport4c1b6ddd63750f47a0cdb467",
    "time": "2012-08-14"
  },
  {
    "place": "Gym / Fitness Center4d56bce5e7f1a1cda66d0aa5",
    "time": "2012-09-05"
  },
  {
    "place": "Home (private)50115c25e4b0073bcf08a4f2",
    "time": "2012-09-05"
  },
  {
    "place": "Home (private)4f39c3a7e4b0b6d3bb20411d",
    "time": "2012-09-09"
  },
  {
    "place": "Park4bc3722a2a89ef3bd709f588",
    "time": "2012-09-09"
  },
  {
    "place": "Home (private)50115c25e4b0073bcf08a4f2",
    "time": "2012-09-14"
  },
  {
    "place": "Medical Center4ce430aa05f7a0938d78a428",
    "time": "2012-09-14"
  },
  {
    "place": "Home (private)4eb9f83ccc21a9a7a1b2c579",
    "time": "2012-09-16"
  },
  {
    "place": "Medical Center4c863e27d4e23704483a8988",
    "time": "2012-10-03"
  },
  {
    "place": "Automotive Shop4d8bc7fd4037b1f7b803cc5b",
    "time": "2012-10-12"
  },
  {
    "place": "Deli / Bodega4c41ead2d7fad13a6d4208da",
    "time": "2012-10-12"
  },
  {
    "place": "Fast Food Restaurant4c1ce10cfcf8c9b682b7aa0b",
    "time": "2012-10-12"
  },
  {
    "place": "Food & Drink Shop4b51109ff964a5207c4027e3",
    "time": "2012-10-12"
  },
  {
    "place": "Office4ec7c0f5722e143796a232c3",
    "time": "2012-10-13"
  },
  {
    "place": "Home (private)50115c25e4b0073bcf08a4f2",
    "time": "2012-10-16"
  },
  {
    "place": "Pet Store4a6f8cd1f964a5207bd61fe3",
    "time": "2012-10-18"
  },
  {
    "place": "Bank4c01224bcf3aa5932e7cccb0",
    "time": "2012-10-18"
  },
  {
    "place": "Home (private)4f66375be4b06b3089f12351",
    "time": "2012-10-18"
  },
  {
    "place": "Home (private)50115c25e4b0073bcf08a4f2",
    "time": "2012-10-19"
  },
  {
    "place": "Mall4d0e3c095c46a093159e12b4",
    "time": "2012-10-22"
  },
  {
    "place": "Clothing Store4f456488e4b07a6328d938d7",
    "time": "2012-10-22"
  },
  {
    "place": "Plaza4e0b79a818a86d2caa7b8886",
    "time": "2012-10-22"
  },
  {
    "place": "City4b857b2ff964a520b66031e3",
    "time": "2012-10-22"
  },
  {
    "place": "Bank4ba4c16bf964a52031b238e3",
    "time": "2012-10-22"
  },
  {
    "place": "Food & Drink Shop4b9bf681f964a520183b36e3",
    "time": "2012-10-23"
  },
  {
    "place": "Coffee Shop4be96b1ed837c9b6bc61a606",
    "time": "2012-10-24"
  },
  {
    "place": "Medical Center4fe229a2e4b0b93c90c5161d",
    "time": "2012-10-24"
  },
  {
    "place": "Spanish Restaurant4c6322f979d1e21e2fe0d715",
    "time": "2012-10-24"
  },
  {
    "place": "Office4ec7c0f5722e143796a232c3",
    "time": "2012-10-27"
  },
  {
    "place": "Office4ec7c0f5722e143796a232c3",
    "time": "2012-10-28"
  },
  {
    "place": "Other Great Outdoors508af9ccf13627e878935855",
    "time": "2012-10-28"
  },
  {
    "place": "Home (private)50115c25e4b0073bcf08a4f2",
    "time": "2012-10-30"
  },
  {
    "place": "Other Great Outdoors508af9ccf13627e878935855",
    "time": "2012-10-30"
  },
  {
    "place": "Cemetery5090bc9be4b063c640ba5333",
    "time": "2012-11-01"
  },
  {
    "place": "Other Great Outdoors509127eae4b031cde225972e",
    "time": "2012-11-01"
  },
  {
    "place": "American Restaurant4b8bb4cff964a520c2a732e3",
    "time": "2012-11-01"
  },
  {
    "place": "Home (private)50115c25e4b0073bcf08a4f2",
    "time": "2012-11-01"
  },
  {
    "place": "Food & Drink Shop4b9bf681f964a520183b36e3",
    "time": "2012-11-06"
  },
  {
    "place": "Cuban Restaurant4bad5084f964a52046453be3",
    "time": "2012-11-06"
  },
  {
    "place": "Deli / Bodega4c41ead2d7fad13a6d4208da",
    "time": "2012-11-06"
  },
  {
    "place": "Home (private)4eb9f83ccc21a9a7a1b2c579",
    "time": "2012-11-06"
  },
  {
    "place": "Home (private)4eb9f83ccc21a9a7a1b2c579",
    "time": "2012-11-07"
  },
  {
    "place": "Other Great Outdoors50988e54e4b0fd23874c1700",
    "time": "2012-11-07"
  },
  {
    "place": "Home (private)4eb9f83ccc21a9a7a1b2c579",
    "time": "2012-11-07"
  },
  {
    "place": "Toy / Game Store4b5b5fd7f964a520cff828e3",
    "time": "2012-11-09"
  },
  {
    "place": "Cosmetics Shop4dde81bcc65bb2aa7391c44e",
    "time": "2012-11-09"
  },
  {
    "place": "Home (private)50115c25e4b0073bcf08a4f2",
    "time": "2012-11-09"
  },
  {
    "place": "Drugstore / Pharmacy4c7d6e3db33a224ba00cd881",
    "time": "2012-11-10"
  },
  {
    "place": "American Restaurant4b8bb4cff964a520c2a732e3",
    "time": "2012-11-10"
  },
  {
    "place": "Mexican Restaurant4be498c7d4f7c9b6ed622420",
    "time": "2012-11-11"
  },
  {
    "place": "Office4ec7c0f5722e143796a232c3",
    "time": "2012-11-11"
  },
  {
    "place": "Home (private)4eb9f83ccc21a9a7a1b2c579",
    "time": "2012-11-12"
  },
  {
    "place": "Food & Drink Shop4b9bf681f964a520183b36e3",
    "time": "2012-11-12"
  },
  {
    "place": "Food & Drink Shop4b9bf681f964a520183b36e3",
    "time": "2012-11-12"
  },
  {
    "place": "Government Building509faf2ee4b00adc5ee9dfe3",
    "time": "2012-11-12"
  },
  {
    "place": "Gas Station / Garage4c38d2aaae2da593a56b01c6",
    "time": "2012-11-13"
  },
  {
    "place": "Department Store4b5b389ff964a5203fec28e3",
    "time": "2012-11-13"
  },
  {
    "place": "Car Dealership4b801b58f964a520d35230e3",
    "time": "2012-11-13"
  },
  {
    "place": "Office4efc84960aafc5869500d5fb",
    "time": "2012-11-16"
  },
  {
    "place": "Home (private)505894f4e4b05e2ded78cde4",
    "time": "2012-11-16"
  },
  {
    "place": "Deli / Bodega4d9251c75cf5236a9c054ba3",
    "time": "2012-11-16"
  },
  {
    "place": "Moving Target50709668e4b0ccacdb98f8e3",
    "time": "2012-11-16"
  },
  {
    "place": "Australian Restaurant4efe1557a69d45461bf59d1a",
    "time": "2012-11-16"
  },
  {
    "place": "Home (private)50115c25e4b0073bcf08a4f2",
    "time": "2012-11-18"
  },
  {
    "place": "Mall4c019b75716bc9b69c2fbc55",
    "time": "2012-11-20"
  },
  {
    "place": "Jewelry Store50888372e4b0b49d90d0037f",
    "time": "2012-11-20"
  },
  {
    "place": "Food & Drink Shop4bb3db7d42959c743b8d222c",
    "time": "2012-11-20"
  },
  {
    "place": "City4ca6923314c33704b345c13b",
    "time": "2012-11-20"
  },
  {
    "place": "Automotive Shop4e4ed48fae6051db8dc381ce",
    "time": "2012-11-21"
  },
  {
    "place": "Clothing Store4bbfabcab492d13a3613a360",
    "time": "2012-11-21"
  },
  {
    "place": "Mall50aeffd9e4b08847da5bcb9b",
    "time": "2012-11-23"
  },
  {
    "place": "Gas Station / Garage4c38d2aaae2da593a56b01c6",
    "time": "2012-11-24"
  },
  {
    "place": "Latin American Restaurant4bbb79e48a0d9521d366d930",
    "time": "2012-11-24"
  },
  {
    "place": "American Restaurant4b8bb4cff964a520c2a732e3",
    "time": "2012-11-24"
  },
  {
    "place": "Gas Station / Garage4c38d2aaae2da593a56b01c6",
    "time": "2012-11-25"
  },
  {
    "place": "Moving Target50709668e4b0ccacdb98f8e3",
    "time": "2012-11-25"
  },
  {
    "place": "Car Dealership4b801b58f964a520d35230e3",
    "time": "2012-11-25"
  },
  {
    "place": "Car Dealership4b801b58f964a520d35230e3",
    "time": "2012-11-27"
  },
  {
    "place": "Department Store4a6f8c85f964a52079d61fe3",
    "time": "2012-11-27"
  },
  {
    "place": "Home (private)50115c25e4b0073bcf08a4f2",
    "time": "2012-11-28"
  },
  {
    "place": "Medical Center4fe229a2e4b0b93c90c5161d",
    "time": "2012-11-28"
  },
  {
    "place": "Drugstore / Pharmacy4c13cc54a1010f47ca454b18",
    "time": "2012-11-28"
  },
  {
    "place": "Department Store4b6b0a71f964a520b1ee2be3",
    "time": "2012-11-29"
  },
  {
    "place": "Clothing Store4eb8767a991165b763abc463",
    "time": "2012-11-29"
  },
  {
    "place": "Bank4c01224bcf3aa5932e7cccb0",
    "time": "2012-11-30"
  },
  {
    "place": "Salon / Barbershop4c1d2aaa63750f4762cdb767",
    "time": "2012-11-30"
  },
  {
    "place": "Gift Shop4b916c72f964a5205abb33e3",
    "time": "2012-12-01"
  },
  {
    "place": "Jewelry Store50888372e4b0b49d90d0037f",
    "time": "2012-12-01"
  },
  {
    "place": "Home (private)4f48749de4b0e13229e306a7",
    "time": "2012-12-01"
  },
  {
    "place": "American Restaurant4b8bb4cff964a520c2a732e3",
    "time": "2012-12-01"
  },
  {
    "place": "Bank4c01224bcf3aa5932e7cccb0",
    "time": "2012-12-02"
  },
  {
    "place": "Food & Drink Shop4b9bf681f964a520183b36e3",
    "time": "2012-12-04"
  },
  {
    "place": "Department Store4a6f8c85f964a52079d61fe3",
    "time": "2012-12-05"
  },
  {
    "place": "Jewelry Store50888372e4b0b49d90d0037f",
    "time": "2012-12-06"
  },
  {
    "place": "Food & Drink Shop4b9bf681f964a520183b36e3",
    "time": "2012-12-06"
  },
  {
    "place": "Mall49e4ec34f964a5206e631fe3",
    "time": "2012-12-07"
  },
  {
    "place": "Clothing Store4eb8767a991165b763abc463",
    "time": "2012-12-07"
  },
  {
    "place": "Car Dealership4b801b58f964a520d35230e3",
    "time": "2012-12-07"
  },
  {
    "place": "Fast Food Restaurant4b81f8ddf964a52006c630e3",
    "time": "2012-12-07"
  },
  {
    "place": "American Restaurant4b8bb4cff964a520c2a732e3",
    "time": "2012-12-08"
  },
  {
    "place": "Office4ec7c0f5722e143796a232c3",
    "time": "2012-12-08"
  },
  {
    "place": "Food & Drink Shop4b9bf681f964a520183b36e3",
    "time": "2012-12-10"
  },
  {
    "place": "Food & Drink Shop4b9bf681f964a520183b36e3",
    "time": "2012-12-10"
  },
  {
    "place": "Bakery4bd3b00a9854d13a247afe4d",
    "time": "2012-12-12"
  },
  {
    "place": "Home (private)50115c25e4b0073bcf08a4f2",
    "time": "2012-12-12"
  },
  {
    "place": "Road4fa2a1dae4b0e8e3875c7354",
    "time": "2012-12-12"
  },
  {
    "place": "Medical Center4dff5ee9628421556008a305",
    "time": "2012-12-12"
  },
  {
    "place": "Home (private)50115c25e4b0073bcf08a4f2",
    "time": "2012-12-14"
  },
  {
    "place": "Home (private)4eb9f83ccc21a9a7a1b2c579",
    "time": "2012-12-14"
  },
  {
    "place": "Medical Center4b9e3d22f964a5203bd436e3",
    "time": "2012-12-15"
  },
  {
    "place": "American Restaurant4b8bb4cff964a520c2a732e3",
    "time": "2012-12-15"
  },
  {
    "place": "Medical Center4f9ec585e4b065054df4260b",
    "time": "2012-12-17"
  },
  {
    "place": "Medical Center4b9e3d22f964a5203bd436e3",
    "time": "2012-12-19"
  },
  {
    "place": "Department Store4ba4c27df964a5200eb338e3",
    "time": "2012-12-22"
  },
  {
    "place": "Medical Center4b5dc610f964a520ea6a29e3",
    "time": "2012-12-22"
  },
  {
    "place": "Toy / Game Store4b5b5fd7f964a520cff828e3",
    "time": "2012-12-28"
  },
  {
    "place": "Department Store4a6f8c85f964a52079d61fe3",
    "time": "2012-12-28"
  },
  {
    "place": "Home (private)4f48749de4b0e13229e306a7",
    "time": "2012-12-30"
  },
  {
    "place": "Chinese Restaurant4bc21299f8219c743c38b410",
    "time": "2012-12-30"
  },
  {
    "place": "Home (private)4f48749de4b0e13229e306a7",
    "time": "2013-01-01"
  },
  {
    "place": "Home (private)50115c25e4b0073bcf08a4f2",
    "time": "2013-01-01"
  },
  {
    "place": "Other Great Outdoors50dff1a7e4b0a36649c8402e",
    "time": "2013-01-01"
  },
  {
    "place": "Moving Target50e29bbde4b0748c88139fc5",
    "time": "2013-01-01"
  },
  {
    "place": "Food & Drink Shop4bb3db7d42959c743b8d222c",
    "time": "2013-01-08"
  },
  {
    "place": "Bowling Alley4b37a946f964a520d44325e3",
    "time": "2013-01-10"
  },
  {
    "place": "American Restaurant4b934941f964a5209c3e34e3",
    "time": "2013-01-11"
  },
  {
    "place": "Fast Food Restaurant4f2b1d1de4b016757646b1da",
    "time": "2013-01-12"
  },
  {
    "place": "Pizza Place4b589d3bf964a5205d6128e3",
    "time": "2013-01-12"
  },
  {
    "place": "Medical Center4dff5ee9628421556008a305",
    "time": "2013-01-18"
  },
  {
    "place": "Deli / Bodega4f7a5e74e4b054bfe3fbb811",
    "time": "2013-01-24"
  },
  {
    "place": "Food & Drink Shop4b9bf681f964a520183b36e3",
    "time": "2013-01-25"
  },
  {
    "place": "Department Store4a6f8c85f964a52079d61fe3",
    "time": "2013-01-25"
  },
  {
    "place": "Drugstore / Pharmacy4c7d6e3db33a224ba00cd881",
    "time": "2013-01-28"
  },
  {
    "place": "Home (private)50115c25e4b0073bcf08a4f2",
    "time": "2013-01-28"
  },
  {
    "place": "American Restaurant4b8bb4cff964a520c2a732e3",
    "time": "2013-01-29"
  },
  {
    "place": "Medical Center4fe229a2e4b0b93c90c5161d",
    "time": "2013-01-30"
  },
  {
    "place": "Post Office4c5049e5371520a10dfc10c1",
    "time": "2013-01-30"
  },
  {
    "place": "Library4e7f73a0e5fab4431fa1cf5f",
    "time": "2013-01-30"
  },
  {
    "place": "Home (private)505894f4e4b05e2ded78cde4",
    "time": "2013-01-31"
  },
  {
    "place": "Gym / Fitness Center4d56bce5e7f1a1cda66d0aa5",
    "time": "2013-02-01"
  },
  {
    "place": "Bowling Alley4a6645fcf964a52051c81fe3",
    "time": "2013-02-03"
  },
  {
    "place": "Office4ec7c0f5722e143796a232c3",
    "time": "2013-02-03"
  },
  {
    "place": "Food & Drink Shop4bb3db7d42959c743b8d222c",
    "time": "2013-02-06"
  },
  {
    "place": "Fast Food Restaurant4c3103d1a0ced13aed07136e",
    "time": "2013-02-07"
  },
  {
    "place": "Fast Food Restaurant4b8b2a30f964a520ba9532e3",
    "time": "2013-02-10"
  },
  {
    "place": "Pizza Place4b589d3bf964a5205d6128e3",
    "time": "2013-02-12"
  },
  {
    "place": "Gym / Fitness Center4d56bce5e7f1a1cda66d0aa5",
    "time": "2013-02-12"
  },
  {
    "place": "Home (private)50115c25e4b0073bcf08a4f2",
    "time": "2013-02-13"
  }
]