[
  {
    "place": "Caf\u00c3\u00a94a78449bf964a52056e51fe3",
    "time": "2012-04-04"
  },
  {
    "place": "Office4b9d5e2af964a52046a736e3",
    "time": "2012-04-04"
  },
  {
    "place": "Bank4bd7c5c10b779c7499f105a0",
    "time": "2012-04-04"
  },
  {
    "place": "Chinese Restaurant4b0c24a8f964a520b43723e3",
    "time": "2012-04-04"
  },
  {
    "place": "Office4b9d5e2af964a52046a736e3",
    "time": "2012-04-04"
  },
  {
    "place": "Caf\u00c3\u00a94a78449bf964a52056e51fe3",
    "time": "2012-04-05"
  },
  {
    "place": "Coffee Shop4abe60d8f964a520198d20e3",
    "time": "2012-04-06"
  },
  {
    "place": "Theater44fd757df964a52092381fe3",
    "time": "2012-04-06"
  },
  {
    "place": "Movie Theater439ab2a9f964a520d12b1fe3",
    "time": "2012-04-08"
  },
  {
    "place": "Caf\u00c3\u00a94a78449bf964a52056e51fe3",
    "time": "2012-04-12"
  },
  {
    "place": "Caf\u00c3\u00a94a78449bf964a52056e51fe3",
    "time": "2012-04-13"
  },
  {
    "place": "Office4b9d5e2af964a52046a736e3",
    "time": "2012-04-13"
  },
  {
    "place": "Tea Room4e5fa29d81dce8f25b12f113",
    "time": "2012-04-13"
  },
  {
    "place": "College Academic Building4b72be65f964a52072862de3",
    "time": "2012-04-13"
  },
  {
    "place": "College Academic Building456ebbbff964a520163e1fe3",
    "time": "2012-04-13"
  },
  {
    "place": "Music Venue3fd66200f964a520dbe31ee3",
    "time": "2012-04-15"
  },
  {
    "place": "Bar480f35eef964a520294f1fe3",
    "time": "2012-04-15"
  },
  {
    "place": "Caf\u00c3\u00a94a78449bf964a52056e51fe3",
    "time": "2012-04-16"
  },
  {
    "place": "Office4b9d5e2af964a52046a736e3",
    "time": "2012-04-16"
  },
  {
    "place": "Sandwich Place4d6aa6c6a27f236a724c9566",
    "time": "2012-04-16"
  },
  {
    "place": "Office4b9d5e2af964a52046a736e3",
    "time": "2012-04-16"
  },
  {
    "place": "Student Center4f1d92b8e4b0d79044d54c48",
    "time": "2012-04-16"
  },
  {
    "place": "Caf\u00c3\u00a94a78449bf964a52056e51fe3",
    "time": "2012-04-17"
  },
  {
    "place": "Office4b9d5e2af964a52046a736e3",
    "time": "2012-04-17"
  },
  {
    "place": "Mexican Restaurant4ab3da04f964a520c36e20e3",
    "time": "2012-04-17"
  },
  {
    "place": "College Academic Building4b72be65f964a52072862de3",
    "time": "2012-04-17"
  },
  {
    "place": "College Academic Building4e1e112b7d8bb28421039cec",
    "time": "2012-04-17"
  },
  {
    "place": "Office4b9d5e2af964a52046a736e3",
    "time": "2012-04-18"
  },
  {
    "place": "Deli / Bodega4b1d6ec5f964a520781024e3",
    "time": "2012-04-19"
  },
  {
    "place": "Sandwich Place4a01c9dbf964a520fe701fe3",
    "time": "2012-04-20"
  },
  {
    "place": "Sushi Restaurant43f301c8f964a520942f1fe3",
    "time": "2012-04-21"
  },
  {
    "place": "Sandwich Place4a01c9dbf964a520fe701fe3",
    "time": "2012-04-22"
  },
  {
    "place": "Theater4cd1a2f86449a0939644d1cf",
    "time": "2012-04-25"
  },
  {
    "place": "Pizza Place4cdac2d7a1bba35d21a090e5",
    "time": "2012-04-26"
  },
  {
    "place": "Caf\u00c3\u00a94a78449bf964a52056e51fe3",
    "time": "2012-04-26"
  },
  {
    "place": "Office4b9d5e2af964a52046a736e3",
    "time": "2012-04-26"
  },
  {
    "place": "Coffee Shop4bc9ee9468f976b0032a5e83",
    "time": "2012-05-01"
  },
  {
    "place": "General Entertainment4c1bb9b5b306c928a4ad62b7",
    "time": "2012-05-01"
  },
  {
    "place": "Drugstore / Pharmacy4bfd356783bbd13a73f162c5",
    "time": "2012-05-01"
  },
  {
    "place": "Caf\u00c3\u00a94a78449bf964a52056e51fe3",
    "time": "2012-05-03"
  },
  {
    "place": "Coffee Shop4af281eaf964a520d2e721e3",
    "time": "2012-05-05"
  },
  {
    "place": "Bar4bbf6580ba9776b0bf0bffc8",
    "time": "2012-05-10"
  },
  {
    "place": "Bar4c59f2a3f346c928a7e04dca",
    "time": "2012-05-11"
  },
  {
    "place": "Salon / Barbershop4a89e5b2f964a520490920e3",
    "time": "2012-05-12"
  },
  {
    "place": "Plaza4bcbab93cc8cd13af2ecbfcf",
    "time": "2012-05-13"
  },
  {
    "place": "Sandwich Place4a01c9dbf964a520fe701fe3",
    "time": "2012-05-15"
  },
  {
    "place": "Beer Garden4a7dff4df964a52091f01fe3",
    "time": "2012-05-15"
  },
  {
    "place": "Food & Drink Shop4c5ef77bfff99c74eda954d3",
    "time": "2012-05-16"
  },
  {
    "place": "Mediterranean Restaurant47c65c85f964a520ef4d1fe3",
    "time": "2012-05-16"
  },
  {
    "place": "Sandwich Place4a01c9dbf964a520fe701fe3",
    "time": "2012-06-03"
  },
  {
    "place": "Park49cea4dff964a5206a5a1fe3",
    "time": "2012-06-03"
  },
  {
    "place": "Caf\u00c3\u00a94a78449bf964a52056e51fe3",
    "time": "2012-06-05"
  },
  {
    "place": "Office4b9d5e2af964a52046a736e3",
    "time": "2012-06-05"
  },
  {
    "place": "Office4b9d5e2af964a52046a736e3",
    "time": "2012-06-08"
  },
  {
    "place": "Sporting Goods Shop4c0275f7f423a593e4c4ce16",
    "time": "2012-06-09"
  },
  {
    "place": "Coffee Shop4a32b4ecf964a520819a1fe3",
    "time": "2012-06-09"
  },
  {
    "place": "Art Gallery4a887bc4f964a5209d0620e3",
    "time": "2012-06-09"
  },
  {
    "place": "Bar4ee40e906d868c055061c7b5",
    "time": "2012-06-09"
  },
  {
    "place": "Ferry4c8bf1cbed3ab60c95236321",
    "time": "2012-06-10"
  },
  {
    "place": "Other Great Outdoors44b7acf4f964a52073351fe3",
    "time": "2012-06-10"
  },
  {
    "place": "Laundry Service4b4b6b9af964a520f19a26e3",
    "time": "2012-06-10"
  },
  {
    "place": "Dim Sum Restaurant4f1a20a3e4b0838230c1b3cc",
    "time": "2012-06-10"
  },
  {
    "place": "Caf\u00c3\u00a94a78449bf964a52056e51fe3",
    "time": "2012-06-11"
  },
  {
    "place": "Office4b9d5e2af964a52046a736e3",
    "time": "2012-06-11"
  },
  {
    "place": "Food & Drink Shop4ad15206f964a52004de20e3",
    "time": "2012-06-11"
  },
  {
    "place": "Caf\u00c3\u00a94a78449bf964a52056e51fe3",
    "time": "2012-06-12"
  },
  {
    "place": "Office4b9d5e2af964a52046a736e3",
    "time": "2012-06-12"
  },
  {
    "place": "Food & Drink Shop49dbf75ef964a5202f5f1fe3",
    "time": "2012-06-13"
  },
  {
    "place": "Office4b9d5e2af964a52046a736e3",
    "time": "2012-06-13"
  },
  {
    "place": "Beer Garden4fdbae03e4b0f61a0a6481a8",
    "time": "2012-06-16"
  },
  {
    "place": "Caf\u00c3\u00a94a78449bf964a52056e51fe3",
    "time": "2012-06-18"
  },
  {
    "place": "Office4b9d5e2af964a52046a736e3",
    "time": "2012-06-18"
  },
  {
    "place": "Caf\u00c3\u00a94a78449bf964a52056e51fe3",
    "time": "2012-06-27"
  },
  {
    "place": "Bar4a0b79cff964a520fc741fe3",
    "time": "2012-07-01"
  },
  {
    "place": "Office4b9d5e2af964a52046a736e3",
    "time": "2012-07-03"
  },
  {
    "place": "Caf\u00c3\u00a94a78449bf964a52056e51fe3",
    "time": "2012-07-03"
  },
  {
    "place": "Sandwich Place4f9c1bd6e4b0609168999c3b",
    "time": "2012-07-04"
  },
  {
    "place": "Coffee Shop4a26e7b6f964a520eb7e1fe3",
    "time": "2012-07-04"
  },
  {
    "place": "Other Great Outdoors4ff4271ae4b0b8fda8c37cc8",
    "time": "2012-07-05"
  },
  {
    "place": "Office4b9d5e2af964a52046a736e3",
    "time": "2012-07-05"
  },
  {
    "place": "Food & Drink Shop4a972c93f964a520d12820e3",
    "time": "2012-07-05"
  },
  {
    "place": "Other Great Outdoors4c0bcb9d6071a59335bbe132",
    "time": "2012-07-05"
  },
  {
    "place": "Pet Store4a37a27df964a5204e9e1fe3",
    "time": "2012-07-05"
  },
  {
    "place": "Movie Theater439ab2a9f964a520d12b1fe3",
    "time": "2012-07-06"
  },
  {
    "place": "Park49cea4dff964a5206a5a1fe3",
    "time": "2012-07-07"
  },
  {
    "place": "Other Great Outdoors4c0bcb9d6071a59335bbe132",
    "time": "2012-07-07"
  },
  {
    "place": "Breakfast Spot3fd66200f964a52036ea1ee3",
    "time": "2012-07-08"
  },
  {
    "place": "Drugstore / Pharmacy4bfd356783bbd13a73f162c5",
    "time": "2012-07-08"
  },
  {
    "place": "Dim Sum Restaurant4f1a20a3e4b0838230c1b3cc",
    "time": "2012-07-09"
  },
  {
    "place": "Office4b9d5e2af964a52046a736e3",
    "time": "2012-07-09"
  },
  {
    "place": "Athletic & Sport4bddb6116198c9b66d5c11ff",
    "time": "2012-07-10"
  },
  {
    "place": "Caf\u00c3\u00a94a78449bf964a52056e51fe3",
    "time": "2012-07-11"
  },
  {
    "place": "Office4b9d5e2af964a52046a736e3",
    "time": "2012-07-11"
  },
  {
    "place": "Caf\u00c3\u00a94a78449bf964a52056e51fe3",
    "time": "2012-07-12"
  },
  {
    "place": "Office4b9d5e2af964a52046a736e3",
    "time": "2012-07-12"
  },
  {
    "place": "Bank4bd7c5c10b779c7499f105a0",
    "time": "2012-07-13"
  },
  {
    "place": "Office4b9d5e2af964a52046a736e3",
    "time": "2012-07-13"
  },
  {
    "place": "Movie Theater439ab2a9f964a520d12b1fe3",
    "time": "2012-07-13"
  },
  {
    "place": "Fried Chicken Joint4b9ec1b5f964a5205dff36e3",
    "time": "2012-07-13"
  },
  {
    "place": "Sandwich Place4f9c1bd6e4b0609168999c3b",
    "time": "2012-07-15"
  },
  {
    "place": "Caf\u00c3\u00a94a78449bf964a52056e51fe3",
    "time": "2012-07-16"
  },
  {
    "place": "Office4b9d5e2af964a52046a736e3",
    "time": "2012-07-16"
  },
  {
    "place": "Caf\u00c3\u00a94a78449bf964a52056e51fe3",
    "time": "2012-07-17"
  },
  {
    "place": "Office4b9d5e2af964a52046a736e3",
    "time": "2012-07-17"
  },
  {
    "place": "Caf\u00c3\u00a94a78449bf964a52056e51fe3",
    "time": "2012-07-18"
  },
  {
    "place": "Bagel Shop49d61529f964a520ab5c1fe3",
    "time": "2012-07-18"
  },
  {
    "place": "Office4b9d5e2af964a52046a736e3",
    "time": "2012-07-18"
  },
  {
    "place": "Caf\u00c3\u00a94a78449bf964a52056e51fe3",
    "time": "2012-07-20"
  },
  {
    "place": "Office4b9d5e2af964a52046a736e3",
    "time": "2012-07-20"
  },
  {
    "place": "Caf\u00c3\u00a94a78449bf964a52056e51fe3",
    "time": "2012-07-24"
  },
  {
    "place": "Office4b9d5e2af964a52046a736e3",
    "time": "2012-07-24"
  },
  {
    "place": "Performing Arts Venue485e640df964a520d7501fe3",
    "time": "2012-07-28"
  },
  {
    "place": "Sandwich Place4a01c9dbf964a520fe701fe3",
    "time": "2012-07-28"
  },
  {
    "place": "Office4b9d5e2af964a52046a736e3",
    "time": "2012-07-30"
  },
  {
    "place": "Gift Shop4dab3f1d5da3ba8a479d3c79",
    "time": "2012-09-15"
  },
  {
    "place": "Bakery4e5d3c65fa76a4cf14909328",
    "time": "2012-09-15"
  },
  {
    "place": "American Restaurant42474900f964a52081201fe3",
    "time": "2012-09-15"
  },
  {
    "place": "Theater4cd1a2f86449a0939644d1cf",
    "time": "2012-09-15"
  }
]