[
  {
    "place": "College Academic Building4bc5c26e5935c9b6984ca6d2",
    "time": "2012-04-04"
  },
  {
    "place": "College Academic Building4cc998bdd063a143dbf00eb4",
    "time": "2012-04-04"
  },
  {
    "place": "College Academic Building4cb4ad0f07bab713fa9d50cc",
    "time": "2012-04-04"
  },
  {
    "place": "College Academic Building4bc5b04b41cb76b0a1a03e6f",
    "time": "2012-04-04"
  },
  {
    "place": "Gym / Fitness Center4a553eadf964a520ebb31fe3",
    "time": "2012-04-07"
  },
  {
    "place": "Home (private)4d1a880b1683a14310747551",
    "time": "2012-04-08"
  },
  {
    "place": "General Entertainment4db44994cda1c57c82583709",
    "time": "2012-04-08"
  },
  {
    "place": "College Academic Building4bc5c26e5935c9b6984ca6d2",
    "time": "2012-04-09"
  },
  {
    "place": "College Academic Building4cc998bdd063a143dbf00eb4",
    "time": "2012-04-09"
  },
  {
    "place": "College Academic Building4cb4ad0f07bab713fa9d50cc",
    "time": "2012-04-09"
  },
  {
    "place": "Fast Food Restaurant4b072e3ff964a520fff822e3",
    "time": "2012-04-09"
  },
  {
    "place": "Gym / Fitness Center4a553eadf964a520ebb31fe3",
    "time": "2012-04-09"
  },
  {
    "place": "Fast Food Restaurant4b51f650f964a520ae5d27e3",
    "time": "2012-04-11"
  },
  {
    "place": "Burger Joint4e00e4c662e12fb08938c44b",
    "time": "2012-04-12"
  },
  {
    "place": "College Academic Building4bc5c26e5935c9b6984ca6d2",
    "time": "2012-04-12"
  },
  {
    "place": "College Academic Building4cc998bdd063a143dbf00eb4",
    "time": "2012-04-12"
  },
  {
    "place": "College Academic Building4cb4ad0f07bab713fa9d50cc",
    "time": "2012-04-12"
  },
  {
    "place": "Fast Food Restaurant4b072e3ff964a520fff822e3",
    "time": "2012-04-12"
  },
  {
    "place": "Gym / Fitness Center4a553eadf964a520ebb31fe3",
    "time": "2012-04-12"
  },
  {
    "place": "Gym / Fitness Center4a553eadf964a520ebb31fe3",
    "time": "2012-04-14"
  },
  {
    "place": "Home (private)4d1a880b1683a14310747551",
    "time": "2012-04-15"
  },
  {
    "place": "Coffee Shop4b16bba6f964a520a7bc23e3",
    "time": "2012-04-16"
  },
  {
    "place": "College Academic Building4bc5c26e5935c9b6984ca6d2",
    "time": "2012-04-16"
  },
  {
    "place": "College Academic Building4cc998bdd063a143dbf00eb4",
    "time": "2012-04-16"
  },
  {
    "place": "College Academic Building4cb4ad0f07bab713fa9d50cc",
    "time": "2012-04-16"
  },
  {
    "place": "Fast Food Restaurant4b072e3ff964a520fff822e3",
    "time": "2012-04-16"
  },
  {
    "place": "Gym / Fitness Center4a553eadf964a520ebb31fe3",
    "time": "2012-04-16"
  },
  {
    "place": "College Academic Building4bc5c26e5935c9b6984ca6d2",
    "time": "2012-04-17"
  },
  {
    "place": "College Academic Building4cc998bdd063a143dbf00eb4",
    "time": "2012-04-17"
  },
  {
    "place": "College Academic Building4cb4ad0f07bab713fa9d50cc",
    "time": "2012-04-17"
  },
  {
    "place": "College Academic Building4bc5b04b41cb76b0a1a03e6f",
    "time": "2012-04-17"
  },
  {
    "place": "Home (private)4d1a880b1683a14310747551",
    "time": "2012-04-17"
  },
  {
    "place": "College Academic Building4bc5c26e5935c9b6984ca6d2",
    "time": "2012-04-18"
  },
  {
    "place": "College Academic Building4cc998bdd063a143dbf00eb4",
    "time": "2012-04-18"
  },
  {
    "place": "College Academic Building4cb4ad0f07bab713fa9d50cc",
    "time": "2012-04-18"
  },
  {
    "place": "College Academic Building4bc5b04b41cb76b0a1a03e6f",
    "time": "2012-04-18"
  },
  {
    "place": "Fast Food Restaurant4b072e3ff964a520fff822e3",
    "time": "2012-04-18"
  },
  {
    "place": "Gym / Fitness Center4a553eadf964a520ebb31fe3",
    "time": "2012-04-18"
  },
  {
    "place": "Food & Drink Shop4a81c425f964a52083f71fe3",
    "time": "2012-04-18"
  },
  {
    "place": "College Academic Building4cc998bdd063a143dbf00eb4",
    "time": "2012-04-19"
  },
  {
    "place": "College Academic Building4bc5c26e5935c9b6984ca6d2",
    "time": "2012-04-19"
  },
  {
    "place": "College Academic Building4cb4ad0f07bab713fa9d50cc",
    "time": "2012-04-19"
  },
  {
    "place": "Burger Joint49c30431f964a5204e561fe3",
    "time": "2012-04-19"
  },
  {
    "place": "Other Great Outdoors4a229fa8f964a520797d1fe3",
    "time": "2012-04-20"
  },
  {
    "place": "Smoke Shop4f47ffbae4b0d637408e1382",
    "time": "2012-04-20"
  },
  {
    "place": "Smoke Shop4f47ffbae4b0d637408e1382",
    "time": "2012-04-20"
  },
  {
    "place": "Home (private)4d1a880b1683a14310747551",
    "time": "2012-04-21"
  },
  {
    "place": "Diner4ae2b5eff964a5205b8f21e3",
    "time": "2012-04-21"
  },
  {
    "place": "Gym / Fitness Center4a553eadf964a520ebb31fe3",
    "time": "2012-04-22"
  },
  {
    "place": "College Academic Building4bc5c26e5935c9b6984ca6d2",
    "time": "2012-04-23"
  },
  {
    "place": "College Academic Building4cb4ad0f07bab713fa9d50cc",
    "time": "2012-04-23"
  },
  {
    "place": "College Academic Building4b9fd7a5f964a520c94337e3",
    "time": "2012-04-23"
  },
  {
    "place": "Gym / Fitness Center4a553eadf964a520ebb31fe3",
    "time": "2012-04-23"
  },
  {
    "place": "College Academic Building4e944f845c5c9bf8ad82d492",
    "time": "2012-04-24"
  },
  {
    "place": "College Academic Building4bc5b04b41cb76b0a1a03e6f",
    "time": "2012-04-24"
  },
  {
    "place": "Other Great Outdoors4a229fa8f964a520797d1fe3",
    "time": "2012-04-24"
  },
  {
    "place": "Hot Dog Joint3fd66200f964a52074e81ee3",
    "time": "2012-04-24"
  },
  {
    "place": "Coffee Shop4b16bba6f964a520a7bc23e3",
    "time": "2012-04-25"
  },
  {
    "place": "College Academic Building4cc998bdd063a143dbf00eb4",
    "time": "2012-04-25"
  },
  {
    "place": "College Academic Building4bc5c26e5935c9b6984ca6d2",
    "time": "2012-04-25"
  },
  {
    "place": "College Academic Building4cb4ad0f07bab713fa9d50cc",
    "time": "2012-04-25"
  },
  {
    "place": "College Academic Building4e944f845c5c9bf8ad82d492",
    "time": "2012-04-25"
  },
  {
    "place": "College Academic Building4bc5b04b41cb76b0a1a03e6f",
    "time": "2012-04-25"
  },
  {
    "place": "Gym / Fitness Center4a553eadf964a520ebb31fe3",
    "time": "2012-04-25"
  },
  {
    "place": "College Academic Building4bc5c26e5935c9b6984ca6d2",
    "time": "2012-04-26"
  },
  {
    "place": "College Academic Building4cc998bdd063a143dbf00eb4",
    "time": "2012-04-26"
  },
  {
    "place": "College Academic Building4cb4ad0f07bab713fa9d50cc",
    "time": "2012-04-26"
  },
  {
    "place": "Other Great Outdoors4a229fa8f964a520797d1fe3",
    "time": "2012-04-27"
  },
  {
    "place": "Diner4ae2b5eff964a5205b8f21e3",
    "time": "2012-04-28"
  },
  {
    "place": "Other Great Outdoors4a229fa8f964a520797d1fe3",
    "time": "2012-05-01"
  },
  {
    "place": "College Academic Building4cb4ad0f07bab713fa9d50cc",
    "time": "2012-05-03"
  },
  {
    "place": "Other Great Outdoors4a229fa8f964a520797d1fe3",
    "time": "2012-05-04"
  },
  {
    "place": "Gym / Fitness Center4a553eadf964a520ebb31fe3",
    "time": "2012-05-06"
  },
  {
    "place": "College Academic Building4cb4ad0f07bab713fa9d50cc",
    "time": "2012-05-07"
  },
  {
    "place": "Gym / Fitness Center4a553eadf964a520ebb31fe3",
    "time": "2012-05-07"
  },
  {
    "place": "Hot Dog Joint3fd66200f964a52074e81ee3",
    "time": "2012-05-07"
  },
  {
    "place": "College Academic Building4cb4ad0f07bab713fa9d50cc",
    "time": "2012-05-08"
  },
  {
    "place": "Other Great Outdoors4a229fa8f964a520797d1fe3",
    "time": "2012-05-08"
  },
  {
    "place": "College Academic Building4bc5c26e5935c9b6984ca6d2",
    "time": "2012-05-09"
  },
  {
    "place": "College Academic Building4cb4ad0f07bab713fa9d50cc",
    "time": "2012-05-09"
  },
  {
    "place": "Gym / Fitness Center4a553eadf964a520ebb31fe3",
    "time": "2012-05-11"
  },
  {
    "place": "Italian Restaurant42b0c100f964a52060251fe3",
    "time": "2012-05-13"
  },
  {
    "place": "College Academic Building4cb4ad0f07bab713fa9d50cc",
    "time": "2012-05-14"
  },
  {
    "place": "Gym / Fitness Center4a553eadf964a520ebb31fe3",
    "time": "2012-05-14"
  },
  {
    "place": "Coffee Shop4b16bba6f964a520a7bc23e3",
    "time": "2012-05-15"
  },
  {
    "place": "College Academic Building4bc73ace0050b713623eb83b",
    "time": "2012-05-15"
  },
  {
    "place": "College Academic Building4bc5b04b41cb76b0a1a03e6f",
    "time": "2012-05-15"
  },
  {
    "place": "College Academic Building4cb4ad0f07bab713fa9d50cc",
    "time": "2012-05-15"
  },
  {
    "place": "College Academic Building4cb4ad0f07bab713fa9d50cc",
    "time": "2012-05-16"
  },
  {
    "place": "College Academic Building4b9fd7a5f964a520c94337e3",
    "time": "2012-05-16"
  },
  {
    "place": "College Academic Building4cb4ad0f07bab713fa9d50cc",
    "time": "2012-05-17"
  },
  {
    "place": "Gym / Fitness Center4a553eadf964a520ebb31fe3",
    "time": "2012-05-17"
  },
  {
    "place": "College Academic Building4cb4ad0f07bab713fa9d50cc",
    "time": "2012-05-21"
  },
  {
    "place": "Other Great Outdoors4a229fa8f964a520797d1fe3",
    "time": "2012-05-25"
  },
  {
    "place": "Gym / Fitness Center4a553eadf964a520ebb31fe3",
    "time": "2012-05-28"
  },
  {
    "place": "College Academic Building4cb4ad0f07bab713fa9d50cc",
    "time": "2012-05-29"
  },
  {
    "place": "College Academic Building4cb4ad0f07bab713fa9d50cc",
    "time": "2012-05-31"
  },
  {
    "place": "Other Great Outdoors4a229fa8f964a520797d1fe3",
    "time": "2012-06-01"
  },
  {
    "place": "College Academic Building4bc5b04b41cb76b0a1a03e6f",
    "time": "2012-06-06"
  },
  {
    "place": "College Academic Building4bc5b04b41cb76b0a1a03e6f",
    "time": "2012-06-07"
  },
  {
    "place": "College Academic Building4cb4ad0f07bab713fa9d50cc",
    "time": "2012-06-08"
  },
  {
    "place": "Other Great Outdoors4a229fa8f964a520797d1fe3",
    "time": "2012-06-10"
  },
  {
    "place": "College Academic Building4bc5b04b41cb76b0a1a03e6f",
    "time": "2012-06-11"
  },
  {
    "place": "College Academic Building4cb4ad0f07bab713fa9d50cc",
    "time": "2012-06-11"
  },
  {
    "place": "College Academic Building4bc5b04b41cb76b0a1a03e6f",
    "time": "2012-06-12"
  },
  {
    "place": "College Academic Building4cb4ad0f07bab713fa9d50cc",
    "time": "2012-06-12"
  },
  {
    "place": "College Academic Building4bc5b04b41cb76b0a1a03e6f",
    "time": "2012-06-13"
  },
  {
    "place": "College Academic Building4cb4ad0f07bab713fa9d50cc",
    "time": "2012-06-13"
  },
  {
    "place": "College Academic Building4bc5b04b41cb76b0a1a03e6f",
    "time": "2012-06-18"
  },
  {
    "place": "College Academic Building4e944f845c5c9bf8ad82d492",
    "time": "2012-06-18"
  },
  {
    "place": "Other Great Outdoors4a229fa8f964a520797d1fe3",
    "time": "2012-06-18"
  },
  {
    "place": "College Academic Building4e944f845c5c9bf8ad82d492",
    "time": "2012-06-21"
  },
  {
    "place": "College Academic Building4bc5b04b41cb76b0a1a03e6f",
    "time": "2012-06-21"
  },
  {
    "place": "College Academic Building4e944f845c5c9bf8ad82d492",
    "time": "2012-06-25"
  },
  {
    "place": "College Academic Building4bc5b04b41cb76b0a1a03e6f",
    "time": "2012-06-25"
  },
  {
    "place": "College Academic Building4e944f845c5c9bf8ad82d492",
    "time": "2012-06-27"
  },
  {
    "place": "College Academic Building4bc5b04b41cb76b0a1a03e6f",
    "time": "2012-06-27"
  },
  {
    "place": "Fast Food Restaurant4b17f2ecf964a5200fca23e3",
    "time": "2012-07-05"
  },
  {
    "place": "Home (private)4d1a880b1683a14310747551",
    "time": "2012-07-08"
  },
  {
    "place": "Home (private)4d1a880b1683a14310747551",
    "time": "2012-07-08"
  },
  {
    "place": "Other Great Outdoors4a229fa8f964a520797d1fe3",
    "time": "2012-07-10"
  },
  {
    "place": "Home (private)4d1a880b1683a14310747551",
    "time": "2012-07-11"
  },
  {
    "place": "College Academic Building4cb4ad0f07bab713fa9d50cc",
    "time": "2012-07-13"
  },
  {
    "place": "College Academic Building4cb4ad0f07bab713fa9d50cc",
    "time": "2012-07-16"
  },
  {
    "place": "College Academic Building4cb4ad0f07bab713fa9d50cc",
    "time": "2012-07-17"
  },
  {
    "place": "Sandwich Place4faebfa5e4b0b84e1cccb456",
    "time": "2012-08-06"
  },
  {
    "place": "Neighborhood4d668c5c838654818c8df953",
    "time": "2012-08-06"
  },
  {
    "place": "Subway4b587d2ff964a520455a28e3",
    "time": "2012-08-06"
  },
  {
    "place": "College Academic Building4cb4ad0f07bab713fa9d50cc",
    "time": "2012-08-06"
  },
  {
    "place": "Fast Food Restaurant4b072e3ff964a520fff822e3",
    "time": "2012-08-09"
  },
  {
    "place": "Subway4b587d2ff964a520455a28e3",
    "time": "2012-08-09"
  },
  {
    "place": "College Academic Building4cb4ad0f07bab713fa9d50cc",
    "time": "2012-08-09"
  },
  {
    "place": "Ramen /  Noodle House4ac553a7f964a52090b120e3",
    "time": "2012-08-09"
  },
  {
    "place": "Neighborhood4b40cf3df964a5206bbb25e3",
    "time": "2012-08-10"
  },
  {
    "place": "Department Store4a0eb511f964a520ea751fe3",
    "time": "2012-08-10"
  },
  {
    "place": "Bridge4a43bd40f964a520bfa61fe3",
    "time": "2012-08-11"
  },
  {
    "place": "Drugstore / Pharmacy4b1c321ff964a520070424e3",
    "time": "2012-08-12"
  },
  {
    "place": "Food & Drink Shop4a81c425f964a52083f71fe3",
    "time": "2012-08-12"
  },
  {
    "place": "Fast Food Restaurant4b51f650f964a520ae5d27e3",
    "time": "2012-08-12"
  },
  {
    "place": "College Academic Building4cb4ad0f07bab713fa9d50cc",
    "time": "2012-08-13"
  },
  {
    "place": "University4a6f3aa4f964a520add51fe3",
    "time": "2012-08-13"
  },
  {
    "place": "Bus Station4c726829ad69b60ce84d83b9",
    "time": "2012-08-13"
  },
  {
    "place": "Pizza Place4dd5e536b3adc64ae06d6669",
    "time": "2012-08-13"
  },
  {
    "place": "Deli / Bodega4aaae1c4f964a520da5720e3",
    "time": "2012-08-13"
  },
  {
    "place": "Home (private)4d1a880b1683a14310747551",
    "time": "2012-08-14"
  },
  {
    "place": "Neighborhood4d668c5c838654818c8df953",
    "time": "2012-08-14"
  },
  {
    "place": "Fast Food Restaurant4b072e3ff964a520fff822e3",
    "time": "2012-08-14"
  },
  {
    "place": "College Academic Building4cb4ad0f07bab713fa9d50cc",
    "time": "2012-08-14"
  },
  {
    "place": "Subway4b60d6c7f964a520bafc29e3",
    "time": "2012-08-14"
  },
  {
    "place": "Subway4b21aee7f964a5201b4024e3",
    "time": "2012-08-14"
  },
  {
    "place": "Neighborhood4c1c2ac8eac020a1872d46c2",
    "time": "2012-08-14"
  },
  {
    "place": "Deli / Bodega4aaae1c4f964a520da5720e3",
    "time": "2012-08-14"
  },
  {
    "place": "Paper / Office Supplies Store4b327c8ef964a520df0c25e3",
    "time": "2012-08-16"
  },
  {
    "place": "Beer Garden3fd66200f964a52008f11ee3",
    "time": "2012-08-17"
  },
  {
    "place": "Home (private)4d1a880b1683a14310747551",
    "time": "2012-08-19"
  },
  {
    "place": "Neighborhood4c1c2ac8eac020a1872d46c2",
    "time": "2012-08-19"
  },
  {
    "place": "Subway4b60d6c7f964a520bafc29e3",
    "time": "2012-08-20"
  },
  {
    "place": "Subway4b587d2ff964a520455a28e3",
    "time": "2012-08-20"
  },
  {
    "place": "Bus Station4b93f367f964a520565c34e3",
    "time": "2012-08-20"
  },
  {
    "place": "Bus Station4c572fd46418a59325cd7e0e",
    "time": "2012-08-20"
  },
  {
    "place": "Home (private)4d1a880b1683a14310747551",
    "time": "2012-08-18"
  },
  {
    "place": "Neighborhood4c1c2ac8eac020a1872d46c2",
    "time": "2012-08-18"
  },
  {
    "place": "Burger Joint4c1918c7fe5a76b07b0f0315",
    "time": "2012-08-18"
  },
  {
    "place": "Park412d2800f964a520df0c1fe3",
    "time": "2012-08-18"
  },
  {
    "place": "Drugstore / Pharmacy4b37cd5cf964a520664625e3",
    "time": "2012-08-18"
  },
  {
    "place": "Park4a80bb75f964a5200ff61fe3",
    "time": "2012-08-18"
  },
  {
    "place": "Park4a318fe7f964a520f2991fe3",
    "time": "2012-08-18"
  },
  {
    "place": "Fast Food Restaurant4b51f650f964a520ae5d27e3",
    "time": "2012-08-18"
  },
  {
    "place": "Clothing Store4ca66eec5a1e952129d98ace",
    "time": "2012-08-18"
  },
  {
    "place": "Drugstore / Pharmacy4e1a0d3445dd120c121e6a53",
    "time": "2012-08-18"
  },
  {
    "place": "Home (private)4d1a880b1683a14310747551",
    "time": "2012-08-19"
  },
  {
    "place": "Bus Station4c572fd46418a59325cd7e0e",
    "time": "2012-08-22"
  },
  {
    "place": "Deli / Bodega4aaae1c4f964a520da5720e3",
    "time": "2012-09-05"
  },
  {
    "place": "Neighborhood4c1c2ac8eac020a1872d46c2",
    "time": "2012-09-05"
  },
  {
    "place": "Drugstore / Pharmacy4e1a0d3445dd120c121e6a53",
    "time": "2012-09-05"
  },
  {
    "place": "Subway4b21aee7f964a5201b4024e3",
    "time": "2012-09-05"
  },
  {
    "place": "College Academic Building4bc5b04b41cb76b0a1a03e6f",
    "time": "2012-09-05"
  },
  {
    "place": "College Academic Building4b9a70d0f964a5207fb535e3",
    "time": "2012-09-05"
  },
  {
    "place": "Drugstore / Pharmacy4b0cd4dbf964a520224223e3",
    "time": "2012-09-05"
  },
  {
    "place": "Bank4b086b15f964a520700b23e3",
    "time": "2012-09-09"
  },
  {
    "place": "College Academic Building4b9fd7a5f964a520c94337e3",
    "time": "2012-09-12"
  },
  {
    "place": "Neighborhood4c1c2ac8eac020a1872d46c2",
    "time": "2012-09-13"
  },
  {
    "place": "Subway4b21aee7f964a5201b4024e3",
    "time": "2012-09-13"
  },
  {
    "place": "University4a6f3aa4f964a520add51fe3",
    "time": "2012-09-13"
  },
  {
    "place": "Neighborhood4c1c2ac8eac020a1872d46c2",
    "time": "2012-09-14"
  },
  {
    "place": "College Academic Building4bc5c26e5935c9b6984ca6d2",
    "time": "2012-09-14"
  },
  {
    "place": "College Academic Building4cb4ad0f07bab713fa9d50cc",
    "time": "2012-09-14"
  },
  {
    "place": "University4a6f3aa4f964a520add51fe3",
    "time": "2012-09-14"
  },
  {
    "place": "College Academic Building4bc5c26e5935c9b6984ca6d2",
    "time": "2012-09-14"
  },
  {
    "place": "Other Great Outdoors4e5d3ee6aeb73819c62f46ad",
    "time": "2012-09-14"
  },
  {
    "place": "Airport4ace6c89f964a52078d020e3",
    "time": "2012-09-14"
  },
  {
    "place": "Airport4af23a4af964a520c2e621e3",
    "time": "2012-09-14"
  },
  {
    "place": "Subway4b60d6c7f964a520bafc29e3",
    "time": "2012-10-03"
  },
  {
    "place": "Furniture / Home Store4a3ea1d7f964a5202ca31fe3",
    "time": "2012-10-03"
  },
  {
    "place": "Department Store4a9479ecf964a520b72120e3",
    "time": "2012-10-03"
  },
  {
    "place": "Deli / Bodega4aaae1c4f964a520da5720e3",
    "time": "2012-10-08"
  },
  {
    "place": "Subway4b21aee7f964a5201b4024e3",
    "time": "2012-10-11"
  },
  {
    "place": "Home (private)4d1a880b1683a14310747551",
    "time": "2012-10-12"
  },
  {
    "place": "Subway4b572861f964a520ac2828e3",
    "time": "2012-10-12"
  },
  {
    "place": "Subway4b587d2ff964a520455a28e3",
    "time": "2012-10-12"
  },
  {
    "place": "Bus Station4b93f367f964a520565c34e3",
    "time": "2012-10-12"
  },
  {
    "place": "Neighborhood4d668c5c838654818c8df953",
    "time": "2012-10-12"
  },
  {
    "place": "College Academic Building4bc5b04b41cb76b0a1a03e6f",
    "time": "2012-10-12"
  },
  {
    "place": "College Academic Building4e944f845c5c9bf8ad82d492",
    "time": "2012-10-12"
  },
  {
    "place": "Subway4b21aee7f964a5201b4024e3",
    "time": "2012-10-12"
  },
  {
    "place": "Pizza Place4dd5e536b3adc64ae06d6669",
    "time": "2012-10-13"
  },
  {
    "place": "Home (private)4d1a880b1683a14310747551",
    "time": "2012-10-13"
  },
  {
    "place": "Deli / Bodega5051c70de4b054c0f700e4cd",
    "time": "2012-10-13"
  },
  {
    "place": "Neighborhood4c1c2ac8eac020a1872d46c2",
    "time": "2012-10-16"
  },
  {
    "place": "Subway4b60d6c7f964a520bafc29e3",
    "time": "2012-10-16"
  },
  {
    "place": "Subway4b587d2ff964a520455a28e3",
    "time": "2012-10-16"
  },
  {
    "place": "Neighborhood4d668c5c838654818c8df953",
    "time": "2012-10-16"
  },
  {
    "place": "College Academic Building4e944f845c5c9bf8ad82d492",
    "time": "2012-10-16"
  },
  {
    "place": "College Academic Building4bc5b04b41cb76b0a1a03e6f",
    "time": "2012-10-16"
  },
  {
    "place": "College Academic Building4bc5c26e5935c9b6984ca6d2",
    "time": "2012-10-16"
  },
  {
    "place": "College Academic Building4bc73ace0050b713623eb83b",
    "time": "2012-10-16"
  },
  {
    "place": "College Academic Building4c7be5c0794e224ba9a36c28",
    "time": "2012-10-16"
  },
  {
    "place": "Neighborhood4c1c2ac8eac020a1872d46c2",
    "time": "2012-10-17"
  },
  {
    "place": "Subway4b572861f964a520ac2828e3",
    "time": "2012-10-17"
  },
  {
    "place": "Subway4b60d6c7f964a520bafc29e3",
    "time": "2012-10-17"
  },
  {
    "place": "Subway4b587d2ff964a520455a28e3",
    "time": "2012-10-17"
  },
  {
    "place": "Neighborhood4d668c5c838654818c8df953",
    "time": "2012-10-17"
  },
  {
    "place": "College Academic Building4e944f845c5c9bf8ad82d492",
    "time": "2012-10-17"
  },
  {
    "place": "University4a6f3aa4f964a520add51fe3",
    "time": "2012-10-17"
  },
  {
    "place": "University4a6f3aa4f964a520add51fe3",
    "time": "2012-10-18"
  },
  {
    "place": "Fast Food Restaurant4b072e3ff964a520fff822e3",
    "time": "2012-10-18"
  },
  {
    "place": "Subway4b21aee7f964a5201b4024e3",
    "time": "2012-10-18"
  },
  {
    "place": "Deli / Bodega4aaae1c4f964a520da5720e3",
    "time": "2012-10-18"
  },
  {
    "place": "Mexican Restaurant4aa44e08f964a5204f4620e3",
    "time": "2012-10-18"
  },
  {
    "place": "Neighborhood4c1c2ac8eac020a1872d46c2",
    "time": "2012-10-19"
  },
  {
    "place": "Subway4b587d2ff964a520455a28e3",
    "time": "2012-10-19"
  },
  {
    "place": "Neighborhood4d668c5c838654818c8df953",
    "time": "2012-10-19"
  },
  {
    "place": "College Academic Building4e944f845c5c9bf8ad82d492",
    "time": "2012-10-19"
  },
  {
    "place": "College Academic Building4bc5b04b41cb76b0a1a03e6f",
    "time": "2012-10-19"
  },
  {
    "place": "University4a6f3aa4f964a520add51fe3",
    "time": "2012-10-19"
  },
  {
    "place": "College Academic Building4c7be5c0794e224ba9a36c28",
    "time": "2012-10-19"
  },
  {
    "place": "Neighborhood4c1c2ac8eac020a1872d46c2",
    "time": "2012-10-22"
  },
  {
    "place": "Subway4b21aee7f964a5201b4024e3",
    "time": "2012-10-22"
  },
  {
    "place": "Subway4b572861f964a520ac2828e3",
    "time": "2012-10-22"
  },
  {
    "place": "Subway4b60d6c7f964a520bafc29e3",
    "time": "2012-10-22"
  },
  {
    "place": "Subway4b587d2ff964a520455a28e3",
    "time": "2012-10-22"
  },
  {
    "place": "Neighborhood4d668c5c838654818c8df953",
    "time": "2012-10-22"
  },
  {
    "place": "Subway4b21aee7f964a5201b4024e3",
    "time": "2012-10-23"
  },
  {
    "place": "Subway4b572861f964a520ac2828e3",
    "time": "2012-10-23"
  },
  {
    "place": "Subway4b60d6c7f964a520bafc29e3",
    "time": "2012-10-23"
  },
  {
    "place": "Donut Shop4e6e8fb3b993df929f01bbf2",
    "time": "2012-10-23"
  },
  {
    "place": "University4a6f3aa4f964a520add51fe3",
    "time": "2012-10-23"
  },
  {
    "place": "General College & University501960f4e4b01f45cbfa7c5e",
    "time": "2012-10-23"
  },
  {
    "place": "Deli / Bodega4aaae1c4f964a520da5720e3",
    "time": "2012-10-23"
  },
  {
    "place": "Neighborhood4c1c2ac8eac020a1872d46c2",
    "time": "2012-10-24"
  },
  {
    "place": "Subway4b587d2ff964a520455a28e3",
    "time": "2012-10-24"
  },
  {
    "place": "Neighborhood4d668c5c838654818c8df953",
    "time": "2012-10-24"
  },
  {
    "place": "College Academic Building4bc5c26e5935c9b6984ca6d2",
    "time": "2012-10-24"
  },
  {
    "place": "University4a6f3aa4f964a520add51fe3",
    "time": "2012-10-24"
  },
  {
    "place": "Subway4b60d6c7f964a520bafc29e3",
    "time": "2012-10-25"
  },
  {
    "place": "Neighborhood4d668c5c838654818c8df953",
    "time": "2012-10-25"
  },
  {
    "place": "College Academic Building4bc5c26e5935c9b6984ca6d2",
    "time": "2012-10-25"
  },
  {
    "place": "University4a6f3aa4f964a520add51fe3",
    "time": "2012-10-25"
  },
  {
    "place": "Deli / Bodega4aaae1c4f964a520da5720e3",
    "time": "2012-10-25"
  },
  {
    "place": "Home (private)4d1a880b1683a14310747551",
    "time": "2012-10-26"
  },
  {
    "place": "Neighborhood4c1c2ac8eac020a1872d46c2",
    "time": "2012-10-26"
  },
  {
    "place": "Subway4b21aee7f964a5201b4024e3",
    "time": "2012-10-26"
  },
  {
    "place": "Subway4b572861f964a520ac2828e3",
    "time": "2012-10-26"
  },
  {
    "place": "Subway4b60d6c7f964a520bafc29e3",
    "time": "2012-10-26"
  },
  {
    "place": "Neighborhood4d668c5c838654818c8df953",
    "time": "2012-10-26"
  },
  {
    "place": "College Academic Building4bc5c26e5935c9b6984ca6d2",
    "time": "2012-10-26"
  },
  {
    "place": "Student Center4bd0ba7c046076b05c927071",
    "time": "2012-10-26"
  },
  {
    "place": "College Academic Building4b58a43df964a5202d6328e3",
    "time": "2012-10-26"
  },
  {
    "place": "Fast Food Restaurant4b072e3ff964a520fff822e3",
    "time": "2012-10-26"
  },
  {
    "place": "Food & Drink Shop4a81c425f964a52083f71fe3",
    "time": "2012-10-26"
  },
  {
    "place": "Fast Food Restaurant4bc36e134cdfc9b6c3569721",
    "time": "2012-10-27"
  },
  {
    "place": "Mexican Restaurant4a2c639bf964a52059971fe3",
    "time": "2012-10-27"
  },
  {
    "place": "Deli / Bodega5051c70de4b054c0f700e4cd",
    "time": "2012-10-28"
  },
  {
    "place": "Home (private)4d1a880b1683a14310747551",
    "time": "2012-10-28"
  },
  {
    "place": "Deli / Bodega4aaae1c4f964a520da5720e3",
    "time": "2012-10-28"
  },
  {
    "place": "Drugstore / Pharmacy4b1c321ff964a520070424e3",
    "time": "2012-10-30"
  },
  {
    "place": "Home (private)4d1a880b1683a14310747551",
    "time": "2012-10-31"
  },
  {
    "place": "Neighborhood4c1c2ac8eac020a1872d46c2",
    "time": "2012-10-31"
  },
  {
    "place": "Deli / Bodega4aaae1c4f964a520da5720e3",
    "time": "2012-11-01"
  },
  {
    "place": "Neighborhood4c1c2ac8eac020a1872d46c2",
    "time": "2012-11-01"
  },
  {
    "place": "Coffee Shop4b33d4c5f964a5201a2025e3",
    "time": "2012-11-01"
  },
  {
    "place": "Student Center4bd0ba7c046076b05c927071",
    "time": "2012-11-01"
  },
  {
    "place": "Home (private)4d1a880b1683a14310747551",
    "time": "2012-11-02"
  },
  {
    "place": "Neighborhood4c1c2ac8eac020a1872d46c2",
    "time": "2012-11-02"
  },
  {
    "place": "College Academic Building4bc5c26e5935c9b6984ca6d2",
    "time": "2012-11-02"
  },
  {
    "place": "Donut Shop4e6e8fb3b993df929f01bbf2",
    "time": "2012-11-05"
  },
  {
    "place": "Coffee Shop4b16bba6f964a520a7bc23e3",
    "time": "2012-11-05"
  },
  {
    "place": "Pizza Place4dd5e536b3adc64ae06d6669",
    "time": "2012-11-05"
  },
  {
    "place": "Video Game Store4b847563f964a520b33631e3",
    "time": "2012-11-05"
  },
  {
    "place": "Food & Drink Shop4a81c425f964a52083f71fe3",
    "time": "2012-11-05"
  },
  {
    "place": "Neighborhood4d668c5c838654818c8df953",
    "time": "2012-11-06"
  },
  {
    "place": "College Academic Building4e944f845c5c9bf8ad82d492",
    "time": "2012-11-06"
  },
  {
    "place": "College Academic Building4bc5b04b41cb76b0a1a03e6f",
    "time": "2012-11-06"
  },
  {
    "place": "College Academic Building4bc73ace0050b713623eb83b",
    "time": "2012-11-06"
  },
  {
    "place": "Hot Dog Joint3fd66200f964a52074e81ee3",
    "time": "2012-11-06"
  },
  {
    "place": "Subway4b587d2ff964a520455a28e3",
    "time": "2012-11-07"
  },
  {
    "place": "Neighborhood4d668c5c838654818c8df953",
    "time": "2012-11-07"
  },
  {
    "place": "University4a6f3aa4f964a520add51fe3",
    "time": "2012-11-07"
  },
  {
    "place": "College Academic Building4bc73ace0050b713623eb83b",
    "time": "2012-11-07"
  },
  {
    "place": "College Academic Building4d51d1dadcce224bb4f9e51b",
    "time": "2012-11-07"
  },
  {
    "place": "Home (private)4d1a880b1683a14310747551",
    "time": "2012-11-09"
  },
  {
    "place": "Movie Theater44ddb109f964a520c0361fe3",
    "time": "2012-11-09"
  },
  {
    "place": "Chinese Restaurant4b19e591f964a520e2e523e3",
    "time": "2012-11-10"
  },
  {
    "place": "Home (private)4d1a880b1683a14310747551",
    "time": "2012-11-11"
  },
  {
    "place": "Neighborhood4c1c2ac8eac020a1872d46c2",
    "time": "2012-11-11"
  },
  {
    "place": "Neighborhood4c1c2ac8eac020a1872d46c2",
    "time": "2012-11-12"
  },
  {
    "place": "Subway4b572861f964a520ac2828e3",
    "time": "2012-11-12"
  },
  {
    "place": "Subway4b60d6c7f964a520bafc29e3",
    "time": "2012-11-12"
  },
  {
    "place": "Subway4b587d2ff964a520455a28e3",
    "time": "2012-11-12"
  },
  {
    "place": "Bus Station4b93f367f964a520565c34e3",
    "time": "2012-11-12"
  },
  {
    "place": "Neighborhood4d668c5c838654818c8df953",
    "time": "2012-11-12"
  },
  {
    "place": "University4a6f3aa4f964a520add51fe3",
    "time": "2012-11-12"
  },
  {
    "place": "College Academic Building4bc5c26e5935c9b6984ca6d2",
    "time": "2012-11-12"
  },
  {
    "place": "College Academic Building4cb4ad0f07bab713fa9d50cc",
    "time": "2012-11-12"
  },
  {
    "place": "Student Center4bd0ba7c046076b05c927071",
    "time": "2012-11-12"
  },
  {
    "place": "Bus Station4ca1fa222fb1a143995e0941",
    "time": "2012-11-12"
  },
  {
    "place": "Sandwich Place49de3448f964a52032601fe3",
    "time": "2012-11-12"
  },
  {
    "place": "Drugstore / Pharmacy4b1c321ff964a520070424e3",
    "time": "2012-11-16"
  },
  {
    "place": "Chinese Restaurant4b19e591f964a520e2e523e3",
    "time": "2012-11-16"
  },
  {
    "place": "Subway4b21aee7f964a5201b4024e3",
    "time": "2012-11-16"
  },
  {
    "place": "Laundry Service4b23a9acf964a520bd5724e3",
    "time": "2012-11-17"
  },
  {
    "place": "College Academic Building4d51d1dadcce224bb4f9e51b",
    "time": "2012-11-19"
  },
  {
    "place": "College Academic Building4d51d1dadcce224bb4f9e51b",
    "time": "2012-11-19"
  },
  {
    "place": "College Academic Building4d51d1dadcce224bb4f9e51b",
    "time": "2012-11-19"
  },
  {
    "place": "College Academic Building4d51d1dadcce224bb4f9e51b",
    "time": "2012-11-19"
  },
  {
    "place": "College Academic Building4d51d1dadcce224bb4f9e51b",
    "time": "2012-11-19"
  },
  {
    "place": "Home (private)4d1a880b1683a14310747551",
    "time": "2012-11-20"
  },
  {
    "place": "Subway4b21aee7f964a5201b4024e3",
    "time": "2012-11-20"
  },
  {
    "place": "Subway4b587d2ff964a520455a28e3",
    "time": "2012-11-20"
  },
  {
    "place": "Neighborhood4d668c5c838654818c8df953",
    "time": "2012-11-20"
  },
  {
    "place": "College Academic Building4bc5c26e5935c9b6984ca6d2",
    "time": "2012-11-20"
  },
  {
    "place": "Deli / Bodega5051c70de4b054c0f700e4cd",
    "time": "2012-11-20"
  },
  {
    "place": "Chinese Restaurant4b19e591f964a520e2e523e3",
    "time": "2012-11-20"
  },
  {
    "place": "Subway4b572861f964a520ac2828e3",
    "time": "2012-11-21"
  },
  {
    "place": "Subway4b587d2ff964a520455a28e3",
    "time": "2012-11-21"
  },
  {
    "place": "Bus Station4b93f367f964a520565c34e3",
    "time": "2012-11-21"
  },
  {
    "place": "Neighborhood4d668c5c838654818c8df953",
    "time": "2012-11-21"
  },
  {
    "place": "College Academic Building4b9fd7a5f964a520c94337e3",
    "time": "2012-11-21"
  },
  {
    "place": "College Academic Building4bc5c26e5935c9b6984ca6d2",
    "time": "2012-11-21"
  },
  {
    "place": "Movie Theater4a5e05c3f964a520e8bd1fe3",
    "time": "2012-11-22"
  },
  {
    "place": "Home (private)4d1a880b1683a14310747551",
    "time": "2012-11-22"
  },
  {
    "place": "Deli / Bodega4aaae1c4f964a520da5720e3",
    "time": "2012-11-23"
  },
  {
    "place": "Electronics Store4c60459dc6a103bb4eff675b",
    "time": "2012-11-23"
  },
  {
    "place": "Electronics Store4b5662d7f964a5203b0e28e3",
    "time": "2012-11-23"
  },
  {
    "place": "Fast Food Restaurant4b17f2ecf964a5200fca23e3",
    "time": "2012-11-23"
  },
  {
    "place": "Electronics Store4c51898bd2a7c9b61ec55b11",
    "time": "2012-11-23"
  },
  {
    "place": "Deli / Bodega4aaae1c4f964a520da5720e3",
    "time": "2012-11-25"
  },
  {
    "place": "Home (private)50286ae5e4b07f3295f9166d",
    "time": "2012-11-26"
  },
  {
    "place": "Subway4b572861f964a520ac2828e3",
    "time": "2012-11-26"
  },
  {
    "place": "Subway4b60d6c7f964a520bafc29e3",
    "time": "2012-11-26"
  },
  {
    "place": "Neighborhood4d668c5c838654818c8df953",
    "time": "2012-11-26"
  },
  {
    "place": "College Academic Building4b58a43df964a5202d6328e3",
    "time": "2012-11-26"
  },
  {
    "place": "College Academic Building4bc5b04b41cb76b0a1a03e6f",
    "time": "2012-11-26"
  },
  {
    "place": "Subway4b21aee7f964a5201b4024e3",
    "time": "2012-11-26"
  },
  {
    "place": "Deli / Bodega4aaae1c4f964a520da5720e3",
    "time": "2012-11-26"
  },
  {
    "place": "Subway4b60d6c7f964a520bafc29e3",
    "time": "2012-11-27"
  },
  {
    "place": "College Academic Building4bc5c26e5935c9b6984ca6d2",
    "time": "2012-11-27"
  },
  {
    "place": "Deli / Bodega4aaae1c4f964a520da5720e3",
    "time": "2012-11-28"
  },
  {
    "place": "Subway4b587d2ff964a520455a28e3",
    "time": "2012-11-28"
  },
  {
    "place": "Neighborhood4d668c5c838654818c8df953",
    "time": "2012-11-28"
  },
  {
    "place": "Bus Station4b93f367f964a520565c34e3",
    "time": "2012-11-28"
  },
  {
    "place": "College Academic Building4bc5b04b41cb76b0a1a03e6f",
    "time": "2012-11-28"
  },
  {
    "place": "Subway4b60d6c7f964a520bafc29e3",
    "time": "2012-11-28"
  },
  {
    "place": "Video Game Store4b847563f964a520b33631e3",
    "time": "2012-11-28"
  },
  {
    "place": "Deli / Bodega5051c70de4b054c0f700e4cd",
    "time": "2012-11-28"
  },
  {
    "place": "College Academic Building4c8f8a40d68c6dcbb91d05a2",
    "time": "2012-11-30"
  },
  {
    "place": "Neighborhood4c1c2ac8eac020a1872d46c2",
    "time": "2012-11-30"
  },
  {
    "place": "Drugstore / Pharmacy4a84a4e5f964a52036fd1fe3",
    "time": "2012-12-01"
  },
  {
    "place": "Coffee Shop4a819c70f964a52006f71fe3",
    "time": "2012-12-01"
  },
  {
    "place": "Bus Station4840fe6bf964a52030501fe3",
    "time": "2012-12-01"
  },
  {
    "place": "Train Station42829c80f964a5206a221fe3",
    "time": "2012-12-02"
  },
  {
    "place": "Pizza Place4dd5e536b3adc64ae06d6669",
    "time": "2012-12-02"
  },
  {
    "place": "Deli / Bodega4aaae1c4f964a520da5720e3",
    "time": "2012-12-02"
  },
  {
    "place": "Subway4b21aee7f964a5201b4024e3",
    "time": "2012-12-03"
  },
  {
    "place": "Subway4b572861f964a520ac2828e3",
    "time": "2012-12-03"
  },
  {
    "place": "Subway4b60d6c7f964a520bafc29e3",
    "time": "2012-12-03"
  },
  {
    "place": "Subway4b587d2ff964a520455a28e3",
    "time": "2012-12-03"
  },
  {
    "place": "College Academic Building4bc5b04b41cb76b0a1a03e6f",
    "time": "2012-12-03"
  },
  {
    "place": "College Academic Building4e944f845c5c9bf8ad82d492",
    "time": "2012-12-03"
  },
  {
    "place": "University4a6f3aa4f964a520add51fe3",
    "time": "2012-12-03"
  },
  {
    "place": "General College & University501960f4e4b01f45cbfa7c5e",
    "time": "2012-12-03"
  },
  {
    "place": "Subway4b587d2ff964a520455a28e3",
    "time": "2012-12-04"
  },
  {
    "place": "Bus Station4b93f367f964a520565c34e3",
    "time": "2012-12-04"
  },
  {
    "place": "College Academic Building4bc5c26e5935c9b6984ca6d2",
    "time": "2012-12-04"
  },
  {
    "place": "University4a6f3aa4f964a520add51fe3",
    "time": "2012-12-04"
  },
  {
    "place": "Deli / Bodega4aaae1c4f964a520da5720e3",
    "time": "2012-12-04"
  },
  {
    "place": "Home (private)4d1a880b1683a14310747551",
    "time": "2012-12-04"
  },
  {
    "place": "Subway4b60d6c7f964a520bafc29e3",
    "time": "2012-12-05"
  },
  {
    "place": "Subway4b587d2ff964a520455a28e3",
    "time": "2012-12-05"
  },
  {
    "place": "Bus Station4b93f367f964a520565c34e3",
    "time": "2012-12-05"
  },
  {
    "place": "College Academic Building4bc5b04b41cb76b0a1a03e6f",
    "time": "2012-12-05"
  },
  {
    "place": "College Academic Building4bc5c26e5935c9b6984ca6d2",
    "time": "2012-12-05"
  },
  {
    "place": "University4a6f3aa4f964a520add51fe3",
    "time": "2012-12-05"
  },
  {
    "place": "Deli / Bodega4aaae1c4f964a520da5720e3",
    "time": "2012-12-05"
  },
  {
    "place": "Subway4b60d6c7f964a520bafc29e3",
    "time": "2012-12-06"
  },
  {
    "place": "College Academic Building4bc5b04b41cb76b0a1a03e6f",
    "time": "2012-12-06"
  },
  {
    "place": "College Academic Building4bc73ace0050b713623eb83b",
    "time": "2012-12-06"
  },
  {
    "place": "University4a6f3aa4f964a520add51fe3",
    "time": "2012-12-06"
  },
  {
    "place": "Fast Food Restaurant4b17f2ecf964a5200fca23e3",
    "time": "2012-12-06"
  },
  {
    "place": "Subway4b572861f964a520ac2828e3",
    "time": "2012-12-07"
  },
  {
    "place": "Subway4b60d6c7f964a520bafc29e3",
    "time": "2012-12-07"
  },
  {
    "place": "Fast Food Restaurant4b17f2ecf964a5200fca23e3",
    "time": "2012-12-07"
  },
  {
    "place": "Chinese Restaurant4b19e591f964a520e2e523e3",
    "time": "2012-12-08"
  },
  {
    "place": "Drugstore / Pharmacy4a84a4e5f964a52036fd1fe3",
    "time": "2012-12-08"
  },
  {
    "place": "Home (private)4d1a880b1683a14310747551",
    "time": "2012-12-08"
  },
  {
    "place": "Deli / Bodega4aaae1c4f964a520da5720e3",
    "time": "2012-12-09"
  },
  {
    "place": "Subway4b587d2ff964a520455a28e3",
    "time": "2012-12-10"
  },
  {
    "place": "College Academic Building4bc73ace0050b713623eb83b",
    "time": "2012-12-10"
  },
  {
    "place": "Drugstore / Pharmacy4b1c321ff964a520070424e3",
    "time": "2012-12-10"
  },
  {
    "place": "Subway4b21aee7f964a5201b4024e3",
    "time": "2012-12-11"
  },
  {
    "place": "Coffee Shop4a3ffdc5f964a5202da41fe3",
    "time": "2012-12-11"
  },
  {
    "place": "Medical Center4d1f5950b69c6dcb487a6695",
    "time": "2012-12-12"
  },
  {
    "place": "Deli / Bodega4aaae1c4f964a520da5720e3",
    "time": "2012-12-13"
  },
  {
    "place": "Subway4b572861f964a520ac2828e3",
    "time": "2012-12-18"
  },
  {
    "place": "Subway4b60d6c7f964a520bafc29e3",
    "time": "2012-12-18"
  },
  {
    "place": "College Academic Building4bc73ace0050b713623eb83b",
    "time": "2012-12-18"
  },
  {
    "place": "Clothing Store4c13d7d482a3c9b68536fcf8",
    "time": "2012-12-18"
  },
  {
    "place": "Subway4b21aee7f964a5201b4024e3",
    "time": "2012-12-18"
  },
  {
    "place": "Subway4b60d6c7f964a520bafc29e3",
    "time": "2012-12-19"
  },
  {
    "place": "Subway4b587d2ff964a520455a28e3",
    "time": "2012-12-19"
  },
  {
    "place": "University4a6f3aa4f964a520add51fe3",
    "time": "2012-12-19"
  },
  {
    "place": "General College & University501960f4e4b01f45cbfa7c5e",
    "time": "2012-12-19"
  },
  {
    "place": "College Academic Building4c7ed370171b224bca0f0fb1",
    "time": "2012-12-19"
  },
  {
    "place": "Burger Joint508ac360e4b07020054445fb",
    "time": "2012-12-20"
  },
  {
    "place": "College Academic Building4bc5c26e5935c9b6984ca6d2",
    "time": "2012-12-21"
  },
  {
    "place": "College Academic Building4c97652ef7cfa1cdf9efcd15",
    "time": "2012-12-21"
  },
  {
    "place": "Food & Drink Shop4a81c425f964a52083f71fe3",
    "time": "2012-12-22"
  },
  {
    "place": "Home (private)4d1a880b1683a14310747551",
    "time": "2012-12-23"
  },
  {
    "place": "Drugstore / Pharmacy4a84a4e5f964a52036fd1fe3",
    "time": "2012-12-23"
  },
  {
    "place": "Home (private)4d1a880b1683a14310747551",
    "time": "2012-12-23"
  },
  {
    "place": "Subway4b60d6c7f964a520bafc29e3",
    "time": "2012-12-27"
  },
  {
    "place": "Coffee Shop4b16bba6f964a520a7bc23e3",
    "time": "2012-12-27"
  },
  {
    "place": "Subway4b587d2ff964a520455a28e3",
    "time": "2012-12-27"
  },
  {
    "place": "Subway4b60d6c7f964a520bafc29e3",
    "time": "2012-12-28"
  },
  {
    "place": "College Academic Building4bc5c26e5935c9b6984ca6d2",
    "time": "2012-12-28"
  },
  {
    "place": "Food & Drink Shop4a81c425f964a52083f71fe3",
    "time": "2012-12-29"
  },
  {
    "place": "Home (private)4d1a880b1683a14310747551",
    "time": "2012-12-29"
  },
  {
    "place": "Deli / Bodega4aaae1c4f964a520da5720e3",
    "time": "2012-12-30"
  },
  {
    "place": "Home (private)4d1a880b1683a14310747551",
    "time": "2012-12-31"
  },
  {
    "place": "Home (private)4d1a880b1683a14310747551",
    "time": "2012-12-31"
  },
  {
    "place": "Home (private)4d1a880b1683a14310747551",
    "time": "2013-01-01"
  },
  {
    "place": "Subway4b572861f964a520ac2828e3",
    "time": "2013-01-02"
  },
  {
    "place": "Subway4b60d6c7f964a520bafc29e3",
    "time": "2013-01-02"
  },
  {
    "place": "University4a6f3aa4f964a520add51fe3",
    "time": "2013-01-02"
  },
  {
    "place": "College Academic Building4d51d1dadcce224bb4f9e51b",
    "time": "2013-01-02"
  },
  {
    "place": "Student Center4bd0ba7c046076b05c927071",
    "time": "2013-01-02"
  },
  {
    "place": "College Academic Building4b9fd7a5f964a520c94337e3",
    "time": "2013-01-02"
  },
  {
    "place": "Clothing Store4ac52957f964a520b8b020e3",
    "time": "2013-01-03"
  },
  {
    "place": "Subway4b572861f964a520ac2828e3",
    "time": "2013-01-03"
  },
  {
    "place": "Neighborhood4c1c2ac8eac020a1872d46c2",
    "time": "2013-01-04"
  },
  {
    "place": "Fast Food Restaurant4b222e79f964a5203b4424e3",
    "time": "2013-01-04"
  },
  {
    "place": "Subway4b572861f964a520ac2828e3",
    "time": "2013-01-07"
  },
  {
    "place": "Subway4b60d6c7f964a520bafc29e3",
    "time": "2013-01-07"
  },
  {
    "place": "Donut Shop4e6e8fb3b993df929f01bbf2",
    "time": "2013-01-07"
  },
  {
    "place": "College Academic Building4bc5b04b41cb76b0a1a03e6f",
    "time": "2013-01-07"
  },
  {
    "place": "Subway4b21aee7f964a5201b4024e3",
    "time": "2013-01-07"
  },
  {
    "place": "Neighborhood4c1c2ac8eac020a1872d46c2",
    "time": "2013-01-08"
  },
  {
    "place": "Subway4b60d6c7f964a520bafc29e3",
    "time": "2013-01-08"
  },
  {
    "place": "College Academic Building4bc5c26e5935c9b6984ca6d2",
    "time": "2013-01-08"
  },
  {
    "place": "College Academic Building4bc5b04b41cb76b0a1a03e6f",
    "time": "2013-01-08"
  },
  {
    "place": "Subway4b21aee7f964a5201b4024e3",
    "time": "2013-01-08"
  },
  {
    "place": "Subway4b572861f964a520ac2828e3",
    "time": "2013-01-09"
  },
  {
    "place": "Subway4b60d6c7f964a520bafc29e3",
    "time": "2013-01-09"
  },
  {
    "place": "University4a6f3aa4f964a520add51fe3",
    "time": "2013-01-09"
  },
  {
    "place": "Neighborhood4c1c2ac8eac020a1872d46c2",
    "time": "2013-01-09"
  },
  {
    "place": "Home (private)4d1a880b1683a14310747551",
    "time": "2013-01-09"
  },
  {
    "place": "Subway4b60d6c7f964a520bafc29e3",
    "time": "2013-01-10"
  },
  {
    "place": "Subway4b587d2ff964a520455a28e3",
    "time": "2013-01-10"
  },
  {
    "place": "Bus Station4b93f367f964a520565c34e3",
    "time": "2013-01-10"
  },
  {
    "place": "Neighborhood4d668c5c838654818c8df953",
    "time": "2013-01-10"
  },
  {
    "place": "Subway4b572861f964a520ac2828e3",
    "time": "2013-01-11"
  },
  {
    "place": "Subway4b60d6c7f964a520bafc29e3",
    "time": "2013-01-11"
  },
  {
    "place": "Coffee Shop4b16bba6f964a520a7bc23e3",
    "time": "2013-01-11"
  },
  {
    "place": "Neighborhood4d668c5c838654818c8df953",
    "time": "2013-01-11"
  },
  {
    "place": "College Academic Building4bc5c26e5935c9b6984ca6d2",
    "time": "2013-01-11"
  },
  {
    "place": "Other Great Outdoors4a8d4689f964a520650f20e3",
    "time": "2013-01-15"
  },
  {
    "place": "Other Great Outdoors4a229fa8f964a520797d1fe3",
    "time": "2013-01-15"
  },
  {
    "place": "Deli / Bodega4aaae1c4f964a520da5720e3",
    "time": "2013-01-16"
  },
  {
    "place": "Subway4b60d6c7f964a520bafc29e3",
    "time": "2013-01-16"
  },
  {
    "place": "Subway4b587d2ff964a520455a28e3",
    "time": "2013-01-16"
  },
  {
    "place": "College Academic Building4bc73ace0050b713623eb83b",
    "time": "2013-01-16"
  },
  {
    "place": "Fast Food Restaurant4b32b549f964a520561225e3",
    "time": "2013-01-17"
  },
  {
    "place": "Subway4b572861f964a520ac2828e3",
    "time": "2013-01-17"
  },
  {
    "place": "Subway4b587d2ff964a520455a28e3",
    "time": "2013-01-17"
  },
  {
    "place": "Subway4b587d2ff964a520455a28e3",
    "time": "2013-01-18"
  },
  {
    "place": "College Academic Building4bc5c26e5935c9b6984ca6d2",
    "time": "2013-01-18"
  },
  {
    "place": "College Academic Building4b9fd7a5f964a520c94337e3",
    "time": "2013-01-18"
  },
  {
    "place": "Subway4b572861f964a520ac2828e3",
    "time": "2013-01-18"
  },
  {
    "place": "Deli / Bodega4aaae1c4f964a520da5720e3",
    "time": "2013-01-22"
  },
  {
    "place": "Subway4b572861f964a520ac2828e3",
    "time": "2013-01-22"
  },
  {
    "place": "College Academic Building4bc5c26e5935c9b6984ca6d2",
    "time": "2013-01-25"
  },
  {
    "place": "University4a6f3aa4f964a520add51fe3",
    "time": "2013-01-25"
  },
  {
    "place": "Deli / Bodega4aaae1c4f964a520da5720e3",
    "time": "2013-01-26"
  },
  {
    "place": "Burger Joint4c1918c7fe5a76b07b0f0315",
    "time": "2013-01-26"
  },
  {
    "place": "Home (private)4d1a880b1683a14310747551",
    "time": "2013-01-26"
  },
  {
    "place": "Bus Station4840fe6bf964a52030501fe3",
    "time": "2013-01-26"
  },
  {
    "place": "Subway4b60d6c7f964a520bafc29e3",
    "time": "2013-01-28"
  },
  {
    "place": "Bus Station4b93f367f964a520565c34e3",
    "time": "2013-01-28"
  },
  {
    "place": "College Academic Building4bc73ace0050b713623eb83b",
    "time": "2013-01-28"
  },
  {
    "place": "Subway4b572861f964a520ac2828e3",
    "time": "2013-01-29"
  },
  {
    "place": "Subway4b60d6c7f964a520bafc29e3",
    "time": "2013-01-29"
  },
  {
    "place": "Subway4b587d2ff964a520455a28e3",
    "time": "2013-01-29"
  },
  {
    "place": "College Academic Building4bc5b04b41cb76b0a1a03e6f",
    "time": "2013-01-29"
  },
  {
    "place": "Subway4b21aee7f964a5201b4024e3",
    "time": "2013-01-29"
  },
  {
    "place": "Deli / Bodega4aaae1c4f964a520da5720e3",
    "time": "2013-01-29"
  },
  {
    "place": "Subway4b587d2ff964a520455a28e3",
    "time": "2013-01-30"
  },
  {
    "place": "Bus Station4b93f367f964a520565c34e3",
    "time": "2013-01-30"
  },
  {
    "place": "College Academic Building4e944f845c5c9bf8ad82d492",
    "time": "2013-01-30"
  },
  {
    "place": "College Academic Building4c76f247923ba143899965e6",
    "time": "2013-01-30"
  },
  {
    "place": "Fast Food Restaurant4b072e3ff964a520fff822e3",
    "time": "2013-01-30"
  },
  {
    "place": "Fast Food Restaurant4b072e3ff964a520fff822e3",
    "time": "2013-01-31"
  },
  {
    "place": "Food & Drink Shop4a81c425f964a52083f71fe3",
    "time": "2013-02-01"
  },
  {
    "place": "Subway4b572861f964a520ac2828e3",
    "time": "2013-02-01"
  },
  {
    "place": "College Academic Building4bc5c26e5935c9b6984ca6d2",
    "time": "2013-02-01"
  },
  {
    "place": "Drugstore / Pharmacy4b1c321ff964a520070424e3",
    "time": "2013-02-02"
  },
  {
    "place": "Chinese Restaurant4b19e591f964a520e2e523e3",
    "time": "2013-02-02"
  },
  {
    "place": "Deli / Bodega4aaae1c4f964a520da5720e3",
    "time": "2013-02-03"
  },
  {
    "place": "Home (private)4d1a880b1683a14310747551",
    "time": "2013-02-03"
  },
  {
    "place": "Home (private)4d1a880b1683a14310747551",
    "time": "2013-02-03"
  },
  {
    "place": "Subway4b572861f964a520ac2828e3",
    "time": "2013-02-04"
  },
  {
    "place": "Fast Food Restaurant4b072e3ff964a520fff822e3",
    "time": "2013-02-04"
  },
  {
    "place": "Subway4b60d6c7f964a520bafc29e3",
    "time": "2013-02-05"
  },
  {
    "place": "Subway4b587d2ff964a520455a28e3",
    "time": "2013-02-05"
  },
  {
    "place": "Subway4b60d6c7f964a520bafc29e3",
    "time": "2013-02-06"
  },
  {
    "place": "College Academic Building4b9a70d0f964a5207fb535e3",
    "time": "2013-02-06"
  },
  {
    "place": "Subway4b572861f964a520ac2828e3",
    "time": "2013-02-06"
  },
  {
    "place": "Fast Food Restaurant4bfec39768c7a5935ea53f44",
    "time": "2013-02-07"
  },
  {
    "place": "Subway4b60d6c7f964a520bafc29e3",
    "time": "2013-02-07"
  },
  {
    "place": "Subway4b572861f964a520ac2828e3",
    "time": "2013-02-08"
  },
  {
    "place": "Home (private)4d1a880b1683a14310747551",
    "time": "2013-02-10"
  },
  {
    "place": "Coffee Shop4a819c70f964a52006f71fe3",
    "time": "2013-02-10"
  },
  {
    "place": "Food & Drink Shop4a81c425f964a52083f71fe3",
    "time": "2013-02-11"
  },
  {
    "place": "Other Great Outdoors4a229fa8f964a520797d1fe3",
    "time": "2013-02-12"
  },
  {
    "place": "Arcade5053d510e4b0719d67706d96",
    "time": "2013-02-12"
  },
  {
    "place": "Electronics Store4ad20513f964a520e0de20e3",
    "time": "2013-02-13"
  }
]