[
  {
    "place": "Deli / Bodega4ab11744f964a520046820e3",
    "time": "2012-04-03"
  },
  {
    "place": "Italian Restaurant4d99cbdc7cfc145660ac49f6",
    "time": "2012-04-04"
  },
  {
    "place": "Office4be9eccf415e20a15d78e4bb",
    "time": "2012-04-04"
  },
  {
    "place": "Indian Restaurant4dfba587814d9c07902a5b13",
    "time": "2012-04-04"
  },
  {
    "place": "Deli / Bodega4acd1704f964a520d0ca20e3",
    "time": "2012-04-06"
  },
  {
    "place": "Italian Restaurant4d99cbdc7cfc145660ac49f6",
    "time": "2012-04-06"
  },
  {
    "place": "Food & Drink Shop41390580f964a520dc1a1fe3",
    "time": "2012-04-07"
  },
  {
    "place": "Deli / Bodega4acd1704f964a520d0ca20e3",
    "time": "2012-04-07"
  },
  {
    "place": "Athletic & Sport4dd969f1d22d38ef4318cc65",
    "time": "2012-04-08"
  },
  {
    "place": "Bar3fd66200f964a52036eb1ee3",
    "time": "2012-04-08"
  },
  {
    "place": "Bar4101a680f964a5205a0b1fe3",
    "time": "2012-04-08"
  },
  {
    "place": "Italian Restaurant4d99cbdc7cfc145660ac49f6",
    "time": "2012-04-09"
  },
  {
    "place": "Office4be9eccf415e20a15d78e4bb",
    "time": "2012-04-09"
  },
  {
    "place": "Chinese Restaurant4a804d3ff964a520e6f41fe3",
    "time": "2012-04-09"
  },
  {
    "place": "French Restaurant4ad1220ef964a520f0dc20e3",
    "time": "2012-04-10"
  },
  {
    "place": "Italian Restaurant4d99cbdc7cfc145660ac49f6",
    "time": "2012-04-11"
  },
  {
    "place": "Mexican Restaurant4a8c242ff964a5200c0d20e3",
    "time": "2012-04-11"
  },
  {
    "place": "Italian Restaurant4d99cbdc7cfc145660ac49f6",
    "time": "2012-04-12"
  },
  {
    "place": "Office4be9eccf415e20a15d78e4bb",
    "time": "2012-04-12"
  },
  {
    "place": "Deli / Bodega4aba665af964a520278120e3",
    "time": "2012-04-12"
  },
  {
    "place": "Salon / Barbershop4dc834daae6031fcb0061f83",
    "time": "2012-04-12"
  },
  {
    "place": "Deli / Bodega4acd1704f964a520d0ca20e3",
    "time": "2012-04-13"
  },
  {
    "place": "Italian Restaurant4d99cbdc7cfc145660ac49f6",
    "time": "2012-04-13"
  },
  {
    "place": "Office4be9eccf415e20a15d78e4bb",
    "time": "2012-04-13"
  },
  {
    "place": "Deli / Bodega4ab11744f964a520046820e3",
    "time": "2012-04-13"
  },
  {
    "place": "Asian Restaurant4c6d63d2a437224bf0e32cb1",
    "time": "2012-04-13"
  },
  {
    "place": "Gastropub4ee535472c5b5fc6cd1fd9d9",
    "time": "2012-04-14"
  },
  {
    "place": "Bar4569264af964a520de3d1fe3",
    "time": "2012-04-14"
  },
  {
    "place": "Deli / Bodega4acd1704f964a520d0ca20e3",
    "time": "2012-04-14"
  },
  {
    "place": "Food & Drink Shop4cdd66934006a143be17e5b2",
    "time": "2012-04-15"
  },
  {
    "place": "Deli / Bodega4b31045ff964a5204bfe24e3",
    "time": "2012-04-15"
  },
  {
    "place": "Furniture / Home Store4a7dcf5cf964a520b5ef1fe3",
    "time": "2012-04-15"
  },
  {
    "place": "Hardware Store4a21834ff964a520077d1fe3",
    "time": "2012-04-15"
  },
  {
    "place": "Bar4101a680f964a5205a0b1fe3",
    "time": "2012-04-15"
  },
  {
    "place": "Office4be9eccf415e20a15d78e4bb",
    "time": "2012-04-16"
  },
  {
    "place": "Italian Restaurant4d99cbdc7cfc145660ac49f6",
    "time": "2012-04-17"
  },
  {
    "place": "Office4be9eccf415e20a15d78e4bb",
    "time": "2012-04-17"
  },
  {
    "place": "Deli / Bodega4aba665af964a520278120e3",
    "time": "2012-04-17"
  },
  {
    "place": "Airport4459d2f1f964a520d7321fe3",
    "time": "2012-04-22"
  },
  {
    "place": "Deli / Bodega4acd1704f964a520d0ca20e3",
    "time": "2012-04-22"
  },
  {
    "place": "Hotel49f9ea10f964a520936d1fe3",
    "time": "2012-04-23"
  },
  {
    "place": "Diner4a8dcb34f964a520e51020e3",
    "time": "2012-04-23"
  },
  {
    "place": "Clothing Store4ab7e0d7f964a520417b20e3",
    "time": "2012-04-23"
  },
  {
    "place": "Department Store41102700f964a520d60b1fe3",
    "time": "2012-04-23"
  },
  {
    "place": "Park4a5e4f41f964a52059be1fe3",
    "time": "2012-04-23"
  },
  {
    "place": "Hotel4bf1cd74324cc9b6367acc92",
    "time": "2012-04-24"
  },
  {
    "place": "Hotel49f9ea10f964a520936d1fe3",
    "time": "2012-04-24"
  },
  {
    "place": "Diner4656e534f964a52008471fe3",
    "time": "2012-04-24"
  },
  {
    "place": "Park40f1d480f964a5206a0a1fe3",
    "time": "2012-04-24"
  },
  {
    "place": "Wings Joint3fd66200f964a5209fe71ee3",
    "time": "2012-04-24"
  },
  {
    "place": "Diner4a8dcb34f964a520e51020e3",
    "time": "2012-04-25"
  },
  {
    "place": "Bridge4a43bcb7f964a520bba61fe3",
    "time": "2012-04-25"
  },
  {
    "place": "Diner4a847eebf964a520c0fc1fe3",
    "time": "2012-04-25"
  },
  {
    "place": "Bar4101a680f964a5205a0b1fe3",
    "time": "2012-04-26"
  },
  {
    "place": "Food & Drink Shop41390580f964a520dc1a1fe3",
    "time": "2012-04-26"
  },
  {
    "place": "Taxi4a728f52f964a52037db1fe3",
    "time": "2012-04-27"
  },
  {
    "place": "Italian Restaurant4d99cbdc7cfc145660ac49f6",
    "time": "2012-04-27"
  },
  {
    "place": "Office4be9eccf415e20a15d78e4bb",
    "time": "2012-04-27"
  },
  {
    "place": "Food & Drink Shop41390580f964a520dc1a1fe3",
    "time": "2012-04-28"
  },
  {
    "place": "Food & Drink Shop4cdd66934006a143be17e5b2",
    "time": "2012-04-28"
  },
  {
    "place": "Food & Drink Shop4cdd66934006a143be17e5b2",
    "time": "2012-04-29"
  },
  {
    "place": "Deli / Bodega4ab11744f964a520046820e3",
    "time": "2012-05-01"
  },
  {
    "place": "Italian Restaurant4d99cbdc7cfc145660ac49f6",
    "time": "2012-05-03"
  },
  {
    "place": "Office4be9eccf415e20a15d78e4bb",
    "time": "2012-05-03"
  },
  {
    "place": "Deli / Bodega4ab11744f964a520046820e3",
    "time": "2012-05-03"
  },
  {
    "place": "Deli / Bodega4acd1704f964a520d0ca20e3",
    "time": "2012-05-03"
  },
  {
    "place": "Italian Restaurant4d99cbdc7cfc145660ac49f6",
    "time": "2012-05-04"
  },
  {
    "place": "Office4be9eccf415e20a15d78e4bb",
    "time": "2012-05-04"
  },
  {
    "place": "Deli / Bodega4acd1704f964a520d0ca20e3",
    "time": "2012-05-05"
  },
  {
    "place": "Taxi4a728f52f964a52037db1fe3",
    "time": "2012-05-05"
  },
  {
    "place": "Italian Restaurant4d99cbdc7cfc145660ac49f6",
    "time": "2012-05-05"
  },
  {
    "place": "Office4be9eccf415e20a15d78e4bb",
    "time": "2012-05-05"
  },
  {
    "place": "Italian Restaurant4d99cbdc7cfc145660ac49f6",
    "time": "2012-05-07"
  },
  {
    "place": "Office4be9eccf415e20a15d78e4bb",
    "time": "2012-05-07"
  },
  {
    "place": "Deli / Bodega4ab11744f964a520046820e3",
    "time": "2012-05-07"
  },
  {
    "place": "Italian Restaurant4d99cbdc7cfc145660ac49f6",
    "time": "2012-05-08"
  },
  {
    "place": "Office4be9eccf415e20a15d78e4bb",
    "time": "2012-05-08"
  },
  {
    "place": "French Restaurant4ad1220ef964a520f0dc20e3",
    "time": "2012-05-08"
  },
  {
    "place": "Deli / Bodega4acd1704f964a520d0ca20e3",
    "time": "2012-05-08"
  },
  {
    "place": "Italian Restaurant4d99cbdc7cfc145660ac49f6",
    "time": "2012-05-09"
  },
  {
    "place": "Office4be9eccf415e20a15d78e4bb",
    "time": "2012-05-09"
  },
  {
    "place": "French Restaurant4ad1220ef964a520f0dc20e3",
    "time": "2012-05-10"
  },
  {
    "place": "Italian Restaurant4d99cbdc7cfc145660ac49f6",
    "time": "2012-05-11"
  },
  {
    "place": "Italian Restaurant4d99cbdc7cfc145660ac49f6",
    "time": "2012-05-11"
  },
  {
    "place": "Bar4101a680f964a5205a0b1fe3",
    "time": "2012-05-11"
  },
  {
    "place": "Bar463f4aa8f964a5204e461fe3",
    "time": "2012-05-11"
  },
  {
    "place": "Food & Drink Shop4cdd66934006a143be17e5b2",
    "time": "2012-05-12"
  },
  {
    "place": "Deli / Bodega4b31045ff964a5204bfe24e3",
    "time": "2012-05-12"
  },
  {
    "place": "Deli / Bodega4acd1704f964a520d0ca20e3",
    "time": "2012-05-12"
  },
  {
    "place": "Food & Drink Shop41390580f964a520dc1a1fe3",
    "time": "2012-05-13"
  },
  {
    "place": "Harbor / Marina4a070d7ef964a52020731fe3",
    "time": "2012-05-13"
  },
  {
    "place": "Park4e4be87914958c3abfad849c",
    "time": "2012-05-13"
  },
  {
    "place": "Korean Restaurant3fd66200f964a520c4e31ee3",
    "time": "2012-05-14"
  },
  {
    "place": "Taxi4a728f52f964a52037db1fe3",
    "time": "2012-05-14"
  },
  {
    "place": "Italian Restaurant4d99cbdc7cfc145660ac49f6",
    "time": "2012-05-14"
  },
  {
    "place": "Office4be9eccf415e20a15d78e4bb",
    "time": "2012-05-14"
  },
  {
    "place": "Deli / Bodega4ab11744f964a520046820e3",
    "time": "2012-05-14"
  },
  {
    "place": "Italian Restaurant4d99cbdc7cfc145660ac49f6",
    "time": "2012-05-15"
  },
  {
    "place": "Office4be9eccf415e20a15d78e4bb",
    "time": "2012-05-15"
  },
  {
    "place": "Chinese Restaurant4a804d3ff964a520e6f41fe3",
    "time": "2012-05-15"
  },
  {
    "place": "French Restaurant4ad1220ef964a520f0dc20e3",
    "time": "2012-05-15"
  },
  {
    "place": "Taxi4a728f52f964a52037db1fe3",
    "time": "2012-05-16"
  },
  {
    "place": "Italian Restaurant4d99cbdc7cfc145660ac49f6",
    "time": "2012-05-16"
  },
  {
    "place": "Office4be9eccf415e20a15d78e4bb",
    "time": "2012-05-16"
  },
  {
    "place": "Burger Joint4b06cc9ff964a52077f022e3",
    "time": "2012-05-16"
  },
  {
    "place": "Italian Restaurant4d99cbdc7cfc145660ac49f6",
    "time": "2012-05-17"
  },
  {
    "place": "Office4be9eccf415e20a15d78e4bb",
    "time": "2012-05-17"
  },
  {
    "place": "Deli / Bodega49ee004ef964a5200f681fe3",
    "time": "2012-05-17"
  },
  {
    "place": "Italian Restaurant4d99cbdc7cfc145660ac49f6",
    "time": "2012-05-18"
  },
  {
    "place": "Office4be9eccf415e20a15d78e4bb",
    "time": "2012-05-18"
  },
  {
    "place": "Bar3fd66200f964a520e6e61ee3",
    "time": "2012-05-18"
  },
  {
    "place": "Italian Restaurant4d99cbdc7cfc145660ac49f6",
    "time": "2012-05-21"
  },
  {
    "place": "Deli / Bodega4ab11744f964a520046820e3",
    "time": "2012-05-21"
  },
  {
    "place": "Office4be9eccf415e20a15d78e4bb",
    "time": "2012-05-21"
  },
  {
    "place": "Deli / Bodega4acd1704f964a520d0ca20e3",
    "time": "2012-05-21"
  },
  {
    "place": "Deli / Bodega4acd1704f964a520d0ca20e3",
    "time": "2012-05-22"
  },
  {
    "place": "Italian Restaurant4d99cbdc7cfc145660ac49f6",
    "time": "2012-05-22"
  },
  {
    "place": "Office4be9eccf415e20a15d78e4bb",
    "time": "2012-05-22"
  },
  {
    "place": "Deli / Bodega4ab11744f964a520046820e3",
    "time": "2012-05-23"
  },
  {
    "place": "Medical Center4acb4ef6f964a52073c320e3",
    "time": "2012-05-23"
  },
  {
    "place": "Italian Restaurant4d99cbdc7cfc145660ac49f6",
    "time": "2012-05-29"
  },
  {
    "place": "Office4be9eccf415e20a15d78e4bb",
    "time": "2012-05-29"
  },
  {
    "place": "Deli / Bodega4ab11744f964a520046820e3",
    "time": "2012-05-29"
  },
  {
    "place": "Italian Restaurant4d99cbdc7cfc145660ac49f6",
    "time": "2012-05-31"
  },
  {
    "place": "Office4be9eccf415e20a15d78e4bb",
    "time": "2012-05-31"
  },
  {
    "place": "Deli / Bodega4ab11744f964a520046820e3",
    "time": "2012-05-31"
  },
  {
    "place": "Government Building4aa667c7f964a520d54920e3",
    "time": "2012-06-01"
  },
  {
    "place": "Deli / Bodega4acd1704f964a520d0ca20e3",
    "time": "2012-06-02"
  },
  {
    "place": "Food & Drink Shop4c225ae47e85c9283ee5bb21",
    "time": "2012-06-03"
  },
  {
    "place": "Bar4101a680f964a5205a0b1fe3",
    "time": "2012-06-03"
  },
  {
    "place": "Deli / Bodega4acd1704f964a520d0ca20e3",
    "time": "2012-06-03"
  },
  {
    "place": "Italian Restaurant4d99cbdc7cfc145660ac49f6",
    "time": "2012-06-04"
  },
  {
    "place": "Office4be9eccf415e20a15d78e4bb",
    "time": "2012-06-04"
  },
  {
    "place": "Asian Restaurant4c6d63d2a437224bf0e32cb1",
    "time": "2012-06-04"
  },
  {
    "place": "Italian Restaurant4d99cbdc7cfc145660ac49f6",
    "time": "2012-06-05"
  },
  {
    "place": "Italian Restaurant4d99cbdc7cfc145660ac49f6",
    "time": "2012-06-06"
  },
  {
    "place": "Office4be9eccf415e20a15d78e4bb",
    "time": "2012-06-06"
  },
  {
    "place": "Bakery49f77b71f964a520a66c1fe3",
    "time": "2012-06-06"
  },
  {
    "place": "Italian Restaurant4d99cbdc7cfc145660ac49f6",
    "time": "2012-06-07"
  },
  {
    "place": "Office4be9eccf415e20a15d78e4bb",
    "time": "2012-06-07"
  },
  {
    "place": "Deli / Bodega4ab11744f964a520046820e3",
    "time": "2012-06-07"
  },
  {
    "place": "Bar4101a680f964a5205a0b1fe3",
    "time": "2012-06-07"
  },
  {
    "place": "Italian Restaurant4d99cbdc7cfc145660ac49f6",
    "time": "2012-06-08"
  },
  {
    "place": "Office4be9eccf415e20a15d78e4bb",
    "time": "2012-06-08"
  },
  {
    "place": "Deli / Bodega4acd1704f964a520d0ca20e3",
    "time": "2012-06-08"
  },
  {
    "place": "Beer Garden4da60c5d432dd03d359b8729",
    "time": "2012-06-09"
  },
  {
    "place": "Building4a0ad40df964a520af741fe3",
    "time": "2012-06-09"
  },
  {
    "place": "Bar4101a680f964a5205a0b1fe3",
    "time": "2012-06-09"
  },
  {
    "place": "Park40f1d480f964a5206a0a1fe3",
    "time": "2012-06-09"
  },
  {
    "place": "Pizza Place4b3d261af964a520fa8e25e3",
    "time": "2012-06-10"
  },
  {
    "place": "Food & Drink Shop4cdd66934006a143be17e5b2",
    "time": "2012-06-10"
  },
  {
    "place": "Food & Drink Shop49b80795f964a52034531fe3",
    "time": "2012-06-10"
  },
  {
    "place": "Taxi4a728f52f964a52037db1fe3",
    "time": "2012-06-11"
  },
  {
    "place": "Italian Restaurant4d99cbdc7cfc145660ac49f6",
    "time": "2012-06-11"
  },
  {
    "place": "Office4be9eccf415e20a15d78e4bb",
    "time": "2012-06-11"
  },
  {
    "place": "French Restaurant4ad1220ef964a520f0dc20e3",
    "time": "2012-06-12"
  },
  {
    "place": "Taxi4a728f52f964a52037db1fe3",
    "time": "2012-06-13"
  },
  {
    "place": "Italian Restaurant4d99cbdc7cfc145660ac49f6",
    "time": "2012-06-13"
  },
  {
    "place": "Office4be9eccf415e20a15d78e4bb",
    "time": "2012-06-13"
  },
  {
    "place": "Deli / Bodega4acd1704f964a520d0ca20e3",
    "time": "2012-06-16"
  },
  {
    "place": "Pizza Place4b3d261af964a520fa8e25e3",
    "time": "2012-06-16"
  },
  {
    "place": "Food & Drink Shop4cdd66934006a143be17e5b2",
    "time": "2012-06-17"
  },
  {
    "place": "Deli / Bodega4b31045ff964a5204bfe24e3",
    "time": "2012-06-17"
  },
  {
    "place": "Bar4101a680f964a5205a0b1fe3",
    "time": "2012-06-17"
  },
  {
    "place": "Taxi4a728f52f964a52037db1fe3",
    "time": "2012-06-18"
  },
  {
    "place": "Italian Restaurant4d99cbdc7cfc145660ac49f6",
    "time": "2012-06-18"
  },
  {
    "place": "Office4be9eccf415e20a15d78e4bb",
    "time": "2012-06-18"
  },
  {
    "place": "Mediterranean Restaurant4be9872661aca59346a28200",
    "time": "2012-06-18"
  },
  {
    "place": "French Restaurant4ad1220ef964a520f0dc20e3",
    "time": "2012-06-20"
  },
  {
    "place": "Train Station4be63bdd910020a1452cd414",
    "time": "2012-06-21"
  },
  {
    "place": "Train Station4e805b3fb63454247601cb0a",
    "time": "2012-06-21"
  },
  {
    "place": "Deli / Bodega4ab11744f964a520046820e3",
    "time": "2012-06-26"
  },
  {
    "place": "Post Office4a8c3a9ef964a5205c0d20e3",
    "time": "2012-06-27"
  },
  {
    "place": "Italian Restaurant4d99cbdc7cfc145660ac49f6",
    "time": "2012-06-27"
  }
]