[
  {
    "place": "Home (private)4e359a41814d2eb947337c4e",
    "time": "2012-04-03"
  },
  {
    "place": "Coffee Shop4b38e86ef964a520055225e3",
    "time": "2012-04-05"
  },
  {
    "place": "Home (private)4e359a41814d2eb947337c4e",
    "time": "2012-04-07"
  },
  {
    "place": "Department Store4ad48c46f964a52028e820e3",
    "time": "2012-04-07"
  },
  {
    "place": "Pizza Place4b6386f2f964a520fc802ae3",
    "time": "2012-04-08"
  },
  {
    "place": "Coffee Shop4b38e86ef964a520055225e3",
    "time": "2012-04-08"
  },
  {
    "place": "Home (private)4e359a41814d2eb947337c4e",
    "time": "2012-04-08"
  },
  {
    "place": "Pizza Place49db7169f964a520d25e1fe3",
    "time": "2012-04-09"
  },
  {
    "place": "Coffee Shop4e0a64c66365a1a46eb8d795",
    "time": "2012-04-09"
  },
  {
    "place": "Music Venue49be506df964a520a6541fe3",
    "time": "2012-04-11"
  },
  {
    "place": "Home (private)4e359a41814d2eb947337c4e",
    "time": "2012-04-11"
  },
  {
    "place": "Coffee Shop4b59fb2ff964a52084a528e3",
    "time": "2012-04-11"
  },
  {
    "place": "Home (private)4e359a41814d2eb947337c4e",
    "time": "2012-04-11"
  },
  {
    "place": "Gym / Fitness Center4c3531fded37a593a2417003",
    "time": "2012-04-12"
  },
  {
    "place": "Home (private)4e359a41814d2eb947337c4e",
    "time": "2012-04-12"
  },
  {
    "place": "Home (private)4e359a41814d2eb947337c4e",
    "time": "2012-04-12"
  },
  {
    "place": "Coffee Shop4b38e86ef964a520055225e3",
    "time": "2012-04-13"
  },
  {
    "place": "Home (private)4e359a41814d2eb947337c4e",
    "time": "2012-04-13"
  },
  {
    "place": "Home (private)4e359a41814d2eb947337c4e",
    "time": "2012-04-14"
  },
  {
    "place": "Food & Drink Shop4ce29677aba88cfa7d235cd7",
    "time": "2012-04-15"
  },
  {
    "place": "Food & Drink Shop4ce29677aba88cfa7d235cd7",
    "time": "2012-04-16"
  },
  {
    "place": "Coffee Shop4b38e86ef964a520055225e3",
    "time": "2012-04-18"
  },
  {
    "place": "Home (private)4e359a41814d2eb947337c4e",
    "time": "2012-04-18"
  },
  {
    "place": "Gym / Fitness Center4c3531fded37a593a2417003",
    "time": "2012-04-18"
  },
  {
    "place": "Coffee Shop4b38e86ef964a520055225e3",
    "time": "2012-04-19"
  },
  {
    "place": "Coffee Shop4b38e86ef964a520055225e3",
    "time": "2012-04-20"
  },
  {
    "place": "Coffee Shop4b38e86ef964a520055225e3",
    "time": "2012-04-21"
  },
  {
    "place": "Pizza Place49db7169f964a520d25e1fe3",
    "time": "2012-04-22"
  },
  {
    "place": "Coffee Shop4e0a64c66365a1a46eb8d795",
    "time": "2012-04-22"
  },
  {
    "place": "Home (private)4e359a41814d2eb947337c4e",
    "time": "2012-04-22"
  },
  {
    "place": "Food & Drink Shop4ce29677aba88cfa7d235cd7",
    "time": "2012-04-23"
  },
  {
    "place": "Home (private)4e359a41814d2eb947337c4e",
    "time": "2012-04-24"
  },
  {
    "place": "Food & Drink Shop4ce29677aba88cfa7d235cd7",
    "time": "2012-04-24"
  },
  {
    "place": "Pizza Place49db7169f964a520d25e1fe3",
    "time": "2012-04-24"
  },
  {
    "place": "Coffee Shop4e0a64c66365a1a46eb8d795",
    "time": "2012-04-24"
  },
  {
    "place": "Coffee Shop4b38e86ef964a520055225e3",
    "time": "2012-04-26"
  },
  {
    "place": "Coffee Shop4b38e86ef964a520055225e3",
    "time": "2012-04-27"
  },
  {
    "place": "Home (private)4e359a41814d2eb947337c4e",
    "time": "2012-04-27"
  },
  {
    "place": "Coffee Shop4b38e86ef964a520055225e3",
    "time": "2012-04-28"
  },
  {
    "place": "Falafel Restaurant4ba5765ff964a520a30939e3",
    "time": "2012-04-28"
  },
  {
    "place": "Food & Drink Shop4ce29677aba88cfa7d235cd7",
    "time": "2012-04-29"
  },
  {
    "place": "Bar4d7edde0b25d6dcbf981c242",
    "time": "2012-04-29"
  },
  {
    "place": "Food & Drink Shop4ce29677aba88cfa7d235cd7",
    "time": "2012-05-01"
  },
  {
    "place": "Coffee Shop4e0a64c66365a1a46eb8d795",
    "time": "2012-05-01"
  },
  {
    "place": "Coffee Shop4b38e86ef964a520055225e3",
    "time": "2012-05-02"
  },
  {
    "place": "Coffee Shop4b38e86ef964a520055225e3",
    "time": "2012-05-03"
  },
  {
    "place": "Home (private)4e359a41814d2eb947337c4e",
    "time": "2012-05-04"
  },
  {
    "place": "Coffee Shop4b38e86ef964a520055225e3",
    "time": "2012-05-04"
  },
  {
    "place": "Home (private)4e359a41814d2eb947337c4e",
    "time": "2012-05-04"
  },
  {
    "place": "Coffee Shop4b38e86ef964a520055225e3",
    "time": "2012-05-05"
  },
  {
    "place": "Food & Drink Shop4ce29677aba88cfa7d235cd7",
    "time": "2012-05-06"
  },
  {
    "place": "Pizza Place49db7169f964a520d25e1fe3",
    "time": "2012-05-07"
  },
  {
    "place": "Food & Drink Shop4ce29677aba88cfa7d235cd7",
    "time": "2012-05-07"
  },
  {
    "place": "Coffee Shop4e0a64c66365a1a46eb8d795",
    "time": "2012-05-08"
  },
  {
    "place": "Home (private)4e359a41814d2eb947337c4e",
    "time": "2012-05-08"
  },
  {
    "place": "Coffee Shop4b38e86ef964a520055225e3",
    "time": "2012-05-09"
  },
  {
    "place": "Coffee Shop4b38e86ef964a520055225e3",
    "time": "2012-05-11"
  },
  {
    "place": "Home (private)4e359a41814d2eb947337c4e",
    "time": "2012-05-12"
  },
  {
    "place": "Coffee Shop4b38e86ef964a520055225e3",
    "time": "2012-05-12"
  },
  {
    "place": "Home (private)4e359a41814d2eb947337c4e",
    "time": "2012-05-12"
  },
  {
    "place": "Food & Drink Shop4ce29677aba88cfa7d235cd7",
    "time": "2012-05-13"
  },
  {
    "place": "Home (private)4e359a41814d2eb947337c4e",
    "time": "2012-05-14"
  },
  {
    "place": "Food & Drink Shop4ce29677aba88cfa7d235cd7",
    "time": "2012-05-14"
  },
  {
    "place": "Gym / Fitness Center4c3531fded37a593a2417003",
    "time": "2012-05-15"
  },
  {
    "place": "Food & Drink Shop4ce29677aba88cfa7d235cd7",
    "time": "2012-05-15"
  },
  {
    "place": "Home (private)4e359a41814d2eb947337c4e",
    "time": "2012-05-15"
  },
  {
    "place": "Coffee Shop4b38e86ef964a520055225e3",
    "time": "2012-05-16"
  },
  {
    "place": "Coffee Shop4b38e86ef964a520055225e3",
    "time": "2012-05-17"
  },
  {
    "place": "Coffee Shop4b38e86ef964a520055225e3",
    "time": "2012-05-18"
  },
  {
    "place": "Coffee Shop4b38e86ef964a520055225e3",
    "time": "2012-05-19"
  },
  {
    "place": "Train Station49f76cc2f964a5209d6c1fe3",
    "time": "2012-05-25"
  },
  {
    "place": "Bar4f18e49be4b00ed3534f78a8",
    "time": "2012-05-25"
  },
  {
    "place": "Stadium49d60947f964a520a85c1fe3",
    "time": "2012-05-25"
  },
  {
    "place": "Home (private)4e359a41814d2eb947337c4e",
    "time": "2012-05-26"
  },
  {
    "place": "Food & Drink Shop4ce29677aba88cfa7d235cd7",
    "time": "2012-05-27"
  },
  {
    "place": "Home (private)4e359a41814d2eb947337c4e",
    "time": "2012-05-27"
  },
  {
    "place": "Cuban Restaurant4ac8f5e6f964a5209abd20e3",
    "time": "2012-05-28"
  },
  {
    "place": "Home (private)4e359a41814d2eb947337c4e",
    "time": "2012-05-28"
  },
  {
    "place": "Home (private)4f0257de0cd658d3b3475fb8",
    "time": "2012-05-28"
  },
  {
    "place": "Food & Drink Shop4ce29677aba88cfa7d235cd7",
    "time": "2012-05-29"
  },
  {
    "place": "Coffee Shop4e0a64c66365a1a46eb8d795",
    "time": "2012-05-29"
  },
  {
    "place": "Home (private)4e359a41814d2eb947337c4e",
    "time": "2012-05-29"
  },
  {
    "place": "Home (private)4e359a41814d2eb947337c4e",
    "time": "2012-05-31"
  },
  {
    "place": "Coffee Shop4b38e86ef964a520055225e3",
    "time": "2012-06-01"
  },
  {
    "place": "Hotel4b04cc30f964a520a65622e3",
    "time": "2012-06-03"
  },
  {
    "place": "Home (private)4e359a41814d2eb947337c4e",
    "time": "2012-06-03"
  },
  {
    "place": "Pizza Place49db7169f964a520d25e1fe3",
    "time": "2012-06-03"
  },
  {
    "place": "Coffee Shop4e0a64c66365a1a46eb8d795",
    "time": "2012-06-03"
  },
  {
    "place": "Food & Drink Shop4ce29677aba88cfa7d235cd7",
    "time": "2012-06-05"
  },
  {
    "place": "Coffee Shop4b38e86ef964a520055225e3",
    "time": "2012-06-06"
  },
  {
    "place": "Sushi Restaurant4bbf695798f495215d9dd263",
    "time": "2012-06-06"
  },
  {
    "place": "Gym / Fitness Center4c3531fded37a593a2417003",
    "time": "2012-06-07"
  },
  {
    "place": "Coffee Shop4b38e86ef964a520055225e3",
    "time": "2012-06-07"
  },
  {
    "place": "Home (private)4e359a41814d2eb947337c4e",
    "time": "2012-06-07"
  },
  {
    "place": "Home (private)4e359a41814d2eb947337c4e",
    "time": "2012-06-08"
  },
  {
    "place": "Spanish Restaurant4b9e9c64f964a520aaf336e3",
    "time": "2012-06-09"
  },
  {
    "place": "Home (private)4e359a41814d2eb947337c4e",
    "time": "2012-06-09"
  },
  {
    "place": "Coffee Shop4b38e86ef964a520055225e3",
    "time": "2012-06-09"
  },
  {
    "place": "Food & Drink Shop4ce29677aba88cfa7d235cd7",
    "time": "2012-06-10"
  },
  {
    "place": "Home (private)4e359a41814d2eb947337c4e",
    "time": "2012-06-10"
  },
  {
    "place": "Pizza Place49db7169f964a520d25e1fe3",
    "time": "2012-06-11"
  },
  {
    "place": "Food & Drink Shop4ce29677aba88cfa7d235cd7",
    "time": "2012-06-11"
  },
  {
    "place": "Home (private)4e359a41814d2eb947337c4e",
    "time": "2012-06-12"
  },
  {
    "place": "Food & Drink Shop4ce29677aba88cfa7d235cd7",
    "time": "2012-06-12"
  },
  {
    "place": "Coffee Shop4b38e86ef964a520055225e3",
    "time": "2012-06-12"
  },
  {
    "place": "Home (private)4e359a41814d2eb947337c4e",
    "time": "2012-06-21"
  },
  {
    "place": "Food & Drink Shop4ce29677aba88cfa7d235cd7",
    "time": "2012-06-25"
  },
  {
    "place": "Pizza Place49db7169f964a520d25e1fe3",
    "time": "2012-06-26"
  },
  {
    "place": "Mexican Restaurant4bb6b19146d4a593efb0c6c0",
    "time": "2012-06-26"
  }
]