[
  {
    "place": "Bar425f0400f964a5200a211fe3",
    "time": "2012-04-04"
  },
  {
    "place": "Caf\u00c3\u00a94d2d39b469f42d439d16ad8a",
    "time": "2012-04-04"
  },
  {
    "place": "Donut Shop4e4dd622bd4101d0d79c5d3d",
    "time": "2012-04-05"
  },
  {
    "place": "Mexican Restaurant453ce76cf964a5201a3c1fe3",
    "time": "2012-04-07"
  },
  {
    "place": "Residential Building (Apartment / Condo)4dc71e0c2271f2705156ca30",
    "time": "2012-04-08"
  },
  {
    "place": "Dumpling Restaurant49eeaf08f964a52078681fe3",
    "time": "2012-04-09"
  },
  {
    "place": "Seafood Restaurant49cf9efbf964a520b05a1fe3",
    "time": "2012-04-09"
  },
  {
    "place": "Electronics Store4e666cc9a809de01ca03a8f5",
    "time": "2012-04-10"
  },
  {
    "place": "Italian Restaurant4a7f3e1af964a52069f31fe3",
    "time": "2012-04-10"
  },
  {
    "place": "Breakfast Spot4e0530f6ae60a90eabbacc01",
    "time": "2012-04-11"
  },
  {
    "place": "Food & Drink Shop4a319883f964a520fc991fe3",
    "time": "2012-04-11"
  },
  {
    "place": "Electronics Store4afd738bf964a520e92722e3",
    "time": "2012-04-11"
  },
  {
    "place": "Food & Drink Shop4d22805ce56f6ea802f3851d",
    "time": "2012-04-12"
  },
  {
    "place": "Post Office4c290c54ed0ac9b60f3061aa",
    "time": "2012-04-12"
  },
  {
    "place": "Bar49e2c5bff964a5205c621fe3",
    "time": "2012-04-13"
  },
  {
    "place": "Latin American Restaurant4e4ed1e2c65bb313ba7d4cd7",
    "time": "2012-04-14"
  },
  {
    "place": "Bar3fd66200f964a520ede61ee3",
    "time": "2012-04-15"
  },
  {
    "place": "Sushi Restaurant4b49208ef964a520046726e3",
    "time": "2012-04-15"
  },
  {
    "place": "Government Building4b28f083f964a520599624e3",
    "time": "2012-04-16"
  },
  {
    "place": "American Restaurant4eb135c849013eafe65c25af",
    "time": "2012-04-16"
  },
  {
    "place": "Government Building4b28f083f964a520599624e3",
    "time": "2012-04-17"
  },
  {
    "place": "Fast Food Restaurant4b44b15ef964a5209df925e3",
    "time": "2012-04-17"
  },
  {
    "place": "American Restaurant4eb135c849013eafe65c25af",
    "time": "2012-04-17"
  },
  {
    "place": "Park4a9548e0f964a520da2220e3",
    "time": "2012-04-17"
  },
  {
    "place": "Movie Theater4b6884a6f964a520767d2be3",
    "time": "2012-04-17"
  },
  {
    "place": "Government Building4b28f083f964a520599624e3",
    "time": "2012-04-18"
  },
  {
    "place": "American Restaurant4eb135c849013eafe65c25af",
    "time": "2012-04-18"
  },
  {
    "place": "Donut Shop4e4dd622bd4101d0d79c5d3d",
    "time": "2012-04-19"
  },
  {
    "place": "Latin American Restaurant4bedb6b1767dc9b6045cd3e9",
    "time": "2012-04-19"
  },
  {
    "place": "Donut Shop4e4dd622bd4101d0d79c5d3d",
    "time": "2012-04-20"
  },
  {
    "place": "Latin American Restaurant4bedb6b1767dc9b6045cd3e9",
    "time": "2012-04-20"
  },
  {
    "place": "Italian Restaurant4ab2f56cf964a5201d6d20e3",
    "time": "2012-04-21"
  },
  {
    "place": "Bar4a3f055ff964a520a4a31fe3",
    "time": "2012-04-22"
  },
  {
    "place": "Italian Restaurant4a7f3e1af964a52069f31fe3",
    "time": "2012-04-23"
  },
  {
    "place": "Donut Shop4c08e1907e3fc928a3f1f082",
    "time": "2012-04-24"
  },
  {
    "place": "Latin American Restaurant4bedb6b1767dc9b6045cd3e9",
    "time": "2012-04-25"
  },
  {
    "place": "Latin American Restaurant4e4ed1e2c65bb313ba7d4cd7",
    "time": "2012-04-25"
  },
  {
    "place": "Donut Shop4e4dd622bd4101d0d79c5d3d",
    "time": "2012-04-26"
  },
  {
    "place": "Food & Drink Shop4c1464a9b7b9c9283f63ab37",
    "time": "2012-05-01"
  },
  {
    "place": "Wings Joint4b402638f964a5203eb625e3",
    "time": "2012-05-02"
  },
  {
    "place": "Donut Shop4c08e1907e3fc928a3f1f082",
    "time": "2012-05-02"
  },
  {
    "place": "Donut Shop4c08e1907e3fc928a3f1f082",
    "time": "2012-05-03"
  },
  {
    "place": "Latin American Restaurant4bedb6b1767dc9b6045cd3e9",
    "time": "2012-05-03"
  },
  {
    "place": "Korean Restaurant4d0050f5fedba090c9f78cbd",
    "time": "2012-05-05"
  },
  {
    "place": "Drugstore / Pharmacy4ad3f4e5f964a52011e720e3",
    "time": "2012-05-06"
  },
  {
    "place": "Food & Drink Shop4d22805ce56f6ea802f3851d",
    "time": "2012-05-07"
  },
  {
    "place": "Movie Theater4a4138ebf964a520f9a41fe3",
    "time": "2012-05-08"
  },
  {
    "place": "Seafood Restaurant4ee6755393adf8e1a9857695",
    "time": "2012-05-08"
  },
  {
    "place": "Medical Center4b48d308f964a520bc5826e3",
    "time": "2012-05-10"
  },
  {
    "place": "American Restaurant3fd66200f964a52080e81ee3",
    "time": "2012-05-11"
  },
  {
    "place": "Hotel4a0c2e7bf964a52014751fe3",
    "time": "2012-05-13"
  },
  {
    "place": "Pizza Place4ab30382f964a5204d6d20e3",
    "time": "2012-05-13"
  },
  {
    "place": "Bar4a80de92f964a5205cf61fe3",
    "time": "2012-05-15"
  },
  {
    "place": "Movie Theater4a4138ebf964a520f9a41fe3",
    "time": "2012-05-15"
  },
  {
    "place": "Italian Restaurant4a7f3e1af964a52069f31fe3",
    "time": "2012-05-16"
  },
  {
    "place": "Mexican Restaurant4b2c33d0f964a520aac324e3",
    "time": "2012-05-18"
  },
  {
    "place": "Bar419d3780f964a5202c1e1fe3",
    "time": "2012-05-19"
  },
  {
    "place": "Donut Shop4c08e1907e3fc928a3f1f082",
    "time": "2012-05-19"
  },
  {
    "place": "Caf\u00c3\u00a94e77e40118387f865961f673",
    "time": "2012-05-19"
  },
  {
    "place": "Medical Center4a9d8f44f964a5207e3820e3",
    "time": "2012-05-21"
  },
  {
    "place": "Fast Food Restaurant4bbad97d935e95210a982890",
    "time": "2012-05-21"
  },
  {
    "place": "Latin American Restaurant4e4ed1e2c65bb313ba7d4cd7",
    "time": "2012-05-21"
  },
  {
    "place": "Steakhouse4b930abef964a520ed3034e3",
    "time": "2012-05-23"
  },
  {
    "place": "Bar49f47a7af964a5200a6b1fe3",
    "time": "2012-05-25"
  },
  {
    "place": "Korean Restaurant4b912a24f964a52089a733e3",
    "time": "2012-05-26"
  },
  {
    "place": "Food & Drink Shop4d22805ce56f6ea802f3851d",
    "time": "2012-05-27"
  },
  {
    "place": "Burrito Place44d8c155f964a52079361fe3",
    "time": "2012-05-28"
  },
  {
    "place": "Ice Cream Shop4b4faca8f964a520481027e3",
    "time": "2012-05-28"
  },
  {
    "place": "Latin American Restaurant4bedb6b1767dc9b6045cd3e9",
    "time": "2012-05-29"
  },
  {
    "place": "Caf\u00c3\u00a94d2d39b469f42d439d16ad8a",
    "time": "2012-05-29"
  },
  {
    "place": "Movie Theater4a4138ebf964a520f9a41fe3",
    "time": "2012-05-29"
  },
  {
    "place": "American Restaurant4a91817af964a520761a20e3",
    "time": "2012-05-30"
  },
  {
    "place": "Caf\u00c3\u00a94d2d39b469f42d439d16ad8a",
    "time": "2012-06-01"
  },
  {
    "place": "Home (private)4db497430437fa536a2f520b",
    "time": "2012-06-06"
  },
  {
    "place": "General College & University4c65d356e1da1b8dfe6999c3",
    "time": "2012-06-06"
  },
  {
    "place": "Pizza Place4ba2bf47f964a520db1538e3",
    "time": "2012-06-06"
  },
  {
    "place": "Latin American Restaurant4e4ed1e2c65bb313ba7d4cd7",
    "time": "2012-06-09"
  },
  {
    "place": "Ferry4dd821ddd22d38ef42fa8ce6",
    "time": "2012-06-09"
  },
  {
    "place": "Burger Joint4b32cf4af964a520521425e3",
    "time": "2012-06-12"
  },
  {
    "place": "American Restaurant4f628d17e4b0ce431b69bafc",
    "time": "2012-06-13"
  },
  {
    "place": "Donut Shop4c08e1907e3fc928a3f1f082",
    "time": "2012-06-15"
  },
  {
    "place": "Subway4bd1b96a77b29c7439118d82",
    "time": "2012-06-16"
  },
  {
    "place": "Beach49e4a769f964a52015631fe3",
    "time": "2012-06-16"
  },
  {
    "place": "Park4a7b02b9f964a520cbe91fe3",
    "time": "2012-06-16"
  },
  {
    "place": "Hot Dog Joint4bafaa5df964a52066153ce3",
    "time": "2012-06-16"
  },
  {
    "place": "Department Store4ccdd077063a721e78e2969a",
    "time": "2012-06-17"
  },
  {
    "place": "Bakery49dbfd0ff964a520385f1fe3",
    "time": "2012-06-17"
  },
  {
    "place": "Donut Shop4c08e1907e3fc928a3f1f082",
    "time": "2012-06-19"
  },
  {
    "place": "Latin American Restaurant4e4ed1e2c65bb313ba7d4cd7",
    "time": "2012-06-30"
  },
  {
    "place": "Clothing Store3fd66200f964a520b7e51ee3",
    "time": "2012-06-30"
  },
  {
    "place": "Italian Restaurant4a85f88df964a520e0ff1fe3",
    "time": "2012-07-01"
  },
  {
    "place": "Food & Drink Shop4c225ae47e85c9283ee5bb21",
    "time": "2012-07-01"
  },
  {
    "place": "Bar3fd66200f964a520cce51ee3",
    "time": "2012-07-02"
  },
  {
    "place": "Drugstore / Pharmacy4b3784fff964a520c24125e3",
    "time": "2012-07-02"
  },
  {
    "place": "Mexican Restaurant4e0bb606e4cd92446c4112b0",
    "time": "2012-07-04"
  },
  {
    "place": "Bar4e6dfab3b61cf2b03c254994",
    "time": "2012-07-04"
  },
  {
    "place": "Latin American Restaurant4a453e4cf964a520f1a71fe3",
    "time": "2012-07-04"
  },
  {
    "place": "Spa / Massage4c292dbd97d00f47a10d41ea",
    "time": "2012-07-06"
  },
  {
    "place": "Food & Drink Shop4d22805ce56f6ea802f3851d",
    "time": "2012-07-06"
  },
  {
    "place": "Burrito Place4e8ce56230f82b1224d151f6",
    "time": "2012-07-07"
  },
  {
    "place": "Diner4af2eb34f964a52030e921e3",
    "time": "2012-07-09"
  },
  {
    "place": "Fast Food Restaurant4bbad97d935e95210a982890",
    "time": "2012-07-09"
  },
  {
    "place": "Drugstore / Pharmacy4e600f182271573ad6925df2",
    "time": "2012-07-09"
  },
  {
    "place": "BBQ Joint43fec232f964a520fd2f1fe3",
    "time": "2012-07-10"
  },
  {
    "place": "Food & Drink Shop4a319883f964a520fc991fe3",
    "time": "2012-07-11"
  },
  {
    "place": "Electronics Store4afd738bf964a520e92722e3",
    "time": "2012-07-11"
  },
  {
    "place": "Department Store4b228638f964a5204f4824e3",
    "time": "2012-07-11"
  },
  {
    "place": "Post Office4c290c54ed0ac9b60f3061aa",
    "time": "2012-07-12"
  },
  {
    "place": "Airport43a52546f964a520532c1fe3",
    "time": "2012-07-17"
  },
  {
    "place": "Food & Drink Shop4d22805ce56f6ea802f3851d",
    "time": "2012-07-17"
  },
  {
    "place": "Residential Building (Apartment / Condo)500b2621e4b01d293bdebf39",
    "time": "2012-07-21"
  },
  {
    "place": "Burrito Place44d8c155f964a52079361fe3",
    "time": "2012-07-21"
  },
  {
    "place": "Italian Restaurant4a7f3e1af964a52069f31fe3",
    "time": "2012-07-27"
  },
  {
    "place": "American Restaurant3fd66200f964a52081e81ee3",
    "time": "2012-07-28"
  },
  {
    "place": "Sandwich Place4a60ef50f964a52080c11fe3",
    "time": "2012-07-30"
  },
  {
    "place": "Bar3fd66200f964a5207cea1ee3",
    "time": "2012-08-10"
  },
  {
    "place": "Bar4a80de92f964a5205cf61fe3",
    "time": "2012-08-11"
  },
  {
    "place": "Chinese Restaurant4ce5c392f86537044a659ec4",
    "time": "2012-08-13"
  },
  {
    "place": "Movie Theater4a4138ebf964a520f9a41fe3",
    "time": "2012-08-14"
  },
  {
    "place": "Bar4bb41f3ff187a593aeec13f8",
    "time": "2012-08-18"
  },
  {
    "place": "Southern / Soul Food Restaurant4a7a2a6cf964a520bee81fe3",
    "time": "2012-09-09"
  },
  {
    "place": "American Restaurant4a541923f964a52008b31fe3",
    "time": "2012-10-12"
  },
  {
    "place": "Coffee Shop3fd66200f964a52048e81ee3",
    "time": "2012-10-12"
  },
  {
    "place": "Movie Theater4a617558f964a52071c21fe3",
    "time": "2012-10-23"
  },
  {
    "place": "Caf\u00c3\u00a94dea657bfa76cc1b8ae3bb30",
    "time": "2012-11-20"
  },
  {
    "place": "Ice Cream Shop4b59d288f964a520379a28e3",
    "time": "2012-11-20"
  },
  {
    "place": "Seafood Restaurant49f52666f964a5209d6b1fe3",
    "time": "2012-12-04"
  },
  {
    "place": "Bar4137b400f964a520d01a1fe3",
    "time": "2012-12-21"
  },
  {
    "place": "Burger Joint4c0d0b440e9e9521c7d13cbd",
    "time": "2013-01-08"
  },
  {
    "place": "Seafood Restaurant4abce679f964a5209d8720e3",
    "time": "2013-01-09"
  },
  {
    "place": "Medical Center4d4d62459ee13704deff828b",
    "time": "2013-01-10"
  }
]