[
  {
    "place": "Gym / Fitness Center4e80a57429c2299aa3addd5d",
    "time": "2012-04-03"
  },
  {
    "place": "Gym / Fitness Center4e80a57429c2299aa3addd5d",
    "time": "2012-04-04"
  },
  {
    "place": "Gym / Fitness Center4ccae29119f376b02f775eea",
    "time": "2012-04-04"
  },
  {
    "place": "Gym / Fitness Center4ccae29119f376b02f775eea",
    "time": "2012-04-06"
  },
  {
    "place": "Gym / Fitness Center4e80a57429c2299aa3addd5d",
    "time": "2012-04-10"
  },
  {
    "place": "Gym / Fitness Center4b6188cef964a52026172ae3",
    "time": "2012-04-10"
  },
  {
    "place": "Gym / Fitness Center4e80a57429c2299aa3addd5d",
    "time": "2012-04-10"
  },
  {
    "place": "Seafood Restaurant4b00a2abf964a520264022e3",
    "time": "2012-04-11"
  },
  {
    "place": "Gym / Fitness Center4b6188cef964a52026172ae3",
    "time": "2012-04-13"
  },
  {
    "place": "Salon / Barbershop4c5d82f217f3b713900213e6",
    "time": "2012-04-13"
  },
  {
    "place": "Gym / Fitness Center4e80a57429c2299aa3addd5d",
    "time": "2012-04-13"
  },
  {
    "place": "Gym / Fitness Center4b6188cef964a52026172ae3",
    "time": "2012-04-15"
  },
  {
    "place": "Gym / Fitness Center4e80a57429c2299aa3addd5d",
    "time": "2012-04-15"
  },
  {
    "place": "Gym / Fitness Center4e80a57429c2299aa3addd5d",
    "time": "2012-04-16"
  },
  {
    "place": "Gym / Fitness Center4e80a57429c2299aa3addd5d",
    "time": "2012-04-16"
  },
  {
    "place": "Gym / Fitness Center4e80a57429c2299aa3addd5d",
    "time": "2012-04-17"
  },
  {
    "place": "Gym / Fitness Center4b6188cef964a52026172ae3",
    "time": "2012-04-17"
  },
  {
    "place": "Gym / Fitness Center4e80a57429c2299aa3addd5d",
    "time": "2012-04-17"
  },
  {
    "place": "Gym / Fitness Center4e80a57429c2299aa3addd5d",
    "time": "2012-04-19"
  },
  {
    "place": "Gym / Fitness Center4b6188cef964a52026172ae3",
    "time": "2012-04-19"
  },
  {
    "place": "Residential Building (Apartment / Condo)4cb235079b34199c0017b963",
    "time": "2012-04-20"
  },
  {
    "place": "Gym / Fitness Center4b6188cef964a52026172ae3",
    "time": "2012-04-20"
  },
  {
    "place": "Bank4bb617e82f70c9b638db8430",
    "time": "2012-04-20"
  },
  {
    "place": "Cosmetics Shop4c1a5eb6eac020a15d2743c2",
    "time": "2012-04-20"
  },
  {
    "place": "Bar4eec0f6d722ea77616031adc",
    "time": "2012-04-21"
  },
  {
    "place": "Gym / Fitness Center4e80a57429c2299aa3addd5d",
    "time": "2012-04-21"
  },
  {
    "place": "Residential Building (Apartment / Condo)4cb235079b34199c0017b963",
    "time": "2012-04-21"
  },
  {
    "place": "Other Nightlife4c056685d3842d7fea21be41",
    "time": "2012-04-22"
  },
  {
    "place": "Gym / Fitness Center4b6188cef964a52026172ae3",
    "time": "2012-04-22"
  },
  {
    "place": "Gym / Fitness Center4e80a57429c2299aa3addd5d",
    "time": "2012-04-22"
  },
  {
    "place": "Food & Drink Shop4b70977af964a520f7232de3",
    "time": "2012-04-22"
  },
  {
    "place": "Gym / Fitness Center4e80a57429c2299aa3addd5d",
    "time": "2012-04-23"
  },
  {
    "place": "Gym / Fitness Center4e80a57429c2299aa3addd5d",
    "time": "2012-04-23"
  },
  {
    "place": "Gym / Fitness Center4e80a57429c2299aa3addd5d",
    "time": "2012-04-24"
  },
  {
    "place": "Gym / Fitness Center4e80a57429c2299aa3addd5d",
    "time": "2012-04-27"
  },
  {
    "place": "Movie Theater4b89fa8ff964a520e85932e3",
    "time": "2012-04-27"
  },
  {
    "place": "Gym / Fitness Center4b44b650f964a5201afa25e3",
    "time": "2012-04-28"
  },
  {
    "place": "Medical Center4b9e3d22f964a5203bd436e3",
    "time": "2012-04-28"
  },
  {
    "place": "Gym / Fitness Center4b6188cef964a52026172ae3",
    "time": "2012-04-28"
  },
  {
    "place": "Residential Building (Apartment / Condo)4cb235079b34199c0017b963",
    "time": "2012-04-28"
  },
  {
    "place": "Food & Drink Shop4b9d1195f964a520cc8c36e3",
    "time": "2012-04-28"
  },
  {
    "place": "Gym / Fitness Center4b6188cef964a52026172ae3",
    "time": "2012-04-29"
  },
  {
    "place": "Gym / Fitness Center4b44b650f964a5201afa25e3",
    "time": "2012-05-01"
  },
  {
    "place": "Gym / Fitness Center4e80a57429c2299aa3addd5d",
    "time": "2012-05-01"
  },
  {
    "place": "Gym / Fitness Center4e80a57429c2299aa3addd5d",
    "time": "2012-05-02"
  },
  {
    "place": "Gym / Fitness Center4e80a57429c2299aa3addd5d",
    "time": "2012-05-03"
  },
  {
    "place": "Pizza Place4d07b4da54d0236a529fffd5",
    "time": "2012-05-03"
  },
  {
    "place": "Gym / Fitness Center4b6188cef964a52026172ae3",
    "time": "2012-05-03"
  },
  {
    "place": "Bank4bb617e82f70c9b638db8430",
    "time": "2012-05-04"
  },
  {
    "place": "Gym / Fitness Center4b6188cef964a52026172ae3",
    "time": "2012-05-05"
  },
  {
    "place": "Gym / Fitness Center4b44b650f964a5201afa25e3",
    "time": "2012-05-05"
  },
  {
    "place": "Gym / Fitness Center4b44b650f964a5201afa25e3",
    "time": "2012-05-06"
  },
  {
    "place": "Gym / Fitness Center4e80a57429c2299aa3addd5d",
    "time": "2012-05-06"
  },
  {
    "place": "Gym / Fitness Center4e80a57429c2299aa3addd5d",
    "time": "2012-05-07"
  },
  {
    "place": "Gym / Fitness Center4b44b650f964a5201afa25e3",
    "time": "2012-05-07"
  },
  {
    "place": "Gym / Fitness Center4e80a57429c2299aa3addd5d",
    "time": "2012-05-08"
  },
  {
    "place": "Gym / Fitness Center4e80a57429c2299aa3addd5d",
    "time": "2012-05-09"
  },
  {
    "place": "Event Space4ba430fdf964a520988a38e3",
    "time": "2012-05-09"
  },
  {
    "place": "Pet Store4c65e038b80abe9ab8a3cbe5",
    "time": "2012-05-11"
  },
  {
    "place": "Gym / Fitness Center4e80a57429c2299aa3addd5d",
    "time": "2012-05-11"
  },
  {
    "place": "Pool4de020d218380dc4dd279544",
    "time": "2012-05-12"
  },
  {
    "place": "Gym / Fitness Center4b6188cef964a52026172ae3",
    "time": "2012-05-13"
  },
  {
    "place": "Gym / Fitness Center4e80a57429c2299aa3addd5d",
    "time": "2012-05-14"
  },
  {
    "place": "Gym / Fitness Center4e80a57429c2299aa3addd5d",
    "time": "2012-05-14"
  },
  {
    "place": "Gym / Fitness Center4e80a57429c2299aa3addd5d",
    "time": "2012-05-14"
  },
  {
    "place": "Gym / Fitness Center4b44b650f964a5201afa25e3",
    "time": "2012-05-16"
  },
  {
    "place": "Gym / Fitness Center4e80a57429c2299aa3addd5d",
    "time": "2012-05-16"
  },
  {
    "place": "Residential Building (Apartment / Condo)4cb235079b34199c0017b963",
    "time": "2012-05-17"
  },
  {
    "place": "Gym / Fitness Center4e80a57429c2299aa3addd5d",
    "time": "2012-05-17"
  },
  {
    "place": "Medical Center4b8487cbf964a5206d3a31e3",
    "time": "2012-05-17"
  },
  {
    "place": "Government Building4c657833c2ead13a56fdb080",
    "time": "2012-05-17"
  },
  {
    "place": "Gym / Fitness Center4e80a57429c2299aa3addd5d",
    "time": "2012-05-17"
  },
  {
    "place": "Medical Center4e1c4028a809bd1305c3a7cc",
    "time": "2012-05-18"
  },
  {
    "place": "Gym / Fitness Center4e80a57429c2299aa3addd5d",
    "time": "2012-05-21"
  },
  {
    "place": "Home (private)4e152c687d8b7c3377008721",
    "time": "2012-05-21"
  },
  {
    "place": "Gym / Fitness Center4e80a57429c2299aa3addd5d",
    "time": "2012-05-21"
  },
  {
    "place": "Home (private)4e152c687d8b7c3377008721",
    "time": "2012-05-22"
  },
  {
    "place": "Gym / Fitness Center4e80a57429c2299aa3addd5d",
    "time": "2012-05-22"
  },
  {
    "place": "Home (private)4e152c687d8b7c3377008721",
    "time": "2012-05-22"
  },
  {
    "place": "Home (private)4e152c687d8b7c3377008721",
    "time": "2012-05-24"
  },
  {
    "place": "Gym / Fitness Center4e80a57429c2299aa3addd5d",
    "time": "2012-05-24"
  },
  {
    "place": "Airport4e612ea4e4cdf1e2bec0768f",
    "time": "2012-05-25"
  },
  {
    "place": "Gym / Fitness Center4e80a57429c2299aa3addd5d",
    "time": "2012-05-29"
  },
  {
    "place": "Gym / Fitness Center4e80a57429c2299aa3addd5d",
    "time": "2012-05-29"
  },
  {
    "place": "Home (private)4e152c687d8b7c3377008721",
    "time": "2012-05-30"
  },
  {
    "place": "Gym / Fitness Center4e80a57429c2299aa3addd5d",
    "time": "2012-05-31"
  },
  {
    "place": "Gym / Fitness Center4e80a57429c2299aa3addd5d",
    "time": "2012-06-01"
  },
  {
    "place": "Gym / Fitness Center4b44b650f964a5201afa25e3",
    "time": "2012-06-01"
  },
  {
    "place": "Gym / Fitness Center4e80a57429c2299aa3addd5d",
    "time": "2012-06-01"
  },
  {
    "place": "Gym / Fitness Center4e80a57429c2299aa3addd5d",
    "time": "2012-06-01"
  },
  {
    "place": "Gym / Fitness Center4b6188cef964a52026172ae3",
    "time": "2012-06-03"
  },
  {
    "place": "Gym / Fitness Center4e80a57429c2299aa3addd5d",
    "time": "2012-06-04"
  },
  {
    "place": "Gym / Fitness Center4b44b650f964a5201afa25e3",
    "time": "2012-06-04"
  },
  {
    "place": "Gym / Fitness Center4e80a57429c2299aa3addd5d",
    "time": "2012-06-05"
  },
  {
    "place": "Gym / Fitness Center4e80a57429c2299aa3addd5d",
    "time": "2012-06-05"
  },
  {
    "place": "Gym / Fitness Center4e80a57429c2299aa3addd5d",
    "time": "2012-06-06"
  },
  {
    "place": "Gym / Fitness Center4b44b650f964a5201afa25e3",
    "time": "2012-06-06"
  },
  {
    "place": "Seafood Restaurant4b00a2abf964a520264022e3",
    "time": "2012-06-06"
  },
  {
    "place": "Medical Center4b9e3d22f964a5203bd436e3",
    "time": "2012-06-06"
  },
  {
    "place": "Gym / Fitness Center4e80a57429c2299aa3addd5d",
    "time": "2012-06-07"
  },
  {
    "place": "Gym / Fitness Center4e80a57429c2299aa3addd5d",
    "time": "2012-06-07"
  },
  {
    "place": "Gym / Fitness Center4b44b650f964a5201afa25e3",
    "time": "2012-06-08"
  },
  {
    "place": "Gym / Fitness Center4e80a57429c2299aa3addd5d",
    "time": "2012-06-08"
  },
  {
    "place": "Home (private)4e152c687d8b7c3377008721",
    "time": "2012-06-09"
  },
  {
    "place": "Residential Building (Apartment / Condo)4cb235079b34199c0017b963",
    "time": "2012-06-09"
  },
  {
    "place": "Diner4b021b27f964a520bf4722e3",
    "time": "2012-06-09"
  },
  {
    "place": "Gym / Fitness Center4b44b650f964a5201afa25e3",
    "time": "2012-06-09"
  },
  {
    "place": "Food & Drink Shop4b70977af964a520f7232de3",
    "time": "2012-06-09"
  },
  {
    "place": "Food & Drink Shop4bbd28b1a8cf76b07485b1fd",
    "time": "2012-06-09"
  },
  {
    "place": "Gym / Fitness Center4b6188cef964a52026172ae3",
    "time": "2012-06-10"
  },
  {
    "place": "Gym / Fitness Center4e80a57429c2299aa3addd5d",
    "time": "2012-06-10"
  },
  {
    "place": "Gym / Fitness Center4e80a57429c2299aa3addd5d",
    "time": "2012-06-11"
  },
  {
    "place": "Gym / Fitness Center4b44b650f964a5201afa25e3",
    "time": "2012-06-11"
  },
  {
    "place": "Home (private)4e152c687d8b7c3377008721",
    "time": "2012-06-11"
  },
  {
    "place": "Gym / Fitness Center4e80a57429c2299aa3addd5d",
    "time": "2012-06-11"
  },
  {
    "place": "Gym / Fitness Center4e80a57429c2299aa3addd5d",
    "time": "2012-06-12"
  },
  {
    "place": "Gym / Fitness Center4e80a57429c2299aa3addd5d",
    "time": "2012-06-12"
  },
  {
    "place": "Gym / Fitness Center4e80a57429c2299aa3addd5d",
    "time": "2012-06-13"
  },
  {
    "place": "Gym / Fitness Center4b44b650f964a5201afa25e3",
    "time": "2012-06-13"
  },
  {
    "place": "Residential Building (Apartment / Condo)4cb235079b34199c0017b963",
    "time": "2012-06-14"
  },
  {
    "place": "Gym / Fitness Center4b44b650f964a5201afa25e3",
    "time": "2012-06-14"
  },
  {
    "place": "Gym / Fitness Center4b6188cef964a52026172ae3",
    "time": "2012-06-17"
  },
  {
    "place": "Home (private)4e152c687d8b7c3377008721",
    "time": "2012-06-18"
  },
  {
    "place": "Gym / Fitness Center4e80a57429c2299aa3addd5d",
    "time": "2012-06-18"
  },
  {
    "place": "Gym / Fitness Center4b44b650f964a5201afa25e3",
    "time": "2012-06-18"
  },
  {
    "place": "Gym / Fitness Center4e80a57429c2299aa3addd5d",
    "time": "2012-06-19"
  },
  {
    "place": "Gym / Fitness Center4e80a57429c2299aa3addd5d",
    "time": "2012-06-20"
  },
  {
    "place": "Residential Building (Apartment / Condo)4cb235079b34199c0017b963",
    "time": "2012-06-21"
  },
  {
    "place": "Gym / Fitness Center4e80a57429c2299aa3addd5d",
    "time": "2012-06-21"
  },
  {
    "place": "Gym / Fitness Center4e80a57429c2299aa3addd5d",
    "time": "2012-06-21"
  },
  {
    "place": "Gym / Fitness Center4e80a57429c2299aa3addd5d",
    "time": "2012-06-25"
  },
  {
    "place": "Gym / Fitness Center4e80a57429c2299aa3addd5d",
    "time": "2012-06-27"
  },
  {
    "place": "Gym / Fitness Center4b44b650f964a5201afa25e3",
    "time": "2012-06-27"
  },
  {
    "place": "Gym / Fitness Center4e80a57429c2299aa3addd5d",
    "time": "2012-07-02"
  },
  {
    "place": "Gym / Fitness Center4e80a57429c2299aa3addd5d",
    "time": "2012-07-02"
  },
  {
    "place": "Gym / Fitness Center4b44b650f964a5201afa25e3",
    "time": "2012-07-02"
  },
  {
    "place": "Gym / Fitness Center4b44b650f964a5201afa25e3",
    "time": "2012-07-03"
  },
  {
    "place": "Gym / Fitness Center4e80a57429c2299aa3addd5d",
    "time": "2012-07-03"
  },
  {
    "place": "Gym / Fitness Center4e80a57429c2299aa3addd5d",
    "time": "2012-07-03"
  },
  {
    "place": "Residential Building (Apartment / Condo)4cb235079b34199c0017b963",
    "time": "2012-07-04"
  },
  {
    "place": "Gym / Fitness Center4e80a57429c2299aa3addd5d",
    "time": "2012-07-05"
  },
  {
    "place": "Gym / Fitness Center4b44b650f964a5201afa25e3",
    "time": "2012-07-05"
  },
  {
    "place": "Road4bd60e476f649521893770ec",
    "time": "2012-07-05"
  },
  {
    "place": "Gym / Fitness Center4e80a57429c2299aa3addd5d",
    "time": "2012-07-06"
  },
  {
    "place": "Gym / Fitness Center4e80a57429c2299aa3addd5d",
    "time": "2012-07-09"
  },
  {
    "place": "Department Store4b5b389ff964a5203fec28e3",
    "time": "2012-07-09"
  },
  {
    "place": "Gym / Fitness Center4e80a57429c2299aa3addd5d",
    "time": "2012-07-09"
  },
  {
    "place": "Gym / Fitness Center4e80a57429c2299aa3addd5d",
    "time": "2012-07-10"
  },
  {
    "place": "Gym / Fitness Center4e80a57429c2299aa3addd5d",
    "time": "2012-07-11"
  },
  {
    "place": "Gym / Fitness Center4e80a57429c2299aa3addd5d",
    "time": "2012-07-11"
  },
  {
    "place": "Gym / Fitness Center4e80a57429c2299aa3addd5d",
    "time": "2012-07-12"
  },
  {
    "place": "Residential Building (Apartment / Condo)4dee787db3ad424827484232",
    "time": "2012-07-12"
  },
  {
    "place": "Medical Center4e1c4028a809bd1305c3a7cc",
    "time": "2012-07-13"
  },
  {
    "place": "Dessert Shop4459d3c2f964a520d8321fe3",
    "time": "2012-07-14"
  },
  {
    "place": "Home (private)4e152c687d8b7c3377008721",
    "time": "2012-07-14"
  },
  {
    "place": "Gym / Fitness Center4b6188cef964a52026172ae3",
    "time": "2012-07-15"
  },
  {
    "place": "Gym / Fitness Center4b6188cef964a52026172ae3",
    "time": "2012-07-15"
  },
  {
    "place": "Food & Drink Shop4b70977af964a520f7232de3",
    "time": "2012-07-17"
  },
  {
    "place": "Gym / Fitness Center4e80a57429c2299aa3addd5d",
    "time": "2012-07-18"
  },
  {
    "place": "Gym / Fitness Center4b44b650f964a5201afa25e3",
    "time": "2012-10-24"
  },
  {
    "place": "City4c9adfc978ffa093317d7075",
    "time": "2012-10-24"
  },
  {
    "place": "Cupcake Shop3fd66200f964a5203be71ee3",
    "time": "2012-10-25"
  },
  {
    "place": "Road4bd6f47d29eb9c7462db95e1",
    "time": "2012-10-25"
  },
  {
    "place": "Road4bd6f47d29eb9c7462db95e1",
    "time": "2012-10-25"
  },
  {
    "place": "Gym / Fitness Center4e80a57429c2299aa3addd5d",
    "time": "2012-10-25"
  },
  {
    "place": "Gym / Fitness Center4b44b650f964a5201afa25e3",
    "time": "2012-10-25"
  },
  {
    "place": "Road4bd6f47d29eb9c7462db95e1",
    "time": "2012-10-25"
  },
  {
    "place": "Gym / Fitness Center4e80a57429c2299aa3addd5d",
    "time": "2012-10-25"
  },
  {
    "place": "Home (private)505f9aeae4b043282fd02387",
    "time": "2012-10-26"
  },
  {
    "place": "Bar4ad04456f964a520c7d720e3",
    "time": "2012-10-26"
  },
  {
    "place": "Bar4eec0f6d722ea77616031adc",
    "time": "2012-10-26"
  },
  {
    "place": "Movie Theater4b89fa8ff964a520e85932e3",
    "time": "2012-10-28"
  },
  {
    "place": "Road4bd6f47d29eb9c7462db95e1",
    "time": "2012-10-28"
  },
  {
    "place": "Gym / Fitness Center4e80a57429c2299aa3addd5d",
    "time": "2012-10-28"
  },
  {
    "place": "Home (private)505f9aeae4b043282fd02387",
    "time": "2012-10-31"
  },
  {
    "place": "Bank4fe873b1e4b0176e6a2a8ff8",
    "time": "2012-11-01"
  },
  {
    "place": "Road4bd6f47d29eb9c7462db95e1",
    "time": "2012-11-01"
  },
  {
    "place": "Road4bd6f47d29eb9c7462db95e1",
    "time": "2012-11-02"
  },
  {
    "place": "Road4bd6f47d29eb9c7462db95e1",
    "time": "2012-11-02"
  },
  {
    "place": "Gym / Fitness Center4e80a57429c2299aa3addd5d",
    "time": "2012-11-02"
  },
  {
    "place": "Gym / Fitness Center4b44b650f964a5201afa25e3",
    "time": "2012-11-05"
  },
  {
    "place": "Drugstore / Pharmacy4c71377fd7fab1f76e9260c9",
    "time": "2012-11-05"
  },
  {
    "place": "Home (private)505f9aeae4b043282fd02387",
    "time": "2012-11-05"
  },
  {
    "place": "Home (private)505f9aeae4b043282fd02387",
    "time": "2012-11-06"
  },
  {
    "place": "Gym / Fitness Center4b44b650f964a5201afa25e3",
    "time": "2012-11-06"
  },
  {
    "place": "Home (private)505f9aeae4b043282fd02387",
    "time": "2012-11-07"
  },
  {
    "place": "Road4bf5cedf4d5f20a1833d98fe",
    "time": "2012-11-07"
  },
  {
    "place": "Road4bd6f47d29eb9c7462db95e1",
    "time": "2012-11-07"
  },
  {
    "place": "Road4bd6f47d29eb9c7462db95e1",
    "time": "2012-11-07"
  },
  {
    "place": "Road4bd6f47d29eb9c7462db95e1",
    "time": "2012-11-09"
  },
  {
    "place": "Gym / Fitness Center4e80a57429c2299aa3addd5d",
    "time": "2012-11-09"
  },
  {
    "place": "Italian Restaurant4fee54e1e4b0647d7c31b296",
    "time": "2012-11-10"
  },
  {
    "place": "Movie Theater4b1158fdf964a520b07a23e3",
    "time": "2012-11-10"
  },
  {
    "place": "Food & Drink Shop4b70977af964a520f7232de3",
    "time": "2012-11-12"
  },
  {
    "place": "Road4bd6f47d29eb9c7462db95e1",
    "time": "2012-11-12"
  },
  {
    "place": "Gym / Fitness Center4e80a57429c2299aa3addd5d",
    "time": "2012-11-12"
  },
  {
    "place": "Road4bd6f47d29eb9c7462db95e1",
    "time": "2012-11-12"
  },
  {
    "place": "Gym / Fitness Center4e80a57429c2299aa3addd5d",
    "time": "2012-11-12"
  },
  {
    "place": "Road4bd6f47d29eb9c7462db95e1",
    "time": "2012-11-13"
  },
  {
    "place": "Gym / Fitness Center4e80a57429c2299aa3addd5d",
    "time": "2012-11-13"
  },
  {
    "place": "Road4bd6f47d29eb9c7462db95e1",
    "time": "2012-11-15"
  },
  {
    "place": "Home (private)505f9aeae4b043282fd02387",
    "time": "2012-11-16"
  },
  {
    "place": "Road4bd6f47d29eb9c7462db95e1",
    "time": "2012-11-16"
  },
  {
    "place": "Gym / Fitness Center4e80a57429c2299aa3addd5d",
    "time": "2012-11-16"
  },
  {
    "place": "Home (private)505f9aeae4b043282fd02387",
    "time": "2012-11-17"
  },
  {
    "place": "Gym / Fitness Center4e80a57429c2299aa3addd5d",
    "time": "2012-11-19"
  },
  {
    "place": "Road4bd6f47d29eb9c7462db95e1",
    "time": "2012-11-20"
  },
  {
    "place": "Road4bd6f47d29eb9c7462db95e1",
    "time": "2012-11-20"
  },
  {
    "place": "Automotive Shop4eb55ca3b634a048601d53da",
    "time": "2012-11-20"
  },
  {
    "place": "Road4bd6f47d29eb9c7462db95e1",
    "time": "2012-11-20"
  },
  {
    "place": "Gym / Fitness Center4e80a57429c2299aa3addd5d",
    "time": "2012-11-20"
  },
  {
    "place": "Road4bd6f47d29eb9c7462db95e1",
    "time": "2012-11-21"
  },
  {
    "place": "Gym / Fitness Center4e80a57429c2299aa3addd5d",
    "time": "2012-11-21"
  },
  {
    "place": "Road4bd6f47d29eb9c7462db95e1",
    "time": "2012-11-21"
  },
  {
    "place": "American Restaurant4ada577af964a520932121e3",
    "time": "2012-11-24"
  },
  {
    "place": "Bowling Alley4ba032ecf964a520096137e3",
    "time": "2012-11-24"
  },
  {
    "place": "Bank4fe873b1e4b0176e6a2a8ff8",
    "time": "2012-11-24"
  },
  {
    "place": "Road4bd6f47d29eb9c7462db95e1",
    "time": "2012-11-25"
  },
  {
    "place": "Gym / Fitness Center4e80a57429c2299aa3addd5d",
    "time": "2012-11-25"
  },
  {
    "place": "Road4e3b2a69a809ba757bebd3f7",
    "time": "2012-11-26"
  },
  {
    "place": "Home (private)505f9aeae4b043282fd02387",
    "time": "2012-11-26"
  },
  {
    "place": "Road4bd6f47d29eb9c7462db95e1",
    "time": "2012-11-26"
  },
  {
    "place": "Road4bd6f47d29eb9c7462db95e1",
    "time": "2012-11-26"
  },
  {
    "place": "Road4bd6f47d29eb9c7462db95e1",
    "time": "2012-11-27"
  },
  {
    "place": "Gym / Fitness Center4b44b650f964a5201afa25e3",
    "time": "2012-11-27"
  },
  {
    "place": "Road4bd6f47d29eb9c7462db95e1",
    "time": "2012-12-01"
  },
  {
    "place": "Home (private)505f9aeae4b043282fd02387",
    "time": "2012-12-03"
  },
  {
    "place": "Road4bd6f47d29eb9c7462db95e1",
    "time": "2012-12-03"
  },
  {
    "place": "Road4bd6f47d29eb9c7462db95e1",
    "time": "2012-12-04"
  },
  {
    "place": "Gym / Fitness Center4e80a57429c2299aa3addd5d",
    "time": "2012-12-04"
  },
  {
    "place": "Road4bd6f47d29eb9c7462db95e1",
    "time": "2012-12-04"
  },
  {
    "place": "Home (private)505f9aeae4b043282fd02387",
    "time": "2012-12-05"
  },
  {
    "place": "Road4bd6f47d29eb9c7462db95e1",
    "time": "2012-12-05"
  },
  {
    "place": "Road4bd6f47d29eb9c7462db95e1",
    "time": "2012-12-05"
  },
  {
    "place": "Gym / Fitness Center4e80a57429c2299aa3addd5d",
    "time": "2012-12-05"
  },
  {
    "place": "Road4bd6f47d29eb9c7462db95e1",
    "time": "2012-12-05"
  },
  {
    "place": "Home (private)505f9aeae4b043282fd02387",
    "time": "2012-12-06"
  },
  {
    "place": "Road500b350de4b0381c846cbb6c",
    "time": "2012-12-06"
  },
  {
    "place": "Road4bd6f47d29eb9c7462db95e1",
    "time": "2012-12-06"
  },
  {
    "place": "Road4bd6f47d29eb9c7462db95e1",
    "time": "2012-12-06"
  },
  {
    "place": "Road4bd6f47d29eb9c7462db95e1",
    "time": "2012-12-07"
  },
  {
    "place": "Gym / Fitness Center4e80a57429c2299aa3addd5d",
    "time": "2012-12-07"
  },
  {
    "place": "Gym / Fitness Center4b6188cef964a52026172ae3",
    "time": "2012-12-09"
  },
  {
    "place": "Home (private)505f9aeae4b043282fd02387",
    "time": "2012-12-10"
  },
  {
    "place": "Road4bf5cedf4d5f20a1833d98fe",
    "time": "2012-12-10"
  },
  {
    "place": "Home (private)505f9aeae4b043282fd02387",
    "time": "2012-12-10"
  },
  {
    "place": "Food & Drink Shop4b9af9cdf964a52083e835e3",
    "time": "2012-12-10"
  },
  {
    "place": "Department Store4b5b5a84f964a5201af728e3",
    "time": "2012-12-10"
  },
  {
    "place": "Road4bd6f47d29eb9c7462db95e1",
    "time": "2012-12-10"
  },
  {
    "place": "Road4bd6f47d29eb9c7462db95e1",
    "time": "2012-12-11"
  },
  {
    "place": "Road4bd6f47d29eb9c7462db95e1",
    "time": "2012-12-12"
  },
  {
    "place": "Gym / Fitness Center4e80a57429c2299aa3addd5d",
    "time": "2012-12-12"
  },
  {
    "place": "Road4bd6f47d29eb9c7462db95e1",
    "time": "2012-12-13"
  },
  {
    "place": "Gym / Fitness Center4b44b650f964a5201afa25e3",
    "time": "2012-12-13"
  },
  {
    "place": "Gym / Fitness Center4e80a57429c2299aa3addd5d",
    "time": "2012-12-17"
  },
  {
    "place": "Gym / Fitness Center4e80a57429c2299aa3addd5d",
    "time": "2012-12-17"
  },
  {
    "place": "Road4bd6f47d29eb9c7462db95e1",
    "time": "2012-12-17"
  },
  {
    "place": "Gym / Fitness Center4b44b650f964a5201afa25e3",
    "time": "2012-12-17"
  },
  {
    "place": "Road4bd6f47d29eb9c7462db95e1",
    "time": "2012-12-18"
  },
  {
    "place": "Gym / Fitness Center4e80a57429c2299aa3addd5d",
    "time": "2012-12-18"
  },
  {
    "place": "Gym / Fitness Center4b44b650f964a5201afa25e3",
    "time": "2012-12-18"
  },
  {
    "place": "Road4bd6f47d29eb9c7462db95e1",
    "time": "2012-12-19"
  },
  {
    "place": "Road4bd6f47d29eb9c7462db95e1",
    "time": "2012-12-19"
  },
  {
    "place": "Gym / Fitness Center4e80a57429c2299aa3addd5d",
    "time": "2012-12-19"
  },
  {
    "place": "Road4bd6f47d29eb9c7462db95e1",
    "time": "2012-12-19"
  },
  {
    "place": "Road4bd6f47d29eb9c7462db95e1",
    "time": "2012-12-19"
  },
  {
    "place": "Gym / Fitness Center4e80a57429c2299aa3addd5d",
    "time": "2012-12-19"
  },
  {
    "place": "Road4bd6f47d29eb9c7462db95e1",
    "time": "2012-12-20"
  },
  {
    "place": "Gym / Fitness Center4e80a57429c2299aa3addd5d",
    "time": "2012-12-20"
  },
  {
    "place": "Gym / Fitness Center4b44b650f964a5201afa25e3",
    "time": "2012-12-21"
  },
  {
    "place": "Bank4fe873b1e4b0176e6a2a8ff8",
    "time": "2012-12-21"
  },
  {
    "place": "Home (private)505f9aeae4b043282fd02387",
    "time": "2012-12-21"
  },
  {
    "place": "Road4bd6f47d29eb9c7462db95e1",
    "time": "2012-12-21"
  },
  {
    "place": "Pet Store4c65e038b80abe9ab8a3cbe5",
    "time": "2012-12-21"
  },
  {
    "place": "Gym / Fitness Center4e80a57429c2299aa3addd5d",
    "time": "2012-12-21"
  },
  {
    "place": "Dessert Shop4b8039b2f964a520605e30e3",
    "time": "2012-12-21"
  },
  {
    "place": "Gym / Fitness Center4b6188cef964a52026172ae3",
    "time": "2012-12-23"
  },
  {
    "place": "Road4bd6f47d29eb9c7462db95e1",
    "time": "2012-12-31"
  },
  {
    "place": "Drugstore / Pharmacy4c1ba8d98b3aa593538d975f",
    "time": "2012-12-31"
  },
  {
    "place": "Home (private)505f9aeae4b043282fd02387",
    "time": "2013-01-02"
  },
  {
    "place": "Road4bd6f47d29eb9c7462db95e1",
    "time": "2013-01-02"
  },
  {
    "place": "Gym / Fitness Center4e80a57429c2299aa3addd5d",
    "time": "2013-01-02"
  },
  {
    "place": "Gym / Fitness Center4b44b650f964a5201afa25e3",
    "time": "2013-01-02"
  },
  {
    "place": "Road4bd6f47d29eb9c7462db95e1",
    "time": "2013-01-02"
  },
  {
    "place": "Road4bd6f47d29eb9c7462db95e1",
    "time": "2013-01-02"
  },
  {
    "place": "Gym / Fitness Center4e80a57429c2299aa3addd5d",
    "time": "2013-01-02"
  },
  {
    "place": "Road4bd6f47d29eb9c7462db95e1",
    "time": "2013-01-03"
  },
  {
    "place": "Gym / Fitness Center4e80a57429c2299aa3addd5d",
    "time": "2013-01-03"
  },
  {
    "place": "Automotive Shop4eb55ca3b634a048601d53da",
    "time": "2013-01-03"
  },
  {
    "place": "Home (private)505f9aeae4b043282fd02387",
    "time": "2013-01-03"
  },
  {
    "place": "Home (private)505f9aeae4b043282fd02387",
    "time": "2013-01-04"
  },
  {
    "place": "Road4bd6f47d29eb9c7462db95e1",
    "time": "2013-01-04"
  },
  {
    "place": "Cosmetics Shop4c1a5eb6eac020a15d2743c2",
    "time": "2013-01-04"
  },
  {
    "place": "Home (private)505f9aeae4b043282fd02387",
    "time": "2013-01-06"
  },
  {
    "place": "Drugstore / Pharmacy4c1ba8d98b3aa593538d975f",
    "time": "2013-01-07"
  },
  {
    "place": "Road4bd6f47d29eb9c7462db95e1",
    "time": "2013-01-07"
  },
  {
    "place": "Road4bd6f47d29eb9c7462db95e1",
    "time": "2013-01-08"
  },
  {
    "place": "Gym / Fitness Center4e80a57429c2299aa3addd5d",
    "time": "2013-01-08"
  },
  {
    "place": "Home (private)505f9aeae4b043282fd02387",
    "time": "2013-01-09"
  },
  {
    "place": "Road4bf5cedf4d5f20a1833d98fe",
    "time": "2013-01-09"
  },
  {
    "place": "Road4bd6f47d29eb9c7462db95e1",
    "time": "2013-01-09"
  },
  {
    "place": "Gym / Fitness Center4e80a57429c2299aa3addd5d",
    "time": "2013-01-09"
  },
  {
    "place": "Road4bf5cedf4d5f20a1833d98fe",
    "time": "2013-01-09"
  },
  {
    "place": "Gym / Fitness Center4b44b650f964a5201afa25e3",
    "time": "2013-01-09"
  },
  {
    "place": "Gym / Fitness Center4e80a57429c2299aa3addd5d",
    "time": "2013-01-09"
  },
  {
    "place": "Road4bd6f47d29eb9c7462db95e1",
    "time": "2013-01-09"
  },
  {
    "place": "Road4bd6f47d29eb9c7462db95e1",
    "time": "2013-01-10"
  },
  {
    "place": "Road4bf5cedf4d5f20a1833d98fe",
    "time": "2013-01-10"
  },
  {
    "place": "Gym / Fitness Center4b44b650f964a5201afa25e3",
    "time": "2013-01-10"
  },
  {
    "place": "Road4bd6f47d29eb9c7462db95e1",
    "time": "2013-01-11"
  },
  {
    "place": "Road4bf5cedf4d5f20a1833d98fe",
    "time": "2013-01-11"
  },
  {
    "place": "Gym / Fitness Center4e80a57429c2299aa3addd5d",
    "time": "2013-01-11"
  },
  {
    "place": "Gym / Fitness Center4b44b650f964a5201afa25e3",
    "time": "2013-01-12"
  },
  {
    "place": "Home (private)505f9aeae4b043282fd02387",
    "time": "2013-01-12"
  },
  {
    "place": "Road4bf5cedf4d5f20a1833d98fe",
    "time": "2013-01-13"
  },
  {
    "place": "Road4bf5cedf4d5f20a1833d98fe",
    "time": "2013-01-13"
  },
  {
    "place": "Road4bf5cedf4d5f20a1833d98fe",
    "time": "2013-01-13"
  },
  {
    "place": "Home (private)505f9aeae4b043282fd02387",
    "time": "2013-01-13"
  },
  {
    "place": "Gym / Fitness Center4e80a57429c2299aa3addd5d",
    "time": "2013-01-14"
  },
  {
    "place": "Gym / Fitness Center4b44b650f964a5201afa25e3",
    "time": "2013-01-14"
  },
  {
    "place": "Road4fa2a1dae4b0e8e3875c7354",
    "time": "2013-01-14"
  },
  {
    "place": "Road4fa2a1dae4b0e8e3875c7354",
    "time": "2013-01-14"
  },
  {
    "place": "Road4bf5cedf4d5f20a1833d98fe",
    "time": "2013-01-14"
  },
  {
    "place": "Gym / Fitness Center4e80a57429c2299aa3addd5d",
    "time": "2013-01-15"
  },
  {
    "place": "Road4bd6f47d29eb9c7462db95e1",
    "time": "2013-01-16"
  },
  {
    "place": "Gym / Fitness Center4b44b650f964a5201afa25e3",
    "time": "2013-01-16"
  },
  {
    "place": "Building50b36ee0e4b0428a11730a51",
    "time": "2013-01-16"
  },
  {
    "place": "Road4bf5cedf4d5f20a1833d98fe",
    "time": "2013-01-17"
  },
  {
    "place": "Road4bd6f47d29eb9c7462db95e1",
    "time": "2013-01-17"
  },
  {
    "place": "Road4bd6f47d29eb9c7462db95e1",
    "time": "2013-01-17"
  },
  {
    "place": "Gym / Fitness Center4e80a57429c2299aa3addd5d",
    "time": "2013-01-17"
  },
  {
    "place": "Gym / Fitness Center4b44b650f964a5201afa25e3",
    "time": "2013-01-17"
  },
  {
    "place": "Home (private)505f9aeae4b043282fd02387",
    "time": "2013-01-17"
  },
  {
    "place": "Building50b36ee0e4b0428a11730a51",
    "time": "2013-01-17"
  },
  {
    "place": "Gym / Fitness Center4e80a57429c2299aa3addd5d",
    "time": "2013-01-18"
  },
  {
    "place": "Road4bf5cedf4d5f20a1833d98fe",
    "time": "2013-01-18"
  },
  {
    "place": "Gym / Fitness Center4b44b650f964a5201afa25e3",
    "time": "2013-01-18"
  },
  {
    "place": "Salon / Barbershop50a7c53ee4b042e200bac94f",
    "time": "2013-01-18"
  },
  {
    "place": "Road4bf5cedf4d5f20a1833d98fe",
    "time": "2013-01-21"
  },
  {
    "place": "Road4bd6f47d29eb9c7462db95e1",
    "time": "2013-01-21"
  },
  {
    "place": "Road500b350de4b0381c846cbb6c",
    "time": "2013-01-21"
  },
  {
    "place": "Gym / Fitness Center4e80a57429c2299aa3addd5d",
    "time": "2013-01-21"
  },
  {
    "place": "Gym / Fitness Center4e80a57429c2299aa3addd5d",
    "time": "2013-01-21"
  },
  {
    "place": "Road4bd6f47d29eb9c7462db95e1",
    "time": "2013-01-24"
  },
  {
    "place": "Gym / Fitness Center4e80a57429c2299aa3addd5d",
    "time": "2013-01-24"
  },
  {
    "place": "Gym / Fitness Center4e80a57429c2299aa3addd5d",
    "time": "2013-01-25"
  },
  {
    "place": "Bank4fe873b1e4b0176e6a2a8ff8",
    "time": "2013-01-25"
  },
  {
    "place": "Gas Station / Garage4bdba4b32a3a0f479e3fb0b6",
    "time": "2013-01-25"
  },
  {
    "place": "Home (private)505f9aeae4b043282fd02387",
    "time": "2013-01-25"
  },
  {
    "place": "Seafood Restaurant4b00a2abf964a520264022e3",
    "time": "2013-01-26"
  },
  {
    "place": "Road4bf81a008d30d13a4f1c0018",
    "time": "2013-01-27"
  },
  {
    "place": "Bar4bd8df990115c9b618ba7580",
    "time": "2013-01-27"
  },
  {
    "place": "Movie Theater4691e9b3f964a520c2481fe3",
    "time": "2013-01-27"
  },
  {
    "place": "Home (private)505f9aeae4b043282fd02387",
    "time": "2013-01-27"
  },
  {
    "place": "Road4bd6f47d29eb9c7462db95e1",
    "time": "2013-01-27"
  },
  {
    "place": "Gym / Fitness Center4e80a57429c2299aa3addd5d",
    "time": "2013-01-27"
  },
  {
    "place": "Italian Restaurant4b8e0f65f964a520331733e3",
    "time": "2013-01-28"
  },
  {
    "place": "Road4bd6f47d29eb9c7462db95e1",
    "time": "2013-01-28"
  },
  {
    "place": "Gym / Fitness Center4e80a57429c2299aa3addd5d",
    "time": "2013-01-28"
  },
  {
    "place": "Road4bd6f47d29eb9c7462db95e1",
    "time": "2013-01-29"
  },
  {
    "place": "Gym / Fitness Center4e80a57429c2299aa3addd5d",
    "time": "2013-01-29"
  },
  {
    "place": "Road4bd6f47d29eb9c7462db95e1",
    "time": "2013-01-29"
  },
  {
    "place": "Gym / Fitness Center4e80a57429c2299aa3addd5d",
    "time": "2013-01-29"
  },
  {
    "place": "Paper / Office Supplies Store4b97a475f964a520390d35e3",
    "time": "2013-01-30"
  },
  {
    "place": "Home (private)505f9aeae4b043282fd02387",
    "time": "2013-01-30"
  },
  {
    "place": "Gym / Fitness Center4b44b650f964a5201afa25e3",
    "time": "2013-01-30"
  },
  {
    "place": "Drugstore / Pharmacy4c1ba8d98b3aa593538d975f",
    "time": "2013-01-30"
  },
  {
    "place": "Home (private)505f9aeae4b043282fd02387",
    "time": "2013-01-31"
  },
  {
    "place": "Gym / Fitness Center4e80a57429c2299aa3addd5d",
    "time": "2013-01-31"
  },
  {
    "place": "Home (private)505f9aeae4b043282fd02387",
    "time": "2013-01-31"
  },
  {
    "place": "City4ca38721d7c337043fc0a162",
    "time": "2013-01-31"
  },
  {
    "place": "Road4bd6f47d29eb9c7462db95e1",
    "time": "2013-01-31"
  },
  {
    "place": "Road510b983be4b0873bb57ca312",
    "time": "2013-02-01"
  },
  {
    "place": "Gym / Fitness Center4e80a57429c2299aa3addd5d",
    "time": "2013-02-01"
  },
  {
    "place": "Gym / Fitness Center4b44b650f964a5201afa25e3",
    "time": "2013-02-01"
  },
  {
    "place": "Home (private)505f9aeae4b043282fd02387",
    "time": "2013-02-01"
  },
  {
    "place": "Food & Drink Shop4b70977af964a520f7232de3",
    "time": "2013-02-02"
  },
  {
    "place": "Food & Drink Shop4b70977af964a520f7232de3",
    "time": "2013-02-02"
  },
  {
    "place": "Road4bf5cedf4d5f20a1833d98fe",
    "time": "2013-02-02"
  },
  {
    "place": "Gym / Fitness Center4e80a57429c2299aa3addd5d",
    "time": "2013-02-03"
  },
  {
    "place": "Clothing Store4c0a7940009a0f47b868e9bf",
    "time": "2013-02-03"
  },
  {
    "place": "Bank4fe873b1e4b0176e6a2a8ff8",
    "time": "2013-02-04"
  },
  {
    "place": "Government Building4b44aab8f964a520f3f825e3",
    "time": "2013-02-04"
  },
  {
    "place": "Bookstore4b42360bf964a5200ecf25e3",
    "time": "2013-02-04"
  },
  {
    "place": "Road4bd6f47d29eb9c7462db95e1",
    "time": "2013-02-05"
  },
  {
    "place": "Road4bf5cedf4d5f20a1833d98fe",
    "time": "2013-02-06"
  },
  {
    "place": "Road4bd6f47d29eb9c7462db95e1",
    "time": "2013-02-06"
  },
  {
    "place": "Gym / Fitness Center4e80a57429c2299aa3addd5d",
    "time": "2013-02-06"
  },
  {
    "place": "Gym / Fitness Center4b44b650f964a5201afa25e3",
    "time": "2013-02-06"
  },
  {
    "place": "Road4bd6f47d29eb9c7462db95e1",
    "time": "2013-02-06"
  },
  {
    "place": "Gym / Fitness Center4e80a57429c2299aa3addd5d",
    "time": "2013-02-07"
  },
  {
    "place": "Road4bd6f47d29eb9c7462db95e1",
    "time": "2013-02-07"
  },
  {
    "place": "Road4bfbd408f214a59364abaf0e",
    "time": "2013-02-07"
  },
  {
    "place": "Gym / Fitness Center4e80a57429c2299aa3addd5d",
    "time": "2013-02-07"
  },
  {
    "place": "Bar4abadd53f964a520338320e3",
    "time": "2013-02-08"
  },
  {
    "place": "Road510b983be4b0873bb57ca312",
    "time": "2013-02-11"
  },
  {
    "place": "Gym / Fitness Center4e80a57429c2299aa3addd5d",
    "time": "2013-02-11"
  },
  {
    "place": "Road4bd6f47d29eb9c7462db95e1",
    "time": "2013-02-12"
  },
  {
    "place": "Road510b983be4b0873bb57ca312",
    "time": "2013-02-12"
  },
  {
    "place": "Gym / Fitness Center4b44b650f964a5201afa25e3",
    "time": "2013-02-12"
  },
  {
    "place": "Home (private)505f9aeae4b043282fd02387",
    "time": "2013-02-12"
  },
  {
    "place": "Gym / Fitness Center4e80a57429c2299aa3addd5d",
    "time": "2013-02-13"
  },
  {
    "place": "Home (private)505f9aeae4b043282fd02387",
    "time": "2013-02-13"
  },
  {
    "place": "Gym / Fitness Center4e80a57429c2299aa3addd5d",
    "time": "2013-02-13"
  },
  {
    "place": "Road510b983be4b0873bb57ca312",
    "time": "2013-02-14"
  },
  {
    "place": "Road4bd6f47d29eb9c7462db95e1",
    "time": "2013-02-14"
  },
  {
    "place": "Gym / Fitness Center4e80a57429c2299aa3addd5d",
    "time": "2013-02-14"
  }
]