[
  {
    "place": "Bus Station4840fe6bf964a52030501fe3",
    "time": "2012-04-04"
  },
  {
    "place": "Bookstore40d38200f964a52041011fe3",
    "time": "2012-04-04"
  },
  {
    "place": "College Academic Building4d5bf2d1590b224b809e9b6d",
    "time": "2012-04-04"
  },
  {
    "place": "College Academic Building4d5bf2d1590b224b809e9b6d",
    "time": "2012-04-09"
  },
  {
    "place": "Bus Station4840fe6bf964a52030501fe3",
    "time": "2012-04-09"
  },
  {
    "place": "College Academic Building4d5bf2d1590b224b809e9b6d",
    "time": "2012-04-11"
  },
  {
    "place": "College Academic Building4d5bf2d1590b224b809e9b6d",
    "time": "2012-04-13"
  },
  {
    "place": "College Academic Building4d5bf2d1590b224b809e9b6d",
    "time": "2012-04-16"
  },
  {
    "place": "Bus Station4840fe6bf964a52030501fe3",
    "time": "2012-04-16"
  },
  {
    "place": "Bus Station4840fe6bf964a52030501fe3",
    "time": "2012-04-17"
  },
  {
    "place": "Bus Station4840fe6bf964a52030501fe3",
    "time": "2012-04-18"
  },
  {
    "place": "Bus Station4840fe6bf964a52030501fe3",
    "time": "2012-04-19"
  },
  {
    "place": "Bus Station4840fe6bf964a52030501fe3",
    "time": "2012-04-23"
  },
  {
    "place": "College Academic Building4d5bf2d1590b224b809e9b6d",
    "time": "2012-04-24"
  },
  {
    "place": "Bus Station4840fe6bf964a52030501fe3",
    "time": "2012-04-25"
  },
  {
    "place": "College Academic Building4d5bf2d1590b224b809e9b6d",
    "time": "2012-04-25"
  },
  {
    "place": "Community College44e247eaf964a52028371fe3",
    "time": "2012-04-25"
  },
  {
    "place": "Wings Joint45e5c256f964a52046431fe3",
    "time": "2012-04-25"
  },
  {
    "place": "College Academic Building4d5bf2d1590b224b809e9b6d",
    "time": "2012-04-25"
  },
  {
    "place": "College Academic Building4d5bf2d1590b224b809e9b6d",
    "time": "2012-04-25"
  },
  {
    "place": "Sporting Goods Shop4ac65f49f964a52001b420e3",
    "time": "2012-04-27"
  },
  {
    "place": "College Academic Building4d5bf2d1590b224b809e9b6d",
    "time": "2012-04-27"
  },
  {
    "place": "Bus Station4840fe6bf964a52030501fe3",
    "time": "2012-04-27"
  },
  {
    "place": "Train Station4ae8906ef964a52071b021e3",
    "time": "2012-04-28"
  },
  {
    "place": "Community College44e247eaf964a52028371fe3",
    "time": "2012-04-29"
  },
  {
    "place": "Wings Joint45e5c256f964a52046431fe3",
    "time": "2012-04-29"
  },
  {
    "place": "Bar4a7e36b0f964a52074f11fe3",
    "time": "2012-04-29"
  },
  {
    "place": "College Academic Building4d5bf2d1590b224b809e9b6d",
    "time": "2012-05-03"
  },
  {
    "place": "College Academic Building4d5bf2d1590b224b809e9b6d",
    "time": "2012-05-04"
  },
  {
    "place": "College Academic Building4d5bf2d1590b224b809e9b6d",
    "time": "2012-05-10"
  },
  {
    "place": "Bus Station4840fe6bf964a52030501fe3",
    "time": "2012-05-11"
  },
  {
    "place": "College Academic Building4d5bf2d1590b224b809e9b6d",
    "time": "2012-05-11"
  },
  {
    "place": "College Academic Building4d5bf2d1590b224b809e9b6d",
    "time": "2012-05-14"
  },
  {
    "place": "Bus Station4840fe6bf964a52030501fe3",
    "time": "2012-05-15"
  },
  {
    "place": "College Academic Building4d5bf2d1590b224b809e9b6d",
    "time": "2012-05-15"
  },
  {
    "place": "Bus Station4840fe6bf964a52030501fe3",
    "time": "2012-05-16"
  },
  {
    "place": "College Academic Building4d5bf2d1590b224b809e9b6d",
    "time": "2012-05-16"
  },
  {
    "place": "Bus Station4840fe6bf964a52030501fe3",
    "time": "2012-05-18"
  },
  {
    "place": "College Academic Building4d5bf2d1590b224b809e9b6d",
    "time": "2012-05-18"
  },
  {
    "place": "Bus Station4840fe6bf964a52030501fe3",
    "time": "2012-05-22"
  },
  {
    "place": "Drugstore / Pharmacy4b0ac7e8f964a520b82723e3",
    "time": "2012-05-22"
  },
  {
    "place": "College Academic Building4d5bf2d1590b224b809e9b6d",
    "time": "2012-05-22"
  },
  {
    "place": "College Academic Building4d5bf2d1590b224b809e9b6d",
    "time": "2012-05-23"
  },
  {
    "place": "College Academic Building4d5bf2d1590b224b809e9b6d",
    "time": "2012-05-29"
  },
  {
    "place": "College Academic Building4d5bf2d1590b224b809e9b6d",
    "time": "2012-06-01"
  },
  {
    "place": "Bus Station4840fe6bf964a52030501fe3",
    "time": "2012-06-04"
  },
  {
    "place": "College Academic Building4d5bf2d1590b224b809e9b6d",
    "time": "2012-06-05"
  },
  {
    "place": "College Academic Building4d5bf2d1590b224b809e9b6d",
    "time": "2012-06-07"
  },
  {
    "place": "Bus Station4840fe6bf964a52030501fe3",
    "time": "2012-06-11"
  },
  {
    "place": "Drugstore / Pharmacy4a9a4079f964a520ab3120e3",
    "time": "2012-06-11"
  },
  {
    "place": "College Academic Building4d5bf2d1590b224b809e9b6d",
    "time": "2012-06-11"
  },
  {
    "place": "Bus Station4840fe6bf964a52030501fe3",
    "time": "2012-06-12"
  },
  {
    "place": "College Academic Building4d5bf2d1590b224b809e9b6d",
    "time": "2012-06-12"
  },
  {
    "place": "Bookstore40d38200f964a52041011fe3",
    "time": "2012-06-13"
  },
  {
    "place": "College Academic Building4d5bf2d1590b224b809e9b6d",
    "time": "2012-06-13"
  },
  {
    "place": "Bus Station4840fe6bf964a52030501fe3",
    "time": "2012-06-21"
  },
  {
    "place": "Sporting Goods Shop4b009865f964a520d03f22e3",
    "time": "2012-06-21"
  },
  {
    "place": "College Academic Building4d5bf2d1590b224b809e9b6d",
    "time": "2012-06-21"
  },
  {
    "place": "College Academic Building4d5bf2d1590b224b809e9b6d",
    "time": "2012-07-02"
  },
  {
    "place": "Bus Station4840fe6bf964a52030501fe3",
    "time": "2012-07-02"
  },
  {
    "place": "College Academic Building4d5bf2d1590b224b809e9b6d",
    "time": "2012-07-03"
  },
  {
    "place": "Bus Station4840fe6bf964a52030501fe3",
    "time": "2012-07-06"
  },
  {
    "place": "College Academic Building4d5bf2d1590b224b809e9b6d",
    "time": "2012-07-06"
  },
  {
    "place": "Bus Station4840fe6bf964a52030501fe3",
    "time": "2012-07-09"
  },
  {
    "place": "College Academic Building4d5bf2d1590b224b809e9b6d",
    "time": "2012-07-09"
  },
  {
    "place": "Bus Station4840fe6bf964a52030501fe3",
    "time": "2012-07-11"
  },
  {
    "place": "College Academic Building4d5bf2d1590b224b809e9b6d",
    "time": "2012-07-11"
  },
  {
    "place": "College Academic Building4d5bf2d1590b224b809e9b6d",
    "time": "2012-07-12"
  },
  {
    "place": "Medical Center4e1f022e887799f23ff43fdf",
    "time": "2012-07-12"
  },
  {
    "place": "Sporting Goods Shop4a676435f964a52054c91fe3",
    "time": "2012-07-12"
  },
  {
    "place": "College Academic Building4d5bf2d1590b224b809e9b6d",
    "time": "2012-07-12"
  },
  {
    "place": "Bus Station4840fe6bf964a52030501fe3",
    "time": "2012-07-16"
  },
  {
    "place": "College Academic Building4d5bf2d1590b224b809e9b6d",
    "time": "2012-07-16"
  },
  {
    "place": "College Academic Building4d5bf2d1590b224b809e9b6d",
    "time": "2012-07-18"
  },
  {
    "place": "College Academic Building4d5bf2d1590b224b809e9b6d",
    "time": "2012-07-24"
  },
  {
    "place": "Bus Station4840fe6bf964a52030501fe3",
    "time": "2012-07-24"
  },
  {
    "place": "Donut Shop4b19a18bf964a520cde023e3",
    "time": "2012-08-06"
  },
  {
    "place": "Bus Station4840fe6bf964a52030501fe3",
    "time": "2012-08-09"
  },
  {
    "place": "Pizza Place49e60201f964a520ec631fe3",
    "time": "2012-08-09"
  },
  {
    "place": "Bus Station4840fe6bf964a52030501fe3",
    "time": "2012-08-13"
  },
  {
    "place": "Bus Station4840fe6bf964a52030501fe3",
    "time": "2012-08-14"
  },
  {
    "place": "Train Station4af18817f964a5203fe121e3",
    "time": "2012-09-05"
  },
  {
    "place": "College Academic Building4d5bf2d1590b224b809e9b6d",
    "time": "2012-09-05"
  },
  {
    "place": "College Academic Building4d5bf2d1590b224b809e9b6d",
    "time": "2012-10-03"
  },
  {
    "place": "College Academic Building4d5bf2d1590b224b809e9b6d",
    "time": "2012-10-12"
  },
  {
    "place": "College Academic Building4d5bf2d1590b224b809e9b6d",
    "time": "2012-10-25"
  },
  {
    "place": "College Academic Building4d5bf2d1590b224b809e9b6d",
    "time": "2012-11-05"
  },
  {
    "place": "Bus Station4840fe6bf964a52030501fe3",
    "time": "2012-11-05"
  },
  {
    "place": "Bus Station4840fe6bf964a52030501fe3",
    "time": "2012-11-06"
  },
  {
    "place": "Bus Station4840fe6bf964a52030501fe3",
    "time": "2012-11-13"
  },
  {
    "place": "College Academic Building4d5bf2d1590b224b809e9b6d",
    "time": "2012-11-14"
  },
  {
    "place": "College Academic Building4d5bf2d1590b224b809e9b6d",
    "time": "2012-11-19"
  },
  {
    "place": "Bus Station4840fe6bf964a52030501fe3",
    "time": "2012-11-21"
  },
  {
    "place": "College Academic Building4d5bf2d1590b224b809e9b6d",
    "time": "2012-11-26"
  },
  {
    "place": "College Academic Building4d5bf2d1590b224b809e9b6d",
    "time": "2012-12-03"
  },
  {
    "place": "American Restaurant3fd66200f964a52098e71ee3",
    "time": "2012-12-06"
  },
  {
    "place": "Bus Station4840fe6bf964a52030501fe3",
    "time": "2012-12-06"
  },
  {
    "place": "Parking4ec041594690d23389928e9f",
    "time": "2012-12-09"
  },
  {
    "place": "Stadium4bd44b84a8b3a5937e7f6b5f",
    "time": "2012-12-11"
  },
  {
    "place": "College Academic Building4d5bf2d1590b224b809e9b6d",
    "time": "2012-12-12"
  },
  {
    "place": "Restaurant4b9e8e43f964a520c9ee36e3",
    "time": "2012-12-12"
  },
  {
    "place": "Bus Station4840fe6bf964a52030501fe3",
    "time": "2012-12-12"
  },
  {
    "place": "Bus Station4840fe6bf964a52030501fe3",
    "time": "2012-12-13"
  },
  {
    "place": "College Academic Building4d5bf2d1590b224b809e9b6d",
    "time": "2012-12-14"
  },
  {
    "place": "Parking4ec041594690d23389928e9f",
    "time": "2012-12-30"
  },
  {
    "place": "Medical Center4bcce892511f9521d0e7b3c7",
    "time": "2013-01-14"
  },
  {
    "place": "College Academic Building4d5bf2d1590b224b809e9b6d",
    "time": "2013-01-14"
  },
  {
    "place": "Bus Station4840fe6bf964a52030501fe3",
    "time": "2013-01-22"
  },
  {
    "place": "Bus Station4840fe6bf964a52030501fe3",
    "time": "2013-02-01"
  },
  {
    "place": "Subway4b1e78c2f964a520461a24e3",
    "time": "2013-02-11"
  },
  {
    "place": "Bus Station4840fe6bf964a52030501fe3",
    "time": "2013-02-11"
  }
]