[
  {
    "place": "Thai Restaurant453f6ce3f964a520353c1fe3",
    "time": "2012-04-05"
  },
  {
    "place": "Bar4dfd49c6813092a26e4eae3f",
    "time": "2012-04-12"
  },
  {
    "place": "Beer Garden4bcb54340687ef3b057cddcc",
    "time": "2012-04-14"
  },
  {
    "place": "Beer Garden4bb092aef964a520cc4c3ce3",
    "time": "2012-04-17"
  },
  {
    "place": "Bar4481ada4f964a52018341fe3",
    "time": "2012-04-18"
  },
  {
    "place": "Airport43a52546f964a520532c1fe3",
    "time": "2012-04-18"
  },
  {
    "place": "Airport4ace6c89f964a52078d020e3",
    "time": "2012-04-24"
  },
  {
    "place": "Food & Drink Shop423e0e80f964a52047201fe3",
    "time": "2012-04-24"
  },
  {
    "place": "Music Venue49ce4f5bf964a520315a1fe3",
    "time": "2012-04-24"
  },
  {
    "place": "Bar3fd66200f964a52005e71ee3",
    "time": "2012-04-25"
  },
  {
    "place": "Sushi Restaurant4bf6c77513aed13a912deaf7",
    "time": "2012-04-27"
  },
  {
    "place": "Music Venue4ede60bb2c5b50aba3402e71",
    "time": "2012-04-27"
  },
  {
    "place": "Music Venue47048266f964a5204f4b1fe3",
    "time": "2012-04-28"
  },
  {
    "place": "Beer Garden474d3e5df964a520a24c1fe3",
    "time": "2012-04-28"
  },
  {
    "place": "Food & Drink Shop423e0e80f964a52047201fe3",
    "time": "2012-04-28"
  },
  {
    "place": "Food & Drink Shop423e0e80f964a52047201fe3",
    "time": "2012-05-01"
  },
  {
    "place": "Beer Garden40870b00f964a520b7f21ee3",
    "time": "2012-05-05"
  },
  {
    "place": "Beer Garden4a7dff4df964a52091f01fe3",
    "time": "2012-05-05"
  },
  {
    "place": "Food & Drink Shop423e0e80f964a52047201fe3",
    "time": "2012-05-07"
  },
  {
    "place": "Sandwich Place4c3f47d43735be9aab2515a4",
    "time": "2012-05-08"
  },
  {
    "place": "Event Space42a63500f964a52002251fe3",
    "time": "2012-05-10"
  },
  {
    "place": "Music Venue3fd66200f964a5200fe41ee3",
    "time": "2012-05-12"
  },
  {
    "place": "Bar3fd66200f964a5206beb1ee3",
    "time": "2012-05-12"
  },
  {
    "place": "Food Truck453c82bbf964a5200c3c1fe3",
    "time": "2012-05-12"
  },
  {
    "place": "Breakfast Spot4a412995f964a520daa41fe3",
    "time": "2012-05-12"
  },
  {
    "place": "Bar48f60864f964a52048521fe3",
    "time": "2012-05-12"
  },
  {
    "place": "Seafood Restaurant49fce21ff964a520ec6e1fe3",
    "time": "2012-05-12"
  },
  {
    "place": "Bar4a074634f964a5203b731fe3",
    "time": "2012-05-12"
  },
  {
    "place": "Food & Drink Shop423e0e80f964a52047201fe3",
    "time": "2012-05-13"
  },
  {
    "place": "Miscellaneous Shop4ba4f5f5f964a520ffc838e3",
    "time": "2012-05-15"
  },
  {
    "place": "Electronics Store4a58cd1af964a520e8b71fe3",
    "time": "2012-05-15"
  },
  {
    "place": "American Restaurant49c4e473f964a520d3561fe3",
    "time": "2012-05-16"
  },
  {
    "place": "Food & Drink Shop423e0e80f964a52047201fe3",
    "time": "2012-05-17"
  },
  {
    "place": "Park4dd5b29781dcd5bca59494d9",
    "time": "2012-05-19"
  },
  {
    "place": "Beach4fb78d19e4b0363b12064624",
    "time": "2012-05-19"
  },
  {
    "place": "Vegetarian / Vegan Restaurant49eb7a98f964a520e3661fe3",
    "time": "2012-05-21"
  },
  {
    "place": "Bar4075e780f964a52056f21ee3",
    "time": "2012-05-21"
  },
  {
    "place": "Music Venue3fd66200f964a520dde31ee3",
    "time": "2012-05-22"
  },
  {
    "place": "Bar4587e9aef964a520cf3f1fe3",
    "time": "2012-05-26"
  },
  {
    "place": "Sandwich Place457bd9adf964a520f63e1fe3",
    "time": "2012-05-27"
  },
  {
    "place": "Music Venue4a3e88a9f964a52006a31fe3",
    "time": "2012-05-27"
  },
  {
    "place": "Beer Garden474d3e5df964a520a24c1fe3",
    "time": "2012-05-27"
  },
  {
    "place": "Theater4cae5172cbab236a20768f73",
    "time": "2012-05-27"
  },
  {
    "place": "Bar40da1980f964a5206d011fe3",
    "time": "2012-05-28"
  },
  {
    "place": "Park42893400f964a52052231fe3",
    "time": "2012-05-28"
  },
  {
    "place": "Park41196180f964a5200b0c1fe3",
    "time": "2012-05-30"
  },
  {
    "place": "Bar4902b597f964a5205c521fe3",
    "time": "2012-06-03"
  },
  {
    "place": "Pizza Place4a3332f3f964a520139b1fe3",
    "time": "2012-06-03"
  },
  {
    "place": "Burger Joint49c86272f964a52019581fe3",
    "time": "2012-06-04"
  },
  {
    "place": "Beer Garden4bb092aef964a520cc4c3ce3",
    "time": "2012-06-04"
  },
  {
    "place": "Music Venue4bdb83ca2a3a0f47aa8fafb6",
    "time": "2012-06-04"
  },
  {
    "place": "Beer Garden4bb092aef964a520cc4c3ce3",
    "time": "2012-06-04"
  },
  {
    "place": "Music Venue3fd66200f964a520dde31ee3",
    "time": "2012-06-05"
  },
  {
    "place": "Ice Cream Shop4a414e48f964a52010a51fe3",
    "time": "2012-06-06"
  },
  {
    "place": "Food & Drink Shop423e0e80f964a52047201fe3",
    "time": "2012-06-07"
  },
  {
    "place": "Southern / Soul Food Restaurant4c9b84ee78ffa0939fd47575",
    "time": "2012-06-09"
  },
  {
    "place": "Thai Restaurant4cad378a97c8a1cd9befa7a5",
    "time": "2012-06-09"
  },
  {
    "place": "Middle Eastern Restaurant3fd66200f964a52039e31ee3",
    "time": "2012-06-10"
  },
  {
    "place": "Bar49e1f68df964a520ea611fe3",
    "time": "2012-06-10"
  },
  {
    "place": "Flea Market4e2aefd4aeb745b1fabd9ba8",
    "time": "2012-06-10"
  },
  {
    "place": "Cuban Restaurant42d1b680f964a5200b261fe3",
    "time": "2012-06-10"
  },
  {
    "place": "Bakery4a9aee23f964a520a43320e3",
    "time": "2012-06-10"
  },
  {
    "place": "Bar41005500f964a5204b0b1fe3",
    "time": "2012-06-11"
  },
  {
    "place": "Burger Joint488f2318f964a5205b511fe3",
    "time": "2012-06-11"
  },
  {
    "place": "General Entertainment4a491718f964a520f6aa1fe3",
    "time": "2012-06-12"
  },
  {
    "place": "Office4bbb23d67421a5937c71c440",
    "time": "2012-06-13"
  },
  {
    "place": "General Entertainment4bfbb600565f76b0c5d405db",
    "time": "2012-06-13"
  },
  {
    "place": "Park40f1d480f964a5206a0a1fe3",
    "time": "2012-06-14"
  },
  {
    "place": "Airport4459d2f1f964a520d7321fe3",
    "time": "2012-06-15"
  },
  {
    "place": "Electronics Store4e624e4ad164ddd5e5b48e05",
    "time": "2012-06-20"
  },
  {
    "place": "Bar4593be73f964a5204e401fe3",
    "time": "2012-06-26"
  },
  {
    "place": "Bar4ebb2e7102d5a3de7915986c",
    "time": "2012-07-04"
  },
  {
    "place": "Bar47f39422f964a5209b4e1fe3",
    "time": "2012-07-05"
  },
  {
    "place": "Pool4e14347fd16447c40d15cbb0",
    "time": "2012-07-06"
  },
  {
    "place": "Sandwich Place49d6c29ef964a520035d1fe3",
    "time": "2012-07-06"
  },
  {
    "place": "Bar4b5678aaf964a520e71128e3",
    "time": "2012-07-06"
  },
  {
    "place": "Bar4f8ba1fee4b002b90d47381d",
    "time": "2012-07-07"
  },
  {
    "place": "Bar4dcf439b52b1f8915bacf008",
    "time": "2012-07-07"
  },
  {
    "place": "Beer Garden4bb092aef964a520cc4c3ce3",
    "time": "2012-07-08"
  },
  {
    "place": "Bar4dcf439b52b1f8915bacf008",
    "time": "2012-07-08"
  },
  {
    "place": "Music Venue45a1faaef964a520e4401fe3",
    "time": "2012-07-09"
  },
  {
    "place": "Bar4ee40e906d868c055061c7b5",
    "time": "2012-07-11"
  },
  {
    "place": "Event Space4c17c268d4d9c928676cee29",
    "time": "2012-07-12"
  },
  {
    "place": "Music Venue4abe8ee6f964a5207a8e20e3",
    "time": "2012-07-16"
  },
  {
    "place": "Bar3fd66200f964a52049e31ee3",
    "time": "2012-07-17"
  },
  {
    "place": "Food & Drink Shop423e0e80f964a52047201fe3",
    "time": "2012-07-17"
  },
  {
    "place": "Food & Drink Shop423e0e80f964a52047201fe3",
    "time": "2012-07-26"
  },
  {
    "place": "Airport4ace6c89f964a52078d020e3",
    "time": "2012-07-30"
  },
  {
    "place": "Beer Garden4faacb247beb2f928306a2ee",
    "time": "2012-09-14"
  },
  {
    "place": "Bar4587e9aef964a520cf3f1fe3",
    "time": "2012-09-15"
  },
  {
    "place": "Scenic Lookout501c9698e4b0d855293c0f99",
    "time": "2012-09-16"
  },
  {
    "place": "Bar4b6caaddf964a520ac4a2ce3",
    "time": "2012-10-23"
  },
  {
    "place": "Japanese Restaurant41478600f964a520c41c1fe3",
    "time": "2012-10-23"
  },
  {
    "place": "Museum45719c4bf964a520693e1fe3",
    "time": "2012-10-24"
  },
  {
    "place": "Museum45719c4bf964a520693e1fe3",
    "time": "2012-10-25"
  },
  {
    "place": "Art Museum421a7600f964a5209d1f1fe3",
    "time": "2012-10-27"
  },
  {
    "place": "Tea Room4bb00117f964a5203f313ce3",
    "time": "2012-10-27"
  },
  {
    "place": "Italian Restaurant4b709d01f964a5204c252de3",
    "time": "2012-10-27"
  },
  {
    "place": "Theater4c1fb303bd9d95211254983f",
    "time": "2012-10-27"
  },
  {
    "place": "Bakery4fab5090e4b0eeffb5c77119",
    "time": "2012-10-30"
  },
  {
    "place": "Food & Drink Shop423e0e80f964a52047201fe3",
    "time": "2012-10-31"
  },
  {
    "place": "Theater4ed84e6ca17c4dbad0714724",
    "time": "2012-10-31"
  },
  {
    "place": "Camera Store49d92230f964a520035e1fe3",
    "time": "2012-11-05"
  },
  {
    "place": "Office509950c9498edea3639ac243",
    "time": "2012-11-06"
  },
  {
    "place": "American Restaurant4afca48af964a520ab2422e3",
    "time": "2012-11-11"
  },
  {
    "place": "Movie Theater439ab2a9f964a520d12b1fe3",
    "time": "2012-11-12"
  },
  {
    "place": "Bar4a11fe2cf964a52068771fe3",
    "time": "2012-11-12"
  },
  {
    "place": "Art Gallery50291c2d90e75a986a321506",
    "time": "2012-11-15"
  },
  {
    "place": "Korean Restaurant43db5698f964a5208a2e1fe3",
    "time": "2012-11-17"
  },
  {
    "place": "Food Truck4dbc6dd60437955ec0334a04",
    "time": "2012-11-19"
  },
  {
    "place": "Airport4459d2f1f964a520d7321fe3",
    "time": "2012-11-27"
  },
  {
    "place": "Gastropub49b1f97af964a520dd521fe3",
    "time": "2012-11-28"
  },
  {
    "place": "Theater4cae5172cbab236a20768f73",
    "time": "2012-12-01"
  },
  {
    "place": "Music Venue4901ef67f964a5205b521fe3",
    "time": "2012-12-02"
  },
  {
    "place": "Food & Drink Shop423e0e80f964a52047201fe3",
    "time": "2012-12-04"
  },
  {
    "place": "Event Space42a63500f964a52002251fe3",
    "time": "2012-12-06"
  },
  {
    "place": "Performing Arts Venue4a65bd5cf964a52095c71fe3",
    "time": "2012-12-08"
  },
  {
    "place": "French Restaurant4a22b709f964a520827d1fe3",
    "time": "2012-12-09"
  },
  {
    "place": "Music Venue3fd66200f964a520dbe31ee3",
    "time": "2012-12-11"
  },
  {
    "place": "Food & Drink Shop423e0e80f964a52047201fe3",
    "time": "2012-12-15"
  },
  {
    "place": "Bowling Alley4a1afeb7f964a520b77a1fe3",
    "time": "2012-12-15"
  },
  {
    "place": "Beer Garden4da60c5d432dd03d359b8729",
    "time": "2012-12-15"
  },
  {
    "place": "Brewery49d13d20f964a520695b1fe3",
    "time": "2012-12-16"
  },
  {
    "place": "Flea Market4b48ad93f964a520865226e3",
    "time": "2012-12-16"
  },
  {
    "place": "Thai Restaurant453f6ce3f964a520353c1fe3",
    "time": "2012-12-17"
  },
  {
    "place": "Sandwich Place4be87597ee96c928b11dfebf",
    "time": "2012-12-17"
  },
  {
    "place": "Music Venue45a1faaef964a520e4401fe3",
    "time": "2012-12-20"
  },
  {
    "place": "Bar45c5a871f964a52051421fe3",
    "time": "2012-12-20"
  },
  {
    "place": "Italian Restaurant4d9f5a9efc4f721e7e5a9d5f",
    "time": "2012-12-22"
  },
  {
    "place": "Bar4e977a92f790dd407e8fe7a6",
    "time": "2012-12-22"
  },
  {
    "place": "Flea Market4eea7677aa1f7c78113828fe",
    "time": "2012-12-23"
  },
  {
    "place": "Bar3fd66200f964a520f3e81ee3",
    "time": "2012-12-23"
  },
  {
    "place": "Airport43a52546f964a520532c1fe3",
    "time": "2012-12-31"
  },
  {
    "place": "Bar4b39872ef964a5207d5d25e3",
    "time": "2013-01-04"
  },
  {
    "place": "Art Gallery49d675c5f964a520d15c1fe3",
    "time": "2013-01-04"
  },
  {
    "place": "Bar427c0500f964a5209a211fe3",
    "time": "2013-01-05"
  },
  {
    "place": "Bar4af22b96f964a52051e621e3",
    "time": "2013-01-05"
  },
  {
    "place": "Spa / Massage4a99b2b5f964a520e42f20e3",
    "time": "2013-01-05"
  },
  {
    "place": "Bar3fd66200f964a52029e31ee3",
    "time": "2013-01-05"
  },
  {
    "place": "Ramen /  Noodle House4731be8af964a520244c1fe3",
    "time": "2013-01-06"
  },
  {
    "place": "Bar4bd2374bcaff9521f662d2f0",
    "time": "2013-01-06"
  },
  {
    "place": "Bar45c5a871f964a52051421fe3",
    "time": "2013-01-08"
  },
  {
    "place": "Bar4a723060f964a5208cda1fe3",
    "time": "2013-01-08"
  },
  {
    "place": "Beer Garden4bb092aef964a520cc4c3ce3",
    "time": "2013-01-10"
  },
  {
    "place": "Beer Garden4bcb54340687ef3b057cddcc",
    "time": "2013-01-12"
  },
  {
    "place": "Bar3fd66200f964a52004e41ee3",
    "time": "2013-01-13"
  },
  {
    "place": "Food & Drink Shop423e0e80f964a52047201fe3",
    "time": "2013-01-13"
  },
  {
    "place": "Food & Drink Shop423e0e80f964a52047201fe3",
    "time": "2013-01-25"
  },
  {
    "place": "Bar50c7fa73e4b0ce71da8d2983",
    "time": "2013-01-26"
  },
  {
    "place": "Donut Shop3fd66200f964a52020e31ee3",
    "time": "2013-01-26"
  },
  {
    "place": "Bar4dc8601b315101f2629439c4",
    "time": "2013-01-28"
  },
  {
    "place": "Bar4ae12770f964a520858521e3",
    "time": "2013-01-31"
  },
  {
    "place": "Bar4d34a091c6cba35dec2f357a",
    "time": "2013-01-31"
  },
  {
    "place": "BBQ Joint5066056ee4b001ae2e2e45ee",
    "time": "2013-02-02"
  },
  {
    "place": "Beer Garden4da60c5d432dd03d359b8729",
    "time": "2013-02-03"
  },
  {
    "place": "Bar4e977a92f790dd407e8fe7a6",
    "time": "2013-02-03"
  }
]