[
  {
    "place": "Gym / Fitness Center4a68fff8f964a5206dcb1fe3",
    "time": "2012-04-04"
  },
  {
    "place": "Gym / Fitness Center4a68fff8f964a5206dcb1fe3",
    "time": "2012-04-05"
  },
  {
    "place": "Beer Garden4c0eff27cd8eb71322b8ef94",
    "time": "2012-04-07"
  },
  {
    "place": "Other Great Outdoors4d4de33cd6f3224bca73a1a6",
    "time": "2012-04-08"
  },
  {
    "place": "Gym / Fitness Center4a68fff8f964a5206dcb1fe3",
    "time": "2012-04-10"
  },
  {
    "place": "Gym / Fitness Center4a68fff8f964a5206dcb1fe3",
    "time": "2012-04-11"
  },
  {
    "place": "Gym / Fitness Center4a68fff8f964a5206dcb1fe3",
    "time": "2012-04-12"
  },
  {
    "place": "Bar43920486f964a520662b1fe3",
    "time": "2012-04-13"
  },
  {
    "place": "Bar49d0cb5ff964a520315b1fe3",
    "time": "2012-04-13"
  },
  {
    "place": "Bar4c94be6cefecb713958ae09d",
    "time": "2012-04-14"
  },
  {
    "place": "Beer Garden4c0eff27cd8eb71322b8ef94",
    "time": "2012-04-14"
  },
  {
    "place": "Bar4eebcf2e8231688f1c73053f",
    "time": "2012-04-18"
  },
  {
    "place": "Gym / Fitness Center4a68fff8f964a5206dcb1fe3",
    "time": "2012-04-19"
  },
  {
    "place": "Gym / Fitness Center4a68fff8f964a5206dcb1fe3",
    "time": "2012-04-20"
  },
  {
    "place": "Gym / Fitness Center4a68fff8f964a5206dcb1fe3",
    "time": "2012-04-23"
  },
  {
    "place": "Gym / Fitness Center4a68fff8f964a5206dcb1fe3",
    "time": "2012-04-24"
  },
  {
    "place": "Gym / Fitness Center4a68fff8f964a5206dcb1fe3",
    "time": "2012-04-26"
  },
  {
    "place": "Gym / Fitness Center4a68fff8f964a5206dcb1fe3",
    "time": "2012-04-27"
  },
  {
    "place": "Bar4ad778a8f964a520030b21e3",
    "time": "2012-04-27"
  },
  {
    "place": "Food Truck4f15b382e4b0725660ea9f31",
    "time": "2012-05-01"
  },
  {
    "place": "Gym / Fitness Center4a68fff8f964a5206dcb1fe3",
    "time": "2012-05-02"
  },
  {
    "place": "Gym / Fitness Center4a68fff8f964a5206dcb1fe3",
    "time": "2012-05-03"
  },
  {
    "place": "Gym / Fitness Center4a68fff8f964a5206dcb1fe3",
    "time": "2012-05-04"
  },
  {
    "place": "Park40b68100f964a5207d001fe3",
    "time": "2012-05-04"
  },
  {
    "place": "Beer Garden40ede000f964a5203c0a1fe3",
    "time": "2012-05-05"
  },
  {
    "place": "Beer Garden4c0eff27cd8eb71322b8ef94",
    "time": "2012-05-05"
  },
  {
    "place": "Food4deffce2b0fbfee72f3cacde",
    "time": "2012-05-05"
  },
  {
    "place": "Gym / Fitness Center4a68fff8f964a5206dcb1fe3",
    "time": "2012-05-07"
  },
  {
    "place": "Gym / Fitness Center4a68fff8f964a5206dcb1fe3",
    "time": "2012-05-09"
  },
  {
    "place": "Gym / Fitness Center4a68fff8f964a5206dcb1fe3",
    "time": "2012-05-11"
  },
  {
    "place": "Food Truck4acf7cadf964a52003d420e3",
    "time": "2012-05-11"
  },
  {
    "place": "College Academic Building4ad4f7dcf964a520070121e3",
    "time": "2012-05-15"
  },
  {
    "place": "Gym / Fitness Center4a68fff8f964a5206dcb1fe3",
    "time": "2012-05-15"
  },
  {
    "place": "Gym / Fitness Center4a68fff8f964a5206dcb1fe3",
    "time": "2012-05-16"
  },
  {
    "place": "Food Truck4faaac34e4b0a11ffad201a8",
    "time": "2012-05-16"
  },
  {
    "place": "Gym / Fitness Center4a68fff8f964a5206dcb1fe3",
    "time": "2012-05-17"
  },
  {
    "place": "Stadium4bd44b84a8b3a5937e7f6b5f",
    "time": "2012-05-18"
  },
  {
    "place": "Stadium4bd44b84a8b3a5937e7f6b5f",
    "time": "2012-05-19"
  },
  {
    "place": "Food Truck4f8d9663e4b021137aa2bdde",
    "time": "2012-05-23"
  },
  {
    "place": "Gym / Fitness Center4a68fff8f964a5206dcb1fe3",
    "time": "2012-05-25"
  },
  {
    "place": "Food Truck4acf7cadf964a52003d420e3",
    "time": "2012-05-25"
  },
  {
    "place": "Bar48c91543f964a520e4511fe3",
    "time": "2012-05-26"
  },
  {
    "place": "Bar4459f9bff964a520e1321fe3",
    "time": "2012-05-27"
  },
  {
    "place": "Pool Hall40e35400f964a520e6091fe3",
    "time": "2012-05-27"
  },
  {
    "place": "Bar421e6a80f964a520a51f1fe3",
    "time": "2012-05-27"
  },
  {
    "place": "General Travel4ec81b225c5ce271be586491",
    "time": "2012-05-27"
  },
  {
    "place": "Bar411ff900f964a520290c1fe3",
    "time": "2012-05-28"
  },
  {
    "place": "Bar4ac6bb7ff964a52014b620e3",
    "time": "2012-05-28"
  },
  {
    "place": "Gym / Fitness Center4a68fff8f964a5206dcb1fe3",
    "time": "2012-05-29"
  },
  {
    "place": "Scenic Lookout4fc41306e4b069481f5b7c60",
    "time": "2012-05-30"
  },
  {
    "place": "Hotel3fd66200f964a52053eb1ee3",
    "time": "2012-06-03"
  },
  {
    "place": "University4df63fc76284fefe8fcb5f69",
    "time": "2012-06-08"
  },
  {
    "place": "University4df63fc76284fefe8fcb5f69",
    "time": "2012-06-09"
  },
  {
    "place": "French Restaurant4c9e73e98afca09336200116",
    "time": "2012-06-09"
  },
  {
    "place": "Food & Drink Shop49c27575f964a520f1551fe3",
    "time": "2012-06-09"
  },
  {
    "place": "University4df63fc76284fefe8fcb5f69",
    "time": "2012-06-10"
  },
  {
    "place": "Food Truck4ea310898b81a02f89dc0f84",
    "time": "2012-06-10"
  },
  {
    "place": "Sushi Restaurant3fd66200f964a520bde91ee3",
    "time": "2012-06-10"
  },
  {
    "place": "Gym / Fitness Center4a68fff8f964a5206dcb1fe3",
    "time": "2012-06-11"
  },
  {
    "place": "Food & Drink Shop3fd66200f964a5202ee81ee3",
    "time": "2012-06-11"
  },
  {
    "place": "Gym / Fitness Center4a68fff8f964a5206dcb1fe3",
    "time": "2012-06-12"
  },
  {
    "place": "Taco Place4cab5ef1ae1eef3bfe223447",
    "time": "2012-06-12"
  },
  {
    "place": "Gym / Fitness Center4a68fff8f964a5206dcb1fe3",
    "time": "2012-06-13"
  },
  {
    "place": "Gym / Fitness Center4a68fff8f964a5206dcb1fe3",
    "time": "2012-06-14"
  },
  {
    "place": "Other Great Outdoors4b8ae0e4f964a520d38632e3",
    "time": "2012-06-15"
  },
  {
    "place": "Hotel4b5668d6f964a520370f28e3",
    "time": "2012-06-17"
  },
  {
    "place": "Train Station49de0156f964a52021601fe3",
    "time": "2012-06-17"
  },
  {
    "place": "Southern / Soul Food Restaurant4c90005f3790199c16d8926b",
    "time": "2012-06-17"
  },
  {
    "place": "Gym / Fitness Center4a68fff8f964a5206dcb1fe3",
    "time": "2012-06-18"
  },
  {
    "place": "Food Truck4cc701aa01fb236ab070baba",
    "time": "2012-06-18"
  },
  {
    "place": "Gym / Fitness Center4a68fff8f964a5206dcb1fe3",
    "time": "2012-06-19"
  },
  {
    "place": "Gym / Fitness Center4a68fff8f964a5206dcb1fe3",
    "time": "2012-06-21"
  },
  {
    "place": "Gym / Fitness Center4a68fff8f964a5206dcb1fe3",
    "time": "2012-06-27"
  },
  {
    "place": "Burger Joint4a623d6af964a5207ac31fe3",
    "time": "2012-06-30"
  },
  {
    "place": "Italian Restaurant40fc6080f964a520060b1fe3",
    "time": "2012-07-02"
  },
  {
    "place": "Other Great Outdoors4b8ae0e4f964a520d38632e3",
    "time": "2012-07-03"
  },
  {
    "place": "Bar42814b00f964a52000221fe3",
    "time": "2012-07-04"
  },
  {
    "place": "Food4deffce2b0fbfee72f3cacde",
    "time": "2012-07-04"
  },
  {
    "place": "Train Station42829c80f964a5206a221fe3",
    "time": "2012-07-05"
  },
  {
    "place": "Music Venue3fd66200f964a520dce31ee3",
    "time": "2012-07-06"
  },
  {
    "place": "Bar4c94be6cefecb713958ae09d",
    "time": "2012-07-07"
  },
  {
    "place": "Electronics Store4afc15ebf964a520cf1f22e3",
    "time": "2012-07-07"
  },
  {
    "place": "Bar488deef8f964a52058511fe3",
    "time": "2012-07-07"
  },
  {
    "place": "Gym / Fitness Center4a68fff8f964a5206dcb1fe3",
    "time": "2012-07-09"
  },
  {
    "place": "Gym / Fitness Center4a68fff8f964a5206dcb1fe3",
    "time": "2012-07-12"
  },
  {
    "place": "Japanese Restaurant4ae20df0f964a5203c8a21e3",
    "time": "2012-07-12"
  },
  {
    "place": "BBQ Joint427ff980f964a520b7211fe3",
    "time": "2012-07-13"
  },
  {
    "place": "Other Great Outdoors4b8ae0e4f964a520d38632e3",
    "time": "2012-07-13"
  },
  {
    "place": "Bar41083e00f964a520980b1fe3",
    "time": "2012-07-14"
  },
  {
    "place": "Mexican Restaurant453ce76cf964a5201a3c1fe3",
    "time": "2012-07-15"
  },
  {
    "place": "Other Great Outdoors4b8ae0e4f964a520d38632e3",
    "time": "2012-07-17"
  },
  {
    "place": "Other Great Outdoors4b8ae0e4f964a520d38632e3",
    "time": "2012-07-18"
  },
  {
    "place": "Electronics Store4afc15ebf964a520cf1f22e3",
    "time": "2012-07-22"
  },
  {
    "place": "Electronics Store4d8d1bacc479a35d937e2697",
    "time": "2012-07-22"
  },
  {
    "place": "Airport43a52546f964a520532c1fe3",
    "time": "2012-08-05"
  },
  {
    "place": "Gym / Fitness Center4a68fff8f964a5206dcb1fe3",
    "time": "2012-08-09"
  },
  {
    "place": "Bar4320d080f964a52090271fe3",
    "time": "2012-08-10"
  },
  {
    "place": "Pizza Place4c6f6888d97fa1434428f3ca",
    "time": "2012-08-10"
  },
  {
    "place": "Other Great Outdoors44b7acf4f964a52073351fe3",
    "time": "2012-08-11"
  },
  {
    "place": "Beer Garden4c0eff27cd8eb71322b8ef94",
    "time": "2012-08-12"
  },
  {
    "place": "Food & Drink Shop4a78f566f964a520b2e61fe3",
    "time": "2012-08-13"
  },
  {
    "place": "Gym / Fitness Center4a68fff8f964a5206dcb1fe3",
    "time": "2012-08-14"
  },
  {
    "place": "Japanese Restaurant4ae20df0f964a5203c8a21e3",
    "time": "2012-08-17"
  },
  {
    "place": "Other Great Outdoors4dd80993e4cd37c893bb2abf",
    "time": "2012-08-19"
  },
  {
    "place": "Beer Garden4c0eff27cd8eb71322b8ef94",
    "time": "2012-08-18"
  },
  {
    "place": "Bar3fd66200f964a52099e41ee3",
    "time": "2012-08-18"
  },
  {
    "place": "Middle Eastern Restaurant4b918b61f964a52053c433e3",
    "time": "2012-08-19"
  },
  {
    "place": "French Restaurant4a7f0715f964a52087f21fe3",
    "time": "2012-09-12"
  },
  {
    "place": "Medical Center4d42d833f81e8cfa3a61f856",
    "time": "2012-09-14"
  },
  {
    "place": "Sushi Restaurant4a5fd187f964a52048c01fe3",
    "time": "2012-09-14"
  },
  {
    "place": "Bar49cc222df964a5204a591fe3",
    "time": "2012-09-15"
  },
  {
    "place": "Bar5025c587e4b0727083919201",
    "time": "2012-09-15"
  },
  {
    "place": "Music Venue4846c5acf964a5206f501fe3",
    "time": "2012-09-16"
  },
  {
    "place": "University4abe1335f964a5209a8b20e3",
    "time": "2012-10-12"
  },
  {
    "place": "Bar4f42ce8fe4b0899ccd92ca55",
    "time": "2012-10-12"
  },
  {
    "place": "University4abe1335f964a5209a8b20e3",
    "time": "2012-10-13"
  },
  {
    "place": "Gym / Fitness Center4a68fff8f964a5206dcb1fe3",
    "time": "2012-10-16"
  },
  {
    "place": "Gym / Fitness Center4a68fff8f964a5206dcb1fe3",
    "time": "2012-10-17"
  },
  {
    "place": "Gym / Fitness Center4a68fff8f964a5206dcb1fe3",
    "time": "2012-10-25"
  },
  {
    "place": "Music Venue4eadbfa277c8cdc66d7524b2",
    "time": "2012-10-27"
  },
  {
    "place": "Stadium4b992b04f964a520726635e3",
    "time": "2012-10-28"
  },
  {
    "place": "Moving Target5099a1fee4b0647411ff9d31",
    "time": "2012-11-07"
  },
  {
    "place": "Japanese Restaurant4b3fdfc8f964a5200ab125e3",
    "time": "2012-11-10"
  },
  {
    "place": "Bus Station50189f25e4b0bf909b20abd3",
    "time": "2012-11-10"
  },
  {
    "place": "University4abe1335f964a5209a8b20e3",
    "time": "2012-11-12"
  },
  {
    "place": "Hotel4bb637dcef159c74d09975f7",
    "time": "2012-11-21"
  },
  {
    "place": "Music Venue3fd66200f964a52014eb1ee3",
    "time": "2012-11-22"
  },
  {
    "place": "Other Great Outdoors50abeb91e4b04d7b173c0466",
    "time": "2012-11-23"
  },
  {
    "place": "Other Great Outdoors4a229fa8f964a520797d1fe3",
    "time": "2012-11-23"
  },
  {
    "place": "General Travel4c89ed856418a143d05bdbce",
    "time": "2012-11-23"
  },
  {
    "place": "Music Venue3fd66200f964a52014eb1ee3",
    "time": "2012-11-25"
  },
  {
    "place": "Music Venue3fd66200f964a52014eb1ee3",
    "time": "2012-12-01"
  },
  {
    "place": "University4df63fc76284fefe8fcb5f69",
    "time": "2012-12-01"
  },
  {
    "place": "General College & University436bf600f964a520b2291fe3",
    "time": "2012-12-03"
  },
  {
    "place": "Gym / Fitness Center4a68fff8f964a5206dcb1fe3",
    "time": "2012-12-06"
  },
  {
    "place": "College Academic Building456ebbbff964a520163e1fe3",
    "time": "2012-12-07"
  },
  {
    "place": "Gym / Fitness Center4a68fff8f964a5206dcb1fe3",
    "time": "2012-12-07"
  },
  {
    "place": "Music Venue4d7346cfff6ba35ddcc57a8a",
    "time": "2012-12-08"
  },
  {
    "place": "Concert Hall470f3ff0f964a5208e4b1fe3",
    "time": "2012-12-09"
  },
  {
    "place": "Music Venue48f0fcdcf964a52041521fe3",
    "time": "2012-12-09"
  },
  {
    "place": "Food Truck50575ab8e4b04ed4f2197dac",
    "time": "2012-12-10"
  },
  {
    "place": "Gym / Fitness Center4a68fff8f964a5206dcb1fe3",
    "time": "2012-12-13"
  },
  {
    "place": "Music Venue4d7346cfff6ba35ddcc57a8a",
    "time": "2012-12-15"
  },
  {
    "place": "Hotel465f30baf964a52054471fe3",
    "time": "2012-12-20"
  },
  {
    "place": "Music Venue3fd66200f964a52035e41ee3",
    "time": "2012-12-23"
  },
  {
    "place": "General Entertainment4a491718f964a520f6aa1fe3",
    "time": "2012-12-29"
  },
  {
    "place": "General Entertainment50e0cefbe4b0073eb332b04e",
    "time": "2012-12-31"
  },
  {
    "place": "Ferry4ab690abf964a520e07720e3",
    "time": "2013-01-01"
  },
  {
    "place": "Music Venue4846c5acf964a5206f501fe3",
    "time": "2013-01-06"
  },
  {
    "place": "Mexican Restaurant4ed825e98231efe38cad7306",
    "time": "2013-01-06"
  },
  {
    "place": "Sushi Restaurant4ffb5e34e4b09f6835dd0914",
    "time": "2013-01-12"
  },
  {
    "place": "Chinese Restaurant3fd66200f964a520b1ea1ee3",
    "time": "2013-01-25"
  },
  {
    "place": "Bar4e5b0f0252b1b78b81b25cd5",
    "time": "2013-01-26"
  },
  {
    "place": "Museum49c54c1bf964a520ed561fe3",
    "time": "2013-01-26"
  },
  {
    "place": "Mexican Restaurant4ed825e98231efe38cad7306",
    "time": "2013-01-27"
  },
  {
    "place": "Bar5067c6f8e4b04cedfc6ffee9",
    "time": "2013-01-27"
  },
  {
    "place": "Gym / Fitness Center4a68fff8f964a5206dcb1fe3",
    "time": "2013-02-02"
  },
  {
    "place": "Music Venue4846c5acf964a5206f501fe3",
    "time": "2013-02-03"
  },
  {
    "place": "Bar43920486f964a520662b1fe3",
    "time": "2013-02-03"
  },
  {
    "place": "Stadium4f2ed748e4b062ad2c7ce2db",
    "time": "2013-02-03"
  },
  {
    "place": "Gym / Fitness Center4a68fff8f964a5206dcb1fe3",
    "time": "2013-02-05"
  },
  {
    "place": "Gym / Fitness Center4a68fff8f964a5206dcb1fe3",
    "time": "2013-02-07"
  },
  {
    "place": "Bar4320d080f964a52090271fe3",
    "time": "2013-02-08"
  }
]