[
  {
    "place": "College Theater4bb4fbc2eb6dd13a119c96e4",
    "time": "2012-04-29"
  },
  {
    "place": "Bar3fd66200f964a5204fe31ee3",
    "time": "2012-04-29"
  },
  {
    "place": "General Travel4f13f57d6d863f284d122cae",
    "time": "2012-04-29"
  },
  {
    "place": "Theater4ad13110f964a52065dd20e3",
    "time": "2012-04-29"
  },
  {
    "place": "Park3fd66200f964a520def11ee3",
    "time": "2012-05-01"
  },
  {
    "place": "College Theater4bb4fbc2eb6dd13a119c96e4",
    "time": "2012-05-02"
  },
  {
    "place": "Coffee Shop4ae33a3df964a520f99121e3",
    "time": "2012-05-03"
  },
  {
    "place": "Food & Drink Shop4a319883f964a520fc991fe3",
    "time": "2012-05-03"
  },
  {
    "place": "College Academic Building456ebbbff964a520163e1fe3",
    "time": "2012-05-03"
  },
  {
    "place": "Coffee Shop4b5e5125f964a520488929e3",
    "time": "2012-05-04"
  },
  {
    "place": "Mexican Restaurant4a80bbedf964a52011f61fe3",
    "time": "2012-05-04"
  },
  {
    "place": "Theater4b92f59af964a520862a34e3",
    "time": "2012-05-05"
  },
  {
    "place": "American Restaurant3fd66200f964a520bee31ee3",
    "time": "2012-05-05"
  },
  {
    "place": "Theater4b92f59af964a520862a34e3",
    "time": "2012-05-06"
  },
  {
    "place": "Theater4ad13110f964a52065dd20e3",
    "time": "2012-05-06"
  },
  {
    "place": "Coffee Shop4b5e5125f964a520488929e3",
    "time": "2012-05-06"
  },
  {
    "place": "Mexican Restaurant41a12c00f964a5203a1e1fe3",
    "time": "2012-05-08"
  },
  {
    "place": "Subway4b093cd0f964a520db1423e3",
    "time": "2012-05-10"
  },
  {
    "place": "Clothing Store4c13d7d482a3c9b68536fcf8",
    "time": "2012-05-12"
  },
  {
    "place": "Theater4ad919ecf964a5201b1821e3",
    "time": "2012-05-12"
  },
  {
    "place": "Burrito Place4a4fdd40f964a520c8af1fe3",
    "time": "2012-05-13"
  },
  {
    "place": "Park412d2800f964a520df0c1fe3",
    "time": "2012-05-13"
  },
  {
    "place": "Mexican Restaurant41a12c00f964a5203a1e1fe3",
    "time": "2012-05-13"
  },
  {
    "place": "Train Station4a737bf8f964a52091dc1fe3",
    "time": "2012-05-14"
  },
  {
    "place": "Mexican Restaurant4ad0d761f964a5204ada20e3",
    "time": "2012-05-14"
  },
  {
    "place": "Park40b68100f964a5207d001fe3",
    "time": "2012-05-16"
  },
  {
    "place": "Mexican Restaurant41a12c00f964a5203a1e1fe3",
    "time": "2012-05-16"
  },
  {
    "place": "Plaza49b7ed6df964a52030531fe3",
    "time": "2012-05-17"
  },
  {
    "place": "Clothing Store4eea9bbe0e01182caf934819",
    "time": "2012-05-18"
  },
  {
    "place": "Laundry Service4c588d162091a59353ca5ad0",
    "time": "2012-05-19"
  },
  {
    "place": "Coffee Shop4a902fa5f964a520671620e3",
    "time": "2012-05-19"
  },
  {
    "place": "Vegetarian / Vegan Restaurant4a242dc5f964a520fe7d1fe3",
    "time": "2012-05-21"
  },
  {
    "place": "Mediterranean Restaurant4a2ff171f964a520f6981fe3",
    "time": "2012-05-21"
  },
  {
    "place": "Restaurant3fd66200f964a520b9ea1ee3",
    "time": "2012-05-24"
  },
  {
    "place": "Park40f1d480f964a5206a0a1fe3",
    "time": "2012-05-25"
  },
  {
    "place": "University4864629bf964a520e6501fe3",
    "time": "2012-05-25"
  },
  {
    "place": "Plaza49c64842f964a5202e571fe3",
    "time": "2012-05-28"
  },
  {
    "place": "Bus Station4840fe6bf964a52030501fe3",
    "time": "2012-05-28"
  },
  {
    "place": "Burrito Place44d8c155f964a52079361fe3",
    "time": "2012-05-29"
  },
  {
    "place": "Plaza4ad0eac3f964a52013db20e3",
    "time": "2012-05-29"
  },
  {
    "place": "Food & Drink Shop4bed50be91380f47b4af9f18",
    "time": "2012-05-31"
  },
  {
    "place": "Performing Arts Venue4b1b0f82f964a52062f723e3",
    "time": "2012-05-31"
  },
  {
    "place": "Mexican Restaurant41a12c00f964a5203a1e1fe3",
    "time": "2012-05-31"
  },
  {
    "place": "Performing Arts Venue4b1b0f82f964a52062f723e3",
    "time": "2012-06-02"
  },
  {
    "place": "Subway4b3a8e5df964a520d86925e3",
    "time": "2012-06-03"
  },
  {
    "place": "Bakery4f2a6d55e4b04e33ba6416f9",
    "time": "2012-06-03"
  },
  {
    "place": "Sandwich Place4b1ff2eaf964a520372b24e3",
    "time": "2012-06-03"
  },
  {
    "place": "Performing Arts Venue4b1b0f82f964a52062f723e3",
    "time": "2012-06-03"
  },
  {
    "place": "Food & Drink Shop4bed50be91380f47b4af9f18",
    "time": "2012-06-04"
  },
  {
    "place": "Mexican Restaurant41a12c00f964a5203a1e1fe3",
    "time": "2012-06-04"
  },
  {
    "place": "Bakery49ebb720f964a5201b671fe3",
    "time": "2012-06-06"
  },
  {
    "place": "Pizza Place4c14dcae1b5cef3bbe2feec4",
    "time": "2012-06-07"
  },
  {
    "place": "College Academic Building4d87e81f3acc6dcbe312fd1b",
    "time": "2012-06-07"
  },
  {
    "place": "Mexican Restaurant41a12c00f964a5203a1e1fe3",
    "time": "2012-06-08"
  },
  {
    "place": "Park4f4eca75e4b05c40d5e68c6e",
    "time": "2012-06-08"
  },
  {
    "place": "Park4dfeb4ef183860b961e5c4ec",
    "time": "2012-06-09"
  },
  {
    "place": "Theater4a314b58f964a520ae991fe3",
    "time": "2012-06-10"
  },
  {
    "place": "Coffee Shop4ecc046b0e61aaf0384f19c4",
    "time": "2012-06-10"
  },
  {
    "place": "Train Station4b4e69d9f964a520d2ec26e3",
    "time": "2012-06-10"
  },
  {
    "place": "Bus Station4be34244d27a20a1a0b0915b",
    "time": "2012-06-10"
  },
  {
    "place": "Airport4ace6c89f964a52078d020e3",
    "time": "2012-06-17"
  },
  {
    "place": "Theater49da41eff964a520675e1fe3",
    "time": "2012-06-18"
  },
  {
    "place": "Food Truck4ec3e93ec2eed4eacbd6a404",
    "time": "2012-06-18"
  },
  {
    "place": "Theater41b3a100f964a5206e1e1fe3",
    "time": "2012-06-18"
  },
  {
    "place": "Coffee Shop4a836d3bf964a5201dfb1fe3",
    "time": "2012-06-21"
  },
  {
    "place": "Coffee Shop4ecc046b0e61aaf0384f19c4",
    "time": "2012-06-27"
  },
  {
    "place": "Subway4b3a8e5df964a520d86925e3",
    "time": "2012-07-01"
  },
  {
    "place": "Bus Station4d82a07cf9f3a1cda0969064",
    "time": "2012-07-02"
  },
  {
    "place": "Bus Station4b4f40ddf964a520d0fe26e3",
    "time": "2012-07-02"
  },
  {
    "place": "Park40f1d480f964a5206a0a1fe3",
    "time": "2012-07-03"
  },
  {
    "place": "Road4da1ea1c9935a093783eaa6f",
    "time": "2012-07-04"
  },
  {
    "place": "Theater49da41eff964a520675e1fe3",
    "time": "2012-07-06"
  },
  {
    "place": "Mexican Restaurant41a12c00f964a5203a1e1fe3",
    "time": "2012-07-07"
  },
  {
    "place": "Theater49da41eff964a520675e1fe3",
    "time": "2012-07-07"
  },
  {
    "place": "College Academic Building4d87e81f3acc6dcbe312fd1b",
    "time": "2012-07-09"
  },
  {
    "place": "College Academic Building4bd63cad6798ef3b7ce9648d",
    "time": "2012-07-10"
  },
  {
    "place": "College Academic Building4d87e81f3acc6dcbe312fd1b",
    "time": "2012-07-13"
  },
  {
    "place": "College Academic Building4d87e81f3acc6dcbe312fd1b",
    "time": "2012-07-14"
  },
  {
    "place": "Train Station42911d00f964a520f5231fe3",
    "time": "2012-07-16"
  },
  {
    "place": "Theater49da41eff964a520675e1fe3",
    "time": "2012-07-18"
  },
  {
    "place": "Subway4b2d93a9f964a5201fd924e3",
    "time": "2012-07-18"
  },
  {
    "place": "Mexican Restaurant4a4925b7f964a52008ab1fe3",
    "time": "2012-07-27"
  },
  {
    "place": "Coffee Shop4ecc046b0e61aaf0384f19c4",
    "time": "2012-07-28"
  },
  {
    "place": "Subway4ae4eb45f964a5206e9f21e3",
    "time": "2012-07-29"
  },
  {
    "place": "Subway4ad68321f964a5208e0721e3",
    "time": "2012-07-29"
  },
  {
    "place": "Coffee Shop4ecc046b0e61aaf0384f19c4",
    "time": "2012-07-29"
  },
  {
    "place": "Airport4e1239e522713f7d7bd838d6",
    "time": "2012-08-14"
  },
  {
    "place": "Coffee Shop45112af0f964a5208d391fe3",
    "time": "2012-08-16"
  },
  {
    "place": "Mexican Restaurant41a12c00f964a5203a1e1fe3",
    "time": "2012-08-19"
  },
  {
    "place": "Bar4ad27f19f964a520f1e120e3",
    "time": "2012-08-19"
  },
  {
    "place": "Coffee Shop4aafb418f964a520806420e3",
    "time": "2012-09-05"
  },
  {
    "place": "Theater4a3eb4e6f964a52054a31fe3",
    "time": "2012-09-14"
  },
  {
    "place": "Bar4f0c74ede4b0f615a3725efd",
    "time": "2012-09-16"
  },
  {
    "place": "Burrito Place4ab172a4f964a520816920e3",
    "time": "2012-10-11"
  },
  {
    "place": "Burrito Place4ab172a4f964a520816920e3",
    "time": "2012-10-18"
  },
  {
    "place": "Food & Drink Shop4bed50be91380f47b4af9f18",
    "time": "2012-10-19"
  },
  {
    "place": "Bus Station4840fe6bf964a52030501fe3",
    "time": "2012-10-24"
  },
  {
    "place": "Neighborhood4c158ac177cea5934f73d260",
    "time": "2012-10-26"
  },
  {
    "place": "Coffee Shop4fdf5edce4b08aca4a462878",
    "time": "2012-10-30"
  },
  {
    "place": "School4ccba8a2efd2ef3b1082aa8b",
    "time": "2012-11-06"
  },
  {
    "place": "Bar4ba29cfdf964a520490938e3",
    "time": "2012-11-12"
  },
  {
    "place": "Bar4a417310f964a52052a51fe3",
    "time": "2012-11-13"
  },
  {
    "place": "Theater4ad13110f964a52065dd20e3",
    "time": "2012-11-18"
  },
  {
    "place": "Food & Drink Shop4bed50be91380f47b4af9f18",
    "time": "2012-11-19"
  },
  {
    "place": "Food & Drink Shop4ff76b2be4b0fe7c21265f8a",
    "time": "2012-11-20"
  },
  {
    "place": "Food & Drink Shop4bed50be91380f47b4af9f18",
    "time": "2012-11-25"
  },
  {
    "place": "Bar4ad27f19f964a520f1e120e3",
    "time": "2012-11-26"
  },
  {
    "place": "Theater4ad13110f964a52065dd20e3",
    "time": "2012-12-01"
  },
  {
    "place": "Bar4ad27f19f964a520f1e120e3",
    "time": "2012-12-05"
  },
  {
    "place": "Theater41b3a100f964a5206e1e1fe3",
    "time": "2012-12-08"
  },
  {
    "place": "Sandwich Place4b17e419f964a52051c923e3",
    "time": "2012-12-20"
  },
  {
    "place": "Mexican Restaurant41a12c00f964a5203a1e1fe3",
    "time": "2013-01-17"
  },
  {
    "place": "Mexican Restaurant41a12c00f964a5203a1e1fe3",
    "time": "2013-01-31"
  }
]