[
  {
    "place": "Community College4afb4334f964a520791c22e3",
    "time": "2012-04-04"
  },
  {
    "place": "Community College4afb4334f964a520791c22e3",
    "time": "2012-04-04"
  },
  {
    "place": "College Academic Building4ce3108d4df7a35df6bae079",
    "time": "2012-04-04"
  },
  {
    "place": "Home (private)4cde4467c4f6a35de3f4c86c",
    "time": "2012-04-04"
  },
  {
    "place": "Home (private)4cde4467c4f6a35de3f4c86c",
    "time": "2012-04-06"
  },
  {
    "place": "Mall4a07ac6af964a5208f731fe3",
    "time": "2012-04-07"
  },
  {
    "place": "Video Game Store4d2750a0849f3704e6dd6741",
    "time": "2012-04-07"
  },
  {
    "place": "Pizza Place4c7418353adda143d1a803af",
    "time": "2012-04-07"
  },
  {
    "place": "Home (private)4cde4467c4f6a35de3f4c86c",
    "time": "2012-04-08"
  },
  {
    "place": "Automotive Shop4cb8b28d90c9a143721782d6",
    "time": "2012-04-09"
  },
  {
    "place": "Paper / Office Supplies Store4b48c4c9f964a5201e5626e3",
    "time": "2012-04-09"
  },
  {
    "place": "American Restaurant4b5fc8a2f964a52094cc29e3",
    "time": "2012-04-10"
  },
  {
    "place": "Community College4afb4334f964a520791c22e3",
    "time": "2012-04-11"
  },
  {
    "place": "College Academic Building4ce3108d4df7a35df6bae079",
    "time": "2012-04-11"
  },
  {
    "place": "Home (private)4cde4467c4f6a35de3f4c86c",
    "time": "2012-04-12"
  },
  {
    "place": "Paper / Office Supplies Store4b48c4c9f964a5201e5626e3",
    "time": "2012-04-13"
  },
  {
    "place": "American Restaurant4b5fc8a2f964a52094cc29e3",
    "time": "2012-04-13"
  },
  {
    "place": "Home (private)4cde4467c4f6a35de3f4c86c",
    "time": "2012-04-14"
  },
  {
    "place": "Food & Drink Shop4ba01397f964a520f15737e3",
    "time": "2012-04-14"
  },
  {
    "place": "Stadium49d60947f964a520a85c1fe3",
    "time": "2012-04-14"
  },
  {
    "place": "Automotive Shop4b686445f964a520af752be3",
    "time": "2012-04-14"
  },
  {
    "place": "Bakery4e42e6707d8b2eefb3b0c4e7",
    "time": "2012-04-14"
  },
  {
    "place": "Bar4dc34730d4c0ad9c0f528404",
    "time": "2012-04-15"
  },
  {
    "place": "Home (private)4cde4467c4f6a35de3f4c86c",
    "time": "2012-04-15"
  },
  {
    "place": "Food & Drink Shop4b956636f964a52089a034e3",
    "time": "2012-04-15"
  },
  {
    "place": "Home (private)4cde4467c4f6a35de3f4c86c",
    "time": "2012-04-15"
  },
  {
    "place": "Bowling Alley4ba032ecf964a520096137e3",
    "time": "2012-04-22"
  },
  {
    "place": "Home (private)4cde4467c4f6a35de3f4c86c",
    "time": "2012-04-23"
  },
  {
    "place": "Community College4b9537bff964a520bd9534e3",
    "time": "2012-04-23"
  },
  {
    "place": "Community College4afb4334f964a520791c22e3",
    "time": "2012-04-23"
  },
  {
    "place": "Home (private)4cde4467c4f6a35de3f4c86c",
    "time": "2012-04-27"
  },
  {
    "place": "Hardware Store4ab56c39f964a520877420e3",
    "time": "2012-04-27"
  },
  {
    "place": "Paper / Office Supplies Store4b48c4c9f964a5201e5626e3",
    "time": "2012-04-29"
  },
  {
    "place": "American Restaurant4b5fc8a2f964a52094cc29e3",
    "time": "2012-04-29"
  },
  {
    "place": "Home (private)4cde4467c4f6a35de3f4c86c",
    "time": "2012-05-04"
  },
  {
    "place": "American Restaurant4c54253a06901b8de31e4c4b",
    "time": "2012-05-05"
  },
  {
    "place": "Food & Drink Shop4bbd8213a8cf76b0e5e9b1fd",
    "time": "2012-05-07"
  },
  {
    "place": "Home (private)4cde4467c4f6a35de3f4c86c",
    "time": "2012-05-07"
  },
  {
    "place": "Zoo4492ad65f964a52075341fe3",
    "time": "2012-05-08"
  },
  {
    "place": "Neighborhood4bf212943506ef3bb679bd22",
    "time": "2012-05-13"
  },
  {
    "place": "Home (private)4cde4467c4f6a35de3f4c86c",
    "time": "2012-05-14"
  },
  {
    "place": "Paper / Office Supplies Store4b48c4c9f964a5201e5626e3",
    "time": "2012-05-14"
  },
  {
    "place": "Food & Drink Shop4b3e1f5cf964a520969825e3",
    "time": "2012-05-14"
  },
  {
    "place": "College Academic Building4ce3108d4df7a35df6bae079",
    "time": "2012-05-15"
  },
  {
    "place": "Paper / Office Supplies Store4b48c4c9f964a5201e5626e3",
    "time": "2012-05-26"
  },
  {
    "place": "Moving Target4fbfe16ae4b05190680fe0b1",
    "time": "2012-05-28"
  },
  {
    "place": "Ice Cream Shop4b6755a4f964a520b4482be3",
    "time": "2012-05-28"
  },
  {
    "place": "Latin American Restaurant4f073155e4b0ca3a5af7a99b",
    "time": "2012-05-29"
  },
  {
    "place": "Burger Joint4bb13c54f964a520f7853ce3",
    "time": "2012-05-29"
  },
  {
    "place": "Ice Cream Shop4b6755a4f964a520b4482be3",
    "time": "2012-06-02"
  },
  {
    "place": "Home (private)4cde4467c4f6a35de3f4c86c",
    "time": "2012-06-10"
  },
  {
    "place": "Paper / Office Supplies Store4b48c4c9f964a5201e5626e3",
    "time": "2012-06-10"
  },
  {
    "place": "Home (private)4cde4467c4f6a35de3f4c86c",
    "time": "2012-06-11"
  },
  {
    "place": "Paper / Office Supplies Store4b48c4c9f964a5201e5626e3",
    "time": "2012-06-12"
  },
  {
    "place": "American Restaurant4b5923ecf964a5209e7e28e3",
    "time": "2012-06-12"
  },
  {
    "place": "Paper / Office Supplies Store4b48c4c9f964a5201e5626e3",
    "time": "2012-06-16"
  },
  {
    "place": "Paper / Office Supplies Store4b48c4c9f964a5201e5626e3",
    "time": "2012-06-17"
  },
  {
    "place": "Paper / Office Supplies Store4b48c4c9f964a5201e5626e3",
    "time": "2012-06-26"
  },
  {
    "place": "Post Office4c6aec239c76d13aea524d0f",
    "time": "2012-06-26"
  },
  {
    "place": "Food & Drink Shop4bae290bf964a520ad8b3be3",
    "time": "2012-06-27"
  },
  {
    "place": "Home (private)4cde4467c4f6a35de3f4c86c",
    "time": "2012-07-01"
  },
  {
    "place": "Home (private)4cde4467c4f6a35de3f4c86c",
    "time": "2012-07-02"
  },
  {
    "place": "Gas Station / Garage4bd6b1f55631c9b66e36a630",
    "time": "2012-07-02"
  },
  {
    "place": "Home (private)4cde4467c4f6a35de3f4c86c",
    "time": "2012-07-03"
  },
  {
    "place": "Community College4afb4334f964a520791c22e3",
    "time": "2012-07-03"
  },
  {
    "place": "Home (private)4cde4467c4f6a35de3f4c86c",
    "time": "2012-07-05"
  },
  {
    "place": "Community College4afb4334f964a520791c22e3",
    "time": "2012-07-05"
  },
  {
    "place": "Home (private)4cde4467c4f6a35de3f4c86c",
    "time": "2012-07-05"
  },
  {
    "place": "Post Office4c6aec239c76d13aea524d0f",
    "time": "2012-07-05"
  },
  {
    "place": "Sandwich Place4c094b34ffb8c9b67da96961",
    "time": "2012-07-05"
  },
  {
    "place": "Park4e04f4ff1f6e2b2873b037e3",
    "time": "2012-07-07"
  },
  {
    "place": "American Restaurant4b5fc8a2f964a52094cc29e3",
    "time": "2012-07-08"
  },
  {
    "place": "Home (private)4cde4467c4f6a35de3f4c86c",
    "time": "2012-07-08"
  },
  {
    "place": "Home (private)4cde4467c4f6a35de3f4c86c",
    "time": "2012-07-09"
  },
  {
    "place": "Community College4afb4334f964a520791c22e3",
    "time": "2012-07-09"
  },
  {
    "place": "Post Office4c6aec239c76d13aea524d0f",
    "time": "2012-07-09"
  },
  {
    "place": "Sandwich Place4c094b34ffb8c9b67da96961",
    "time": "2012-07-09"
  },
  {
    "place": "Home (private)4cde4467c4f6a35de3f4c86c",
    "time": "2012-07-11"
  },
  {
    "place": "Home (private)4cde4467c4f6a35de3f4c86c",
    "time": "2012-07-11"
  },
  {
    "place": "Home (private)4cde4467c4f6a35de3f4c86c",
    "time": "2012-07-12"
  },
  {
    "place": "Community College4afb4334f964a520791c22e3",
    "time": "2012-07-12"
  },
  {
    "place": "Paper / Office Supplies Store4b48c4c9f964a5201e5626e3",
    "time": "2012-07-13"
  },
  {
    "place": "Bar4d4eee1a4a38b60c5cf9ee66",
    "time": "2012-07-13"
  },
  {
    "place": "Bar4b832fc3f964a52065fc30e3",
    "time": "2012-07-13"
  },
  {
    "place": "American Restaurant4c54253a06901b8de31e4c4b",
    "time": "2012-07-15"
  },
  {
    "place": "Paper / Office Supplies Store4b48c4c9f964a5201e5626e3",
    "time": "2012-07-15"
  },
  {
    "place": "Bar4f2b5db0e4b07364f611ad1d",
    "time": "2012-07-15"
  },
  {
    "place": "Fast Food Restaurant4c50e0c20ef3a593423f0b7b",
    "time": "2012-07-16"
  },
  {
    "place": "Community College4afb4334f964a520791c22e3",
    "time": "2012-07-16"
  },
  {
    "place": "Paper / Office Supplies Store4b48c4c9f964a5201e5626e3",
    "time": "2012-07-17"
  },
  {
    "place": "American Restaurant4b5fc8a2f964a52094cc29e3",
    "time": "2012-07-17"
  },
  {
    "place": "Community College4afb4334f964a520791c22e3",
    "time": "2012-07-18"
  },
  {
    "place": "Home (private)4cde4467c4f6a35de3f4c86c",
    "time": "2012-07-18"
  },
  {
    "place": "Food & Drink Shop4bbd8213a8cf76b0e5e9b1fd",
    "time": "2012-07-24"
  },
  {
    "place": "Bar4f2b5db0e4b07364f611ad1d",
    "time": "2012-07-26"
  },
  {
    "place": "Home (private)4cde4467c4f6a35de3f4c86c",
    "time": "2012-07-28"
  },
  {
    "place": "Home (private)4cde4467c4f6a35de3f4c86c",
    "time": "2012-07-29"
  },
  {
    "place": "Home (private)4cde4467c4f6a35de3f4c86c",
    "time": "2012-07-30"
  },
  {
    "place": "Community College4afb4334f964a520791c22e3",
    "time": "2012-07-30"
  },
  {
    "place": "Paper / Office Supplies Store4b48c4c9f964a5201e5626e3",
    "time": "2012-08-05"
  },
  {
    "place": "Home (private)4cde4467c4f6a35de3f4c86c",
    "time": "2012-08-09"
  },
  {
    "place": "Food & Drink Shop4ba624d9f964a520b33639e3",
    "time": "2012-08-11"
  },
  {
    "place": "Home (private)4cde4467c4f6a35de3f4c86c",
    "time": "2012-08-13"
  },
  {
    "place": "Home (private)4cde4467c4f6a35de3f4c86c",
    "time": "2012-08-19"
  },
  {
    "place": "Home (private)4cde4467c4f6a35de3f4c86c",
    "time": "2012-08-18"
  },
  {
    "place": "Paper / Office Supplies Store4b48c4c9f964a5201e5626e3",
    "time": "2012-08-18"
  },
  {
    "place": "Paper / Office Supplies Store4b48c4c9f964a5201e5626e3",
    "time": "2012-09-05"
  },
  {
    "place": "Burger Joint4b8073b0f964a520a37330e3",
    "time": "2012-09-15"
  },
  {
    "place": "Sandwich Place4c094b34ffb8c9b67da96961",
    "time": "2012-10-11"
  },
  {
    "place": "Mall4a07ac6af964a5208f731fe3",
    "time": "2012-10-19"
  },
  {
    "place": "College Academic Building4cb9f7de0180721e426b9761",
    "time": "2012-10-19"
  },
  {
    "place": "Community College4afb4334f964a520791c22e3",
    "time": "2012-10-22"
  },
  {
    "place": "Home (private)4cde4467c4f6a35de3f4c86c",
    "time": "2012-10-24"
  },
  {
    "place": "Home (private)4cde4467c4f6a35de3f4c86c",
    "time": "2012-10-25"
  },
  {
    "place": "Paper / Office Supplies Store4b48c4c9f964a5201e5626e3",
    "time": "2012-10-26"
  },
  {
    "place": "Home (private)4cde4467c4f6a35de3f4c86c",
    "time": "2012-10-28"
  },
  {
    "place": "Pizza Place4b8feb35f964a520886933e3",
    "time": "2012-11-01"
  },
  {
    "place": "Post Office4c6aec239c76d13aea524d0f",
    "time": "2012-11-05"
  },
  {
    "place": "Community College4afb4334f964a520791c22e3",
    "time": "2012-11-06"
  },
  {
    "place": "Home (private)4cde4467c4f6a35de3f4c86c",
    "time": "2012-11-07"
  },
  {
    "place": "Diner4a915937f964a520f41920e3",
    "time": "2012-11-11"
  },
  {
    "place": "Home (private)4cde4467c4f6a35de3f4c86c",
    "time": "2012-11-11"
  },
  {
    "place": "Wings Joint4ba01f4ff964a520cf5b37e3",
    "time": "2012-11-11"
  },
  {
    "place": "Mall4a07ac6af964a5208f731fe3",
    "time": "2012-11-12"
  },
  {
    "place": "Video Game Store4d2750a0849f3704e6dd6741",
    "time": "2012-11-12"
  },
  {
    "place": "Paper / Office Supplies Store4b48c4c9f964a5201e5626e3",
    "time": "2012-11-16"
  },
  {
    "place": "Paper / Office Supplies Store4b48c4c9f964a5201e5626e3",
    "time": "2012-11-18"
  },
  {
    "place": "Community College4afb4334f964a520791c22e3",
    "time": "2012-11-19"
  },
  {
    "place": "Mall4a07ac6af964a5208f731fe3",
    "time": "2012-11-20"
  },
  {
    "place": "Video Game Store4d2750a0849f3704e6dd6741",
    "time": "2012-11-20"
  },
  {
    "place": "Airport4ace6c89f964a52078d020e3",
    "time": "2012-11-23"
  },
  {
    "place": "Community College4afb4334f964a520791c22e3",
    "time": "2012-11-26"
  },
  {
    "place": "Paper / Office Supplies Store4b48c4c9f964a5201e5626e3",
    "time": "2012-11-26"
  },
  {
    "place": "Wings Joint4ba01f4ff964a520cf5b37e3",
    "time": "2012-12-01"
  },
  {
    "place": "American Restaurant4b5b4bd6f964a52071f228e3",
    "time": "2012-12-01"
  },
  {
    "place": "Bakery4dc5588452b1e8f9f7d0ed8c",
    "time": "2012-12-01"
  },
  {
    "place": "Plaza49b79f54f964a5202c531fe3",
    "time": "2012-12-01"
  },
  {
    "place": "Mall4a07ac6af964a5208f731fe3",
    "time": "2012-12-02"
  },
  {
    "place": "Airport4a45652cf964a52021a81fe3",
    "time": "2012-12-03"
  },
  {
    "place": "Home (private)4cde4467c4f6a35de3f4c86c",
    "time": "2012-12-06"
  },
  {
    "place": "Bar45699170f964a520e73d1fe3",
    "time": "2012-12-16"
  },
  {
    "place": "Community College4afb4334f964a520791c22e3",
    "time": "2012-12-18"
  },
  {
    "place": "Paper / Office Supplies Store4b48c4c9f964a5201e5626e3",
    "time": "2012-12-19"
  },
  {
    "place": "Paper / Office Supplies Store4b48c4c9f964a5201e5626e3",
    "time": "2012-12-22"
  },
  {
    "place": "Arts & Crafts Store4b535928f964a520829827e3",
    "time": "2012-12-22"
  },
  {
    "place": "Arts & Crafts Store4c448db674ffc928cab675cc",
    "time": "2012-12-22"
  },
  {
    "place": "Home (private)4cde4467c4f6a35de3f4c86c",
    "time": "2012-12-22"
  },
  {
    "place": "Home (private)4cde4467c4f6a35de3f4c86c",
    "time": "2012-12-23"
  },
  {
    "place": "Home (private)4cde4467c4f6a35de3f4c86c",
    "time": "2012-12-28"
  },
  {
    "place": "Caribbean Restaurant509f9fa2e4b0df8f7f8bf62b",
    "time": "2012-12-28"
  },
  {
    "place": "Bar4dc34730d4c0ad9c0f528404",
    "time": "2012-12-30"
  },
  {
    "place": "Home (private)4cde4467c4f6a35de3f4c86c",
    "time": "2013-01-03"
  },
  {
    "place": "Paper / Office Supplies Store4b48c4c9f964a5201e5626e3",
    "time": "2013-01-04"
  },
  {
    "place": "Home (private)4cde4467c4f6a35de3f4c86c",
    "time": "2013-01-04"
  },
  {
    "place": "Home (private)4cde4467c4f6a35de3f4c86c",
    "time": "2013-01-07"
  },
  {
    "place": "American Restaurant501ec2b2e4b0abe6106743a7",
    "time": "2013-01-08"
  },
  {
    "place": "Home (private)4cde4467c4f6a35de3f4c86c",
    "time": "2013-01-10"
  },
  {
    "place": "Home (private)4cde4467c4f6a35de3f4c86c",
    "time": "2013-01-14"
  },
  {
    "place": "Home (private)4cde4467c4f6a35de3f4c86c",
    "time": "2013-01-17"
  },
  {
    "place": "Diner4a915937f964a520f41920e3",
    "time": "2013-01-25"
  },
  {
    "place": "Home (private)4cde4467c4f6a35de3f4c86c",
    "time": "2013-02-12"
  },
  {
    "place": "Donut Shop4b52281df964a520286c27e3",
    "time": "2013-02-13"
  }
]