[
  {
    "place": "Gym / Fitness Center4a5f5a54f964a52071bf1fe3",
    "time": "2012-07-02"
  },
  {
    "place": "Coffee Shop49ccd495f964a52091591fe3",
    "time": "2012-07-02"
  },
  {
    "place": "Park4b773b60f964a5200f8a2ee3",
    "time": "2012-07-02"
  },
  {
    "place": "Gym / Fitness Center4a3449eaf964a5200a9c1fe3",
    "time": "2012-07-02"
  },
  {
    "place": "Gym / Fitness Center4a5f5a54f964a52071bf1fe3",
    "time": "2012-07-03"
  },
  {
    "place": "Gym / Fitness Center4a3449eaf964a5200a9c1fe3",
    "time": "2012-07-03"
  },
  {
    "place": "Coffee Shop49ccd495f964a52091591fe3",
    "time": "2012-07-03"
  },
  {
    "place": "Caf\u00c3\u00a94d32037f5c2db60c8ddebd6c",
    "time": "2012-07-03"
  },
  {
    "place": "Coffee Shop49ccd495f964a52091591fe3",
    "time": "2012-07-04"
  },
  {
    "place": "Gym / Fitness Center4a5f5a54f964a52071bf1fe3",
    "time": "2012-07-05"
  },
  {
    "place": "Gym / Fitness Center4a3449eaf964a5200a9c1fe3",
    "time": "2012-07-05"
  },
  {
    "place": "Gym / Fitness Center4a5f5a54f964a52071bf1fe3",
    "time": "2012-07-06"
  },
  {
    "place": "Spa / Massage4bae9a0ef964a52071c53be3",
    "time": "2012-07-06"
  },
  {
    "place": "Gym / Fitness Center4a5f5a54f964a52071bf1fe3",
    "time": "2012-07-07"
  },
  {
    "place": "Movie Theater49e7ce15f964a5201d651fe3",
    "time": "2012-07-07"
  },
  {
    "place": "Gym / Fitness Center4a5f5a54f964a52071bf1fe3",
    "time": "2012-07-09"
  },
  {
    "place": "Food & Drink Shop44d9e8dbf964a5208a361fe3",
    "time": "2012-07-09"
  },
  {
    "place": "Park4b773b60f964a5200f8a2ee3",
    "time": "2012-07-09"
  },
  {
    "place": "Gym / Fitness Center4a3449eaf964a5200a9c1fe3",
    "time": "2012-07-09"
  },
  {
    "place": "Gym / Fitness Center4a5f5a54f964a52071bf1fe3",
    "time": "2012-07-11"
  },
  {
    "place": "Coffee Shop49ccd495f964a52091591fe3",
    "time": "2012-07-11"
  },
  {
    "place": "Bar49f50a92f964a520876b1fe3",
    "time": "2012-07-11"
  },
  {
    "place": "American Restaurant45379ccef964a520c13b1fe3",
    "time": "2012-07-11"
  },
  {
    "place": "American Restaurant4ade29e5f964a5207d7321e3",
    "time": "2012-07-12"
  },
  {
    "place": "Gym / Fitness Center4a5f5a54f964a52071bf1fe3",
    "time": "2012-07-12"
  },
  {
    "place": "Coffee Shop49ccd495f964a52091591fe3",
    "time": "2012-07-12"
  },
  {
    "place": "Park4b773b60f964a5200f8a2ee3",
    "time": "2012-07-12"
  },
  {
    "place": "Caf\u00c3\u00a94d32037f5c2db60c8ddebd6c",
    "time": "2012-07-12"
  },
  {
    "place": "Molecular Gastronomy Restaurant3fd66200f964a52010e41ee3",
    "time": "2012-07-12"
  },
  {
    "place": "Gym / Fitness Center4a5f5a54f964a52071bf1fe3",
    "time": "2012-07-13"
  },
  {
    "place": "Food & Drink Shop44d9e8dbf964a5208a361fe3",
    "time": "2012-07-13"
  },
  {
    "place": "Gym / Fitness Center4a5f5a54f964a52071bf1fe3",
    "time": "2012-07-14"
  },
  {
    "place": "Gym / Fitness Center4a5f5a54f964a52071bf1fe3",
    "time": "2012-07-16"
  },
  {
    "place": "Food & Drink Shop44d9e8dbf964a5208a361fe3",
    "time": "2012-07-16"
  },
  {
    "place": "Gym / Fitness Center4a5f5a54f964a52071bf1fe3",
    "time": "2012-07-17"
  },
  {
    "place": "Gym / Fitness Center4a3449eaf964a5200a9c1fe3",
    "time": "2012-07-17"
  },
  {
    "place": "Coffee Shop49ccd495f964a52091591fe3",
    "time": "2012-07-17"
  },
  {
    "place": "Cosmetics Shop4a944573f964a520092120e3",
    "time": "2012-07-17"
  },
  {
    "place": "Coffee Shop49ccd495f964a52091591fe3",
    "time": "2012-07-18"
  },
  {
    "place": "Gym / Fitness Center4a5f5a54f964a52071bf1fe3",
    "time": "2012-07-22"
  },
  {
    "place": "Coffee Shop49ccd495f964a52091591fe3",
    "time": "2012-07-24"
  },
  {
    "place": "Gym / Fitness Center4a5f5a54f964a52071bf1fe3",
    "time": "2012-08-05"
  },
  {
    "place": "Gym / Fitness Center4a5f5a54f964a52071bf1fe3",
    "time": "2012-08-06"
  },
  {
    "place": "Food & Drink Shop44d9e8dbf964a5208a361fe3",
    "time": "2012-08-06"
  },
  {
    "place": "Gym / Fitness Center4a5f5a54f964a52071bf1fe3",
    "time": "2012-08-09"
  },
  {
    "place": "Coffee Shop49ccd495f964a52091591fe3",
    "time": "2012-08-09"
  },
  {
    "place": "Caf\u00c3\u00a94d32037f5c2db60c8ddebd6c",
    "time": "2012-08-09"
  },
  {
    "place": "Gym / Fitness Center4a5f5a54f964a52071bf1fe3",
    "time": "2012-08-10"
  },
  {
    "place": "Food & Drink Shop44d9e8dbf964a5208a361fe3",
    "time": "2012-08-10"
  },
  {
    "place": "Gym / Fitness Center4a5f5a54f964a52071bf1fe3",
    "time": "2012-08-11"
  },
  {
    "place": "Mediterranean Restaurant4a050dcff964a52053721fe3",
    "time": "2012-08-11"
  },
  {
    "place": "Gym / Fitness Center4a5f5a54f964a52071bf1fe3",
    "time": "2012-08-12"
  },
  {
    "place": "Coffee Shop49ccd495f964a52091591fe3",
    "time": "2012-08-13"
  },
  {
    "place": "Gym / Fitness Center4a3449eaf964a5200a9c1fe3",
    "time": "2012-08-13"
  },
  {
    "place": "Gym / Fitness Center4a5f5a54f964a52071bf1fe3",
    "time": "2012-08-14"
  },
  {
    "place": "Caf\u00c3\u00a94d32037f5c2db60c8ddebd6c",
    "time": "2012-08-14"
  },
  {
    "place": "Gym / Fitness Center4a3449eaf964a5200a9c1fe3",
    "time": "2012-08-14"
  },
  {
    "place": "Italian Restaurant4afb2990f964a520a91b22e3",
    "time": "2012-08-16"
  },
  {
    "place": "Gym / Fitness Center4a5f5a54f964a52071bf1fe3",
    "time": "2012-08-19"
  },
  {
    "place": "Movie Theater4691e9b3f964a520c2481fe3",
    "time": "2012-08-19"
  },
  {
    "place": "Gym / Fitness Center4a5f5a54f964a52071bf1fe3",
    "time": "2012-08-20"
  },
  {
    "place": "Gym / Fitness Center4a3449eaf964a5200a9c1fe3",
    "time": "2012-08-17"
  },
  {
    "place": "Gym / Fitness Center4a5f5a54f964a52071bf1fe3",
    "time": "2012-08-18"
  },
  {
    "place": "Coffee Shop49ccd495f964a52091591fe3",
    "time": "2012-08-18"
  },
  {
    "place": "Caf\u00c3\u00a94d32037f5c2db60c8ddebd6c",
    "time": "2012-08-22"
  },
  {
    "place": "Gym / Fitness Center4a5f5a54f964a52071bf1fe3",
    "time": "2012-10-08"
  },
  {
    "place": "Coffee Shop49ccd495f964a52091591fe3",
    "time": "2012-10-08"
  },
  {
    "place": "Gym / Fitness Center4a3449eaf964a5200a9c1fe3",
    "time": "2012-10-08"
  },
  {
    "place": "Gym / Fitness Center4a5f5a54f964a52071bf1fe3",
    "time": "2012-10-12"
  },
  {
    "place": "Music Venue3fd66200f964a52002eb1ee3",
    "time": "2012-10-12"
  },
  {
    "place": "Bar49f50a92f964a520876b1fe3",
    "time": "2012-10-13"
  },
  {
    "place": "Gym / Fitness Center4a5f5a54f964a52071bf1fe3",
    "time": "2012-10-13"
  },
  {
    "place": "Gym / Fitness Center4a5f5a54f964a52071bf1fe3",
    "time": "2012-10-17"
  },
  {
    "place": "Coffee Shop49ccd495f964a52091591fe3",
    "time": "2012-10-17"
  },
  {
    "place": "Gym / Fitness Center4a5f5a54f964a52071bf1fe3",
    "time": "2012-11-12"
  },
  {
    "place": "Gym / Fitness Center4a5f5a54f964a52071bf1fe3",
    "time": "2012-11-12"
  },
  {
    "place": "Coffee Shop4a73248cf964a520a9db1fe3",
    "time": "2012-11-12"
  },
  {
    "place": "Spa / Massage4ce2a27cd58c60fc0fa1a76f",
    "time": "2012-11-14"
  },
  {
    "place": "Gym / Fitness Center4a5f5a54f964a52071bf1fe3",
    "time": "2012-11-16"
  },
  {
    "place": "Gym / Fitness Center4a5f5a54f964a52071bf1fe3",
    "time": "2012-11-17"
  },
  {
    "place": "Gym / Fitness Center4a5f5a54f964a52071bf1fe3",
    "time": "2012-11-18"
  },
  {
    "place": "Gym / Fitness Center4a5f5a54f964a52071bf1fe3",
    "time": "2012-11-20"
  },
  {
    "place": "Coffee Shop49ccd495f964a52091591fe3",
    "time": "2012-11-26"
  },
  {
    "place": "College Academic Building4c6b02f46d390f4717d3099a",
    "time": "2012-11-27"
  },
  {
    "place": "Caf\u00c3\u00a94d32037f5c2db60c8ddebd6c",
    "time": "2012-11-27"
  },
  {
    "place": "Coffee Shop49ccd495f964a52091591fe3",
    "time": "2012-11-28"
  },
  {
    "place": "Coffee Shop49ccd495f964a52091591fe3",
    "time": "2012-12-01"
  },
  {
    "place": "Gym / Fitness Center4a5f5a54f964a52071bf1fe3",
    "time": "2012-12-02"
  },
  {
    "place": "Coffee Shop49ccd495f964a52091591fe3",
    "time": "2012-12-05"
  },
  {
    "place": "Spa / Massage4ce2a27cd58c60fc0fa1a76f",
    "time": "2012-12-05"
  },
  {
    "place": "College Academic Building4c6b02f46d390f4717d3099a",
    "time": "2012-12-06"
  },
  {
    "place": "Gym / Fitness Center4a5f5a54f964a52071bf1fe3",
    "time": "2012-12-06"
  },
  {
    "place": "College Academic Building4c6b02f46d390f4717d3099a",
    "time": "2012-12-06"
  },
  {
    "place": "Salon / Barbershop4a9926fff964a5206d2d20e3",
    "time": "2012-12-08"
  },
  {
    "place": "Coffee Shop49ccd495f964a52091591fe3",
    "time": "2012-12-10"
  },
  {
    "place": "College Academic Building4c6b02f46d390f4717d3099a",
    "time": "2012-12-11"
  },
  {
    "place": "Gym / Fitness Center4a5f5a54f964a52071bf1fe3",
    "time": "2012-12-11"
  },
  {
    "place": "College Academic Building4c6b02f46d390f4717d3099a",
    "time": "2012-12-13"
  },
  {
    "place": "Gym / Fitness Center4a3449eaf964a5200a9c1fe3",
    "time": "2012-12-14"
  },
  {
    "place": "Gym / Fitness Center4a5f5a54f964a52071bf1fe3",
    "time": "2012-12-15"
  },
  {
    "place": "Coffee Shop49ccd495f964a52091591fe3",
    "time": "2012-12-16"
  },
  {
    "place": "Gym / Fitness Center4a3449eaf964a5200a9c1fe3",
    "time": "2012-12-17"
  },
  {
    "place": "College Academic Building4c6b02f46d390f4717d3099a",
    "time": "2012-12-18"
  },
  {
    "place": "Coffee Shop49ccd495f964a52091591fe3",
    "time": "2012-12-19"
  },
  {
    "place": "Caf\u00c3\u00a949ccd495f964a52091591fe3",
    "time": "2013-01-21"
  },
  {
    "place": "Gym / Fitness Center4a3449eaf964a5200a9c1fe3",
    "time": "2013-01-21"
  },
  {
    "place": "Gym / Fitness Center4a3449eaf964a5200a9c1fe3",
    "time": "2013-01-25"
  },
  {
    "place": "Caf\u00c3\u00a949ccd495f964a52091591fe3",
    "time": "2013-01-26"
  },
  {
    "place": "Gym / Fitness Center4d4f4dc207b1a09016acf83b",
    "time": "2013-01-26"
  },
  {
    "place": "Caf\u00c3\u00a949ccd495f964a52091591fe3",
    "time": "2013-01-27"
  },
  {
    "place": "Gym / Fitness Center4a3449eaf964a5200a9c1fe3",
    "time": "2013-01-27"
  },
  {
    "place": "Caf\u00c3\u00a949ccd495f964a52091591fe3",
    "time": "2013-01-28"
  },
  {
    "place": "Office4c4de0f951c2c928071c849d",
    "time": "2013-01-31"
  },
  {
    "place": "American Restaurant4b8bd27df964a52011ad32e3",
    "time": "2013-02-01"
  },
  {
    "place": "Caf\u00c3\u00a949ccd495f964a52091591fe3",
    "time": "2013-02-02"
  },
  {
    "place": "Gym / Fitness Center4d4f4dc207b1a09016acf83b",
    "time": "2013-02-02"
  },
  {
    "place": "Bar4d57475d58856dcb655a646d",
    "time": "2013-02-03"
  },
  {
    "place": "Caf\u00c3\u00a949ccd495f964a52091591fe3",
    "time": "2013-02-03"
  },
  {
    "place": "Caf\u00c3\u00a949ccd495f964a52091591fe3",
    "time": "2013-02-04"
  },
  {
    "place": "Gym / Fitness Center4a3449eaf964a5200a9c1fe3",
    "time": "2013-02-04"
  },
  {
    "place": "Office4c4de0f951c2c928071c849d",
    "time": "2013-02-05"
  },
  {
    "place": "Office4c4de0f951c2c928071c849d",
    "time": "2013-02-07"
  },
  {
    "place": "Coffee Shop49ccd495f964a52091591fe3",
    "time": "2013-02-11"
  },
  {
    "place": "Gym / Fitness Center4a3449eaf964a5200a9c1fe3",
    "time": "2013-02-11"
  },
  {
    "place": "Office4c4de0f951c2c928071c849d",
    "time": "2013-02-12"
  },
  {
    "place": "Coffee Shop49ccd495f964a52091591fe3",
    "time": "2013-02-13"
  },
  {
    "place": "Spa / Massage4ce2a27cd58c60fc0fa1a76f",
    "time": "2013-02-13"
  },
  {
    "place": "Gym / Fitness Center4a3449eaf964a5200a9c1fe3",
    "time": "2013-02-13"
  }
]