[
  {
    "place": "Laundry Service4acc9e80f964a52016c920e3",
    "time": "2012-04-08"
  },
  {
    "place": "Pizza Place4d2ce735762fa143f40b7464",
    "time": "2012-04-08"
  },
  {
    "place": "Bakery4e3b0f27e4cdab9b9323708a",
    "time": "2012-04-11"
  },
  {
    "place": "Chinese Restaurant4e4dd064bd41b76bef938bdf",
    "time": "2012-04-11"
  },
  {
    "place": "Fast Food Restaurant4a94316af964a520b12020e3",
    "time": "2012-04-11"
  },
  {
    "place": "Playground4bb65aab2ea195215a8aab2f",
    "time": "2012-04-11"
  },
  {
    "place": "Student Center4c5d4dbf9b28d13aaf205970",
    "time": "2012-04-13"
  },
  {
    "place": "Drugstore / Pharmacy4bfd5beb83bbd13a62fb62c5",
    "time": "2012-04-13"
  },
  {
    "place": "Bar4e2427633151306f89294b29",
    "time": "2012-04-13"
  },
  {
    "place": "Caribbean Restaurant4d95f915e07ea35d0f03b402",
    "time": "2012-04-14"
  },
  {
    "place": "Gym / Fitness Center4dbf37e24b2221ec2d5611b0",
    "time": "2012-04-14"
  },
  {
    "place": "Fast Food Restaurant4c1d043a63750f47737cb767",
    "time": "2012-04-14"
  },
  {
    "place": "Medical Center4e734667483b4dd0be1fb8c7",
    "time": "2012-04-14"
  },
  {
    "place": "Salon / Barbershop4eda89f82c5b50ab9ec48fda",
    "time": "2012-04-14"
  },
  {
    "place": "Coffee Shop4ad79deff964a520d50c21e3",
    "time": "2012-04-14"
  },
  {
    "place": "Bus Station4b4fc661f964a520ed1427e3",
    "time": "2012-04-14"
  },
  {
    "place": "Medical Center4d9c55257509b1f785d626a0",
    "time": "2012-04-14"
  },
  {
    "place": "Drugstore / Pharmacy4bfd5beb83bbd13a62fb62c5",
    "time": "2012-04-14"
  },
  {
    "place": "Medical Center4c45b67759d99c748830fcad",
    "time": "2012-04-14"
  },
  {
    "place": "Medical Center4acbc102f964a5204bc520e3",
    "time": "2012-04-14"
  },
  {
    "place": "Subway4b5d272ef964a520c15429e3",
    "time": "2012-04-14"
  },
  {
    "place": "College Academic Building4cf66a2664e3721e5d0e21c8",
    "time": "2012-04-14"
  },
  {
    "place": "Medical Center4d6d4153423d54812cdcebb1",
    "time": "2012-04-14"
  },
  {
    "place": "Pizza Place4cd70dd094848cfaf2a5f0b1",
    "time": "2012-04-14"
  },
  {
    "place": "Laundry Service4e43f2c3b0fb71d2197b8282",
    "time": "2012-04-14"
  },
  {
    "place": "Other Nightlife4e5ff336d164ddd5e4b07885",
    "time": "2012-04-14"
  },
  {
    "place": "Other Great Outdoors4d301f11236aa143340451eb",
    "time": "2012-04-14"
  },
  {
    "place": "Cosmetics Shop4ccb2cd87c2ff04dadd1907e",
    "time": "2012-04-14"
  },
  {
    "place": "Record Shop4d2abf5dec272d438760384c",
    "time": "2012-04-14"
  },
  {
    "place": "Cemetery4ba54757f964a52059f538e3",
    "time": "2012-04-14"
  },
  {
    "place": "Bar4ec895a3cc21b428e46a5fce",
    "time": "2012-04-14"
  },
  {
    "place": "Chinese Restaurant4ea7501d30f897d8daf7061b",
    "time": "2012-04-14"
  },
  {
    "place": "Bar4ec895a3cc21b428e46a5fce",
    "time": "2012-04-14"
  },
  {
    "place": "Deli / Bodega4d34702c6c7c721efe12c256",
    "time": "2012-04-14"
  },
  {
    "place": "Church4ea1fff129c2abc8de9b5bf8",
    "time": "2012-04-14"
  },
  {
    "place": "Seafood Restaurant4a91ca81f964a520d31b20e3",
    "time": "2012-04-14"
  },
  {
    "place": "Athletic & Sport4a731329f964a52083db1fe3",
    "time": "2012-04-14"
  },
  {
    "place": "Hardware Store4c1cc3038b3aa5934d54995f",
    "time": "2012-04-14"
  },
  {
    "place": "Clothing Store4ee36c80a69d89905b094c80",
    "time": "2012-04-14"
  },
  {
    "place": "Bakery4b47bad2f964a5203d3c26e3",
    "time": "2012-04-14"
  },
  {
    "place": "Medical Center4e734667483b4dd0be1fb8c7",
    "time": "2012-04-14"
  },
  {
    "place": "Medical Center4d9c55257509b1f785d626a0",
    "time": "2012-04-15"
  },
  {
    "place": "Fast Food Restaurant4c1d043a63750f47737cb767",
    "time": "2012-04-15"
  },
  {
    "place": "Coffee Shop4ad79deff964a520d50c21e3",
    "time": "2012-04-15"
  },
  {
    "place": "Home (private)4e60318a483bd9a9735952ae",
    "time": "2012-04-15"
  },
  {
    "place": "Gym / Fitness Center4dbf37e24b2221ec2d5611b0",
    "time": "2012-04-15"
  },
  {
    "place": "Student Center4c5d4dbf9b28d13aaf205970",
    "time": "2012-04-15"
  },
  {
    "place": "Drugstore / Pharmacy4c8150aa47cc224b15177b9f",
    "time": "2012-04-15"
  },
  {
    "place": "Medical Center4acbc102f964a5204bc520e3",
    "time": "2012-04-15"
  },
  {
    "place": "Coffee Shop4ad79deff964a520d50c21e3",
    "time": "2012-04-15"
  },
  {
    "place": "Deli / Bodega4b3ba919f964a520367825e3",
    "time": "2012-04-15"
  },
  {
    "place": "Fast Food Restaurant4c1d043a63750f47737cb767",
    "time": "2012-04-15"
  },
  {
    "place": "Pizza Place4cd70dd094848cfaf2a5f0b1",
    "time": "2012-04-15"
  },
  {
    "place": "College Academic Building4d36e796e4b4a093331a2836",
    "time": "2012-04-15"
  },
  {
    "place": "Gas Station / Garage4d6bae512ea9b1f79e9ed328",
    "time": "2012-04-15"
  },
  {
    "place": "Subway4b5d272ef964a520c15429e3",
    "time": "2012-04-15"
  },
  {
    "place": "Bar4e2427633151306f89294b29",
    "time": "2012-04-15"
  },
  {
    "place": "Caribbean Restaurant4d95f915e07ea35d0f03b402",
    "time": "2012-04-15"
  },
  {
    "place": "Gas Station / Garage4d6bae512ea9b1f79e9ed328",
    "time": "2012-04-15"
  },
  {
    "place": "Drugstore / Pharmacy4c8150aa47cc224b15177b9f",
    "time": "2012-04-15"
  },
  {
    "place": "Deli / Bodega4c447c09f799e21e2fdcada2",
    "time": "2012-04-15"
  },
  {
    "place": "Medical Center4b688c4df964a520357f2be3",
    "time": "2012-04-15"
  },
  {
    "place": "College Academic Building4cf66a2664e3721e5d0e21c8",
    "time": "2012-04-15"
  },
  {
    "place": "Medical Center4d9c55257509b1f785d626a0",
    "time": "2012-04-16"
  },
  {
    "place": "College Academic Building4cf66a2664e3721e5d0e21c8",
    "time": "2012-04-17"
  },
  {
    "place": "Medical Center4d6d4153423d54812cdcebb1",
    "time": "2012-04-17"
  },
  {
    "place": "Bus Station4b4fc661f964a520ed1427e3",
    "time": "2012-04-17"
  },
  {
    "place": "Medical Center4b190c9ff964a52074d723e3",
    "time": "2012-04-17"
  },
  {
    "place": "Gym / Fitness Center4dbf37e24b2221ec2d5611b0",
    "time": "2012-04-17"
  },
  {
    "place": "Beach49e4a769f964a52015631fe3",
    "time": "2012-04-17"
  },
  {
    "place": "General Entertainment49f7097ff964a520656c1fe3",
    "time": "2012-04-17"
  },
  {
    "place": "Beach49e4a769f964a52015631fe3",
    "time": "2012-04-17"
  },
  {
    "place": "Beach49e4a769f964a52015631fe3",
    "time": "2012-04-17"
  },
  {
    "place": "Park4c6dd8fb4d24b60cf040d7d8",
    "time": "2012-04-17"
  },
  {
    "place": "Ice Cream Shop4e31c5cf1520b5aee2203558",
    "time": "2012-04-17"
  },
  {
    "place": "Athletic & Sport4a731329f964a52083db1fe3",
    "time": "2012-04-17"
  },
  {
    "place": "Toy / Game Store4b6468c7f964a520e6b02ae3",
    "time": "2012-04-18"
  },
  {
    "place": "Home (private)4e60318a483bd9a9735952ae",
    "time": "2012-04-19"
  },
  {
    "place": "Laundry Service4e43f2c3b0fb71d2197b8282",
    "time": "2012-04-19"
  },
  {
    "place": "Coffee Shop4ad79deff964a520d50c21e3",
    "time": "2012-04-19"
  },
  {
    "place": "Gas Station / Garage4d6bae512ea9b1f79e9ed328",
    "time": "2012-04-19"
  },
  {
    "place": "Caribbean Restaurant4e7dd2d7d3e3294a67bcd8e8",
    "time": "2012-04-19"
  },
  {
    "place": "Dessert Shop4dc580d018387d1bd53f6d52",
    "time": "2012-04-19"
  },
  {
    "place": "Mexican Restaurant4c44fea2f97fbe9a4308bc30",
    "time": "2012-04-19"
  },
  {
    "place": "Laundry Service4e43f2c3b0fb71d2197b8282",
    "time": "2012-04-19"
  },
  {
    "place": "Food & Drink Shop4dc1cedc22717802a71956be",
    "time": "2012-04-19"
  },
  {
    "place": "Bar4ec895a3cc21b428e46a5fce",
    "time": "2012-04-19"
  },
  {
    "place": "Home (private)4e60318a483bd9a9735952ae",
    "time": "2012-04-19"
  },
  {
    "place": "Movie Theater4e73fc568998ed82a3c29401",
    "time": "2012-04-19"
  },
  {
    "place": "Historic Site4f1ce7a1e4b0ce22e7066f6c",
    "time": "2012-04-19"
  },
  {
    "place": "Performing Arts Venue4e5eb3aa18a8c46e083979aa",
    "time": "2012-04-19"
  },
  {
    "place": "Medical Center4d9c55257509b1f785d626a0",
    "time": "2012-04-20"
  },
  {
    "place": "Dessert Shop4e7673fcd1643f93b262d6c8",
    "time": "2012-04-20"
  },
  {
    "place": "Coffee Shop4ad79deff964a520d50c21e3",
    "time": "2012-04-20"
  },
  {
    "place": "Medical Center4acbc102f964a5204bc520e3",
    "time": "2012-04-20"
  },
  {
    "place": "University4dd5decc2271c5d36d15f201",
    "time": "2012-04-20"
  },
  {
    "place": "Fast Food Restaurant4c1d043a63750f47737cb767",
    "time": "2012-04-20"
  },
  {
    "place": "Bus Station4b4fc661f964a520ed1427e3",
    "time": "2012-04-20"
  },
  {
    "place": "College Academic Building4cf66a2664e3721e5d0e21c8",
    "time": "2012-04-20"
  },
  {
    "place": "Student Center4c5d4dbf9b28d13aaf205970",
    "time": "2012-04-20"
  },
  {
    "place": "Drugstore / Pharmacy4bfd5beb83bbd13a62fb62c5",
    "time": "2012-04-20"
  },
  {
    "place": "Fast Food Restaurant4c1d043a63750f47737cb767",
    "time": "2012-04-20"
  },
  {
    "place": "Medical Center4d6d4153423d54812cdcebb1",
    "time": "2012-04-20"
  },
  {
    "place": "Home (private)4e60318a483bd9a9735952ae",
    "time": "2012-04-20"
  },
  {
    "place": "College Academic Building4cf66a2664e3721e5d0e21c8",
    "time": "2012-04-20"
  },
  {
    "place": "Gym / Fitness Center4dbf37e24b2221ec2d5611b0",
    "time": "2012-04-20"
  },
  {
    "place": "Medical Center4d9c55257509b1f785d626a0",
    "time": "2012-04-20"
  },
  {
    "place": "Medical Center4b190c9ff964a52074d723e3",
    "time": "2012-04-20"
  },
  {
    "place": "Student Center4c5d4dbf9b28d13aaf205970",
    "time": "2012-04-20"
  },
  {
    "place": "Fried Chicken Joint4f60f913e4b0800f6141078a",
    "time": "2012-04-20"
  },
  {
    "place": "Drugstore / Pharmacy4c8150aa47cc224b15177b9f",
    "time": "2012-04-20"
  },
  {
    "place": "Medical Center4c45b67759d99c748830fcad",
    "time": "2012-04-20"
  },
  {
    "place": "Drugstore / Pharmacy4bfd5beb83bbd13a62fb62c5",
    "time": "2012-04-20"
  },
  {
    "place": "Pizza Place4cd70dd094848cfaf2a5f0b1",
    "time": "2012-04-20"
  },
  {
    "place": "Gas Station / Garage4d6bae512ea9b1f79e9ed328",
    "time": "2012-04-20"
  },
  {
    "place": "Bus Station4dcd61c07d8b975f18b3c0b9",
    "time": "2012-04-20"
  },
  {
    "place": "Deli / Bodega4c447c09f799e21e2fdcada2",
    "time": "2012-04-20"
  },
  {
    "place": "Deli / Bodega4b3ba919f964a520367825e3",
    "time": "2012-04-20"
  },
  {
    "place": "Burger Joint4c9251922626a1cd2a9f396b",
    "time": "2012-04-20"
  },
  {
    "place": "Salon / Barbershop4eda89f82c5b50ab9ec48fda",
    "time": "2012-04-20"
  },
  {
    "place": "Dessert Shop4dc580d018387d1bd53f6d52",
    "time": "2012-04-21"
  },
  {
    "place": "Home (private)4e60318a483bd9a9735952ae",
    "time": "2012-04-21"
  },
  {
    "place": "Bus Station4b4fc661f964a520ed1427e3",
    "time": "2012-04-21"
  },
  {
    "place": "Bus Station4dcd61c07d8b975f18b3c0b9",
    "time": "2012-04-21"
  },
  {
    "place": "Medical Center4d9c55257509b1f785d626a0",
    "time": "2012-04-21"
  },
  {
    "place": "Bar4ec895a3cc21b428e46a5fce",
    "time": "2012-04-21"
  },
  {
    "place": "College Academic Building4cf66a2664e3721e5d0e21c8",
    "time": "2012-04-21"
  },
  {
    "place": "Student Center4c5d4dbf9b28d13aaf205970",
    "time": "2012-04-21"
  },
  {
    "place": "Drugstore / Pharmacy4bfd5beb83bbd13a62fb62c5",
    "time": "2012-04-21"
  },
  {
    "place": "Deli / Bodega4c447c09f799e21e2fdcada2",
    "time": "2012-04-21"
  },
  {
    "place": "Coffee Shop4ad79deff964a520d50c21e3",
    "time": "2012-04-21"
  },
  {
    "place": "Fast Food Restaurant4c1d043a63750f47737cb767",
    "time": "2012-04-21"
  },
  {
    "place": "Coffee Shop4ad79deff964a520d50c21e3",
    "time": "2012-04-21"
  },
  {
    "place": "Drugstore / Pharmacy4c8150aa47cc224b15177b9f",
    "time": "2012-04-21"
  },
  {
    "place": "Pizza Place4cd70dd094848cfaf2a5f0b1",
    "time": "2012-04-21"
  },
  {
    "place": "Gas Station / Garage4d6bae512ea9b1f79e9ed328",
    "time": "2012-04-21"
  },
  {
    "place": "Medical Center4b688c4df964a520357f2be3",
    "time": "2012-04-21"
  },
  {
    "place": "Fried Chicken Joint4f60f913e4b0800f6141078a",
    "time": "2012-04-21"
  },
  {
    "place": "Medical Center4c45b67759d99c748830fcad",
    "time": "2012-04-21"
  },
  {
    "place": "Bus Station4dcd61c07d8b975f18b3c0b9",
    "time": "2012-04-21"
  },
  {
    "place": "Drugstore / Pharmacy4c8150aa47cc224b15177b9f",
    "time": "2012-04-22"
  },
  {
    "place": "Burger Joint4c9251922626a1cd2a9f396b",
    "time": "2012-04-22"
  },
  {
    "place": "Medical Center4b688c4df964a520357f2be3",
    "time": "2012-04-22"
  },
  {
    "place": "Drugstore / Pharmacy4bfd5beb83bbd13a62fb62c5",
    "time": "2012-04-22"
  },
  {
    "place": "Gym / Fitness Center4dbf37e24b2221ec2d5611b0",
    "time": "2012-04-22"
  },
  {
    "place": "Seafood Restaurant3fd66200f964a52074e71ee3",
    "time": "2012-04-22"
  },
  {
    "place": "Coffee Shop49ef714cf964a520b6681fe3",
    "time": "2012-04-22"
  },
  {
    "place": "Burger Joint4b44c9b4f964a52030fc25e3",
    "time": "2012-04-22"
  },
  {
    "place": "Middle Eastern Restaurant4b4cb455f964a520fbba26e3",
    "time": "2012-04-22"
  },
  {
    "place": "Mexican Restaurant4a78b7faf964a5203ee61fe3",
    "time": "2012-04-22"
  },
  {
    "place": "Coffee Shop49f5ac81f964a520b16b1fe3",
    "time": "2012-04-22"
  },
  {
    "place": "Building42ffdb00f964a520f5261fe3",
    "time": "2012-04-22"
  },
  {
    "place": "Sandwich Place4ddd0a8f1838306b821414a4",
    "time": "2012-04-22"
  },
  {
    "place": "Steakhouse49e79ffdf964a520e3641fe3",
    "time": "2012-04-22"
  },
  {
    "place": "Church4b7c2748f964a5207f802fe3",
    "time": "2012-04-22"
  },
  {
    "place": "Bar42911d00f964a52007241fe3",
    "time": "2012-04-22"
  },
  {
    "place": "Hotel49f08690f964a52034691fe3",
    "time": "2012-04-22"
  },
  {
    "place": "Convention Center4f69006de4b0164558dfec17",
    "time": "2012-04-22"
  },
  {
    "place": "Steakhouse3fd66200f964a52070e71ee3",
    "time": "2012-04-22"
  },
  {
    "place": "Library4e91f563550342b5a4c99baf",
    "time": "2012-04-22"
  },
  {
    "place": "Clothing Store4a02d6f9f964a5206e711fe3",
    "time": "2012-04-22"
  },
  {
    "place": "Athletic & Sport4cc0a3bb31bf952183991ccc",
    "time": "2012-04-23"
  },
  {
    "place": "Caf\u00c3\u00a94a43c209f964a520c8a61fe3",
    "time": "2012-04-23"
  },
  {
    "place": "Clothing Store4b072abdf964a52099f822e3",
    "time": "2012-04-23"
  },
  {
    "place": "General Entertainment411ab300f964a520170c1fe3",
    "time": "2012-04-23"
  },
  {
    "place": "Music Venue435c2400f964a52012291fe3",
    "time": "2012-04-23"
  },
  {
    "place": "BBQ Joint3fd66200f964a5201dea1ee3",
    "time": "2012-04-23"
  },
  {
    "place": "Fried Chicken Joint4f60f913e4b0800f6141078a",
    "time": "2012-04-23"
  },
  {
    "place": "Drugstore / Pharmacy4bfd5beb83bbd13a62fb62c5",
    "time": "2012-04-23"
  },
  {
    "place": "Bus Station4dcd61c07d8b975f18b3c0b9",
    "time": "2012-04-23"
  },
  {
    "place": "Coffee Shop4ad79deff964a520d50c21e3",
    "time": "2012-04-23"
  },
  {
    "place": "Medical Center4b190c9ff964a52074d723e3",
    "time": "2012-04-23"
  },
  {
    "place": "Gym / Fitness Center4dbf37e24b2221ec2d5611b0",
    "time": "2012-04-23"
  },
  {
    "place": "Home (private)4e60318a483bd9a9735952ae",
    "time": "2012-04-23"
  },
  {
    "place": "Medical Center4d9c55257509b1f785d626a0",
    "time": "2012-04-23"
  },
  {
    "place": "Fast Food Restaurant4c1d043a63750f47737cb767",
    "time": "2012-04-23"
  },
  {
    "place": "Drugstore / Pharmacy4c8150aa47cc224b15177b9f",
    "time": "2012-04-23"
  },
  {
    "place": "Deli / Bodega4c447c09f799e21e2fdcada2",
    "time": "2012-04-23"
  },
  {
    "place": "Student Center4c5d4dbf9b28d13aaf205970",
    "time": "2012-04-23"
  },
  {
    "place": "Deli / Bodega4c447c09f799e21e2fdcada2",
    "time": "2012-04-23"
  },
  {
    "place": "Deli / Bodega4b3ba919f964a520367825e3",
    "time": "2012-04-23"
  },
  {
    "place": "Medical Center4b688c4df964a520357f2be3",
    "time": "2012-04-23"
  },
  {
    "place": "Medical Center4c45b67759d99c748830fcad",
    "time": "2012-04-23"
  },
  {
    "place": "Pizza Place4cd70dd094848cfaf2a5f0b1",
    "time": "2012-04-23"
  },
  {
    "place": "Burger Joint4c9251922626a1cd2a9f396b",
    "time": "2012-04-23"
  },
  {
    "place": "Coffee Shop4ad79deff964a520d50c21e3",
    "time": "2012-04-23"
  },
  {
    "place": "Fast Food Restaurant4c1d043a63750f47737cb767",
    "time": "2012-04-23"
  },
  {
    "place": "Medical Center4d6d4153423d54812cdcebb1",
    "time": "2012-04-23"
  },
  {
    "place": "Medical Center4b190c9ff964a52074d723e3",
    "time": "2012-04-23"
  },
  {
    "place": "Bus Station4dcd61c07d8b975f18b3c0b9",
    "time": "2012-04-23"
  },
  {
    "place": "Fried Chicken Joint4f60f913e4b0800f6141078a",
    "time": "2012-04-24"
  },
  {
    "place": "Dessert Shop4dc580d018387d1bd53f6d52",
    "time": "2012-04-24"
  },
  {
    "place": "Medical Center4d6d4153423d54812cdcebb1",
    "time": "2012-04-24"
  },
  {
    "place": "Bus Station4dcd61c07d8b975f18b3c0b9",
    "time": "2012-04-24"
  },
  {
    "place": "Bus Station4b4fc661f964a520ed1427e3",
    "time": "2012-04-24"
  },
  {
    "place": "Mexican Restaurant4c44fea2f97fbe9a4308bc30",
    "time": "2012-04-24"
  },
  {
    "place": "Laundry Service4e43f2c3b0fb71d2197b8282",
    "time": "2012-04-24"
  },
  {
    "place": "Cemetery4ba54757f964a52059f538e3",
    "time": "2012-04-24"
  },
  {
    "place": "Medical Center4dd3e061fa76c0bf024f2891",
    "time": "2012-04-24"
  },
  {
    "place": "Deli / Bodega4d34702c6c7c721efe12c256",
    "time": "2012-04-24"
  },
  {
    "place": "Food & Drink Shop4dc1cedc22717802a71956be",
    "time": "2012-04-24"
  },
  {
    "place": "Cosmetics Shop4ccb2cd87c2ff04dadd1907e",
    "time": "2012-04-24"
  },
  {
    "place": "American Restaurant4b242e0df964a520166324e3",
    "time": "2012-04-28"
  },
  {
    "place": "American Restaurant4a9037aaf964a520991620e3",
    "time": "2012-04-28"
  },
  {
    "place": "Japanese Restaurant4b9d6d91f964a52000ac36e3",
    "time": "2012-04-28"
  },
  {
    "place": "Food & Drink Shop4c9931ce9f259eb086f54885",
    "time": "2012-04-28"
  },
  {
    "place": "Bike Shop4aa19e53f964a520424120e3",
    "time": "2012-04-28"
  },
  {
    "place": "Fast Food Restaurant4c1d043a63750f47737cb767",
    "time": "2012-04-28"
  },
  {
    "place": "Gym / Fitness Center4dbf37e24b2221ec2d5611b0",
    "time": "2012-04-28"
  },
  {
    "place": "Bus Station4b4fc661f964a520ed1427e3",
    "time": "2012-04-28"
  },
  {
    "place": "Coffee Shop4ad79deff964a520d50c21e3",
    "time": "2012-04-28"
  },
  {
    "place": "Bus Station4dcd61c07d8b975f18b3c0b9",
    "time": "2012-04-28"
  },
  {
    "place": "Home (private)4e60318a483bd9a9735952ae",
    "time": "2012-04-28"
  },
  {
    "place": "Home (private)4e60318a483bd9a9735952ae",
    "time": "2012-04-28"
  },
  {
    "place": "Medical Center4d6d4153423d54812cdcebb1",
    "time": "2012-04-28"
  },
  {
    "place": "Medical Center4d9c55257509b1f785d626a0",
    "time": "2012-04-29"
  },
  {
    "place": "French Restaurant4a7d3025f964a5208eee1fe3",
    "time": "2012-05-05"
  },
  {
    "place": "Ramen /  Noodle House441519d7f964a520f7301fe3",
    "time": "2012-05-05"
  },
  {
    "place": "Southern / Soul Food Restaurant4c9b84ee78ffa0939fd47575",
    "time": "2012-05-05"
  },
  {
    "place": "Bookstore44ddbad4f964a520c3361fe3",
    "time": "2012-05-05"
  },
  {
    "place": "Coffee Shop49c4fbcdf964a520d9561fe3",
    "time": "2012-05-05"
  },
  {
    "place": "BBQ Joint43fec232f964a520fd2f1fe3",
    "time": "2012-05-05"
  },
  {
    "place": "Mexican Restaurant3fd66200f964a52014e71ee3",
    "time": "2012-05-05"
  },
  {
    "place": "French Restaurant3fd66200f964a52006ea1ee3",
    "time": "2012-05-05"
  },
  {
    "place": "Food & Drink Shop4b3d24f8f964a520e48e25e3",
    "time": "2012-05-05"
  },
  {
    "place": "Food & Drink Shop4bfdcdfc4cf820a13114edf4",
    "time": "2012-05-05"
  },
  {
    "place": "Drugstore / Pharmacy4bfd5beb83bbd13a62fb62c5",
    "time": "2012-05-05"
  },
  {
    "place": "Laundry Service4e43f2c3b0fb71d2197b8282",
    "time": "2012-05-05"
  },
  {
    "place": "Mexican Restaurant4c44fea2f97fbe9a4308bc30",
    "time": "2012-05-05"
  },
  {
    "place": "Medical Center4dd3e061fa76c0bf024f2891",
    "time": "2012-05-05"
  },
  {
    "place": "Dessert Shop4dc580d018387d1bd53f6d52",
    "time": "2012-05-05"
  },
  {
    "place": "Medical Center4d6d4153423d54812cdcebb1",
    "time": "2012-05-06"
  },
  {
    "place": "Fast Food Restaurant4c1d043a63750f47737cb767",
    "time": "2012-05-06"
  },
  {
    "place": "College Academic Building4cf66a2664e3721e5d0e21c8",
    "time": "2012-05-06"
  },
  {
    "place": "Coffee Shop4ad79deff964a520d50c21e3",
    "time": "2012-05-06"
  },
  {
    "place": "Coffee Shop49ef714cf964a520b6681fe3",
    "time": "2012-05-06"
  },
  {
    "place": "Gym / Fitness Center42af6f80f964a5205a251fe3",
    "time": "2012-05-06"
  },
  {
    "place": "Bar42911d00f964a52007241fe3",
    "time": "2012-05-06"
  },
  {
    "place": "Sandwich Place4ddd0a8f1838306b821414a4",
    "time": "2012-05-06"
  },
  {
    "place": "Steakhouse49e79ffdf964a520e3641fe3",
    "time": "2012-05-06"
  },
  {
    "place": "Train Station42829c80f964a5206a221fe3",
    "time": "2012-05-06"
  },
  {
    "place": "Convention Center4f69006de4b0164558dfec17",
    "time": "2012-05-06"
  },
  {
    "place": "Asian Restaurant4eaef489b8f7116f2080fdb0",
    "time": "2012-05-06"
  },
  {
    "place": "Church4b7c2748f964a5207f802fe3",
    "time": "2012-05-06"
  },
  {
    "place": "Bar4b390382f964a520425425e3",
    "time": "2012-05-06"
  },
  {
    "place": "Electronics Store4ed6316a2c5b3d826e649dbf",
    "time": "2012-05-07"
  },
  {
    "place": "Bar3fd66200f964a52071e71ee3",
    "time": "2012-05-07"
  },
  {
    "place": "Italian Restaurant49f1d030f964a520b9691fe3",
    "time": "2012-05-07"
  },
  {
    "place": "Steakhouse3fd66200f964a52070e71ee3",
    "time": "2012-05-07"
  },
  {
    "place": "Coffee Shop4b38b954f964a520c24f25e3",
    "time": "2012-05-07"
  },
  {
    "place": "Bar4a7b4f7cf964a520a3ea1fe3",
    "time": "2012-05-07"
  },
  {
    "place": "Clothing Store4f74a494e4b0da64dfe954dd",
    "time": "2012-05-07"
  },
  {
    "place": "Caf\u00c3\u00a949e4c784f964a52040631fe3",
    "time": "2012-05-07"
  },
  {
    "place": "Office4b43d583f964a52079eb25e3",
    "time": "2012-05-07"
  },
  {
    "place": "Performing Arts Venue4a27d8b3f964a5208c911fe3",
    "time": "2012-05-07"
  },
  {
    "place": "Pizza Place435ad280f964a52000291fe3",
    "time": "2012-05-07"
  },
  {
    "place": "Italian Restaurant4eb5e354b8f786e2756cb884",
    "time": "2012-05-07"
  },
  {
    "place": "Medical Center4e734667483b4dd0be1fb8c7",
    "time": "2012-05-07"
  },
  {
    "place": "Fried Chicken Joint4f60f913e4b0800f6141078a",
    "time": "2012-05-07"
  },
  {
    "place": "Salon / Barbershop4eda89f82c5b50ab9ec48fda",
    "time": "2012-05-07"
  },
  {
    "place": "Coffee Shop4ad79deff964a520d50c21e3",
    "time": "2012-05-07"
  },
  {
    "place": "Bus Station4b4fc661f964a520ed1427e3",
    "time": "2012-05-07"
  },
  {
    "place": "College Academic Building4cf66a2664e3721e5d0e21c8",
    "time": "2012-05-07"
  },
  {
    "place": "Medical Center4acbc102f964a5204bc520e3",
    "time": "2012-05-07"
  },
  {
    "place": "Deli / Bodega4d34702c6c7c721efe12c256",
    "time": "2012-05-07"
  },
  {
    "place": "Mexican Restaurant4c44fea2f97fbe9a4308bc30",
    "time": "2012-05-07"
  },
  {
    "place": "Bar4f555052e4b0d0432f6fc91e",
    "time": "2012-05-07"
  },
  {
    "place": "Cosmetics Shop4ccb2cd87c2ff04dadd1907e",
    "time": "2012-05-07"
  },
  {
    "place": "Church4ea1fff129c2abc8de9b5bf8",
    "time": "2012-05-07"
  },
  {
    "place": "Medical Center4dd3e061fa76c0bf024f2891",
    "time": "2012-05-07"
  },
  {
    "place": "Mexican Restaurant4c44fea2f97fbe9a4308bc30",
    "time": "2012-05-07"
  },
  {
    "place": "Pizza Place4d2ce735762fa143f40b7464",
    "time": "2012-05-08"
  },
  {
    "place": "Church4ac12202f964a520009620e3",
    "time": "2012-05-08"
  },
  {
    "place": "Art Museum427d5680f964a520a8211fe3",
    "time": "2012-05-08"
  },
  {
    "place": "Fraternity House4f05c9509a523e111f8a831f",
    "time": "2012-05-08"
  },
  {
    "place": "Gift Shop4c2655e7c11dc9b67ccc2824",
    "time": "2012-05-08"
  },
  {
    "place": "Synagogue4f37d73fe4b0d26ba168982b",
    "time": "2012-05-08"
  },
  {
    "place": "Food Truck4dd83a5481dcd5bca5a4124a",
    "time": "2012-05-08"
  },
  {
    "place": "Food & Drink Shop49eb2940f964a520a8661fe3",
    "time": "2012-05-08"
  },
  {
    "place": "Sporting Goods Shop4a904448f964a520e91620e3",
    "time": "2012-05-08"
  },
  {
    "place": "Medical Center4bb3e144643cd13a591c395c",
    "time": "2012-05-08"
  },
  {
    "place": "Stadium4b992b04f964a520726635e3",
    "time": "2012-05-08"
  },
  {
    "place": "Music Venue4901ef67f964a5205b521fe3",
    "time": "2012-05-08"
  },
  {
    "place": "Other Great Outdoors4f48302fbb3d4f02323f8144",
    "time": "2012-05-08"
  },
  {
    "place": "Steakhouse4ba69709f964a520ea6039e3",
    "time": "2012-05-08"
  },
  {
    "place": "Caf\u00c3\u00a94a60a9b6f964a520f8c01fe3",
    "time": "2012-05-08"
  },
  {
    "place": "General Travel4cb37dd839458cfa3bb71aa0",
    "time": "2012-05-08"
  },
  {
    "place": "Dessert Shop4dc580d018387d1bd53f6d52",
    "time": "2012-05-09"
  },
  {
    "place": "Food & Drink Shop4dc1cedc22717802a71956be",
    "time": "2012-05-09"
  },
  {
    "place": "Cemetery4ba54757f964a52059f538e3",
    "time": "2012-05-09"
  },
  {
    "place": "Deli / Bodega4c447c09f799e21e2fdcada2",
    "time": "2012-05-09"
  },
  {
    "place": "Home (private)4e60318a483bd9a9735952ae",
    "time": "2012-05-09"
  },
  {
    "place": "Fast Food Restaurant4c1d043a63750f47737cb767",
    "time": "2012-05-10"
  },
  {
    "place": "Home (private)4e60318a483bd9a9735952ae",
    "time": "2012-05-10"
  },
  {
    "place": "Medical Center4d6d4153423d54812cdcebb1",
    "time": "2012-05-10"
  },
  {
    "place": "Medical Center4d9c55257509b1f785d626a0",
    "time": "2012-05-10"
  },
  {
    "place": "Playground4b927d04f964a52094fd33e3",
    "time": "2012-05-12"
  },
  {
    "place": "Asian Restaurant4a21ab5bf964a520277d1fe3",
    "time": "2012-05-12"
  },
  {
    "place": "Food & Drink Shop4b42867ef964a520a9d525e3",
    "time": "2012-05-12"
  },
  {
    "place": "Filipino Restaurant4bdc92fbafe8c9b663105085",
    "time": "2012-05-12"
  },
  {
    "place": "Bank4e98b3bc9a52ceeb87dfcc7f",
    "time": "2012-05-12"
  },
  {
    "place": "Cuban Restaurant4b5a56f1f964a5206dbe28e3",
    "time": "2012-05-12"
  },
  {
    "place": "Medical Center4d9c55257509b1f785d626a0",
    "time": "2012-05-12"
  },
  {
    "place": "Fast Food Restaurant4c1d043a63750f47737cb767",
    "time": "2012-05-12"
  },
  {
    "place": "Medical Center4d6d4153423d54812cdcebb1",
    "time": "2012-05-12"
  },
  {
    "place": "College Academic Building4cf66a2664e3721e5d0e21c8",
    "time": "2012-05-12"
  },
  {
    "place": "University4b298573f964a52050a024e3",
    "time": "2012-05-12"
  },
  {
    "place": "Neighborhood4c97edbdf419a09395806b88",
    "time": "2012-05-12"
  },
  {
    "place": "Government Building4b06c25df964a520b9ef22e3",
    "time": "2012-05-12"
  },
  {
    "place": "Food & Drink Shop4ade53d1f964a5200a7521e3",
    "time": "2012-05-12"
  },
  {
    "place": "College Academic Building4c7e6077b33a224b78b0da81",
    "time": "2012-05-12"
  },
  {
    "place": "Mall4a19bdd6f964a520477a1fe3",
    "time": "2012-05-12"
  },
  {
    "place": "Korean Restaurant478e84a2f964a520484d1fe3",
    "time": "2012-05-12"
  },
  {
    "place": "Korean Restaurant4c254ba6136d20a19f63e361",
    "time": "2012-05-12"
  },
  {
    "place": "Asian Restaurant4d2109b32eb1f04d140bf5c1",
    "time": "2012-05-12"
  },
  {
    "place": "Bakery4c892b0f7223b1f7dfb031a8",
    "time": "2012-05-12"
  },
  {
    "place": "Ice Cream Shop4a1de847f964a520aa7b1fe3",
    "time": "2012-05-12"
  },
  {
    "place": "Food & Drink Shop4ac4f9c1f964a520c99f20e3",
    "time": "2012-05-12"
  },
  {
    "place": "Train Station42829c80f964a5206a221fe3",
    "time": "2012-05-12"
  },
  {
    "place": "Steakhouse3fd66200f964a52070e71ee3",
    "time": "2012-05-12"
  },
  {
    "place": "Electronics Store4ed6316a2c5b3d826e649dbf",
    "time": "2012-05-12"
  },
  {
    "place": "Clothing Store4f74a494e4b0da64dfe954dd",
    "time": "2012-05-12"
  },
  {
    "place": "Coffee Shop4aef4d35f964a52061d721e3",
    "time": "2012-05-12"
  },
  {
    "place": "Indian Restaurant4a64fcc2f964a52022c71fe3",
    "time": "2012-05-12"
  },
  {
    "place": "Bar49bed279f964a520e4541fe3",
    "time": "2012-05-12"
  },
  {
    "place": "Fast Food Restaurant4afd9ecbf964a520322922e3",
    "time": "2012-05-12"
  },
  {
    "place": "Plaza49b7ed6df964a52030531fe3",
    "time": "2012-05-12"
  },
  {
    "place": "Bar4b96ec91f964a52012ee34e3",
    "time": "2012-05-12"
  },
  {
    "place": "Theater4a429e5bf964a52007a61fe3",
    "time": "2012-05-12"
  },
  {
    "place": "Candy Store4a065273f964a520ec721fe3",
    "time": "2012-05-12"
  },
  {
    "place": "Comedy Club3fd66200f964a520cce71ee3",
    "time": "2012-05-12"
  },
  {
    "place": "Gym / Fitness Center4a66f31af964a520dcc81fe3",
    "time": "2012-05-12"
  },
  {
    "place": "Road4be9dc5a61aca5932f168300",
    "time": "2012-05-12"
  },
  {
    "place": "Pizza Place4ab30382f964a5204d6d20e3",
    "time": "2012-05-12"
  },
  {
    "place": "Sandwich Place4b44ca31f964a5203ffc25e3",
    "time": "2012-05-13"
  },
  {
    "place": "Theater4a3e8735f964a52001a31fe3",
    "time": "2012-05-13"
  },
  {
    "place": "Bank4b10501cf964a5209e6d23e3",
    "time": "2012-05-13"
  },
  {
    "place": "Caf\u00c3\u00a94f23562ee4b04f6e6811356d",
    "time": "2012-05-13"
  },
  {
    "place": "Music Venue4b414076f964a5201dc425e3",
    "time": "2012-05-13"
  },
  {
    "place": "Ramen /  Noodle House42ffdb00f964a520f1261fe3",
    "time": "2012-05-13"
  },
  {
    "place": "Theater4a9db449f964a520ff3820e3",
    "time": "2012-05-13"
  },
  {
    "place": "Theater4a0b05a7f964a520bb741fe3",
    "time": "2012-05-13"
  },
  {
    "place": "Hotel4ab79e30f964a520397a20e3",
    "time": "2012-05-13"
  },
  {
    "place": "French Restaurant4b2c0753f964a520f2bf24e3",
    "time": "2012-05-13"
  },
  {
    "place": "Bookstore49ef71e3f964a520b8681fe3",
    "time": "2012-05-13"
  },
  {
    "place": "Cosmetics Shop4b93fc42f964a520455f34e3",
    "time": "2012-05-13"
  },
  {
    "place": "Mexican Restaurant4d8fb0e1b46488bf0e3adda2",
    "time": "2012-05-13"
  },
  {
    "place": "Caf\u00c3\u00a94adc5ed9f964a520e42b21e3",
    "time": "2012-05-13"
  },
  {
    "place": "Deli / Bodega4c447c09f799e21e2fdcada2",
    "time": "2012-05-13"
  },
  {
    "place": "Home (private)4e60318a483bd9a9735952ae",
    "time": "2012-05-13"
  },
  {
    "place": "Medical Center4d6d4153423d54812cdcebb1",
    "time": "2012-05-13"
  },
  {
    "place": "Bus Station4b4fc661f964a520ed1427e3",
    "time": "2012-05-13"
  },
  {
    "place": "Medical Center4d9c55257509b1f785d626a0",
    "time": "2012-05-13"
  },
  {
    "place": "Medical Center4e734667483b4dd0be1fb8c7",
    "time": "2012-05-13"
  },
  {
    "place": "Medical Center4c7bc1a3df08a1cd2d56e15d",
    "time": "2012-05-15"
  },
  {
    "place": "Medical Center4c7bc1a3df08a1cd2d56e15d",
    "time": "2012-05-15"
  },
  {
    "place": "Caf\u00c3\u00a94a60a9b6f964a520f8c01fe3",
    "time": "2012-05-15"
  },
  {
    "place": "School4b587985f964a5207b5928e3",
    "time": "2012-05-15"
  },
  {
    "place": "Scenic Lookout4c029ef99a7920a1c3aece79",
    "time": "2012-05-15"
  },
  {
    "place": "Other Great Outdoors4c2a37eac758e21e7d4d3a3f",
    "time": "2012-05-15"
  },
  {
    "place": "Zoo49d8307ef964a520b15d1fe3",
    "time": "2012-05-15"
  },
  {
    "place": "Dessert Shop4dc580d018387d1bd53f6d52",
    "time": "2012-05-17"
  },
  {
    "place": "Medical Center4dd3e061fa76c0bf024f2891",
    "time": "2012-05-17"
  },
  {
    "place": "Church4ea1fff129c2abc8de9b5bf8",
    "time": "2012-05-17"
  },
  {
    "place": "Mexican Restaurant4c44fea2f97fbe9a4308bc30",
    "time": "2012-05-17"
  },
  {
    "place": "Laundry Service4e43f2c3b0fb71d2197b8282",
    "time": "2012-05-17"
  },
  {
    "place": "Fast Food Restaurant4c1d043a63750f47737cb767",
    "time": "2012-05-17"
  },
  {
    "place": "Student Center4c5d4dbf9b28d13aaf205970",
    "time": "2012-05-17"
  },
  {
    "place": "Home (private)4e60318a483bd9a9735952ae",
    "time": "2012-05-17"
  },
  {
    "place": "Gym / Fitness Center4dbf37e24b2221ec2d5611b0",
    "time": "2012-05-17"
  },
  {
    "place": "Chinese Restaurant4ea7501d30f897d8daf7061b",
    "time": "2012-05-17"
  },
  {
    "place": "Salon / Barbershop4ec3dbbd29c2f92bf60f444f",
    "time": "2012-05-17"
  },
  {
    "place": "Caribbean Restaurant4e7dd2d7d3e3294a67bcd8e8",
    "time": "2012-05-17"
  },
  {
    "place": "Chinese Restaurant4e4dd064bd41b76bef938bdf",
    "time": "2012-05-17"
  },
  {
    "place": "Bakery4e3b0f27e4cdab9b9323708a",
    "time": "2012-05-17"
  },
  {
    "place": "Playground4bb65aab2ea195215a8aab2f",
    "time": "2012-05-17"
  },
  {
    "place": "Post Office4c221ea99085d13a2ac585cc",
    "time": "2012-05-17"
  },
  {
    "place": "Movie Theater4e73fc568998ed82a3c29401",
    "time": "2012-05-17"
  },
  {
    "place": "American Restaurant4b242e0df964a520166324e3",
    "time": "2012-05-19"
  },
  {
    "place": "Bike Shop4aa19e53f964a520424120e3",
    "time": "2012-05-19"
  },
  {
    "place": "Japanese Restaurant4b9d6d91f964a52000ac36e3",
    "time": "2012-05-19"
  },
  {
    "place": "Clothing Store4e1a275262e12640d8863792",
    "time": "2012-05-19"
  },
  {
    "place": "Burger Joint4bc5f5c4424195214851031d",
    "time": "2012-05-19"
  },
  {
    "place": "Medical Center4d9c55257509b1f785d626a0",
    "time": "2012-05-21"
  },
  {
    "place": "Fast Food Restaurant4c1d043a63750f47737cb767",
    "time": "2012-05-21"
  },
  {
    "place": "Home (private)4e60318a483bd9a9735952ae",
    "time": "2012-05-21"
  },
  {
    "place": "Medical Center4d6d4153423d54812cdcebb1",
    "time": "2012-05-21"
  },
  {
    "place": "College Academic Building4cf66a2664e3721e5d0e21c8",
    "time": "2012-05-21"
  },
  {
    "place": "Bus Station4b4fc661f964a520ed1427e3",
    "time": "2012-05-21"
  },
  {
    "place": "Medical Center4d9c55257509b1f785d626a0",
    "time": "2012-05-22"
  },
  {
    "place": "Gym / Fitness Center4dbf37e24b2221ec2d5611b0",
    "time": "2012-05-22"
  },
  {
    "place": "Student Center4c5d4dbf9b28d13aaf205970",
    "time": "2012-05-22"
  },
  {
    "place": "Bus Station4dcd61c07d8b975f18b3c0b9",
    "time": "2012-05-22"
  },
  {
    "place": "Student Center4c5d4dbf9b28d13aaf205970",
    "time": "2012-05-22"
  },
  {
    "place": "Medical Center4c45b67759d99c748830fcad",
    "time": "2012-05-22"
  },
  {
    "place": "Bus Station4b4fc661f964a520ed1427e3",
    "time": "2012-05-22"
  },
  {
    "place": "Church4b524706f964a5205c7427e3",
    "time": "2012-06-10"
  },
  {
    "place": "Art Gallery4c6dea58f338236aa741091b",
    "time": "2012-06-17"
  },
  {
    "place": "Bank4beac522415e20a18c66e5bb",
    "time": "2012-06-17"
  },
  {
    "place": "Scenic Lookout4bd8e1700115c9b666c27580",
    "time": "2012-06-17"
  },
  {
    "place": "Mall4b9a40d0f964a52084a735e3",
    "time": "2012-06-17"
  },
  {
    "place": "Park4b96a40af964a520c1da34e3",
    "time": "2012-06-17"
  },
  {
    "place": "Park4f401a9be4b0102f0d28324a",
    "time": "2012-06-17"
  },
  {
    "place": "Athletic & Sport4f9d744fe4b033ffd4b336ef",
    "time": "2012-06-17"
  },
  {
    "place": "Dessert Shop4cfbeeebc671721e000cc618",
    "time": "2012-06-17"
  },
  {
    "place": "Salon / Barbershop4f35b352e4b0beedd022c4d7",
    "time": "2012-06-17"
  },
  {
    "place": "Neighborhood4cefe2d47b943704a4ae3553",
    "time": "2012-06-17"
  },
  {
    "place": "Medical Center4e01f180d4c0836163dd2081",
    "time": "2012-06-17"
  },
  {
    "place": "Other Great Outdoors4d9f2526baa2530c72114c0e",
    "time": "2012-06-17"
  },
  {
    "place": "Bus Station4cc3fb05c844721e9aa4e601",
    "time": "2012-06-17"
  },
  {
    "place": "Other Nightlife4ecc9d22e30072984b8cad25",
    "time": "2012-06-17"
  },
  {
    "place": "Laundry Service4c866b64d4e237044afe8a88",
    "time": "2012-06-17"
  },
  {
    "place": "Other Nightlife4f2f0e66e4b006ef9ad912cd",
    "time": "2012-06-17"
  },
  {
    "place": "Deli / Bodega4f619e01e4b0ed01578e21db",
    "time": "2012-06-17"
  },
  {
    "place": "Scenic Lookout4e708439b0fba1302a35f53c",
    "time": "2012-06-17"
  },
  {
    "place": "Bank4c5dd2b185a1e21ea79c5a11",
    "time": "2012-06-18"
  },
  {
    "place": "Fast Food Restaurant4c573835b7a31b8d84c34fda",
    "time": "2012-06-18"
  },
  {
    "place": "Gas Station / Garage4bd77e09885595210bba87a7",
    "time": "2012-06-18"
  },
  {
    "place": "Other Great Outdoors4dd9a617b0fb8af380bcfb4f",
    "time": "2012-06-18"
  },
  {
    "place": "Medical Center4bc5c7c90a30d13ae36f5a9c",
    "time": "2012-06-18"
  },
  {
    "place": "Rest Area4ebbc7806da1686824b1b350",
    "time": "2012-06-18"
  },
  {
    "place": "Medical Center4d9c55257509b1f785d626a0",
    "time": "2012-06-18"
  },
  {
    "place": "Gym / Fitness Center4dbf37e24b2221ec2d5611b0",
    "time": "2012-06-18"
  },
  {
    "place": "Bus Station4b4fc661f964a520ed1427e3",
    "time": "2012-06-18"
  },
  {
    "place": "College Academic Building4cf66a2664e3721e5d0e21c8",
    "time": "2012-06-18"
  },
  {
    "place": "Church4b524706f964a5205c7427e3",
    "time": "2012-10-28"
  },
  {
    "place": "Church4b33d6fbf964a520532025e3",
    "time": "2012-11-17"
  },
  {
    "place": "Government Building4cdd4782df986ea8d785d416",
    "time": "2013-01-01"
  },
  {
    "place": "Plaza49b79f54f964a5202c531fe3",
    "time": "2013-01-01"
  },
  {
    "place": "Coffee Shop4f5e82dae4b01989c438cbb6",
    "time": "2013-01-02"
  },
  {
    "place": "Food Truck4a19d1edf964a5205a7a1fe3",
    "time": "2013-01-02"
  },
  {
    "place": "South American Restaurant4b525a4ef964a520d17827e3",
    "time": "2013-01-18"
  }
]