[
  {
    "place": "Subway4b498c79f964a5201e7126e3",
    "time": "2012-04-08"
  },
  {
    "place": "General Entertainment4db44994cda1c57c82583709",
    "time": "2012-04-08"
  },
  {
    "place": "Subway4ba53f47f964a52040f138e3",
    "time": "2012-04-08"
  },
  {
    "place": "Subway4b8ca10bf964a520c5d832e3",
    "time": "2012-04-08"
  },
  {
    "place": "Gym / Fitness Center4e87e08d93ad69fee81d7c9d",
    "time": "2012-04-09"
  },
  {
    "place": "Drugstore / Pharmacy4bd5dda6637ba593052ef770",
    "time": "2012-04-09"
  },
  {
    "place": "Building4bc62885d35d9c747d43e23a",
    "time": "2012-04-09"
  },
  {
    "place": "Subway4b498c79f964a5201e7126e3",
    "time": "2012-04-09"
  },
  {
    "place": "Gym / Fitness Center4e87e08d93ad69fee81d7c9d",
    "time": "2012-04-10"
  },
  {
    "place": "Pizza Place4d4356721b62b1f7a8d3e6e2",
    "time": "2012-04-10"
  },
  {
    "place": "Coffee Shop4b3ff06cf964a52097b225e3",
    "time": "2012-04-10"
  },
  {
    "place": "Clothing Store4ac5273df964a520acb020e3",
    "time": "2012-04-10"
  },
  {
    "place": "Subway4b8ca10bf964a520c5d832e3",
    "time": "2012-04-11"
  },
  {
    "place": "Gym / Fitness Center4e87e08d93ad69fee81d7c9d",
    "time": "2012-04-11"
  },
  {
    "place": "Clothing Store4ac5273df964a520acb020e3",
    "time": "2012-04-11"
  },
  {
    "place": "Mexican Restaurant4d7511de170ab1f70edcfc94",
    "time": "2012-04-11"
  },
  {
    "place": "Road4a4821f5f964a52095aa1fe3",
    "time": "2012-04-12"
  },
  {
    "place": "Subway4b8ca10bf964a520c5d832e3",
    "time": "2012-04-16"
  },
  {
    "place": "Subway4b21aee7f964a5201b4024e3",
    "time": "2012-04-16"
  },
  {
    "place": "Fast Food Restaurant4b51f650f964a520ae5d27e3",
    "time": "2012-04-16"
  },
  {
    "place": "Coffee Shop4b3ff06cf964a52097b225e3",
    "time": "2012-04-16"
  },
  {
    "place": "Subway4b498c79f964a5201e7126e3",
    "time": "2012-04-17"
  },
  {
    "place": "Gym / Fitness Center4e87e08d93ad69fee81d7c9d",
    "time": "2012-04-17"
  },
  {
    "place": "Subway4b8ca10bf964a520c5d832e3",
    "time": "2012-04-17"
  },
  {
    "place": "Clothing Store4ac5273df964a520acb020e3",
    "time": "2012-04-17"
  },
  {
    "place": "Coffee Shop4b3ff06cf964a52097b225e3",
    "time": "2012-04-17"
  },
  {
    "place": "Subway4b498c79f964a5201e7126e3",
    "time": "2012-04-18"
  },
  {
    "place": "Gym / Fitness Center4e87e08d93ad69fee81d7c9d",
    "time": "2012-04-18"
  },
  {
    "place": "Clothing Store4ac5273df964a520acb020e3",
    "time": "2012-04-18"
  },
  {
    "place": "Coffee Shop4b3ff06cf964a52097b225e3",
    "time": "2012-04-18"
  },
  {
    "place": "Subway4ad8add6f964a520a61321e3",
    "time": "2012-04-19"
  },
  {
    "place": "Coffee Shop4b3ff06cf964a52097b225e3",
    "time": "2012-04-19"
  },
  {
    "place": "Fast Food Restaurant4b51f650f964a520ae5d27e3",
    "time": "2012-04-19"
  },
  {
    "place": "Clothing Store4a89d016f964a520150920e3",
    "time": "2012-04-19"
  },
  {
    "place": "Subway4b1d14e9f964a520af0b24e3",
    "time": "2012-04-20"
  },
  {
    "place": "Subway4b8ca10bf964a520c5d832e3",
    "time": "2012-04-20"
  },
  {
    "place": "Subway4b498c79f964a5201e7126e3",
    "time": "2012-04-20"
  },
  {
    "place": "Gym / Fitness Center4e87e08d93ad69fee81d7c9d",
    "time": "2012-04-20"
  },
  {
    "place": "Coffee Shop4b44d981f964a5201efe25e3",
    "time": "2012-04-20"
  },
  {
    "place": "Train Station49de0156f964a52021601fe3",
    "time": "2012-04-21"
  },
  {
    "place": "Coffee Shop4aa53eccf964a520b24720e3",
    "time": "2012-04-21"
  },
  {
    "place": "Gym / Fitness Center4e87e08d93ad69fee81d7c9d",
    "time": "2012-04-22"
  },
  {
    "place": "Clothing Store4a89d016f964a520150920e3",
    "time": "2012-04-22"
  },
  {
    "place": "Sandwich Place4aefa3eef964a520bbd921e3",
    "time": "2012-04-22"
  },
  {
    "place": "Coffee Shop4aa53eccf964a520b24720e3",
    "time": "2012-04-22"
  },
  {
    "place": "Gym / Fitness Center4e87e08d93ad69fee81d7c9d",
    "time": "2012-04-23"
  },
  {
    "place": "Burger Joint4c2bccc7d1a10f475a88f864",
    "time": "2012-04-24"
  },
  {
    "place": "Subway4b8ca10bf964a520c5d832e3",
    "time": "2012-04-24"
  },
  {
    "place": "Subway4b21aee7f964a5201b4024e3",
    "time": "2012-04-24"
  },
  {
    "place": "Clothing Store4ac5273df964a520acb020e3",
    "time": "2012-04-24"
  },
  {
    "place": "Subway4b8ca10bf964a520c5d832e3",
    "time": "2012-04-25"
  },
  {
    "place": "Subway4b498c79f964a5201e7126e3",
    "time": "2012-04-25"
  },
  {
    "place": "Gym / Fitness Center4e87e08d93ad69fee81d7c9d",
    "time": "2012-04-25"
  },
  {
    "place": "Coffee Shop4b3ff06cf964a52097b225e3",
    "time": "2012-04-25"
  },
  {
    "place": "Clothing Store4ac5273df964a520acb020e3",
    "time": "2012-04-25"
  },
  {
    "place": "Sandwich Place4aefa3eef964a520bbd921e3",
    "time": "2012-04-25"
  },
  {
    "place": "Subway4c1943b36e02b71394b8627b",
    "time": "2012-04-28"
  },
  {
    "place": "Bar4c368d57ae2da593df78fdc5",
    "time": "2012-04-28"
  },
  {
    "place": "Spanish Restaurant4bd2b6ef9854d13abe3afc4d",
    "time": "2012-04-28"
  },
  {
    "place": "Clothing Store4ac5273df964a520acb020e3",
    "time": "2012-04-28"
  },
  {
    "place": "Subway4b0e1598f964a520c85423e3",
    "time": "2012-04-29"
  },
  {
    "place": "Bar42225f00f964a520ae1f1fe3",
    "time": "2012-04-29"
  },
  {
    "place": "Gym / Fitness Center4e87e08d93ad69fee81d7c9d",
    "time": "2012-04-29"
  },
  {
    "place": "Subway4b8ca10bf964a520c5d832e3",
    "time": "2012-04-29"
  },
  {
    "place": "Subway4b8ca10bf964a520c5d832e3",
    "time": "2012-05-01"
  },
  {
    "place": "Chinese Restaurant3fd66200f964a520f2e91ee3",
    "time": "2012-05-01"
  },
  {
    "place": "Gym / Fitness Center4eda64ced5fb8f213a5d740e",
    "time": "2012-05-02"
  },
  {
    "place": "Train Station42829c80f964a5206a221fe3",
    "time": "2012-05-02"
  },
  {
    "place": "Subway4b8ca10bf964a520c5d832e3",
    "time": "2012-05-03"
  },
  {
    "place": "Subway4b21aee7f964a5201b4024e3",
    "time": "2012-05-03"
  },
  {
    "place": "Sandwich Place4aefa3eef964a520bbd921e3",
    "time": "2012-05-03"
  },
  {
    "place": "Coffee Shop4aa53eccf964a520b24720e3",
    "time": "2012-05-03"
  },
  {
    "place": "Clothing Store4ac5273df964a520acb020e3",
    "time": "2012-05-03"
  },
  {
    "place": "Department Store41102700f964a520d60b1fe3",
    "time": "2012-05-03"
  },
  {
    "place": "Clothing Store4e895343d5fbe29bfafc851c",
    "time": "2012-05-03"
  },
  {
    "place": "Clothing Store4a01f87bf964a5201a711fe3",
    "time": "2012-05-04"
  },
  {
    "place": "Fast Food Restaurant4a55f2d0f964a5204fb41fe3",
    "time": "2012-05-04"
  },
  {
    "place": "Bar4bd8df990115c9b618ba7580",
    "time": "2012-05-04"
  },
  {
    "place": "Electronics Store4c489b407769b7130d9160e2",
    "time": "2012-05-04"
  },
  {
    "place": "Train Station42911d00f964a520f5231fe3",
    "time": "2012-05-04"
  },
  {
    "place": "Subway4b093cd0f964a520db1423e3",
    "time": "2012-05-04"
  },
  {
    "place": "Gym / Fitness Center4e87e08d93ad69fee81d7c9d",
    "time": "2012-05-04"
  },
  {
    "place": "Subway4b8ca10bf964a520c5d832e3",
    "time": "2012-05-04"
  },
  {
    "place": "Clothing Store4ac5273df964a520acb020e3",
    "time": "2012-05-04"
  },
  {
    "place": "Subway4adf9445f964a520c47b21e3",
    "time": "2012-05-05"
  },
  {
    "place": "Subway4b21aee7f964a5201b4024e3",
    "time": "2012-05-05"
  },
  {
    "place": "Coffee Shop4aa53eccf964a520b24720e3",
    "time": "2012-05-05"
  },
  {
    "place": "Clothing Store4ac5273df964a520acb020e3",
    "time": "2012-05-05"
  },
  {
    "place": "Fast Food Restaurant4b51f650f964a520ae5d27e3",
    "time": "2012-05-05"
  },
  {
    "place": "Subway4c1943b36e02b71394b8627b",
    "time": "2012-05-05"
  },
  {
    "place": "Subway4ad78220f964a520960b21e3",
    "time": "2012-05-06"
  },
  {
    "place": "Subway4b0737c3f964a520e4f922e3",
    "time": "2012-05-06"
  },
  {
    "place": "Snack Place4c0ae70932daef3b2abb4b50",
    "time": "2012-05-06"
  },
  {
    "place": "Flea Market4b6efbeff964a520c0d42ce3",
    "time": "2012-05-06"
  },
  {
    "place": "Scenic Lookout4abe7a18f964a520e78d20e3",
    "time": "2012-05-06"
  },
  {
    "place": "Plaza49c64842f964a5202e571fe3",
    "time": "2012-05-07"
  },
  {
    "place": "Building4da8800143a12d0c26532ae7",
    "time": "2012-05-07"
  },
  {
    "place": "Gym / Fitness Center4e87e08d93ad69fee81d7c9d",
    "time": "2012-05-07"
  },
  {
    "place": "Subway4b498c79f964a5201e7126e3",
    "time": "2012-05-07"
  },
  {
    "place": "Subway4b8ca10bf964a520c5d832e3",
    "time": "2012-05-08"
  },
  {
    "place": "Subway4b8ca10bf964a520c5d832e3",
    "time": "2012-05-09"
  },
  {
    "place": "Medical Center4bd73de632a29521cc1dd6b8",
    "time": "2012-05-09"
  },
  {
    "place": "Subway4b8ca10bf964a520c5d832e3",
    "time": "2012-05-11"
  },
  {
    "place": "Subway4b498c79f964a5201e7126e3",
    "time": "2012-05-11"
  },
  {
    "place": "Gym / Fitness Center4e87e08d93ad69fee81d7c9d",
    "time": "2012-05-11"
  },
  {
    "place": "Train Station42911d00f964a520f5231fe3",
    "time": "2012-05-11"
  },
  {
    "place": "Subway4b093cd0f964a520db1423e3",
    "time": "2012-05-11"
  },
  {
    "place": "Plaza49e36914f964a5207b621fe3",
    "time": "2012-05-11"
  },
  {
    "place": "Mexican Restaurant4aa44e08f964a5204f4620e3",
    "time": "2012-05-12"
  },
  {
    "place": "Bar42225f00f964a520ae1f1fe3",
    "time": "2012-05-12"
  },
  {
    "place": "Subway4b0737c3f964a520e4f922e3",
    "time": "2012-05-12"
  },
  {
    "place": "Bar4ed34551754ad8083f6fd853",
    "time": "2012-05-12"
  },
  {
    "place": "Subway4b8ca10bf964a520c5d832e3",
    "time": "2012-05-12"
  },
  {
    "place": "Coffee Shop4b3ff06cf964a52097b225e3",
    "time": "2012-05-12"
  },
  {
    "place": "Fast Food Restaurant4b51f650f964a520ae5d27e3",
    "time": "2012-05-12"
  },
  {
    "place": "Subway4b498c79f964a5201e7126e3",
    "time": "2012-05-13"
  },
  {
    "place": "Gym / Fitness Center4e87e08d93ad69fee81d7c9d",
    "time": "2012-05-13"
  },
  {
    "place": "Subway4b1d14e9f964a520af0b24e3",
    "time": "2012-05-14"
  },
  {
    "place": "Subway4b8ca10bf964a520c5d832e3",
    "time": "2012-05-14"
  },
  {
    "place": "Gym / Fitness Center4e87e08d93ad69fee81d7c9d",
    "time": "2012-05-14"
  },
  {
    "place": "Subway4b21aee7f964a5201b4024e3",
    "time": "2012-05-14"
  },
  {
    "place": "Coffee Shop4aa53eccf964a520b24720e3",
    "time": "2012-05-14"
  },
  {
    "place": "Clothing Store4ac5273df964a520acb020e3",
    "time": "2012-05-14"
  },
  {
    "place": "Subway4b8ca10bf964a520c5d832e3",
    "time": "2012-05-15"
  },
  {
    "place": "Subway4b21aee7f964a5201b4024e3",
    "time": "2012-05-15"
  },
  {
    "place": "Coffee Shop49cf9381f964a520af5a1fe3",
    "time": "2012-05-15"
  },
  {
    "place": "Clothing Store4ac5273df964a520acb020e3",
    "time": "2012-05-15"
  },
  {
    "place": "Sandwich Place4aefa3eef964a520bbd921e3",
    "time": "2012-05-15"
  },
  {
    "place": "Pizza Place4d4356721b62b1f7a8d3e6e2",
    "time": "2012-05-16"
  },
  {
    "place": "Subway4b8ca10bf964a520c5d832e3",
    "time": "2012-05-16"
  },
  {
    "place": "Subway4b498c79f964a5201e7126e3",
    "time": "2012-05-16"
  },
  {
    "place": "Gym / Fitness Center4e87e08d93ad69fee81d7c9d",
    "time": "2012-05-16"
  },
  {
    "place": "Clothing Store4ac5273df964a520acb020e3",
    "time": "2012-05-16"
  },
  {
    "place": "Subway4b21aee7f964a5201b4024e3",
    "time": "2012-05-17"
  },
  {
    "place": "Subway4b8ca10bf964a520c5d832e3",
    "time": "2012-05-17"
  },
  {
    "place": "Subway4b21aee7f964a5201b4024e3",
    "time": "2012-05-17"
  },
  {
    "place": "Clothing Store4ac5273df964a520acb020e3",
    "time": "2012-05-17"
  },
  {
    "place": "Coffee Shop4b3ff06cf964a52097b225e3",
    "time": "2012-05-17"
  },
  {
    "place": "Latin American Restaurant4bdf4fbfbe5120a1ebb2fe70",
    "time": "2012-05-17"
  },
  {
    "place": "Subway4ae7765df964a5208fab21e3",
    "time": "2012-05-18"
  },
  {
    "place": "Subway4b21aee7f964a5201b4024e3",
    "time": "2012-05-19"
  },
  {
    "place": "Coffee Shop4aa53eccf964a520b24720e3",
    "time": "2012-05-19"
  },
  {
    "place": "Clothing Store4ac5273df964a520acb020e3",
    "time": "2012-05-19"
  },
  {
    "place": "Subway4b8ca10bf964a520c5d832e3",
    "time": "2012-05-21"
  },
  {
    "place": "Clothing Store4ac5273df964a520acb020e3",
    "time": "2012-05-21"
  },
  {
    "place": "Coffee Shop4b3ff06cf964a52097b225e3",
    "time": "2012-05-21"
  },
  {
    "place": "Gym / Fitness Center4eda64ced5fb8f213a5d740e",
    "time": "2012-05-22"
  },
  {
    "place": "Subway4b8ca10bf964a520c5d832e3",
    "time": "2012-05-22"
  },
  {
    "place": "Gym / Fitness Center4e87e08d93ad69fee81d7c9d",
    "time": "2012-05-22"
  },
  {
    "place": "Subway4b8ca10bf964a520c5d832e3",
    "time": "2012-05-23"
  },
  {
    "place": "Subway4b498c79f964a5201e7126e3",
    "time": "2012-05-23"
  },
  {
    "place": "Caribbean Restaurant4ba39e47f964a520944c38e3",
    "time": "2012-05-23"
  },
  {
    "place": "Subway4b21aee7f964a5201b4024e3",
    "time": "2012-05-23"
  },
  {
    "place": "Clothing Store4ac5273df964a520acb020e3",
    "time": "2012-05-23"
  },
  {
    "place": "Subway4b8ca10bf964a520c5d832e3",
    "time": "2012-05-25"
  },
  {
    "place": "Gym / Fitness Center4e87e08d93ad69fee81d7c9d",
    "time": "2012-05-25"
  },
  {
    "place": "Drugstore / Pharmacy4bd5dda6637ba593052ef770",
    "time": "2012-05-25"
  },
  {
    "place": "Fast Food Restaurant4c2f5cd766e40f47fab8c18b",
    "time": "2012-05-25"
  },
  {
    "place": "Subway4c1943b36e02b71394b8627b",
    "time": "2012-05-25"
  },
  {
    "place": "Subway4b8ca10bf964a520c5d832e3",
    "time": "2012-05-27"
  },
  {
    "place": "Clothing Store4ac5273df964a520acb020e3",
    "time": "2012-05-27"
  },
  {
    "place": "Fast Food Restaurant4b51f650f964a520ae5d27e3",
    "time": "2012-05-27"
  },
  {
    "place": "Bar49c180edf964a520af551fe3",
    "time": "2012-05-28"
  },
  {
    "place": "Subway4b8ca10bf964a520c5d832e3",
    "time": "2012-05-29"
  },
  {
    "place": "Subway4b21aee7f964a5201b4024e3",
    "time": "2012-05-29"
  },
  {
    "place": "Clothing Store4ac5273df964a520acb020e3",
    "time": "2012-05-29"
  },
  {
    "place": "Coffee Shop4b3ff06cf964a52097b225e3",
    "time": "2012-05-29"
  },
  {
    "place": "Convention Center4ba54a9df964a520f3f638e3",
    "time": "2012-05-29"
  },
  {
    "place": "Clothing Store4e895343d5fbe29bfafc851c",
    "time": "2012-05-29"
  },
  {
    "place": "Park3fd66200f964a520def11ee3",
    "time": "2012-05-29"
  },
  {
    "place": "Clothing Store4ac5273df964a520acb020e3",
    "time": "2012-05-31"
  },
  {
    "place": "Coffee Shop4b3ff06cf964a52097b225e3",
    "time": "2012-05-31"
  },
  {
    "place": "Subway4b21aee7f964a5201b4024e3",
    "time": "2012-05-31"
  },
  {
    "place": "Tea Room4c50721d8edf0f47a18a4caf",
    "time": "2012-05-31"
  },
  {
    "place": "Subway4b8ca10bf964a520c5d832e3",
    "time": "2012-06-01"
  },
  {
    "place": "Gym / Fitness Center4e87e08d93ad69fee81d7c9d",
    "time": "2012-06-01"
  },
  {
    "place": "Chinese Restaurant4e526328aeb7560ca4abfe1b",
    "time": "2012-06-02"
  },
  {
    "place": "Bar42225f00f964a520ae1f1fe3",
    "time": "2012-06-03"
  },
  {
    "place": "Subway4b8ca10bf964a520c5d832e3",
    "time": "2012-06-03"
  },
  {
    "place": "Subway4b498c79f964a5201e7126e3",
    "time": "2012-06-03"
  },
  {
    "place": "Bus Station4c4762281ddec928042a9d32",
    "time": "2012-06-03"
  },
  {
    "place": "Mall4b344fb5f964a520eb2625e3",
    "time": "2012-06-03"
  },
  {
    "place": "Subway4b8ca10bf964a520c5d832e3",
    "time": "2012-06-04"
  },
  {
    "place": "Clothing Store4ac5273df964a520acb020e3",
    "time": "2012-06-04"
  },
  {
    "place": "Subway4b8ca10bf964a520c5d832e3",
    "time": "2012-06-05"
  },
  {
    "place": "Coffee Shop49cf9381f964a520af5a1fe3",
    "time": "2012-06-05"
  },
  {
    "place": "Subway4b21aee7f964a5201b4024e3",
    "time": "2012-06-05"
  },
  {
    "place": "Clothing Store4ac5273df964a520acb020e3",
    "time": "2012-06-05"
  },
  {
    "place": "Subway4b8ca10bf964a520c5d832e3",
    "time": "2012-06-06"
  },
  {
    "place": "Subway4b4c2b57f964a52029af26e3",
    "time": "2012-06-07"
  },
  {
    "place": "Subway4b21aee7f964a5201b4024e3",
    "time": "2012-06-07"
  },
  {
    "place": "Coffee Shop49cf9381f964a520af5a1fe3",
    "time": "2012-06-07"
  },
  {
    "place": "Drugstore / Pharmacy4b0cd4dbf964a520224223e3",
    "time": "2012-06-07"
  },
  {
    "place": "Clothing Store4ac5273df964a520acb020e3",
    "time": "2012-06-07"
  },
  {
    "place": "Subway4b8ca10bf964a520c5d832e3",
    "time": "2012-06-07"
  },
  {
    "place": "Subway4b8ca10bf964a520c5d832e3",
    "time": "2012-06-07"
  },
  {
    "place": "Pizza Place4d4356721b62b1f7a8d3e6e2",
    "time": "2012-06-07"
  },
  {
    "place": "Science Museum4297b480f964a52062241fe3",
    "time": "2012-06-08"
  },
  {
    "place": "Coffee Shop4a6a2f2ff964a520c7cc1fe3",
    "time": "2012-06-08"
  },
  {
    "place": "Bar42225f00f964a520ae1f1fe3",
    "time": "2012-06-09"
  },
  {
    "place": "Train Station42829c80f964a5206a221fe3",
    "time": "2012-06-09"
  },
  {
    "place": "Subway4b8ca10bf964a520c5d832e3",
    "time": "2012-06-10"
  },
  {
    "place": "Subway4b1d14e9f964a520af0b24e3",
    "time": "2012-06-10"
  },
  {
    "place": "Bar42225f00f964a520ae1f1fe3",
    "time": "2012-06-10"
  },
  {
    "place": "Bar4ad04456f964a520c7d720e3",
    "time": "2012-06-10"
  },
  {
    "place": "Subway4b8ca10bf964a520c5d832e3",
    "time": "2012-06-11"
  },
  {
    "place": "Subway4b21aee7f964a5201b4024e3",
    "time": "2012-06-11"
  },
  {
    "place": "Clothing Store4ac5273df964a520acb020e3",
    "time": "2012-06-11"
  },
  {
    "place": "Coffee Shop4aa53eccf964a520b24720e3",
    "time": "2012-06-11"
  },
  {
    "place": "Clothing Store4b115a37f964a520c37a23e3",
    "time": "2012-06-11"
  },
  {
    "place": "Department Store4a9479ecf964a520b72120e3",
    "time": "2012-06-11"
  },
  {
    "place": "American Restaurant509d636d5d2463e871548042",
    "time": "2012-06-11"
  },
  {
    "place": "Subway4b8ca10bf964a520c5d832e3",
    "time": "2012-06-12"
  },
  {
    "place": "Subway4b21aee7f964a5201b4024e3",
    "time": "2012-06-12"
  },
  {
    "place": "Clothing Store4ac5273df964a520acb020e3",
    "time": "2012-06-12"
  },
  {
    "place": "Gym / Fitness Center4a6d761ef964a520bed21fe3",
    "time": "2012-06-12"
  },
  {
    "place": "Subway4c1943b36e02b71394b8627b",
    "time": "2012-06-12"
  },
  {
    "place": "Subway4b8ca10bf964a520c5d832e3",
    "time": "2012-06-13"
  },
  {
    "place": "Gym / Fitness Center4e87e08d93ad69fee81d7c9d",
    "time": "2012-06-13"
  },
  {
    "place": "Subway4b8ca10bf964a520c5d832e3",
    "time": "2012-06-14"
  },
  {
    "place": "Subway4b21aee7f964a5201b4024e3",
    "time": "2012-06-14"
  },
  {
    "place": "Coffee Shop4aa53eccf964a520b24720e3",
    "time": "2012-06-14"
  },
  {
    "place": "Clothing Store4ac5273df964a520acb020e3",
    "time": "2012-06-14"
  },
  {
    "place": "Subway4b21aee7f964a5201b4024e3",
    "time": "2012-06-16"
  },
  {
    "place": "Clothing Store4ac5273df964a520acb020e3",
    "time": "2012-06-16"
  },
  {
    "place": "Bar49c324f7f964a52059561fe3",
    "time": "2012-06-17"
  },
  {
    "place": "Subway4b8ca10bf964a520c5d832e3",
    "time": "2012-06-17"
  },
  {
    "place": "Subway4b21aee7f964a5201b4024e3",
    "time": "2012-06-17"
  },
  {
    "place": "Coffee Shop49cf9381f964a520af5a1fe3",
    "time": "2012-06-17"
  },
  {
    "place": "Clothing Store4ac5273df964a520acb020e3",
    "time": "2012-06-17"
  },
  {
    "place": "Coffee Shop4ab26682f964a520106b20e3",
    "time": "2012-06-17"
  },
  {
    "place": "Other Great Outdoors4dfe315518a890a16709e377",
    "time": "2012-06-17"
  },
  {
    "place": "Subway4b21aee7f964a5201b4024e3",
    "time": "2012-06-18"
  },
  {
    "place": "Clothing Store4ac5273df964a520acb020e3",
    "time": "2012-06-18"
  },
  {
    "place": "Subway4af2d730f964a520b3e821e3",
    "time": "2012-06-18"
  },
  {
    "place": "Subway4b8ca10bf964a520c5d832e3",
    "time": "2012-06-20"
  },
  {
    "place": "Pizza Place4d4356721b62b1f7a8d3e6e2",
    "time": "2012-06-20"
  },
  {
    "place": "Clothing Store4bb12a8ef964a520f27f3ce3",
    "time": "2012-06-20"
  },
  {
    "place": "Tea Room4dd43ffd1fc72a9b4a70b6e1",
    "time": "2012-06-21"
  },
  {
    "place": "Subway4b21aee7f964a5201b4024e3",
    "time": "2012-06-21"
  },
  {
    "place": "Coffee Shop49cf9381f964a520af5a1fe3",
    "time": "2012-06-21"
  },
  {
    "place": "Clothing Store4ac5273df964a520acb020e3",
    "time": "2012-06-21"
  },
  {
    "place": "Clothing Store4ac5273df964a520acb020e3",
    "time": "2012-06-26"
  },
  {
    "place": "Subway4b8ca10bf964a520c5d832e3",
    "time": "2012-06-27"
  },
  {
    "place": "Subway4b21aee7f964a5201b4024e3",
    "time": "2012-06-27"
  },
  {
    "place": "Coffee Shop4aa53eccf964a520b24720e3",
    "time": "2012-06-27"
  },
  {
    "place": "Burger Joint49b0c608f964a520cd521fe3",
    "time": "2012-06-30"
  },
  {
    "place": "Subway4b8ca10bf964a520c5d832e3",
    "time": "2012-07-02"
  },
  {
    "place": "Subway4b21aee7f964a5201b4024e3",
    "time": "2012-07-02"
  },
  {
    "place": "Clothing Store4ac5273df964a520acb020e3",
    "time": "2012-07-02"
  },
  {
    "place": "Coffee Shop4ac3ff4af964a520cc9d20e3",
    "time": "2012-07-02"
  },
  {
    "place": "Subway4add9cebf964a520246521e3",
    "time": "2012-07-02"
  },
  {
    "place": "Gym / Fitness Center4a6d761ef964a520bed21fe3",
    "time": "2012-07-02"
  },
  {
    "place": "Subway4b8ca10bf964a520c5d832e3",
    "time": "2012-07-03"
  },
  {
    "place": "Subway4b21aee7f964a5201b4024e3",
    "time": "2012-07-03"
  },
  {
    "place": "Coffee Shop49cf9381f964a520af5a1fe3",
    "time": "2012-07-03"
  },
  {
    "place": "Clothing Store4ac5273df964a520acb020e3",
    "time": "2012-07-03"
  },
  {
    "place": "Fast Food Restaurant4b17f2ecf964a5200fca23e3",
    "time": "2012-07-03"
  },
  {
    "place": "Subway4b8ca10bf964a520c5d832e3",
    "time": "2012-07-04"
  },
  {
    "place": "Burrito Place44d8c0faf964a52078361fe3",
    "time": "2012-07-04"
  },
  {
    "place": "Subway4b8ca10bf964a520c5d832e3",
    "time": "2012-07-05"
  },
  {
    "place": "Gym / Fitness Center4e87e08d93ad69fee81d7c9d",
    "time": "2012-07-05"
  },
  {
    "place": "Sandwich Place4e4ce4edbd413c4cc66d064c",
    "time": "2012-07-05"
  },
  {
    "place": "Subway4b21aee7f964a5201b4024e3",
    "time": "2012-07-05"
  },
  {
    "place": "Clothing Store4ac5273df964a520acb020e3",
    "time": "2012-07-05"
  },
  {
    "place": "Bar4ed34551754ad8083f6fd853",
    "time": "2012-07-06"
  },
  {
    "place": "Subway4b8ca10bf964a520c5d832e3",
    "time": "2012-07-06"
  },
  {
    "place": "Subway4add9cebf964a520246521e3",
    "time": "2012-07-06"
  },
  {
    "place": "Clothing Store4ad7e8b9f964a520fc0f21e3",
    "time": "2012-07-06"
  },
  {
    "place": "Bar4c9bb662e9a7ef3bd0ed2e16",
    "time": "2012-07-07"
  },
  {
    "place": "Subway4b8ca10bf964a520c5d832e3",
    "time": "2012-07-07"
  },
  {
    "place": "Subway4b8ca10bf964a520c5d832e3",
    "time": "2012-07-07"
  },
  {
    "place": "Train Station42829c80f964a5206a221fe3",
    "time": "2012-07-07"
  },
  {
    "place": "Clothing Store4b043f60f964a520895222e3",
    "time": "2012-07-07"
  },
  {
    "place": "Cupcake Shop4cf667f5b9792d43d7d05495",
    "time": "2012-07-07"
  },
  {
    "place": "Bar4c8b1bcc1eafb1f7bb0e8135",
    "time": "2012-07-08"
  },
  {
    "place": "Subway4b8ca10bf964a520c5d832e3",
    "time": "2012-07-08"
  },
  {
    "place": "Drugstore / Pharmacy4b0cd4dbf964a520224223e3",
    "time": "2012-07-09"
  },
  {
    "place": "Drugstore / Pharmacy4b0cd4dbf964a520224223e3",
    "time": "2012-07-09"
  },
  {
    "place": "Subway4b8ca10bf964a520c5d832e3",
    "time": "2012-07-09"
  },
  {
    "place": "Subway4b8ca10bf964a520c5d832e3",
    "time": "2012-07-11"
  },
  {
    "place": "Subway4b21aee7f964a5201b4024e3",
    "time": "2012-07-11"
  },
  {
    "place": "Coffee Shop4aa53eccf964a520b24720e3",
    "time": "2012-07-11"
  },
  {
    "place": "Subway4b8ca10bf964a520c5d832e3",
    "time": "2012-07-12"
  },
  {
    "place": "Bar4ed34551754ad8083f6fd853",
    "time": "2012-07-13"
  },
  {
    "place": "Subway4b8ca10bf964a520c5d832e3",
    "time": "2012-07-13"
  },
  {
    "place": "Subway4b8ca10bf964a520c5d832e3",
    "time": "2012-07-15"
  },
  {
    "place": "Subway4b8ca10bf964a520c5d832e3",
    "time": "2012-07-16"
  },
  {
    "place": "Drugstore / Pharmacy4b22deb3f964a5202a4f24e3",
    "time": "2012-07-18"
  },
  {
    "place": "Train Station4ae8906ef964a52071b021e3",
    "time": "2012-07-22"
  },
  {
    "place": "Subway4aaa4e0ef964a520ad5520e3",
    "time": "2012-07-22"
  },
  {
    "place": "Subway4b21aee7f964a5201b4024e3",
    "time": "2012-07-22"
  },
  {
    "place": "Clothing Store4ac5273df964a520acb020e3",
    "time": "2012-07-22"
  },
  {
    "place": "Drugstore / Pharmacy4dc0087df7b115b875d6e2f4",
    "time": "2012-07-24"
  },
  {
    "place": "Subway4b8ca10bf964a520c5d832e3",
    "time": "2012-07-24"
  },
  {
    "place": "Subway4b498c79f964a5201e7126e3",
    "time": "2012-07-24"
  },
  {
    "place": "Gym / Fitness Center4e87e08d93ad69fee81d7c9d",
    "time": "2012-07-24"
  },
  {
    "place": "Subway4b477ebaf964a520f83326e3",
    "time": "2012-07-28"
  },
  {
    "place": "Subway4b8ca10bf964a520c5d832e3",
    "time": "2012-07-28"
  },
  {
    "place": "Subway4b8ca10bf964a520c5d832e3",
    "time": "2012-07-29"
  },
  {
    "place": "Subway4b498c79f964a5201e7126e3",
    "time": "2012-07-30"
  },
  {
    "place": "Gym / Fitness Center4e87e08d93ad69fee81d7c9d",
    "time": "2012-07-30"
  },
  {
    "place": "Subway4b8ca10bf964a520c5d832e3",
    "time": "2012-08-09"
  },
  {
    "place": "Subway4b498c79f964a5201e7126e3",
    "time": "2012-08-10"
  },
  {
    "place": "Bar4ed34551754ad8083f6fd853",
    "time": "2012-08-12"
  },
  {
    "place": "Bar3fd66200f964a520e7e61ee3",
    "time": "2012-08-12"
  },
  {
    "place": "Bar49c180edf964a520af551fe3",
    "time": "2012-08-13"
  },
  {
    "place": "Subway4b498c79f964a5201e7126e3",
    "time": "2012-08-14"
  },
  {
    "place": "Gym / Fitness Center4e87e08d93ad69fee81d7c9d",
    "time": "2012-08-14"
  },
  {
    "place": "Hotel481dfa3af964a5207f4f1fe3",
    "time": "2012-08-17"
  },
  {
    "place": "Train Station4de087f5c65bcc724f42a314",
    "time": "2012-08-18"
  },
  {
    "place": "Scenic Lookout4c5ffe64cd522d7f0f0ccd3f",
    "time": "2012-08-18"
  },
  {
    "place": "Bar42225f00f964a520ae1f1fe3",
    "time": "2012-08-19"
  },
  {
    "place": "Subway4b68f12cf964a5201f942be3",
    "time": "2012-09-05"
  },
  {
    "place": "Clothing Store4a68933bf964a52094ca1fe3",
    "time": "2012-09-05"
  },
  {
    "place": "Clothing Store503ff381e4b09690b120283f",
    "time": "2012-09-09"
  },
  {
    "place": "Subway4b8ca10bf964a520c5d832e3",
    "time": "2012-09-13"
  },
  {
    "place": "Clothing Store503ff381e4b09690b120283f",
    "time": "2012-09-13"
  },
  {
    "place": "Clothing Store503ff381e4b09690b120283f",
    "time": "2012-09-14"
  },
  {
    "place": "Train Station42911d00f964a520f5231fe3",
    "time": "2012-09-15"
  },
  {
    "place": "Electronics Store4c489b407769b7130d9160e2",
    "time": "2012-09-15"
  },
  {
    "place": "Bar4c9bb662e9a7ef3bd0ed2e16",
    "time": "2012-09-15"
  },
  {
    "place": "Subway4b8ca10bf964a520c5d832e3",
    "time": "2012-10-08"
  },
  {
    "place": "Sandwich Place4bc5f776db8fa59392819b37",
    "time": "2012-10-09"
  },
  {
    "place": "Subway4b8ca10bf964a520c5d832e3",
    "time": "2012-10-11"
  },
  {
    "place": "Clothing Store503ff381e4b09690b120283f",
    "time": "2012-10-12"
  },
  {
    "place": "Pizza Place4d4356721b62b1f7a8d3e6e2",
    "time": "2012-10-12"
  },
  {
    "place": "Subway4b3abe48f964a520b96d25e3",
    "time": "2012-10-13"
  },
  {
    "place": "Subway4b8ca10bf964a520c5d832e3",
    "time": "2012-10-16"
  },
  {
    "place": "Clothing Store503ff381e4b09690b120283f",
    "time": "2012-10-16"
  },
  {
    "place": "Subway4b8ca10bf964a520c5d832e3",
    "time": "2012-10-18"
  },
  {
    "place": "Subway4b68f12cf964a5201f942be3",
    "time": "2012-10-18"
  },
  {
    "place": "Clothing Store503ff381e4b09690b120283f",
    "time": "2012-10-18"
  },
  {
    "place": "Park40b68100f964a5207d001fe3",
    "time": "2012-10-19"
  },
  {
    "place": "Plaza49c64842f964a5202e571fe3",
    "time": "2012-10-19"
  },
  {
    "place": "Subway4b498c79f964a5201e7126e3",
    "time": "2012-10-19"
  },
  {
    "place": "Gym / Fitness Center4e87e08d93ad69fee81d7c9d",
    "time": "2012-10-19"
  },
  {
    "place": "Gym / Fitness Center4e87e08d93ad69fee81d7c9d",
    "time": "2012-10-22"
  },
  {
    "place": "Department Store4bc0d92f74a9a59335ccd0f6",
    "time": "2012-10-22"
  },
  {
    "place": "Subway4b21aee7f964a5201b4024e3",
    "time": "2012-10-23"
  },
  {
    "place": "Clothing Store49d7aaf5f964a5204a5d1fe3",
    "time": "2012-10-23"
  },
  {
    "place": "Clothing Store4bc743d68b7c9c74df1536cf",
    "time": "2012-10-23"
  },
  {
    "place": "Clothing Store503ff381e4b09690b120283f",
    "time": "2012-10-23"
  },
  {
    "place": "Coffee Shop4a663fe9f964a5204ac81fe3",
    "time": "2012-10-24"
  },
  {
    "place": "Subway4b68f12cf964a5201f942be3",
    "time": "2012-10-25"
  },
  {
    "place": "Bar4ed34551754ad8083f6fd853",
    "time": "2012-10-26"
  },
  {
    "place": "Subway4af1d4c8f964a52099e321e3",
    "time": "2012-10-26"
  },
  {
    "place": "Seafood Restaurant4f95f253e4b0d010ab257b03",
    "time": "2012-10-26"
  },
  {
    "place": "Bar4c9bb662e9a7ef3bd0ed2e16",
    "time": "2012-10-27"
  },
  {
    "place": "Coffee Shop49e644c6f964a5202f641fe3",
    "time": "2012-10-27"
  },
  {
    "place": "Bar4ed34551754ad8083f6fd853",
    "time": "2012-10-28"
  },
  {
    "place": "Other Great Outdoors508af9ccf13627e878935855",
    "time": "2012-10-29"
  },
  {
    "place": "Subway4b8ca10bf964a520c5d832e3",
    "time": "2012-11-01"
  },
  {
    "place": "Coffee Shop49e644c6f964a5202f641fe3",
    "time": "2012-11-06"
  },
  {
    "place": "Clothing Store503ff381e4b09690b120283f",
    "time": "2012-11-06"
  },
  {
    "place": "Coffee Shop4a663fe9f964a5204ac81fe3",
    "time": "2012-11-06"
  },
  {
    "place": "Bar3fd66200f964a5206de51ee3",
    "time": "2012-11-07"
  },
  {
    "place": "Bar4bd8df990115c9b618ba7580",
    "time": "2012-11-07"
  },
  {
    "place": "Bar42001800f964a520591f1fe3",
    "time": "2012-11-07"
  },
  {
    "place": "Coffee Shop49e644c6f964a5202f641fe3",
    "time": "2012-11-07"
  },
  {
    "place": "Subway4b8ca10bf964a520c5d832e3",
    "time": "2012-11-09"
  },
  {
    "place": "Subway4b68f12cf964a5201f942be3",
    "time": "2012-11-09"
  },
  {
    "place": "Clothing Store4a68933bf964a52094ca1fe3",
    "time": "2012-11-09"
  },
  {
    "place": "Clothing Store503ff381e4b09690b120283f",
    "time": "2012-11-11"
  },
  {
    "place": "Bar42225f00f964a520ae1f1fe3",
    "time": "2012-11-17"
  },
  {
    "place": "Movie Theater49e7ce15f964a5201d651fe3",
    "time": "2012-11-17"
  },
  {
    "place": "Thai Restaurant4add227bf964a5203b6421e3",
    "time": "2012-11-17"
  },
  {
    "place": "Casino4df0eea245ddbf3897d44510",
    "time": "2012-11-18"
  },
  {
    "place": "Gym / Fitness Center4eda64ced5fb8f213a5d740e",
    "time": "2012-11-21"
  },
  {
    "place": "Clothing Store4a68933bf964a52094ca1fe3",
    "time": "2012-11-23"
  },
  {
    "place": "Clothing Store4ada33a5f964a520e51f21e3",
    "time": "2012-11-25"
  },
  {
    "place": "Burger Joint4b216a22f964a520843b24e3",
    "time": "2012-12-29"
  },
  {
    "place": "Gym / Fitness Center4e87e08d93ad69fee81d7c9d",
    "time": "2013-01-11"
  },
  {
    "place": "Bar44e454a3f964a52053371fe3",
    "time": "2013-01-28"
  }
]