[
  {
    "place": "Drugstore / Pharmacy4d8b9cbb0c4e41bd780a667f",
    "time": "2012-06-05"
  },
  {
    "place": "Residential Building (Apartment / Condo)4fcd67e7e4b0ef380f9d4e85",
    "time": "2012-06-05"
  },
  {
    "place": "Event Space4cd1e55f6200b1f7e97edc28",
    "time": "2012-06-05"
  },
  {
    "place": "Department Store4b8e9229f964a520562933e3",
    "time": "2012-06-06"
  },
  {
    "place": "School4ac2836ef964a5207a9920e3",
    "time": "2012-06-06"
  },
  {
    "place": "Event Space4cd1e55f6200b1f7e97edc28",
    "time": "2012-06-06"
  },
  {
    "place": "Residential Building (Apartment / Condo)4fcd67e7e4b0ef380f9d4e85",
    "time": "2012-06-06"
  },
  {
    "place": "Coffee Shop4c0e39ebc700c9b62079a3dd",
    "time": "2012-06-07"
  },
  {
    "place": "Train Station42911d00f964a520f5231fe3",
    "time": "2012-06-08"
  },
  {
    "place": "Government Building4bba16ccb35776b02080ca01",
    "time": "2012-06-08"
  },
  {
    "place": "Movie Theater40afe980f964a5203bf31ee3",
    "time": "2012-06-08"
  },
  {
    "place": "Drugstore / Pharmacy4d8b9cbb0c4e41bd780a667f",
    "time": "2012-06-08"
  },
  {
    "place": "Residential Building (Apartment / Condo)4fcd67e7e4b0ef380f9d4e85",
    "time": "2012-06-08"
  },
  {
    "place": "Coffee Shop4c0e39ebc700c9b62079a3dd",
    "time": "2012-06-09"
  },
  {
    "place": "Train Station4ed8d4d28b8173160a5b399a",
    "time": "2012-06-10"
  },
  {
    "place": "Residential Building (Apartment / Condo)4fcd67e7e4b0ef380f9d4e85",
    "time": "2012-06-11"
  },
  {
    "place": "Bus Station4ec25bd3f790741161ea65ff",
    "time": "2012-06-11"
  },
  {
    "place": "Mall4a7f602cf964a520d5f31fe3",
    "time": "2012-06-11"
  },
  {
    "place": "Burger Joint4abbc0caf964a520b48420e3",
    "time": "2012-06-11"
  },
  {
    "place": "Chinese Restaurant49de37c5f964a52036601fe3",
    "time": "2012-06-11"
  },
  {
    "place": "Theater4bf3217a706e20a16be7a798",
    "time": "2012-06-11"
  },
  {
    "place": "Residential Building (Apartment / Condo)4fcd67e7e4b0ef380f9d4e85",
    "time": "2012-06-12"
  },
  {
    "place": "Ice Cream Shop3fd66200f964a52033eb1ee3",
    "time": "2012-06-12"
  },
  {
    "place": "Drugstore / Pharmacy4d8b9cbb0c4e41bd780a667f",
    "time": "2012-06-12"
  },
  {
    "place": "Residential Building (Apartment / Condo)4fcd67e7e4b0ef380f9d4e85",
    "time": "2012-06-12"
  },
  {
    "place": "Church4e1f1c05d22d7c148ce7f3c3",
    "time": "2012-06-13"
  },
  {
    "place": "Movie Theater40afe980f964a5203bf31ee3",
    "time": "2012-06-13"
  },
  {
    "place": "Movie Theater40afe980f964a5203bf31ee3",
    "time": "2012-06-13"
  },
  {
    "place": "Pet Store4a5519d5f964a520adb31fe3",
    "time": "2012-06-13"
  },
  {
    "place": "Performing Arts Venue4b7c7fe4f964a5201a972fe3",
    "time": "2012-06-13"
  },
  {
    "place": "Chinese Restaurant4e44839cd4c02cf15f63fd5a",
    "time": "2012-06-13"
  },
  {
    "place": "Residential Building (Apartment / Condo)4fcd67e7e4b0ef380f9d4e85",
    "time": "2012-06-14"
  },
  {
    "place": "Residential Building (Apartment / Condo)4fcd67e7e4b0ef380f9d4e85",
    "time": "2012-06-17"
  },
  {
    "place": "Mall4528a216f964a520173b1fe3",
    "time": "2012-06-18"
  },
  {
    "place": "Pizza Place4ce827fde888f04deea3406b",
    "time": "2012-06-18"
  },
  {
    "place": "Residential Building (Apartment / Condo)4fcd67e7e4b0ef380f9d4e85",
    "time": "2012-06-18"
  },
  {
    "place": "Cosmetics Shop4bb600ed46d4a5936d8bc5c0",
    "time": "2012-06-20"
  },
  {
    "place": "Mall4a19bdd6f964a520477a1fe3",
    "time": "2012-06-20"
  },
  {
    "place": "Clothing Store4a0203cef964a52024711fe3",
    "time": "2012-06-20"
  },
  {
    "place": "Clothing Store4a01f87bf964a5201a711fe3",
    "time": "2012-06-20"
  },
  {
    "place": "Caf\u00c3\u00a94a8aeb9ff964a520e20a20e3",
    "time": "2012-06-21"
  },
  {
    "place": "Medical Center4a36c1b9f964a520dd9d1fe3",
    "time": "2012-06-26"
  },
  {
    "place": "Tea Room4bc621b6f360ef3bc433db2d",
    "time": "2012-06-26"
  },
  {
    "place": "Burger Joint40e74880f964a520150a1fe3",
    "time": "2012-06-26"
  },
  {
    "place": "Asian Restaurant4bb8c1633db7b713ac90219a",
    "time": "2012-07-21"
  },
  {
    "place": "Fast Food Restaurant4c3e2f3e80bc20a193a8aa58",
    "time": "2012-07-24"
  },
  {
    "place": "American Restaurant4bf9a612328d76b06da314ec",
    "time": "2012-07-24"
  },
  {
    "place": "Bank4d7269edec075481a4be88bf",
    "time": "2012-07-24"
  },
  {
    "place": "Furniture / Home Store4b12aabff964a520028c23e3",
    "time": "2012-07-24"
  },
  {
    "place": "Ice Cream Shop4df5403a22718759f825ef79",
    "time": "2012-07-24"
  },
  {
    "place": "Asian Restaurant4bb8c1633db7b713ac90219a",
    "time": "2012-07-26"
  },
  {
    "place": "Residential Building (Apartment / Condo)4fcd67e7e4b0ef380f9d4e85",
    "time": "2012-07-26"
  },
  {
    "place": "Neighborhood4c216c007e85c928388fba21",
    "time": "2012-07-27"
  },
  {
    "place": "American Restaurant4c6331ddde1b2d7f6d3be470",
    "time": "2012-07-29"
  },
  {
    "place": "Mall4b75984af964a520ee162ee3",
    "time": "2012-07-29"
  },
  {
    "place": "Coffee Shop4c0e39ebc700c9b62079a3dd",
    "time": "2012-07-30"
  },
  {
    "place": "Bus Station4d07d9be1de3b60cac678d15",
    "time": "2012-07-30"
  },
  {
    "place": "Office500eb3eee4b057e4cb820b6e",
    "time": "2012-07-30"
  },
  {
    "place": "Bank4d7269edec075481a4be88bf",
    "time": "2012-07-30"
  },
  {
    "place": "Residential Building (Apartment / Condo)4fd10958e4b06258905a3d5f",
    "time": "2012-07-30"
  },
  {
    "place": "Bank4d7269edec075481a4be88bf",
    "time": "2012-08-05"
  },
  {
    "place": "Mall4528a216f964a520173b1fe3",
    "time": "2012-08-05"
  },
  {
    "place": "Subway4f597a7ae4b09f2e8f888929",
    "time": "2012-08-06"
  },
  {
    "place": "Bus Station4d07d9be1de3b60cac678d15",
    "time": "2012-08-06"
  },
  {
    "place": "Coffee Shop4c0e39ebc700c9b62079a3dd",
    "time": "2012-08-09"
  },
  {
    "place": "Bus Station4d07d9be1de3b60cac678d15",
    "time": "2012-08-09"
  },
  {
    "place": "Office500eb3eee4b057e4cb820b6e",
    "time": "2012-08-09"
  },
  {
    "place": "Residential Building (Apartment / Condo)4fcd67e7e4b0ef380f9d4e85",
    "time": "2012-08-09"
  },
  {
    "place": "Bus Station4d07d9be1de3b60cac678d15",
    "time": "2012-08-10"
  },
  {
    "place": "Train Station42911d00f964a520f5231fe3",
    "time": "2012-08-11"
  },
  {
    "place": "Train Station4ab38f3df964a520ca6d20e3",
    "time": "2012-08-11"
  },
  {
    "place": "Bar4c0fc075336220a1f045ce77",
    "time": "2012-08-11"
  },
  {
    "place": "Train Station4e3ab921b3ade614e1275a0c",
    "time": "2012-08-12"
  },
  {
    "place": "Residential Building (Apartment / Condo)4fcd67e7e4b0ef380f9d4e85",
    "time": "2012-08-12"
  },
  {
    "place": "Mall4528a216f964a520173b1fe3",
    "time": "2012-08-12"
  },
  {
    "place": "Sushi Restaurant4e1cc87a45dd94fe4a566ba7",
    "time": "2012-08-12"
  },
  {
    "place": "Department Store4a9479ecf964a520b72120e3",
    "time": "2012-08-12"
  },
  {
    "place": "Plaza4caf1ae81168a093485f1f23",
    "time": "2012-08-12"
  },
  {
    "place": "Plaza4c06b7be8a81c9b6c0292690",
    "time": "2012-08-13"
  },
  {
    "place": "Plaza49b7ed6df964a52030531fe3",
    "time": "2012-08-13"
  },
  {
    "place": "Coffee Shop4c0e39ebc700c9b62079a3dd",
    "time": "2012-08-14"
  },
  {
    "place": "Bus Station4d07d9be1de3b60cac678d15",
    "time": "2012-08-14"
  },
  {
    "place": "Office500eb3eee4b057e4cb820b6e",
    "time": "2012-08-14"
  },
  {
    "place": "Train Station4a513b17f964a520d2b01fe3",
    "time": "2012-08-16"
  },
  {
    "place": "Bank4d7269edec075481a4be88bf",
    "time": "2012-08-19"
  },
  {
    "place": "Home (private)4c5605f373fd2d7f9559d1ce",
    "time": "2012-08-19"
  },
  {
    "place": "Residential Building (Apartment / Condo)4fcd67e7e4b0ef380f9d4e85",
    "time": "2012-08-20"
  },
  {
    "place": "Subway4f597a7ae4b09f2e8f888929",
    "time": "2012-08-20"
  },
  {
    "place": "Bus Station4d07d9be1de3b60cac678d15",
    "time": "2012-08-20"
  },
  {
    "place": "Office500eb3eee4b057e4cb820b6e",
    "time": "2012-08-20"
  },
  {
    "place": "Train Station4a513b17f964a520d2b01fe3",
    "time": "2012-08-17"
  },
  {
    "place": "Residential Building (Apartment / Condo)4fcd67e7e4b0ef380f9d4e85",
    "time": "2012-08-17"
  },
  {
    "place": "Gym / Fitness Center46a9bed8f964a52054491fe3",
    "time": "2012-08-17"
  },
  {
    "place": "Korean Restaurant4a480fb8f964a5207daa1fe3",
    "time": "2012-08-18"
  },
  {
    "place": "Gym / Fitness Center46a9bed8f964a52054491fe3",
    "time": "2012-08-18"
  },
  {
    "place": "Bakery4fe4c53fe4b065cd6ec6b9e9",
    "time": "2012-08-18"
  },
  {
    "place": "Neighborhood4e5c09011f6e89370a22a4e1",
    "time": "2012-11-21"
  },
  {
    "place": "Bus Station4d07d9be1de3b60cac678d15",
    "time": "2012-11-21"
  },
  {
    "place": "Gas Station / Garage4d17610d816af04da3c44ec2",
    "time": "2012-11-22"
  },
  {
    "place": "Home (private)4c5605f373fd2d7f9559d1ce",
    "time": "2012-11-23"
  },
  {
    "place": "Subway4b283971f964a520289124e3",
    "time": "2012-11-24"
  },
  {
    "place": "Neighborhood4e5c09011f6e89370a22a4e1",
    "time": "2012-11-26"
  },
  {
    "place": "Bus Station4d07d9be1de3b60cac678d15",
    "time": "2012-11-26"
  },
  {
    "place": "Neighborhood4e5c09011f6e89370a22a4e1",
    "time": "2012-11-27"
  },
  {
    "place": "Bus Station4d07d9be1de3b60cac678d15",
    "time": "2012-11-27"
  },
  {
    "place": "Bus Station4eb60e5ce30006eb126b6494",
    "time": "2013-01-29"
  },
  {
    "place": "Airport4be1ae703ef676b0e44ec0ca",
    "time": "2013-01-30"
  },
  {
    "place": "Airport43a52546f964a520532c1fe3",
    "time": "2013-01-30"
  },
  {
    "place": "Airport4a7ead97f964a5200ef21fe3",
    "time": "2013-02-02"
  },
  {
    "place": "Airport4be1ae703ef676b0e44ec0ca",
    "time": "2013-02-02"
  },
  {
    "place": "Bakery4dc18b838877c00d6adb2c2d",
    "time": "2013-02-03"
  },
  {
    "place": "Bus Station4d07d9be1de3b60cac678d15",
    "time": "2013-02-05"
  },
  {
    "place": "Bus Station4eb60e5ce30006eb126b6494",
    "time": "2013-02-05"
  },
  {
    "place": "Coffee Shop4c0e39ebc700c9b62079a3dd",
    "time": "2013-02-08"
  },
  {
    "place": "Bus Station4eb60e5ce30006eb126b6494",
    "time": "2013-02-08"
  },
  {
    "place": "Gym / Fitness Center4b57b30cf964a520973c28e3",
    "time": "2013-02-12"
  }
]