[
  {
    "place": "Subway4c80f59f51ada1cda1f10d10",
    "time": "2012-04-18"
  },
  {
    "place": "Arts & Crafts Store4ae2efbbf964a520b78f21e3",
    "time": "2012-04-18"
  },
  {
    "place": "Subway4c80f59f51ada1cda1f10d10",
    "time": "2012-04-21"
  },
  {
    "place": "Home (private)4e122f9f52b1655efa4ca41b",
    "time": "2012-04-22"
  },
  {
    "place": "Other Great Outdoors4f93baf21081cba0060643f0",
    "time": "2012-04-23"
  },
  {
    "place": "Subway4aaa4e0ef964a520ad5520e3",
    "time": "2012-04-28"
  },
  {
    "place": "Home (private)4d95d384647d8cfa120ea93d",
    "time": "2012-04-29"
  },
  {
    "place": "Home (private)4d95d384647d8cfa120ea93d",
    "time": "2012-05-06"
  },
  {
    "place": "Office4dabc60efa8cc7649754b6a8",
    "time": "2012-05-07"
  },
  {
    "place": "Subway4ae4eb45f964a5206e9f21e3",
    "time": "2012-05-08"
  },
  {
    "place": "Subway4c80f59f51ada1cda1f10d10",
    "time": "2012-05-09"
  },
  {
    "place": "Gift Shop4bae7d7cf964a520c7b83be3",
    "time": "2012-05-10"
  },
  {
    "place": "Office4dabc60efa8cc7649754b6a8",
    "time": "2012-05-12"
  },
  {
    "place": "Home (private)4d95d384647d8cfa120ea93d",
    "time": "2012-05-13"
  },
  {
    "place": "Steakhouse4a6b9057f964a5202bcf1fe3",
    "time": "2012-05-13"
  },
  {
    "place": "Home (private)4d95d384647d8cfa120ea93d",
    "time": "2012-05-14"
  },
  {
    "place": "Other Great Outdoors4fafe8c9e4b085f6b3264155",
    "time": "2012-05-14"
  },
  {
    "place": "Office4d9653419079b1f7593bf709",
    "time": "2012-05-14"
  },
  {
    "place": "Home (private)4d95d384647d8cfa120ea93d",
    "time": "2012-05-14"
  },
  {
    "place": "Home (private)4d95d384647d8cfa120ea93d",
    "time": "2012-05-16"
  },
  {
    "place": "Subway4b0eed54f964a520e55c23e3",
    "time": "2012-05-19"
  },
  {
    "place": "Home (private)4d95d384647d8cfa120ea93d",
    "time": "2012-05-19"
  },
  {
    "place": "Home (private)4d95d384647d8cfa120ea93d",
    "time": "2012-05-21"
  },
  {
    "place": "Coffee Shop4acf7fb1f964a5201dd420e3",
    "time": "2012-05-22"
  },
  {
    "place": "Home (private)4d95d384647d8cfa120ea93d",
    "time": "2012-05-22"
  },
  {
    "place": "Burger Joint4eeb4c51775b1d4812e0261c",
    "time": "2012-05-24"
  },
  {
    "place": "Subway4c80f59f51ada1cda1f10d10",
    "time": "2012-05-25"
  },
  {
    "place": "Bus Station4eaf5b8cc2ee9ecbeff7727b",
    "time": "2012-05-25"
  },
  {
    "place": "Paper / Office Supplies Store4a78bbeef964a52044e61fe3",
    "time": "2012-05-25"
  },
  {
    "place": "Furniture / Home Store4a43a242f964a5209da61fe3",
    "time": "2012-05-25"
  },
  {
    "place": "Movie Theater40afe980f964a5203bf31ee3",
    "time": "2012-05-25"
  },
  {
    "place": "Arcade44510be3f964a520a0321fe3",
    "time": "2012-05-25"
  },
  {
    "place": "Coffee Shop4acbdd2ef964a52016c820e3",
    "time": "2012-05-26"
  },
  {
    "place": "Subway4b0737c3f964a520e4f922e3",
    "time": "2012-05-26"
  },
  {
    "place": "Subway4c80f59f51ada1cda1f10d10",
    "time": "2012-05-26"
  },
  {
    "place": "Home (private)4d95d384647d8cfa120ea93d",
    "time": "2012-05-26"
  },
  {
    "place": "Office4dabc60efa8cc7649754b6a8",
    "time": "2012-05-26"
  },
  {
    "place": "Office4dabc60efa8cc7649754b6a8",
    "time": "2012-05-27"
  },
  {
    "place": "Home (private)4d95d384647d8cfa120ea93d",
    "time": "2012-05-27"
  },
  {
    "place": "Subway4bea96e76295c9b6908b8608",
    "time": "2012-05-28"
  },
  {
    "place": "Neighborhood4df2f04dd4c01ff6b2eaca87",
    "time": "2012-05-28"
  },
  {
    "place": "Paper / Office Supplies Store4a78bbeef964a52044e61fe3",
    "time": "2012-05-28"
  },
  {
    "place": "Clothing Store3fd66200f964a520b7e51ee3",
    "time": "2012-05-28"
  },
  {
    "place": "Moving Target4fbfe16ae4b05190680fe0b1",
    "time": "2012-05-28"
  },
  {
    "place": "Office4d9653419079b1f7593bf709",
    "time": "2012-05-28"
  },
  {
    "place": "Home (private)4e122f9f52b1655efa4ca41b",
    "time": "2012-05-28"
  },
  {
    "place": "Office4dabc60efa8cc7649754b6a8",
    "time": "2012-05-29"
  },
  {
    "place": "Office4d9653419079b1f7593bf709",
    "time": "2012-05-29"
  },
  {
    "place": "Home (private)4d95d384647d8cfa120ea93d",
    "time": "2012-05-29"
  },
  {
    "place": "Home (private)4e122f9f52b1655efa4ca41b",
    "time": "2012-06-01"
  },
  {
    "place": "Food & Drink Shop4b85c3cff964a520b17131e3",
    "time": "2012-06-01"
  },
  {
    "place": "Office4d9653419079b1f7593bf709",
    "time": "2012-06-01"
  },
  {
    "place": "Miscellaneous Shop4c706347344437045c17245f",
    "time": "2012-06-03"
  },
  {
    "place": "Office4dabc60efa8cc7649754b6a8",
    "time": "2012-06-03"
  },
  {
    "place": "Salon / Barbershop4e445511887703085fdf5100",
    "time": "2012-06-03"
  },
  {
    "place": "Home (private)4d95d384647d8cfa120ea93d",
    "time": "2012-06-03"
  },
  {
    "place": "Bridal Shop4bfc662bda7120a17e064afd",
    "time": "2012-06-03"
  },
  {
    "place": "Mall4cb0a2aeeb65b1f705d66dcd",
    "time": "2012-06-03"
  },
  {
    "place": "Clothing Store4bd8684ee914a593532253fa",
    "time": "2012-06-03"
  },
  {
    "place": "Home (private)4e0e12e2aeb7a5b33ee635c9",
    "time": "2012-06-03"
  },
  {
    "place": "Home (private)4e2efe84ae60231c03288438",
    "time": "2012-06-03"
  },
  {
    "place": "Home (private)4d95d384647d8cfa120ea93d",
    "time": "2012-06-03"
  },
  {
    "place": "Office4dabc60efa8cc7649754b6a8",
    "time": "2012-06-04"
  },
  {
    "place": "Office4d9653419079b1f7593bf709",
    "time": "2012-06-04"
  },
  {
    "place": "Road4d52cbe87ee1a35dedf29d34",
    "time": "2012-06-06"
  },
  {
    "place": "Home (private)4d95d384647d8cfa120ea93d",
    "time": "2012-06-07"
  },
  {
    "place": "Office4d9653419079b1f7593bf709",
    "time": "2012-06-07"
  },
  {
    "place": "Home (private)4e122f9f52b1655efa4ca41b",
    "time": "2012-06-08"
  },
  {
    "place": "Bus Station4db9db14f7b144688febbe9e",
    "time": "2012-06-08"
  },
  {
    "place": "Food & Drink Shop4b85c3cff964a520b17131e3",
    "time": "2012-06-08"
  },
  {
    "place": "Home (private)4d95d384647d8cfa120ea93d",
    "time": "2012-06-09"
  },
  {
    "place": "Other Great Outdoors4e1b35f0fa762e6608db0daa",
    "time": "2012-06-09"
  },
  {
    "place": "Neighborhood4c6b8bf096eaa5937bc622df",
    "time": "2012-06-09"
  },
  {
    "place": "Home (private)4e7ba6e3483b38164667e4e8",
    "time": "2012-06-10"
  },
  {
    "place": "Food & Drink Shop4af78782f964a520bb0922e3",
    "time": "2012-06-10"
  },
  {
    "place": "Office4dabc60efa8cc7649754b6a8",
    "time": "2012-06-10"
  },
  {
    "place": "Neighborhood4df2f04dd4c01ff6b2eaca87",
    "time": "2012-06-10"
  },
  {
    "place": "Plaza4bdf41600ee3a593bc8233b0",
    "time": "2012-06-10"
  },
  {
    "place": "Clothing Store4ef3bdafe5fa4c3505092a55",
    "time": "2012-06-10"
  },
  {
    "place": "Other Great Outdoors4e1b35f0fa762e6608db0daa",
    "time": "2012-06-10"
  },
  {
    "place": "Office4d9653419079b1f7593bf709",
    "time": "2012-06-11"
  },
  {
    "place": "Subway4c80f59f51ada1cda1f10d10",
    "time": "2012-06-11"
  },
  {
    "place": "Paper / Office Supplies Store4a78bbeef964a52044e61fe3",
    "time": "2012-06-11"
  },
  {
    "place": "Neighborhood4c4b52ce9e6dbe9acbd4e10b",
    "time": "2012-06-11"
  },
  {
    "place": "Bus Station4cf3fc2994feb1f7d49e25ba",
    "time": "2012-06-11"
  },
  {
    "place": "Home (private)4e122f9f52b1655efa4ca41b",
    "time": "2012-06-11"
  },
  {
    "place": "Pizza Place4c366c7c1e06d13ab33f743e",
    "time": "2012-06-12"
  },
  {
    "place": "Home (private)4d95d384647d8cfa120ea93d",
    "time": "2012-06-12"
  },
  {
    "place": "Office4d9653419079b1f7593bf709",
    "time": "2012-06-12"
  },
  {
    "place": "Subway4c80f59f51ada1cda1f10d10",
    "time": "2012-06-12"
  },
  {
    "place": "Bank4a6a776df964a5208bcd1fe3",
    "time": "2012-06-12"
  },
  {
    "place": "Mexican Restaurant4ad4a7c0f964a52085e820e3",
    "time": "2012-06-12"
  },
  {
    "place": "Food & Drink Shop4b2137daf964a520713824e3",
    "time": "2012-06-12"
  },
  {
    "place": "Burger Joint4eeb4c51775b1d4812e0261c",
    "time": "2012-06-12"
  },
  {
    "place": "Neighborhood4c4b52ce9e6dbe9acbd4e10b",
    "time": "2012-06-12"
  },
  {
    "place": "Subway4b3a1855f964a520026125e3",
    "time": "2012-06-12"
  },
  {
    "place": "Home (private)4e122f9f52b1655efa4ca41b",
    "time": "2012-06-14"
  },
  {
    "place": "Bus Station4cefd51e8604a1cd642effc0",
    "time": "2012-06-14"
  },
  {
    "place": "Office4d9653419079b1f7593bf709",
    "time": "2012-06-14"
  },
  {
    "place": "Airport43a52546f964a520532c1fe3",
    "time": "2012-06-14"
  },
  {
    "place": "Airport4a19c1def964a520497a1fe3",
    "time": "2012-06-14"
  },
  {
    "place": "Home (private)4e122f9f52b1655efa4ca41b",
    "time": "2012-06-14"
  },
  {
    "place": "Office4dabc60efa8cc7649754b6a8",
    "time": "2012-06-21"
  },
  {
    "place": "Coffee Shop4c11af34a9420f470f4b7d51",
    "time": "2012-06-21"
  },
  {
    "place": "Home (private)4d95d384647d8cfa120ea93d",
    "time": "2012-06-27"
  },
  {
    "place": "Bar4d682ce42ab82d4338bdc7d5",
    "time": "2012-07-01"
  },
  {
    "place": "Diner4a6c86e5f964a520b8d01fe3",
    "time": "2012-07-02"
  },
  {
    "place": "Other Great Outdoors4ff4271ae4b0b8fda8c37cc8",
    "time": "2012-07-04"
  },
  {
    "place": "Road4c23f760f7ced13a9e1f226d",
    "time": "2012-07-05"
  },
  {
    "place": "Office4dabc60efa8cc7649754b6a8",
    "time": "2012-07-09"
  },
  {
    "place": "Home (private)4d95d384647d8cfa120ea93d",
    "time": "2012-07-15"
  },
  {
    "place": "Government Building4e1af59e2271aba9379a20fb",
    "time": "2012-07-24"
  },
  {
    "place": "Government Building4e6f4e7f88779c905de4b906",
    "time": "2012-09-13"
  },
  {
    "place": "Office4dabc60efa8cc7649754b6a8",
    "time": "2012-09-15"
  },
  {
    "place": "Parking4ebbd2fce300a32c185f05c1",
    "time": "2012-10-16"
  },
  {
    "place": "Home (private)4d95d384647d8cfa120ea93d",
    "time": "2013-01-26"
  }
]