[
  {
    "place": "Gym / Fitness Center4721e78af964a520c94b1fe3",
    "time": "2012-04-04"
  },
  {
    "place": "Department Store49cbb6f9f964a5200f591fe3",
    "time": "2012-04-04"
  },
  {
    "place": "Department Store4531059cf964a520683b1fe3",
    "time": "2012-04-06"
  },
  {
    "place": "Bagel Shop4db462a2fa8c350240e3f2a2",
    "time": "2012-04-07"
  },
  {
    "place": "Garden42717900f964a5206f211fe3",
    "time": "2012-04-07"
  },
  {
    "place": "Flea Market4839a8ddf964a5200e501fe3",
    "time": "2012-04-07"
  },
  {
    "place": "Home (private)4eee98c9722ea776190b2867",
    "time": "2012-04-08"
  },
  {
    "place": "Gym / Fitness Center4a854ca7f964a52029fe1fe3",
    "time": "2012-04-13"
  },
  {
    "place": "Clothing Store4b57199af964a520612628e3",
    "time": "2012-04-13"
  },
  {
    "place": "Bar4c9bb662e9a7ef3bd0ed2e16",
    "time": "2012-04-14"
  },
  {
    "place": "Bar4ed34551754ad8083f6fd853",
    "time": "2012-04-14"
  },
  {
    "place": "Park42893400f964a52052231fe3",
    "time": "2012-04-14"
  },
  {
    "place": "Bar4c056685d3842d7fea21be41",
    "time": "2012-04-15"
  },
  {
    "place": "Bar41536380f964a520151d1fe3",
    "time": "2012-04-15"
  },
  {
    "place": "Department Store4531059cf964a520683b1fe3",
    "time": "2012-04-16"
  },
  {
    "place": "Department Store4531059cf964a520683b1fe3",
    "time": "2012-04-17"
  },
  {
    "place": "Department Store4576ddcaf964a520ac3e1fe3",
    "time": "2012-04-17"
  },
  {
    "place": "Gym / Fitness Center4a854ca7f964a52029fe1fe3",
    "time": "2012-04-20"
  },
  {
    "place": "Clothing Store4b57199af964a520612628e3",
    "time": "2012-04-20"
  },
  {
    "place": "Department Store4531059cf964a520683b1fe3",
    "time": "2012-04-20"
  },
  {
    "place": "Department Store4531059cf964a520683b1fe3",
    "time": "2012-04-23"
  },
  {
    "place": "Greek Restaurant4c91772e57e5b60cfa25611c",
    "time": "2012-04-23"
  },
  {
    "place": "Department Store4531059cf964a520683b1fe3",
    "time": "2012-04-24"
  },
  {
    "place": "Theater4a9f0838f964a5204c3c20e3",
    "time": "2012-04-24"
  },
  {
    "place": "Gym / Fitness Center4721e78af964a520c94b1fe3",
    "time": "2012-04-27"
  },
  {
    "place": "Department Store4576ddcaf964a520ac3e1fe3",
    "time": "2012-05-01"
  },
  {
    "place": "Burger Joint40e74880f964a520150a1fe3",
    "time": "2012-05-01"
  },
  {
    "place": "Gym / Fitness Center4a854ca7f964a52029fe1fe3",
    "time": "2012-05-04"
  },
  {
    "place": "Clothing Store4b57199af964a520612628e3",
    "time": "2012-05-04"
  },
  {
    "place": "Movie Theater4a4138ebf964a520f9a41fe3",
    "time": "2012-05-04"
  },
  {
    "place": "Movie Theater4a4138ebf964a520f9a41fe3",
    "time": "2012-05-04"
  },
  {
    "place": "Furniture / Home Store4fa41f51e4b02e6a5463437c",
    "time": "2012-05-05"
  },
  {
    "place": "Caf\u00c3\u00a94adc5ed9f964a520e42b21e3",
    "time": "2012-05-05"
  },
  {
    "place": "Mexican Restaurant4fa4a231e4b09571de93b9a7",
    "time": "2012-05-05"
  },
  {
    "place": "Park42893400f964a52052231fe3",
    "time": "2012-05-06"
  },
  {
    "place": "Food Truck4c76eb14947ca1cd15ce4537",
    "time": "2012-05-06"
  },
  {
    "place": "Home (private)4e83c7878231976d620df09e",
    "time": "2012-05-06"
  },
  {
    "place": "Mexican Restaurant3fd66200f964a5205ee31ee3",
    "time": "2012-05-07"
  },
  {
    "place": "Department Store4531059cf964a520683b1fe3",
    "time": "2012-05-07"
  },
  {
    "place": "Asian Restaurant440754f8f964a5204d301fe3",
    "time": "2012-05-07"
  },
  {
    "place": "Department Store4531059cf964a520683b1fe3",
    "time": "2012-05-09"
  },
  {
    "place": "Department Store4577fb0bf964a520b03e1fe3",
    "time": "2012-05-09"
  },
  {
    "place": "Department Store49cbb6f9f964a5200f591fe3",
    "time": "2012-05-09"
  },
  {
    "place": "Gym / Fitness Center4a854ca7f964a52029fe1fe3",
    "time": "2012-05-11"
  },
  {
    "place": "Department Store4576ddcaf964a520ac3e1fe3",
    "time": "2012-05-11"
  },
  {
    "place": "Bar4ed34551754ad8083f6fd853",
    "time": "2012-05-11"
  },
  {
    "place": "Gym / Fitness Center4a0f35e8f964a52040761fe3",
    "time": "2012-05-13"
  },
  {
    "place": "Park3fd66200f964a520def11ee3",
    "time": "2012-05-13"
  },
  {
    "place": "Movie Theater43df8ad6f964a520b92e1fe3",
    "time": "2012-05-13"
  },
  {
    "place": "Movie Theater43df8ad6f964a520b92e1fe3",
    "time": "2012-05-13"
  },
  {
    "place": "Department Store4531059cf964a520683b1fe3",
    "time": "2012-05-16"
  },
  {
    "place": "Gym / Fitness Center4721e78af964a520c94b1fe3",
    "time": "2012-05-17"
  },
  {
    "place": "Department Store4531059cf964a520683b1fe3",
    "time": "2012-05-17"
  },
  {
    "place": "Gym / Fitness Center4721e78af964a520c94b1fe3",
    "time": "2012-05-18"
  },
  {
    "place": "Department Store4531059cf964a520683b1fe3",
    "time": "2012-05-18"
  },
  {
    "place": "Clothing Store4b69ab96f964a52068ac2be3",
    "time": "2012-05-18"
  },
  {
    "place": "Mall4ddfd7107d8b04e50266d1cf",
    "time": "2012-05-19"
  },
  {
    "place": "Ferry4c35f1eced37a5931f467103",
    "time": "2012-05-19"
  },
  {
    "place": "Department Store4531059cf964a520683b1fe3",
    "time": "2012-05-21"
  },
  {
    "place": "Home (private)4eee98c9722ea776190b2867",
    "time": "2012-05-21"
  },
  {
    "place": "Department Store49cbb6f9f964a5200f591fe3",
    "time": "2012-05-22"
  },
  {
    "place": "Department Store4576ddcaf964a520ac3e1fe3",
    "time": "2012-05-23"
  },
  {
    "place": "Department Store49cbb6f9f964a5200f591fe3",
    "time": "2012-05-23"
  },
  {
    "place": "Home (private)4eee98c9722ea776190b2867",
    "time": "2012-05-24"
  },
  {
    "place": "Plaza49b7ed6df964a52030531fe3",
    "time": "2012-05-25"
  },
  {
    "place": "Plaza4ad507bff964a520660121e3",
    "time": "2012-05-26"
  },
  {
    "place": "Park40f1d480f964a5206a0a1fe3",
    "time": "2012-05-28"
  },
  {
    "place": "Moving Target4fbfe16ae4b05190680fe0b1",
    "time": "2012-05-28"
  },
  {
    "place": "Home (private)4eee98c9722ea776190b2867",
    "time": "2012-05-29"
  },
  {
    "place": "Department Store4577fb0bf964a520b03e1fe3",
    "time": "2012-05-29"
  },
  {
    "place": "French Restaurant4531f77cf964a520753b1fe3",
    "time": "2012-05-29"
  },
  {
    "place": "Pizza Place45fd4112f964a52078441fe3",
    "time": "2012-05-29"
  },
  {
    "place": "Gym / Fitness Center4558b83bf964a5204b3d1fe3",
    "time": "2012-05-29"
  },
  {
    "place": "Department Store4b5b6c8af964a520f7fc28e3",
    "time": "2012-05-31"
  },
  {
    "place": "Department Store49cbb6f9f964a5200f591fe3",
    "time": "2012-05-31"
  },
  {
    "place": "Miscellaneous Shop4bc8ed16511f9521fab2acc7",
    "time": "2012-05-31"
  },
  {
    "place": "Beer Garden481a14a5f964a520734f1fe3",
    "time": "2012-05-31"
  },
  {
    "place": "Department Store4531059cf964a520683b1fe3",
    "time": "2012-06-01"
  },
  {
    "place": "Department Store4531059cf964a520683b1fe3",
    "time": "2012-06-01"
  },
  {
    "place": "Movie Theater453cacc7f964a520153c1fe3",
    "time": "2012-06-02"
  },
  {
    "place": "Home (private)4e83c7878231976d620df09e",
    "time": "2012-06-03"
  },
  {
    "place": "Burger Joint4c9a8eccd4b1b1f7314dd135",
    "time": "2012-06-03"
  },
  {
    "place": "Clothing Store4b57199af964a520612628e3",
    "time": "2012-06-03"
  },
  {
    "place": "Home (private)4eee98c9722ea776190b2867",
    "time": "2012-06-04"
  },
  {
    "place": "Home (private)4e83c7878231976d620df09e",
    "time": "2012-06-04"
  },
  {
    "place": "Home (private)4eee98c9722ea776190b2867",
    "time": "2012-06-04"
  },
  {
    "place": "Coffee Shop49e644c6f964a5202f641fe3",
    "time": "2012-06-06"
  },
  {
    "place": "Clothing Store4b57199af964a520612628e3",
    "time": "2012-06-06"
  },
  {
    "place": "French Restaurant3fd66200f964a52070e91ee3",
    "time": "2012-06-06"
  },
  {
    "place": "Bar4acbd878f964a520ffc720e3",
    "time": "2012-06-06"
  },
  {
    "place": "Park40b68100f964a5207d001fe3",
    "time": "2012-06-07"
  },
  {
    "place": "Gym / Fitness Center4558b83bf964a5204b3d1fe3",
    "time": "2012-06-07"
  },
  {
    "place": "Bakery4e7393931495dffb8efa57da",
    "time": "2012-06-07"
  },
  {
    "place": "Taxi4f7744eae4b04210829b8409",
    "time": "2012-06-07"
  },
  {
    "place": "Clothing Store4b57199af964a520612628e3",
    "time": "2012-06-08"
  },
  {
    "place": "Burrito Place4a65fca9f964a520d3c71fe3",
    "time": "2012-06-09"
  },
  {
    "place": "Bar3fd66200f964a52023e41ee3",
    "time": "2012-06-09"
  },
  {
    "place": "Bar3fd66200f964a520f4e61ee3",
    "time": "2012-06-10"
  },
  {
    "place": "Subway4ad8fa6ef964a520ac1621e3",
    "time": "2012-06-10"
  },
  {
    "place": "Home (private)4eee98c9722ea776190b2867",
    "time": "2012-06-10"
  },
  {
    "place": "Home (private)4e83c7878231976d620df09e",
    "time": "2012-06-10"
  },
  {
    "place": "Clothing Store4b57199af964a520612628e3",
    "time": "2012-06-11"
  },
  {
    "place": "Department Store4531059cf964a520683b1fe3",
    "time": "2012-06-11"
  },
  {
    "place": "Clothing Store4b57199af964a520612628e3",
    "time": "2012-06-12"
  },
  {
    "place": "Coffee Shop49e644c6f964a5202f641fe3",
    "time": "2012-06-12"
  },
  {
    "place": "Department Store4531059cf964a520683b1fe3",
    "time": "2012-06-13"
  },
  {
    "place": "Coffee Shop4ae8495ef964a5207fae21e3",
    "time": "2012-06-13"
  },
  {
    "place": "Gym / Fitness Center4558b83bf964a5204b3d1fe3",
    "time": "2012-06-13"
  }
]