[
  {
    "place": "College Academic Building4d5d97c5e0ffa1cdb7fb1c54",
    "time": "2012-04-03"
  },
  {
    "place": "Subway4b3bef0df964a520bb7e25e3",
    "time": "2012-04-04"
  },
  {
    "place": "College Academic Building4b7dbeaff964a520fcd12fe3",
    "time": "2012-04-04"
  },
  {
    "place": "Video Game Store4b637936f964a5209d7c2ae3",
    "time": "2012-04-07"
  },
  {
    "place": "Building4e33a32c1838df3b5f70dbbb",
    "time": "2012-04-11"
  },
  {
    "place": "Coffee Shop4aaadceff964a520c35720e3",
    "time": "2012-04-13"
  },
  {
    "place": "Subway4b3bef0df964a520bb7e25e3",
    "time": "2012-05-03"
  },
  {
    "place": "College Academic Building4b7dbeaff964a520fcd12fe3",
    "time": "2012-05-03"
  },
  {
    "place": "Home (private)4bd196d7a8b3a593f2ee655f",
    "time": "2012-05-04"
  },
  {
    "place": "Building4e33a32c1838df3b5f70dbbb",
    "time": "2012-05-04"
  },
  {
    "place": "Park4cc43153806246887cdf342f",
    "time": "2012-05-05"
  },
  {
    "place": "Clothing Store4a60ea22f964a52076c11fe3",
    "time": "2012-05-06"
  },
  {
    "place": "Vietnamese Restaurant4388f700f964a520162b1fe3",
    "time": "2012-05-06"
  },
  {
    "place": "Subway4b3bef0df964a520bb7e25e3",
    "time": "2012-05-07"
  },
  {
    "place": "College Academic Building4e25a81fd4c0d18a28a82f08",
    "time": "2012-05-09"
  },
  {
    "place": "Bakery4b8d22ccf964a520aae932e3",
    "time": "2012-05-11"
  },
  {
    "place": "College Academic Building4b7dbeaff964a520fcd12fe3",
    "time": "2012-05-11"
  },
  {
    "place": "Chinese Restaurant4ba10d69f964a520db9237e3",
    "time": "2012-05-11"
  },
  {
    "place": "College Academic Building4c4dcef2f53d0f4736249aa5",
    "time": "2012-05-12"
  },
  {
    "place": "Coffee Shop4af8f192f964a5209f1022e3",
    "time": "2012-05-15"
  },
  {
    "place": "Donut Shop4c4b15acc668e21e8d0094f9",
    "time": "2012-07-02"
  },
  {
    "place": "Hotel4aca4863f964a52036c120e3",
    "time": "2012-07-02"
  },
  {
    "place": "American Restaurant4bf16d7aef99c9b6c8495b42",
    "time": "2012-07-02"
  },
  {
    "place": "Subway4ad684abf964a520970721e3",
    "time": "2012-07-02"
  },
  {
    "place": "Coffee Shop4b5657bcf964a520550c28e3",
    "time": "2012-07-03"
  },
  {
    "place": "Park4cc43153806246887cdf342f",
    "time": "2012-07-04"
  },
  {
    "place": "Subway4b3bef0df964a520bb7e25e3",
    "time": "2012-07-04"
  },
  {
    "place": "Subway4b3bef0df964a520bb7e25e3",
    "time": "2012-07-05"
  },
  {
    "place": "Pizza Place4c4c6ad09c8d2d7f3f3c656c",
    "time": "2012-07-05"
  },
  {
    "place": "Subway4b3bef0df964a520bb7e25e3",
    "time": "2012-07-06"
  },
  {
    "place": "Hotel4e754ddafa76059700f5d0b3",
    "time": "2012-07-06"
  },
  {
    "place": "Mediterranean Restaurant4be9872661aca59346a28200",
    "time": "2012-07-06"
  },
  {
    "place": "Subway4b3bef0df964a520bb7e25e3",
    "time": "2012-07-06"
  },
  {
    "place": "Bar4fc98019e4b0ddddfbb5eeaa",
    "time": "2012-07-07"
  },
  {
    "place": "Neighborhood4c40d645520fa59375b2c8ac",
    "time": "2012-07-07"
  },
  {
    "place": "Electronics Store4b926fb8f964a52064f933e3",
    "time": "2012-07-07"
  },
  {
    "place": "Bar4fc98019e4b0ddddfbb5eeaa",
    "time": "2012-07-07"
  },
  {
    "place": "Donut Shop4c4b15acc668e21e8d0094f9",
    "time": "2012-07-08"
  },
  {
    "place": "Chinese Restaurant4e150438e4cded561124f27e",
    "time": "2012-07-08"
  },
  {
    "place": "Subway4b3bef0df964a520bb7e25e3",
    "time": "2012-07-09"
  },
  {
    "place": "Hotel4e754ddafa76059700f5d0b3",
    "time": "2012-07-09"
  },
  {
    "place": "Mediterranean Restaurant4be9872661aca59346a28200",
    "time": "2012-07-09"
  },
  {
    "place": "Subway4b3bef0df964a520bb7e25e3",
    "time": "2012-07-09"
  },
  {
    "place": "Neighborhood4bd5e59f6f649521b7e86fec",
    "time": "2012-07-09"
  },
  {
    "place": "Subway4b3bef0df964a520bb7e25e3",
    "time": "2012-07-11"
  },
  {
    "place": "Coffee Shop4b58f22af964a520c07428e3",
    "time": "2012-07-11"
  },
  {
    "place": "Mediterranean Restaurant4be9872661aca59346a28200",
    "time": "2012-07-11"
  },
  {
    "place": "Donut Shop4c4b15acc668e21e8d0094f9",
    "time": "2012-07-12"
  },
  {
    "place": "Deli / Bodega4b06a50af964a52021ee22e3",
    "time": "2012-07-12"
  },
  {
    "place": "Pizza Place4aac0da2f964a520ed5b20e3",
    "time": "2012-07-12"
  },
  {
    "place": "Hotel4e754ddafa76059700f5d0b3",
    "time": "2012-07-12"
  },
  {
    "place": "Caf\u00c3\u00a94aa54f31f964a520f74720e3",
    "time": "2012-07-13"
  },
  {
    "place": "Hotel4e754ddafa76059700f5d0b3",
    "time": "2012-07-13"
  },
  {
    "place": "Coffee Shop4a5b500bf964a520f9ba1fe3",
    "time": "2012-07-13"
  },
  {
    "place": "Home (private)4f1ee508e4b0d35bd7293d6b",
    "time": "2012-07-15"
  },
  {
    "place": "Subway4ad684abf964a520970721e3",
    "time": "2012-07-16"
  },
  {
    "place": "Deli / Bodega4b06a50af964a52021ee22e3",
    "time": "2012-07-16"
  },
  {
    "place": "Donut Shop4c4b15acc668e21e8d0094f9",
    "time": "2012-07-17"
  },
  {
    "place": "Mediterranean Restaurant4be9872661aca59346a28200",
    "time": "2012-07-17"
  },
  {
    "place": "Deli / Bodega4b06a50af964a52021ee22e3",
    "time": "2012-07-24"
  },
  {
    "place": "Bookstore43fe1ba4f964a520f82f1fe3",
    "time": "2012-07-26"
  },
  {
    "place": "Mexican Restaurant4edaa750b6344371f737d93b",
    "time": "2012-07-29"
  },
  {
    "place": "Gym / Fitness Center4b926274f964a520e2f533e3",
    "time": "2012-07-30"
  },
  {
    "place": "Subway4ab05286f964a520116720e3",
    "time": "2012-07-30"
  },
  {
    "place": "Deli / Bodega4b06a50af964a52021ee22e3",
    "time": "2012-07-30"
  },
  {
    "place": "Hotel4e754ddafa76059700f5d0b3",
    "time": "2012-07-30"
  },
  {
    "place": "Subway4b3bef0df964a520bb7e25e3",
    "time": "2012-08-06"
  },
  {
    "place": "Video Game Store4b33b73af964a520a11d25e3",
    "time": "2012-08-10"
  },
  {
    "place": "Subway4a98966ff964a520d42c20e3",
    "time": "2012-08-12"
  },
  {
    "place": "Subway4ad684abf964a520970721e3",
    "time": "2012-08-14"
  },
  {
    "place": "Video Game Store4b33b73af964a520a11d25e3",
    "time": "2012-08-16"
  },
  {
    "place": "Bar49bd50dbf964a52068541fe3",
    "time": "2012-08-17"
  },
  {
    "place": "Salon / Barbershop4d8223db21c0b60c7b4ae76f",
    "time": "2012-08-19"
  },
  {
    "place": "Movie Theater482af93cf964a520cd4f1fe3",
    "time": "2012-08-18"
  },
  {
    "place": "College Academic Building4ac4452df964a5208c9e20e3",
    "time": "2012-09-05"
  },
  {
    "place": "Art Museum427c0500f964a52097211fe3",
    "time": "2012-09-14"
  },
  {
    "place": "Donut Shop4bd4503ca8b3a593a3866b5f",
    "time": "2012-09-15"
  },
  {
    "place": "Pizza Place4a96b116f964a520972620e3",
    "time": "2012-10-03"
  },
  {
    "place": "Bar4fc98019e4b0ddddfbb5eeaa",
    "time": "2012-10-12"
  },
  {
    "place": "Coffee Shop42829c80f964a52025221fe3",
    "time": "2012-10-24"
  },
  {
    "place": "Other Great Outdoors508af9ccf13627e878935855",
    "time": "2012-11-01"
  },
  {
    "place": "Salon / Barbershop4d8223db21c0b60c7b4ae76f",
    "time": "2012-11-01"
  },
  {
    "place": "Subway4ad684abf964a520970721e3",
    "time": "2012-11-05"
  },
  {
    "place": "Indian Restaurant4b9c2ad7f964a520ef5036e3",
    "time": "2012-11-07"
  },
  {
    "place": "Indian Restaurant4a89931df964a520720820e3",
    "time": "2012-11-16"
  },
  {
    "place": "Mexican Restaurant4c89581d52a98cfabc0023e9",
    "time": "2012-11-30"
  },
  {
    "place": "Coffee Shop4d68e1a467a8f04dc75006be",
    "time": "2012-12-01"
  },
  {
    "place": "Food Truck4a19d1edf964a5205a7a1fe3",
    "time": "2012-12-07"
  },
  {
    "place": "Coffee Shop42829c80f964a52025221fe3",
    "time": "2012-12-08"
  },
  {
    "place": "Burger Joint4afb587bf964a5202b1d22e3",
    "time": "2012-12-09"
  },
  {
    "place": "Historic Site50c85b8de4b090305763bf7e",
    "time": "2012-12-22"
  },
  {
    "place": "Bar4e34ee6c18a82fdd657122ce",
    "time": "2012-12-31"
  },
  {
    "place": "Bar4fc98019e4b0ddddfbb5eeaa",
    "time": "2012-12-31"
  },
  {
    "place": "Convenience Store4d0b7ff9f2c1236a25e60157",
    "time": "2013-01-05"
  },
  {
    "place": "Movie Theater45ac1361f964a5205f411fe3",
    "time": "2013-01-06"
  },
  {
    "place": "Neighborhood4bd5e59f6f649521b7e86fec",
    "time": "2013-01-07"
  },
  {
    "place": "Park412d2800f964a520df0c1fe3",
    "time": "2013-01-07"
  },
  {
    "place": "Department Store4de3cbd8e4cd056f74638556",
    "time": "2013-01-07"
  },
  {
    "place": "Donut Shop4c4b15acc668e21e8d0094f9",
    "time": "2013-01-10"
  },
  {
    "place": "University444bb024f964a5207b321fe3",
    "time": "2013-01-11"
  },
  {
    "place": "Donut Shop4c4b15acc668e21e8d0094f9",
    "time": "2013-01-13"
  },
  {
    "place": "Medical Center4c98afa02778224bbb0ea668",
    "time": "2013-01-18"
  },
  {
    "place": "Other Great Outdoors4f14a4cfe4b0380205e25399",
    "time": "2013-01-25"
  },
  {
    "place": "College Academic Building4bd59ac07b1876b01af98a86",
    "time": "2013-02-07"
  }
]