[
  {
    "place": "General Entertainment4f819cbae4b02f45811404ba",
    "time": "2012-04-08"
  },
  {
    "place": "Bar43b6a31df964a520cb2c1fe3",
    "time": "2012-04-08"
  },
  {
    "place": "Office4b8c3293f964a520a0c332e3",
    "time": "2012-04-10"
  },
  {
    "place": "Bar428d2880f964a520c1231fe3",
    "time": "2012-04-12"
  },
  {
    "place": "Burger Joint49d8c05df964a520c95d1fe3",
    "time": "2012-04-12"
  },
  {
    "place": "Thai Restaurant3fd66200f964a520a9f11ee3",
    "time": "2012-04-14"
  },
  {
    "place": "Indian Restaurant4db0b0184b22ba776d7414c2",
    "time": "2012-04-15"
  },
  {
    "place": "Bridge4a43bd40f964a520bfa61fe3",
    "time": "2012-04-15"
  },
  {
    "place": "General Entertainment4c6eecd49375a093eb5c0237",
    "time": "2012-04-17"
  },
  {
    "place": "Chinese Restaurant4ac38216f964a520929b20e3",
    "time": "2012-04-17"
  },
  {
    "place": "General Entertainment4eef476ce5faa560f33a6e4a",
    "time": "2012-04-18"
  },
  {
    "place": "University499dea48f964a5208c521fe3",
    "time": "2012-04-18"
  },
  {
    "place": "Art Gallery4bf16a0ef70dc9b69ad58581",
    "time": "2012-04-19"
  },
  {
    "place": "Bar4e43461d1f6e0a1ba5d00d60",
    "time": "2012-04-19"
  },
  {
    "place": "Office4ba8fa3df964a520ecff39e3",
    "time": "2012-04-25"
  },
  {
    "place": "Bar4b6b8540f964a520be0d2ce3",
    "time": "2012-04-28"
  },
  {
    "place": "Art Museum49d6de35f964a520085d1fe3",
    "time": "2012-04-29"
  },
  {
    "place": "Stadium49d60947f964a520a85c1fe3",
    "time": "2012-05-01"
  },
  {
    "place": "Hotel4b7eec6ff964a520c00930e3",
    "time": "2012-05-03"
  },
  {
    "place": "Burger Joint3fd66200f964a520fbe71ee3",
    "time": "2012-05-04"
  },
  {
    "place": "Salon / Barbershop4b5286def964a520168127e3",
    "time": "2012-05-04"
  },
  {
    "place": "Ice Cream Shop4f356964e4b051869fea488c",
    "time": "2012-05-06"
  },
  {
    "place": "Office4d7805b7a7e6b1f7a69e2edf",
    "time": "2012-05-08"
  },
  {
    "place": "Office4d2f10886fc6f04dfcd18645",
    "time": "2012-05-10"
  },
  {
    "place": "Bar4b513073f964a5209b4627e3",
    "time": "2012-05-10"
  },
  {
    "place": "Bar4c17d49650389c749264b3cf",
    "time": "2012-05-11"
  },
  {
    "place": "Burger Joint49d8c05df964a520c95d1fe3",
    "time": "2012-05-11"
  },
  {
    "place": "Falafel Restaurant4e013da1b61c900450048283",
    "time": "2012-05-12"
  },
  {
    "place": "Sushi Restaurant4be605cdcf200f47051d143c",
    "time": "2012-05-14"
  },
  {
    "place": "Spa / Massage4ce99bec8ef78cfa8cf2a19b",
    "time": "2012-05-15"
  },
  {
    "place": "Hotel49d18dfdf964a5208f5b1fe3",
    "time": "2012-05-15"
  },
  {
    "place": "General Entertainment4fb2eabae4b0e9a98cffd990",
    "time": "2012-05-15"
  },
  {
    "place": "Hotel4b17f7bef964a52079ca23e3",
    "time": "2012-05-16"
  },
  {
    "place": "Food & Drink Shop4bfd7c4bb68d0f4785dbe857",
    "time": "2012-05-17"
  },
  {
    "place": "Government Building4b4f967af964a520860c27e3",
    "time": "2012-05-17"
  },
  {
    "place": "Thai Restaurant4b2acab2f964a520beaf24e3",
    "time": "2012-05-17"
  },
  {
    "place": "Bank4b194d68f964a520ebda23e3",
    "time": "2012-05-17"
  },
  {
    "place": "Medical Center4f3ac1c0e4b0039c25c5b3ac",
    "time": "2012-05-18"
  },
  {
    "place": "Sushi Restaurant43c16dcdf964a520402d1fe3",
    "time": "2012-05-18"
  },
  {
    "place": "Park4dd5b29781dcd5bca59494d9",
    "time": "2012-05-19"
  },
  {
    "place": "Korean Restaurant3fd66200f964a520c4e31ee3",
    "time": "2012-05-21"
  },
  {
    "place": "American Restaurant4f09eb10e4b0fcefaa0c085a",
    "time": "2012-05-21"
  },
  {
    "place": "Seafood Restaurant4144e300f964a520a51c1fe3",
    "time": "2012-05-21"
  },
  {
    "place": "Airport4ace6c89f964a52078d020e3",
    "time": "2012-05-29"
  },
  {
    "place": "General Entertainment4c6eecd49375a093eb5c0237",
    "time": "2012-05-29"
  },
  {
    "place": "Middle Eastern Restaurant46cc42c7f964a520384a1fe3",
    "time": "2012-05-31"
  },
  {
    "place": "Brewery3fd66200f964a5201beb1ee3",
    "time": "2012-06-01"
  },
  {
    "place": "Art Museum421a7600f964a5209d1f1fe3",
    "time": "2012-06-04"
  },
  {
    "place": "Gym / Fitness Center4adf1930f964a5208a7721e3",
    "time": "2012-06-05"
  },
  {
    "place": "Office4d53e91365586ea8657770c8",
    "time": "2012-06-06"
  },
  {
    "place": "Office4d2f10886fc6f04dfcd18645",
    "time": "2012-06-07"
  },
  {
    "place": "University499dea48f964a5208c521fe3",
    "time": "2012-06-07"
  },
  {
    "place": "Thai Restaurant4b2acab2f964a520beaf24e3",
    "time": "2012-06-08"
  },
  {
    "place": "Athletic & Sport4fd30649d5fb9c29e782d410",
    "time": "2012-06-09"
  },
  {
    "place": "Neighborhood4b79cb4af964a5207a122fe3",
    "time": "2012-06-10"
  },
  {
    "place": "Office4f7a104ae4b0f80bafb5224e",
    "time": "2012-06-13"
  },
  {
    "place": "Office4d53e91365586ea8657770c8",
    "time": "2012-06-13"
  },
  {
    "place": "Event Space4b7dd584f964a52032d72fe3",
    "time": "2012-06-18"
  },
  {
    "place": "Shop & Service50241ed7e4b088dba7bc0550",
    "time": "2012-08-09"
  },
  {
    "place": "Office4b8c3293f964a520a0c332e3",
    "time": "2012-08-10"
  },
  {
    "place": "Bar4aaa663bf964a520d65520e3",
    "time": "2012-08-11"
  },
  {
    "place": "Other Great Outdoors501cff08e4b05e0d955376ea",
    "time": "2012-08-11"
  },
  {
    "place": "Travel Lounge501d3c31e4b0c3028609cc2b",
    "time": "2012-08-12"
  },
  {
    "place": "American Restaurant4d05145737036dcb3f9614fb",
    "time": "2012-08-13"
  },
  {
    "place": "Food & Drink Shop4b46b35ef964a520062726e3",
    "time": "2012-08-14"
  },
  {
    "place": "Hotel4b17f7bef964a52079ca23e3",
    "time": "2012-08-14"
  },
  {
    "place": "Office4b8c3293f964a520a0c332e3",
    "time": "2012-08-16"
  },
  {
    "place": "Park4b81ea40f964a520e0c330e3",
    "time": "2012-08-16"
  },
  {
    "place": "American Restaurant4e6aa7f6b0fb8b8a844e3ce5",
    "time": "2012-08-17"
  },
  {
    "place": "Convention Center4283ee00f964a5209d221fe3",
    "time": "2012-08-19"
  },
  {
    "place": "Bakery502e9afee4b047ef9a10a8d0",
    "time": "2012-08-17"
  },
  {
    "place": "Burger Joint49d8c05df964a520c95d1fe3",
    "time": "2012-08-17"
  },
  {
    "place": "Jewelry Store4b2d9f46f964a520b7d924e3",
    "time": "2012-08-18"
  },
  {
    "place": "Park43222200f964a5209a271fe3",
    "time": "2012-08-18"
  },
  {
    "place": "Coffee Shop4a08a6eaf964a52003741fe3",
    "time": "2012-09-05"
  },
  {
    "place": "Harbor / Marina46ac520df964a52071491fe3",
    "time": "2012-09-14"
  },
  {
    "place": "Office4d2f10886fc6f04dfcd18645",
    "time": "2012-10-11"
  },
  {
    "place": "Italian Restaurant4e1e181bb61c431b61ba7663",
    "time": "2012-10-11"
  },
  {
    "place": "Thai Restaurant4b2acab2f964a520beaf24e3",
    "time": "2012-10-12"
  },
  {
    "place": "Athletic & Sport50794460e4b01b4179ee4ced",
    "time": "2012-10-13"
  },
  {
    "place": "Hotel49ccb6e0f964a5208a591fe3",
    "time": "2012-10-16"
  },
  {
    "place": "Hotel4a415164f964a5201ca51fe3",
    "time": "2012-10-18"
  },
  {
    "place": "Hotel4b5f7f20f964a520c9bd29e3",
    "time": "2012-10-18"
  },
  {
    "place": "Convention Center4283ee00f964a5209d221fe3",
    "time": "2012-10-19"
  },
  {
    "place": "Hotel4a9f2ec3f964a520d73c20e3",
    "time": "2012-10-22"
  },
  {
    "place": "University499dea48f964a5208c521fe3",
    "time": "2012-10-22"
  },
  {
    "place": "Pet Store4a1dd407f964a5209c7b1fe3",
    "time": "2012-10-23"
  },
  {
    "place": "Convention Center4283ee00f964a5209d221fe3",
    "time": "2012-10-25"
  },
  {
    "place": "Shop & Service50241ed7e4b088dba7bc0550",
    "time": "2012-10-27"
  },
  {
    "place": "University499dea48f964a5208c521fe3",
    "time": "2012-11-05"
  },
  {
    "place": "Bar42accc80f964a52047251fe3",
    "time": "2012-11-11"
  },
  {
    "place": "American Restaurant4f18bd1be4b0bb77e5bcef15",
    "time": "2012-11-12"
  },
  {
    "place": "Dessert Shop4ff0ec8ee4b08cbcb87a4e6b",
    "time": "2012-11-12"
  },
  {
    "place": "Office4c0026a8c30a2d7f761a121d",
    "time": "2012-11-13"
  },
  {
    "place": "Seafood Restaurant3fd66200f964a52015e91ee3",
    "time": "2012-11-13"
  },
  {
    "place": "Thai Restaurant4b2acab2f964a520beaf24e3",
    "time": "2012-11-15"
  },
  {
    "place": "Salon / Barbershop4a4c5d60f964a52031ad1fe3",
    "time": "2012-11-16"
  },
  {
    "place": "Event Space4b96ff1af964a52091f234e3",
    "time": "2012-11-17"
  },
  {
    "place": "Office4f7a104ae4b0f80bafb5224e",
    "time": "2012-11-19"
  },
  {
    "place": "Bar4f220a03e4b0c41c502b2ec5",
    "time": "2012-11-21"
  },
  {
    "place": "Bar4b6b8540f964a520be0d2ce3",
    "time": "2012-11-21"
  },
  {
    "place": "Bar4c1c3d1ce9c4ef3bd6c845aa",
    "time": "2012-11-23"
  },
  {
    "place": "Bar40cf8d80f964a5202b011fe3",
    "time": "2012-11-25"
  },
  {
    "place": "Dessert Shop4ff0ec8ee4b08cbcb87a4e6b",
    "time": "2012-11-26"
  },
  {
    "place": "General Entertainment4ed3eed3be7b9eece415a8cb",
    "time": "2012-11-26"
  },
  {
    "place": "Medical Center4b8ff261f964a520616b33e3",
    "time": "2012-11-27"
  },
  {
    "place": "Ferry4165d880f964a5207e1d1fe3",
    "time": "2012-11-27"
  },
  {
    "place": "Office4b8c3293f964a520a0c332e3",
    "time": "2012-11-28"
  },
  {
    "place": "Diner4a0c2e14f964a52013751fe3",
    "time": "2012-12-04"
  },
  {
    "place": "Building4af0cb26f964a5203edf21e3",
    "time": "2012-12-04"
  },
  {
    "place": "Office4d53e91365586ea8657770c8",
    "time": "2012-12-05"
  },
  {
    "place": "Train Station4aa5c657f964a5206d4920e3",
    "time": "2012-12-06"
  },
  {
    "place": "Office4d2f10886fc6f04dfcd18645",
    "time": "2012-12-06"
  },
  {
    "place": "Seafood Restaurant4144e300f964a520a51c1fe3",
    "time": "2012-12-07"
  },
  {
    "place": "Dessert Shop4ff0ec8ee4b08cbcb87a4e6b",
    "time": "2012-12-10"
  },
  {
    "place": "Office4d53e91365586ea8657770c8",
    "time": "2012-12-10"
  },
  {
    "place": "Restaurant4a7e340cf964a5206cf11fe3",
    "time": "2012-12-11"
  },
  {
    "place": "Gym / Fitness Center4a6bbfd3f964a520d3cf1fe3",
    "time": "2012-12-15"
  },
  {
    "place": "Other Nightlife4d0382fa30a58cfa181399e7",
    "time": "2012-12-15"
  },
  {
    "place": "Bar4acfd8bef964a52069d620e3",
    "time": "2012-12-15"
  },
  {
    "place": "Middle Eastern Restaurant4aac6505f964a520cd5d20e3",
    "time": "2012-12-19"
  },
  {
    "place": "Train Station4a513b17f964a520d2b01fe3",
    "time": "2012-12-19"
  },
  {
    "place": "Korean Restaurant50735d5fe4b0d30a5e55206d",
    "time": "2012-12-20"
  },
  {
    "place": "Train Station4e3ab921b3ade614e1275a0c",
    "time": "2012-12-21"
  },
  {
    "place": "Gym / Fitness Center4558b83bf964a5204b3d1fe3",
    "time": "2013-01-04"
  },
  {
    "place": "Gym / Fitness Center4a6bbfd3f964a520d3cf1fe3",
    "time": "2013-01-05"
  },
  {
    "place": "Building4af0cb26f964a5203edf21e3",
    "time": "2013-01-09"
  },
  {
    "place": "Office4d2f10886fc6f04dfcd18645",
    "time": "2013-01-09"
  },
  {
    "place": "Gym / Fitness Center4f25a752e4b04d36df2a3c8c",
    "time": "2013-01-12"
  },
  {
    "place": "Office4f4292f6e4b0f4a9fc949666",
    "time": "2013-01-14"
  },
  {
    "place": "Indian Restaurant50e5c5a2e4b035f761f9df9f",
    "time": "2013-01-24"
  },
  {
    "place": "Building4af0cb26f964a5203edf21e3",
    "time": "2013-01-30"
  },
  {
    "place": "Japanese Restaurant4ef0d81fbe7ba3ed7c2296d2",
    "time": "2013-01-31"
  },
  {
    "place": "Building4af0cb26f964a5203edf21e3",
    "time": "2013-01-31"
  },
  {
    "place": "Italian Restaurant4a006e57f964a5207e701fe3",
    "time": "2013-01-31"
  },
  {
    "place": "Thai Restaurant4a6e1308f964a520d8d31fe3",
    "time": "2013-02-06"
  },
  {
    "place": "Office4f4292f6e4b0f4a9fc949666",
    "time": "2013-02-06"
  },
  {
    "place": "Bar49d0cb5ff964a520315b1fe3",
    "time": "2013-02-07"
  },
  {
    "place": "Office4d2f10886fc6f04dfcd18645",
    "time": "2013-02-12"
  }
]