[
  {
    "place": "Plaza4bcfc1fc9854d13abec4f64d",
    "time": "2012-04-13"
  },
  {
    "place": "Diner3fd66200f964a5204ee41ee3",
    "time": "2012-04-13"
  },
  {
    "place": "Office4f69f8abe4b0e2bc717825b0",
    "time": "2012-04-13"
  },
  {
    "place": "Plaza4bcfc1fc9854d13abec4f64d",
    "time": "2012-04-15"
  },
  {
    "place": "Coffee Shop4b217496f964a5201c3c24e3",
    "time": "2012-05-03"
  },
  {
    "place": "Office4f13c311e4b072565f06a00f",
    "time": "2012-05-03"
  },
  {
    "place": "Clothing Store4bff9551369476b029fc8d1f",
    "time": "2012-05-13"
  },
  {
    "place": "Subway4b244b63f964a520766524e3",
    "time": "2012-05-14"
  },
  {
    "place": "Bus Station4c81387e51ada1cd08ba1010",
    "time": "2012-05-14"
  },
  {
    "place": "Airport4ab7dc6ef964a5202d7b20e3",
    "time": "2012-05-14"
  },
  {
    "place": "Airport4ace6c89f964a52078d020e3",
    "time": "2012-05-16"
  },
  {
    "place": "Coffee Shop45c76421f964a52066421fe3",
    "time": "2012-05-16"
  },
  {
    "place": "Office4a8ca7e6f964a520d10e20e3",
    "time": "2012-05-16"
  },
  {
    "place": "American Restaurant4a01d7b8f964a52001711fe3",
    "time": "2012-05-16"
  },
  {
    "place": "Smoke Shop4b4fd6d6f964a5203b1727e3",
    "time": "2012-05-26"
  },
  {
    "place": "Hotel4da5dd2fcda1c55f755f88c5",
    "time": "2012-06-04"
  },
  {
    "place": "Italian Restaurant4adce863f964a5206c6221e3",
    "time": "2012-06-05"
  },
  {
    "place": "Event Space4fccf8d8e4b06c8db46f8cb2",
    "time": "2012-06-05"
  },
  {
    "place": "General Entertainment4fcfd213e4b036a250ac537c",
    "time": "2012-06-06"
  },
  {
    "place": "Event Space4fccf8d8e4b06c8db46f8cb2",
    "time": "2012-06-07"
  },
  {
    "place": "Convention Center4283ee00f964a5209d221fe3",
    "time": "2012-06-07"
  },
  {
    "place": "Bar488deef8f964a52058511fe3",
    "time": "2012-06-07"
  },
  {
    "place": "Convention Center4fbebe411081ad37389f3d15",
    "time": "2012-06-07"
  },
  {
    "place": "Subway4b244b63f964a520766524e3",
    "time": "2012-06-09"
  },
  {
    "place": "University4a494ce4f964a5202cab1fe3",
    "time": "2012-06-09"
  },
  {
    "place": "Event Space4573c09bf964a520893e1fe3",
    "time": "2012-06-20"
  },
  {
    "place": "Bar40a2ba80f964a5200ff31ee3",
    "time": "2012-06-21"
  },
  {
    "place": "Bar3fd66200f964a520e0e71ee3",
    "time": "2012-06-21"
  },
  {
    "place": "Plaza4bcfc1fc9854d13abec4f64d",
    "time": "2012-06-21"
  },
  {
    "place": "Hotel4e0cfe6ae4cd27fc7d21976c",
    "time": "2012-06-27"
  },
  {
    "place": "Office4f13c311e4b072565f06a00f",
    "time": "2012-07-02"
  },
  {
    "place": "Other Great Outdoors4ff4d209e4b003534b0b3882",
    "time": "2012-07-05"
  },
  {
    "place": "General Entertainment4ff4c10ce4b01d081f52b0b8",
    "time": "2012-07-05"
  },
  {
    "place": "Coffee Shop4b217496f964a5201c3c24e3",
    "time": "2012-07-05"
  },
  {
    "place": "Office4f13c311e4b072565f06a00f",
    "time": "2012-07-05"
  },
  {
    "place": "Park40b68100f964a5207d001fe3",
    "time": "2012-07-05"
  },
  {
    "place": "Office4f69f8abe4b0e2bc717825b0",
    "time": "2012-07-05"
  },
  {
    "place": "Burger Joint40e74880f964a520150a1fe3",
    "time": "2012-07-05"
  },
  {
    "place": "BBQ Joint49d6bed4f964a520015d1fe3",
    "time": "2012-07-06"
  },
  {
    "place": "Subway4b244b63f964a520766524e3",
    "time": "2012-07-06"
  },
  {
    "place": "Park40b68100f964a5207d001fe3",
    "time": "2012-07-06"
  },
  {
    "place": "Office4f69f8abe4b0e2bc717825b0",
    "time": "2012-07-06"
  },
  {
    "place": "General Entertainment4593b9c5f964a5204c401fe3",
    "time": "2012-07-06"
  },
  {
    "place": "Neighborhood4c784d18566db60ccc3f410e",
    "time": "2012-07-08"
  },
  {
    "place": "Bar40da1980f964a5206d011fe3",
    "time": "2012-07-08"
  },
  {
    "place": "Burger Joint3fd66200f964a52040e81ee3",
    "time": "2012-07-08"
  },
  {
    "place": "Plaza4bcfc1fc9854d13abec4f64d",
    "time": "2012-07-09"
  },
  {
    "place": "Travel & Transport4e863b32f790e3cd5056eff1",
    "time": "2012-07-09"
  },
  {
    "place": "Toy / Game Store4a8b008cf964a520250b20e3",
    "time": "2012-07-09"
  },
  {
    "place": "Park40b68100f964a5207d001fe3",
    "time": "2012-07-09"
  },
  {
    "place": "Coffee Shop4a71e101f964a520c4d91fe3",
    "time": "2012-07-09"
  },
  {
    "place": "Office4f69f8abe4b0e2bc717825b0",
    "time": "2012-07-09"
  },
  {
    "place": "Pet Store4a5519d5f964a520adb31fe3",
    "time": "2012-07-10"
  },
  {
    "place": "Subway4b244b63f964a520766524e3",
    "time": "2012-07-12"
  },
  {
    "place": "Office4f625fefe4b0a9d091f3e773",
    "time": "2012-07-12"
  },
  {
    "place": "Electronics Store44be416bf964a520a3351fe3",
    "time": "2012-07-12"
  },
  {
    "place": "Coffee Shop4aabc152f964a520f15920e3",
    "time": "2012-07-12"
  },
  {
    "place": "Subway4b244b63f964a520766524e3",
    "time": "2012-07-13"
  },
  {
    "place": "Diner4b2084bdf964a520de3224e3",
    "time": "2012-07-13"
  },
  {
    "place": "Subway4b8fbf80f964a5202a6033e3",
    "time": "2012-07-13"
  },
  {
    "place": "Office4ec566b3f5b9b3184015fe76",
    "time": "2012-07-13"
  },
  {
    "place": "Electronics Store422f8e00f964a520f81f1fe3",
    "time": "2012-07-13"
  },
  {
    "place": "BBQ Joint49d6bed4f964a520015d1fe3",
    "time": "2012-07-14"
  },
  {
    "place": "Diner4b2084bdf964a520de3224e3",
    "time": "2012-07-15"
  },
  {
    "place": "Coffee Shop4b217496f964a5201c3c24e3",
    "time": "2012-07-15"
  },
  {
    "place": "Subway4b244b63f964a520766524e3",
    "time": "2012-07-16"
  },
  {
    "place": "Bus Station4e6754678877dfcf301bf3bd",
    "time": "2012-07-16"
  },
  {
    "place": "Bus Station4e6754678877dfcf301bf3bd",
    "time": "2012-07-16"
  },
  {
    "place": "Subway4b244b63f964a520766524e3",
    "time": "2012-07-16"
  },
  {
    "place": "Coffee Shop4b217496f964a5201c3c24e3",
    "time": "2012-07-16"
  },
  {
    "place": "Event Space4fe32e9ec2eecd9a1817553e",
    "time": "2012-07-17"
  },
  {
    "place": "Burger Joint3fd66200f964a52040e81ee3",
    "time": "2012-07-20"
  },
  {
    "place": "Coffee Shop49de2becf964a5202b601fe3",
    "time": "2012-07-28"
  },
  {
    "place": "Cosmetics Shop4a996d8df964a520432e20e3",
    "time": "2012-07-28"
  },
  {
    "place": "Coffee Shop4af4448cf964a520fbf021e3",
    "time": "2012-07-30"
  },
  {
    "place": "Bar4b1bf775f964a520d0ff23e3",
    "time": "2012-08-11"
  },
  {
    "place": "Bar4b84d39bf964a520ff4431e3",
    "time": "2012-08-12"
  },
  {
    "place": "Coffee Shop3fd66200f964a52048e81ee3",
    "time": "2012-08-13"
  },
  {
    "place": "Electronics Store40958b80f964a520e6f21ee3",
    "time": "2012-08-13"
  },
  {
    "place": "Electronics Store447bf8f1f964a520ec331fe3",
    "time": "2012-08-14"
  },
  {
    "place": "Coffee Shop4b217496f964a5201c3c24e3",
    "time": "2012-08-14"
  },
  {
    "place": "Hotel41575800f964a520311d1fe3",
    "time": "2012-08-19"
  },
  {
    "place": "Bar40da1980f964a5206d011fe3",
    "time": "2012-08-19"
  },
  {
    "place": "Diner4b2084bdf964a520de3224e3",
    "time": "2012-09-15"
  },
  {
    "place": "Bus Station4840fe6bf964a52030501fe3",
    "time": "2012-10-08"
  },
  {
    "place": "Bar4c2eb323213c2d7ff5c02f5d",
    "time": "2012-10-12"
  },
  {
    "place": "Cemetery5090bc9be4b063c640ba5333",
    "time": "2012-11-01"
  },
  {
    "place": "Bar3fd66200f964a520c0e41ee3",
    "time": "2012-11-10"
  },
  {
    "place": "Clothing Store4a833fa5f964a5207efa1fe3",
    "time": "2012-11-10"
  },
  {
    "place": "Plaza4bcfc1fc9854d13abec4f64d",
    "time": "2012-11-12"
  },
  {
    "place": "Bus Station4840fe6bf964a52030501fe3",
    "time": "2012-11-12"
  },
  {
    "place": "Electronics Store4afc15ebf964a520cf1f22e3",
    "time": "2012-11-15"
  },
  {
    "place": "Movie Theater49e17f24f964a520d1611fe3",
    "time": "2012-11-16"
  },
  {
    "place": "Burger Joint3fd66200f964a52040e81ee3",
    "time": "2012-11-16"
  },
  {
    "place": "Burrito Place4a65fca9f964a520d3c71fe3",
    "time": "2012-11-16"
  },
  {
    "place": "Funeral Home50a65a94e4b017a2ec7cfd0a",
    "time": "2012-11-18"
  },
  {
    "place": "Smoke Shop4d61b919865a224bef72ba85",
    "time": "2012-11-18"
  },
  {
    "place": "Pet Store4a5519d5f964a520adb31fe3",
    "time": "2012-11-24"
  },
  {
    "place": "Coffee Shop4a3ffdc5f964a5202da41fe3",
    "time": "2012-11-24"
  },
  {
    "place": "Sushi Restaurant3fd66200f964a52083e31ee3",
    "time": "2012-11-24"
  },
  {
    "place": "Caf\u00c3\u00a93fd66200f964a52008e91ee3",
    "time": "2012-11-25"
  },
  {
    "place": "Subway4b244b63f964a520766524e3",
    "time": "2012-11-26"
  },
  {
    "place": "Bus Station4840fe6bf964a52030501fe3",
    "time": "2012-11-26"
  },
  {
    "place": "Italian Restaurant4adce863f964a5206c6221e3",
    "time": "2012-11-29"
  },
  {
    "place": "Smoke Shop4d61b919865a224bef72ba85",
    "time": "2012-12-01"
  },
  {
    "place": "BBQ Joint509c54afe4b047ee279e799b",
    "time": "2012-12-01"
  },
  {
    "place": "Bar49ff6b95f964a5201f701fe3",
    "time": "2012-12-02"
  },
  {
    "place": "Bar428bd700f964a5209c231fe3",
    "time": "2012-12-02"
  },
  {
    "place": "Subway4b244b63f964a520766524e3",
    "time": "2012-12-02"
  },
  {
    "place": "Bar428bd700f964a5209c231fe3",
    "time": "2012-12-03"
  },
  {
    "place": "Hotel481dfa3af964a5207f4f1fe3",
    "time": "2012-12-04"
  },
  {
    "place": "Road4a4821f5f964a52095aa1fe3",
    "time": "2012-12-13"
  },
  {
    "place": "Coffee Shop4b0835acf964a520540623e3",
    "time": "2012-12-13"
  },
  {
    "place": "Concert Hall50c7104fe4b0860fb5620c72",
    "time": "2012-12-13"
  },
  {
    "place": "Smoke Shop4b4fd6d6f964a5203b1727e3",
    "time": "2012-12-15"
  },
  {
    "place": "Bar4b11ced7f964a5201b8523e3",
    "time": "2013-01-11"
  },
  {
    "place": "Coffee Shop4a71e101f964a520c4d91fe3",
    "time": "2013-01-11"
  },
  {
    "place": "Bar428bd700f964a5209c231fe3",
    "time": "2013-01-12"
  },
  {
    "place": "Smoke Shop4d61b919865a224bef72ba85",
    "time": "2013-01-13"
  },
  {
    "place": "Bar428bd700f964a5209c231fe3",
    "time": "2013-01-13"
  }
]