PADEC party information statistics for scenario step5_filter_demo
sim_time: 86000.0000
OP33: [padec.attribute.Identity from C121, padec.attribute.Identity from C122, padec.attribute.Identity from C123, padec.attribute.Identity from C124, padec.attribute.Location from CB126, padec.attribute.Location from CB127, padec.attribute.Location from CB128, padec.attribute.Location from CB129, padec.attribute.Location from CB125, padec.attribute.Identity from C120, padec.attribute.Identity from C110, padec.attribute.Identity from C111, padec.attribute.Identity from C112, padec.attribute.Identity from C113, padec.attribute.Identity from C114, padec.attribute.Identity from C115, padec.attribute.Identity from C116, padec.attribute.Identity from C117, padec.attribute.Identity from C118, padec.attribute.Identity from C119, padec.attribute.Location from CB137, padec.attribute.Location from CB138, padec.attribute.Location from CB139, padec.attribute.Location from CB133, padec.attribute.Location from CB134, padec.attribute.Location from CB135, padec.attribute.Location from CB136, padec.attribute.Location from CB130, padec.attribute.Location from CB131, padec.attribute.Location from CB132, padec.attribute.Identity from C100, padec.attribute.Identity from C101, padec.attribute.Identity from C102, padec.attribute.Identity from C103, padec.attribute.Identity from C104, padec.attribute.Identity from C105, padec.attribute.Identity from C106, padec.attribute.Identity from C107, padec.attribute.Identity from C108, padec.attribute.Identity from C109, padec.attribute.Location from CB148, padec.attribute.Location from CB149, padec.attribute.Location from CB144, padec.attribute.Location from CB145, padec.attribute.Location from CB146, padec.attribute.Location from CB147, padec.attribute.Location from CB140, padec.attribute.Location from CB141, padec.attribute.Location from CB142, padec.attribute.Location from CB143]

CB132: [History (precision -30.666666666666668) from OP61, History (precision -30.666666666666668) from OP35, History (precision -30.666666666666668) from OP68, History (precision -30.666666666666668) from OP2, History (precision -30.666666666666668) from OP33, History (precision -30.666666666666668) from OP11]

CB140: [History (precision -30.666666666666668) from OP61, History (precision -30.666666666666668) from OP17]

CB135: [History (precision -30.666666666666668) from OP2, History (precision -30.666666666666668) from OP33]

CB147: [History (precision -30.666666666666668) from OP85, History (precision -30.666666666666668) from OP39, History (precision -30.666666666666668) from OP24, History (precision -30.666666666666668) from OP2]

C107: [History (precision -1.7976931348623157E308) from OP85, History (precision -1.7976931348623157E308) from OP61, History (precision -1.7976931348623157E308) from OP35, History (precision -1.7976931348623157E308) from OP24, History (precision -1.7976931348623157E308) from OP68, History (precision -1.7976931348623157E308) from OP33, History (precision -1.7976931348623157E308) from OP11, History (precision -1.7976931348623157E308) from OP38, History (precision -1.7976931348623157E308) from OP17, History (precision -1.7976931348623157E308) from OP39, History (precision -1.7976931348623157E308) from OP2]

CB146: []

C100: []

CB130: [History (precision -30.666666666666668) from OP61, History (precision -30.666666666666668) from OP85, History (precision -30.666666666666668) from OP17, History (precision -30.666666666666668) from OP35, History (precision -30.666666666666668) from OP2]

CB134: [History (precision -30.666666666666668) from OP61]

CB141: []

C123: [History (precision -1.7976931348623157E308) from OP85, History (precision -1.7976931348623157E308) from OP61, History (precision -1.7976931348623157E308) from OP35, History (precision -1.7976931348623157E308) from OP24, History (precision -1.7976931348623157E308) from OP68, History (precision -1.7976931348623157E308) from OP33, History (precision -1.7976931348623157E308) from OP11, History (precision -1.7976931348623157E308) from OP38, History (precision -1.7976931348623157E308) from OP17, History (precision -1.7976931348623157E308) from OP39, History (precision -1.7976931348623157E308) from OP2]

C104: [History (precision -1.7976931348623157E308) from OP85, History (precision -1.7976931348623157E308) from OP61, History (precision -1.7976931348623157E308) from OP35, History (precision -1.7976931348623157E308) from OP24, History (precision -1.7976931348623157E308) from OP68, History (precision -1.7976931348623157E308) from OP33, History (precision -1.7976931348623157E308) from OP11, History (precision -1.7976931348623157E308) from OP38, History (precision -1.7976931348623157E308) from OP17, History (precision -1.7976931348623157E308) from OP39, History (precision -1.7976931348623157E308) from OP2]

CB142: [History (precision -30.666666666666668) from OP17, History (precision -30.666666666666668) from OP24]

C119: []

C121: []

C112: []

C110: []

C111: []

CB139: []

OP61: [padec.attribute.Identity from C121, padec.attribute.Identity from C122, padec.attribute.Identity from C123, padec.attribute.Identity from C124, padec.attribute.Location from CB126, padec.attribute.Location from CB127, padec.attribute.Location from CB128, padec.attribute.Location from CB129, padec.attribute.Location from CB125, padec.attribute.Identity from C120, padec.attribute.Identity from C110, padec.attribute.Identity from C111, padec.attribute.Identity from C112, padec.attribute.Identity from C113, padec.attribute.Identity from C114, padec.attribute.Identity from C115, padec.attribute.Identity from C116, padec.attribute.Identity from C117, padec.attribute.Identity from C118, padec.attribute.Identity from C119, padec.attribute.Location from CB137, padec.attribute.Location from CB138, padec.attribute.Location from CB139, padec.attribute.Location from CB133, padec.attribute.Location from CB134, padec.attribute.Location from CB135, padec.attribute.Location from CB136, padec.attribute.Location from CB130, padec.attribute.Location from CB131, padec.attribute.Location from CB132, padec.attribute.Identity from C100, padec.attribute.Identity from C101, padec.attribute.Identity from C102, padec.attribute.Identity from C103, padec.attribute.Identity from C104, padec.attribute.Identity from C105, padec.attribute.Identity from C106, padec.attribute.Identity from C107, padec.attribute.Identity from C108, padec.attribute.Identity from C109, padec.attribute.Location from CB148, padec.attribute.Location from CB149, padec.attribute.Location from CB144, padec.attribute.Location from CB145, padec.attribute.Location from CB146, padec.attribute.Location from CB147, padec.attribute.Location from CB140, padec.attribute.Location from CB141, padec.attribute.Location from CB142, padec.attribute.Location from CB143]

C116: []

CB149: [History (precision -30.666666666666668) from OP17]

C122: [History (precision -1.7976931348623157E308) from OP85, History (precision -1.7976931348623157E308) from OP61, History (precision -1.7976931348623157E308) from OP35, History (precision -1.7976931348623157E308) from OP24, History (precision -1.7976931348623157E308) from OP68, History (precision -1.7976931348623157E308) from OP33, History (precision -1.7976931348623157E308) from OP11, History (precision -1.7976931348623157E308) from OP38, History (precision -1.7976931348623157E308) from OP17, History (precision -1.7976931348623157E308) from OP39, History (precision -1.7976931348623157E308) from OP2]

CB136: [History (precision -30.666666666666668) from OP61, History (precision -30.666666666666668) from OP17]

C120: [History (precision -1.7976931348623157E308) from OP85, History (precision -1.7976931348623157E308) from OP61, History (precision -1.7976931348623157E308) from OP35, History (precision -1.7976931348623157E308) from OP24, History (precision -1.7976931348623157E308) from OP33, History (precision -1.7976931348623157E308) from OP11, History (precision -1.7976931348623157E308) from OP38, History (precision -1.7976931348623157E308) from OP17, History (precision -1.7976931348623157E308) from OP39, History (precision -1.7976931348623157E308) from OP2]

CB145: [History (precision -30.666666666666668) from OP38, History (precision -30.666666666666668) from OP11]

C124: [History (precision -1.7976931348623157E308) from OP85, History (precision -1.7976931348623157E308) from OP61, History (precision -1.7976931348623157E308) from OP35, History (precision -1.7976931348623157E308) from OP24, History (precision -1.7976931348623157E308) from OP33, History (precision -1.7976931348623157E308) from OP11, History (precision -1.7976931348623157E308) from OP38, History (precision -1.7976931348623157E308) from OP17, History (precision -1.7976931348623157E308) from OP39, History (precision -1.7976931348623157E308) from OP2]

CB125: [History (precision -30.666666666666668) from OP17, History (precision -30.666666666666668) from OP35]

C106: [History (precision -1.7976931348623157E308) from OP85, History (precision -1.7976931348623157E308) from OP61, History (precision -1.7976931348623157E308) from OP35, History (precision -1.7976931348623157E308) from OP24, History (precision -1.7976931348623157E308) from OP33, History (precision -1.7976931348623157E308) from OP11, History (precision -1.7976931348623157E308) from OP38, History (precision -1.7976931348623157E308) from OP17, History (precision -1.7976931348623157E308) from OP39, History (precision -1.7976931348623157E308) from OP2]

C108: []

CB129: [History (precision -30.666666666666668) from OP17]

CB143: [History (precision -30.666666666666668) from OP11]

CB131: [History (precision -30.666666666666668) from OP38]

CB127: [History (precision -30.666666666666668) from OP17, History (precision -30.666666666666668) from OP11]

CB126: []

CB128: [History (precision -30.666666666666668) from OP2]

C115: []

C113: []

C118: [History (precision -1.7976931348623157E308) from OP85, History (precision -1.7976931348623157E308) from OP61, History (precision -1.7976931348623157E308) from OP35, History (precision -1.7976931348623157E308) from OP24, History (precision -1.7976931348623157E308) from OP33, History (precision -1.7976931348623157E308) from OP11, History (precision -1.7976931348623157E308) from OP38, History (precision -1.7976931348623157E308) from OP17, History (precision -1.7976931348623157E308) from OP39, History (precision -1.7976931348623157E308) from OP2]

CB137: [History (precision -30.666666666666668) from OP17, History (precision -30.666666666666668) from OP24, History (precision -30.666666666666668) from OP2, History (precision -30.666666666666668) from OP11]

C117: []

C114: []

CB133: [History (precision -30.666666666666668) from OP39, History (precision -30.666666666666668) from OP2]

C105: []

CB148: [History (precision -30.666666666666668) from OP2, History (precision -30.666666666666668) from OP11]

C102: []

C101: []

C103: []

CB138: [History (precision -30.666666666666668) from OP39, History (precision -30.666666666666668) from OP35, History (precision -30.666666666666668) from OP2]

CB144: [History (precision -30.666666666666668) from OP61, History (precision -30.666666666666668) from OP17, History (precision -30.666666666666668) from OP38, History (precision -30.666666666666668) from OP11]

C109: []

OP85: [padec.attribute.Identity from C121, padec.attribute.Identity from C122, padec.attribute.Identity from C123, padec.attribute.Identity from C124, padec.attribute.Location from CB126, padec.attribute.Location from CB127, padec.attribute.Location from CB128, padec.attribute.Location from CB129, padec.attribute.Location from CB125, padec.attribute.Identity from C120, padec.attribute.Identity from C110, padec.attribute.Identity from C111, padec.attribute.Identity from C112, padec.attribute.Identity from C113, padec.attribute.Identity from C114, padec.attribute.Identity from C115, padec.attribute.Identity from C116, padec.attribute.Identity from C117, padec.attribute.Identity from C118, padec.attribute.Identity from C119, padec.attribute.Location from CB137, padec.attribute.Location from CB138, padec.attribute.Location from CB139, padec.attribute.Location from CB133, padec.attribute.Location from CB134, padec.attribute.Location from CB135, padec.attribute.Location from CB136, padec.attribute.Location from CB130, padec.attribute.Location from CB131, padec.attribute.Location from CB132, padec.attribute.Identity from C100, padec.attribute.Identity from C101, padec.attribute.Identity from C102, padec.attribute.Identity from C103, padec.attribute.Identity from C104, padec.attribute.Identity from C105, padec.attribute.Identity from C106, padec.attribute.Identity from C107, padec.attribute.Identity from C108, padec.attribute.Identity from C109, padec.attribute.Location from CB148, padec.attribute.Location from CB149, padec.attribute.Location from CB144, padec.attribute.Location from CB145, padec.attribute.Location from CB146, padec.attribute.Location from CB147, padec.attribute.Location from CB140, padec.attribute.Location from CB141, padec.attribute.Location from CB142, padec.attribute.Location from CB143]

OP38: [padec.attribute.Identity from C121, padec.attribute.Identity from C122, padec.attribute.Identity from C123, padec.attribute.Identity from C124, padec.attribute.Location from CB126, padec.attribute.Location from CB127, padec.attribute.Location from CB128, padec.attribute.Location from CB129, padec.attribute.Location from CB125, padec.attribute.Identity from C120, padec.attribute.Identity from C110, padec.attribute.Identity from C111, padec.attribute.Identity from C112, padec.attribute.Identity from C113, padec.attribute.Identity from C114, padec.attribute.Identity from C115, padec.attribute.Identity from C116, padec.attribute.Identity from C117, padec.attribute.Identity from C118, padec.attribute.Identity from C119, padec.attribute.Location from CB137, padec.attribute.Location from CB138, padec.attribute.Location from CB139, padec.attribute.Location from CB133, padec.attribute.Location from CB134, padec.attribute.Location from CB135, padec.attribute.Location from CB136, padec.attribute.Location from CB130, padec.attribute.Location from CB131, padec.attribute.Location from CB132, padec.attribute.Identity from C100, padec.attribute.Identity from C101, padec.attribute.Identity from C102, padec.attribute.Identity from C103, padec.attribute.Identity from C104, padec.attribute.Identity from C105, padec.attribute.Identity from C106, padec.attribute.Identity from C107, padec.attribute.Identity from C108, padec.attribute.Identity from C109, padec.attribute.Location from CB148, padec.attribute.Location from CB149, padec.attribute.Location from CB144, padec.attribute.Location from CB145, padec.attribute.Location from CB146, padec.attribute.Location from CB147, padec.attribute.Location from CB140, padec.attribute.Location from CB141, padec.attribute.Location from CB142, padec.attribute.Location from CB143]

OP17: [padec.attribute.Identity from C121, padec.attribute.Identity from C122, padec.attribute.Identity from C123, padec.attribute.Identity from C124, padec.attribute.Location from CB126, padec.attribute.Location from CB127, padec.attribute.Location from CB128, padec.attribute.Location from CB129, padec.attribute.Location from CB125, padec.attribute.Identity from C120, padec.attribute.Identity from C110, padec.attribute.Identity from C111, padec.attribute.Identity from C112, padec.attribute.Identity from C113, padec.attribute.Identity from C114, padec.attribute.Identity from C115, padec.attribute.Identity from C116, padec.attribute.Identity from C117, padec.attribute.Identity from C118, padec.attribute.Identity from C119, padec.attribute.Location from CB137, padec.attribute.Location from CB138, padec.attribute.Location from CB139, padec.attribute.Location from CB133, padec.attribute.Location from CB134, padec.attribute.Location from CB135, padec.attribute.Location from CB136, padec.attribute.Location from CB130, padec.attribute.Location from CB131, padec.attribute.Location from CB132, padec.attribute.Identity from C100, padec.attribute.Identity from C101, padec.attribute.Identity from C102, padec.attribute.Identity from C103, padec.attribute.Identity from C104, padec.attribute.Identity from C105, padec.attribute.Identity from C106, padec.attribute.Identity from C107, padec.attribute.Identity from C108, padec.attribute.Identity from C109, padec.attribute.Location from CB148, padec.attribute.Location from CB149, padec.attribute.Location from CB144, padec.attribute.Location from CB145, padec.attribute.Location from CB146, padec.attribute.Location from CB147, padec.attribute.Location from CB140, padec.attribute.Location from CB141, padec.attribute.Location from CB142, padec.attribute.Location from CB143]

OP2: [padec.attribute.Identity from C121, padec.attribute.Identity from C122, padec.attribute.Identity from C123, padec.attribute.Identity from C124, padec.attribute.Location from CB126, padec.attribute.Location from CB127, padec.attribute.Location from CB128, padec.attribute.Location from CB129, padec.attribute.Location from CB125, padec.attribute.Identity from C120, padec.attribute.Identity from C110, padec.attribute.Identity from C111, padec.attribute.Identity from C112, padec.attribute.Identity from C113, padec.attribute.Identity from C114, padec.attribute.Identity from C115, padec.attribute.Identity from C116, padec.attribute.Identity from C117, padec.attribute.Identity from C118, padec.attribute.Identity from C119, padec.attribute.Location from CB137, padec.attribute.Location from CB138, padec.attribute.Location from CB139, padec.attribute.Location from CB133, padec.attribute.Location from CB134, padec.attribute.Location from CB135, padec.attribute.Location from CB136, padec.attribute.Location from CB130, padec.attribute.Location from CB131, padec.attribute.Location from CB132, padec.attribute.Identity from C100, padec.attribute.Identity from C101, padec.attribute.Identity from C102, padec.attribute.Identity from C103, padec.attribute.Identity from C104, padec.attribute.Identity from C105, padec.attribute.Identity from C106, padec.attribute.Identity from C107, padec.attribute.Identity from C108, padec.attribute.Identity from C109, padec.attribute.Location from CB148, padec.attribute.Location from CB149, padec.attribute.Location from CB144, padec.attribute.Location from CB145, padec.attribute.Location from CB146, padec.attribute.Location from CB147, padec.attribute.Location from CB140, padec.attribute.Location from CB141, padec.attribute.Location from CB142, padec.attribute.Location from CB143]

OP35: [padec.attribute.Identity from C121, padec.attribute.Identity from C122, padec.attribute.Identity from C123, padec.attribute.Identity from C124, padec.attribute.Location from CB126, padec.attribute.Location from CB127, padec.attribute.Location from CB128, padec.attribute.Location from CB129, padec.attribute.Location from CB125, padec.attribute.Identity from C120, padec.attribute.Identity from C110, padec.attribute.Identity from C111, padec.attribute.Identity from C112, padec.attribute.Identity from C113, padec.attribute.Identity from C114, padec.attribute.Identity from C115, padec.attribute.Identity from C116, padec.attribute.Identity from C117, padec.attribute.Identity from C118, padec.attribute.Identity from C119, padec.attribute.Location from CB137, padec.attribute.Location from CB138, padec.attribute.Location from CB139, padec.attribute.Location from CB133, padec.attribute.Location from CB134, padec.attribute.Location from CB135, padec.attribute.Location from CB136, padec.attribute.Location from CB130, padec.attribute.Location from CB131, padec.attribute.Location from CB132, padec.attribute.Identity from C100, padec.attribute.Identity from C101, padec.attribute.Identity from C102, padec.attribute.Identity from C103, padec.attribute.Identity from C104, padec.attribute.Identity from C105, padec.attribute.Identity from C106, padec.attribute.Identity from C107, padec.attribute.Identity from C108, padec.attribute.Identity from C109, padec.attribute.Location from CB148, padec.attribute.Location from CB149, padec.attribute.Location from CB144, padec.attribute.Location from CB145, padec.attribute.Location from CB146, padec.attribute.Location from CB147, padec.attribute.Location from CB140, padec.attribute.Location from CB141, padec.attribute.Location from CB142, padec.attribute.Location from CB143]

OP39: [padec.attribute.Identity from C121, padec.attribute.Identity from C122, padec.attribute.Identity from C123, padec.attribute.Identity from C124, padec.attribute.Location from CB126, padec.attribute.Location from CB127, padec.attribute.Location from CB128, padec.attribute.Location from CB129, padec.attribute.Location from CB125, padec.attribute.Identity from C120, padec.attribute.Identity from C110, padec.attribute.Identity from C111, padec.attribute.Identity from C112, padec.attribute.Identity from C113, padec.attribute.Identity from C114, padec.attribute.Identity from C115, padec.attribute.Identity from C116, padec.attribute.Identity from C117, padec.attribute.Identity from C118, padec.attribute.Identity from C119, padec.attribute.Location from CB137, padec.attribute.Location from CB138, padec.attribute.Location from CB139, padec.attribute.Location from CB133, padec.attribute.Location from CB134, padec.attribute.Location from CB135, padec.attribute.Location from CB136, padec.attribute.Location from CB130, padec.attribute.Location from CB131, padec.attribute.Location from CB132, padec.attribute.Identity from C100, padec.attribute.Identity from C101, padec.attribute.Identity from C102, padec.attribute.Identity from C103, padec.attribute.Identity from C104, padec.attribute.Identity from C105, padec.attribute.Identity from C106, padec.attribute.Identity from C107, padec.attribute.Identity from C108, padec.attribute.Identity from C109, padec.attribute.Location from CB148, padec.attribute.Location from CB149, padec.attribute.Location from CB144, padec.attribute.Location from CB145, padec.attribute.Location from CB146, padec.attribute.Location from CB147, padec.attribute.Location from CB140, padec.attribute.Location from CB141, padec.attribute.Location from CB142, padec.attribute.Location from CB143]

OP24: [padec.attribute.Identity from C121, padec.attribute.Identity from C122, padec.attribute.Identity from C100, padec.attribute.Identity from C123, padec.attribute.Identity from C101, padec.attribute.Identity from C124, padec.attribute.Identity from C102, padec.attribute.Identity from C103, padec.attribute.Identity from C104, padec.attribute.Identity from C105, padec.attribute.Identity from C106, padec.attribute.Identity from C107, padec.attribute.Identity from C108, padec.attribute.Identity from C109, padec.attribute.Location from CB148, padec.attribute.Location from CB149, padec.attribute.Location from CB127, padec.attribute.Location from CB128, padec.attribute.Location from CB129, padec.attribute.Location from CB144, padec.attribute.Location from CB145, padec.attribute.Location from CB146, padec.attribute.Location from CB147, padec.attribute.Location from CB125, padec.attribute.Location from CB140, padec.attribute.Location from CB141, padec.attribute.Location from CB142, padec.attribute.Location from CB143, padec.attribute.Identity from C120, padec.attribute.Identity from C110, padec.attribute.Identity from C111, padec.attribute.Identity from C112, padec.attribute.Identity from C113, padec.attribute.Identity from C114, padec.attribute.Identity from C115, padec.attribute.Identity from C116, padec.attribute.Identity from C117, padec.attribute.Identity from C118, padec.attribute.Identity from C119, padec.attribute.Location from CB137, padec.attribute.Location from CB138, padec.attribute.Location from CB139, padec.attribute.Location from CB134, padec.attribute.Location from CB135, padec.attribute.Location from CB136, padec.attribute.Location from CB130, padec.attribute.Location from CB132]

OP11: [padec.attribute.Identity from C121, padec.attribute.Identity from C100, padec.attribute.Identity from C122, padec.attribute.Identity from C123, padec.attribute.Identity from C101, padec.attribute.Identity from C124, padec.attribute.Identity from C102, padec.attribute.Identity from C104, padec.attribute.Identity from C105, padec.attribute.Identity from C106, padec.attribute.Identity from C107, padec.attribute.Identity from C108, padec.attribute.Location from CB148, padec.attribute.Location from CB149, padec.attribute.Location from CB127, padec.attribute.Location from CB128, padec.attribute.Location from CB144, padec.attribute.Location from CB145, padec.attribute.Location from CB146, padec.attribute.Location from CB147, padec.attribute.Location from CB125, padec.attribute.Location from CB140, padec.attribute.Location from CB142, padec.attribute.Location from CB143, padec.attribute.Identity from C120, padec.attribute.Identity from C110, padec.attribute.Identity from C111, padec.attribute.Identity from C112, padec.attribute.Identity from C113, padec.attribute.Identity from C115, padec.attribute.Identity from C117, padec.attribute.Identity from C118, padec.attribute.Identity from C119, padec.attribute.Location from CB137, padec.attribute.Location from CB130, padec.attribute.Location from CB132]

OP68: [padec.attribute.Identity from C111, padec.attribute.Identity from C100, padec.attribute.Identity from C122, padec.attribute.Identity from C123, padec.attribute.Identity from C112, padec.attribute.Identity from C124, padec.attribute.Identity from C104, padec.attribute.Identity from C107, padec.attribute.Identity from C108, padec.attribute.Location from CB149, padec.attribute.Location from CB127, padec.attribute.Location from CB147, padec.attribute.Location from CB130, padec.attribute.Location from CB132]

