%!PS-Adobe-3.0 EPSF-3.0
%%Title: evaluation_figures/Expressiveness.eps
%%Creator: matplotlib version 3.1.1, http://matplotlib.org/
%%CreationDate: Tue Sep 29 13:32:58 2020
%%Orientation: portrait
%%BoundingBox: 90.0 252.0 522.0 540.0
%%EndComments
%%BeginProlog
/mpldict 8 dict def
mpldict begin
/m { moveto } bind def
/l { lineto } bind def
/r { rlineto } bind def
/c { curveto } bind def
/cl { closepath } bind def
/box {
m
1 index 0 r
0 exch r
neg 0 r
cl
} bind def
/clipbox {
box
clip
newpath
} bind def
%!PS-Adobe-3.0 Resource-Font
%%Title: DejaVu Sans
%%Copyright: Copyright (c) 2003 by Bitstream, Inc. All Rights Reserved. Copyright (c) 2006 by Tavmjong Bah. All Rights Reserved. DejaVu changes are in public domain 
%%Creator: Converted from TrueType to type 3 by PPR
25 dict begin
/_d{bind def}bind def
/_m{moveto}_d
/_l{lineto}_d
/_cl{closepath eofill}_d
/_c{curveto}_d
/_sc{7 -1 roll{setcachedevice}{pop pop pop pop pop pop}ifelse}_d
/_e{exec}_d
/FontName /DejaVuSans def
/PaintType 0 def
/FontMatrix[.001 0 0 .001 0 0]def
/FontBBox[-1021 -463 1793 1232]def
/FontType 3 def
/Encoding [ /space /percent /parenleft /parenright /zero /one /two /three /four /five /six /seven /eight /nine /A /B /C /P /R /S /U /a /b /c /d /e /i /l /m /n /o /q /r /s /t /u /v /x ] def
/FontInfo 10 dict dup begin
/FamilyName (DejaVu Sans) def
/FullName (DejaVu Sans) def
/Notice (Copyright (c) 2003 by Bitstream, Inc. All Rights Reserved. Copyright (c) 2006 by Tavmjong Bah. All Rights Reserved. DejaVu changes are in public domain ) def
/Weight (Book) def
/Version (Version 2.35) def
/ItalicAngle 0.0 def
/isFixedPitch false def
/UnderlinePosition -130 def
/UnderlineThickness 90 def
end readonly def
/CharStrings 39 dict dup begin
/.notdef 0 def
/space{318 0 0 0 0 0 _sc
}_d
/percent{{950 0 55 -13 895 742 _sc
727 321 _m
699 321 676 309 660 285 _c
644 261 636 227 636 184 _c
636 142 644 108 660 84 _c
676 60 699 48 727 48 _c
755 48 777 60 793 84 _c
809 108 817 142 817 184 _c
817 226 809 260 793 284 _c
777 308 755 321 727 321 _c
727 383 _m
778 383 819 365 849 329 _c
879 293 895 244 895 184 _c
895 123 879 75 849 40 _c
819 4 778 -13 727 -13 _c
}_e{675 -13 633 4 603 40 _c
573 75 558 123 558 184 _c
558 245 573 293 603 329 _c
633 365 675 383 727 383 _c
223 680 _m
195 680 173 667 157 643 _c
141 619 133 586 133 544 _c
133 500 141 467 157 443 _c
173 419 195 407 223 407 _c
251 407 274 419 290 443 _c
306 467 314 500 314 544 _c
314 586 305 619 289 643 _c
273 667 251 680 223 680 _c
664 742 _m
742 742 _l
286 -13 _l
}_e{208 -13 _l
664 742 _l
223 742 _m
274 742 315 724 346 688 _c
376 652 392 604 392 544 _c
392 482 376 434 346 398 _c
316 362 275 345 223 345 _c
171 345 130 362 100 398 _c
70 434 55 482 55 544 _c
55 604 70 652 100 688 _c
130 724 171 742 223 742 _c
_cl}_e}_d
/parenleft{390 0 86 -131 310 759 _sc
310 759 _m
266 683 234 609 213 536 _c
191 463 181 389 181 314 _c
181 238 191 164 213 91 _c
234 17 266 -56 310 -131 _c
232 -131 _l
183 -54 146 20 122 94 _c
98 168 86 241 86 314 _c
86 386 98 459 122 533 _c
146 607 182 682 232 759 _c
310 759 _l
_cl}_d
/parenright{390 0 80 -131 304 759 _sc
80 759 _m
158 759 _l
206 682 243 607 267 533 _c
291 459 304 386 304 314 _c
304 241 291 168 267 94 _c
243 20 206 -54 158 -131 _c
80 -131 _l
123 -56 155 17 177 91 _c
198 164 209 238 209 314 _c
209 389 198 463 177 536 _c
155 609 123 683 80 759 _c
_cl}_d
/zero{636 0 66 -13 570 742 _sc
318 664 _m
267 664 229 639 203 589 _c
177 539 165 464 165 364 _c
165 264 177 189 203 139 _c
229 89 267 64 318 64 _c
369 64 407 89 433 139 _c
458 189 471 264 471 364 _c
471 464 458 539 433 589 _c
407 639 369 664 318 664 _c
318 742 _m
399 742 461 709 505 645 _c
548 580 570 486 570 364 _c
570 241 548 147 505 83 _c
461 19 399 -13 318 -13 _c
236 -13 173 19 130 83 _c
87 147 66 241 66 364 _c
66 486 87 580 130 645 _c
173 709 236 742 318 742 _c
_cl}_d
/one{636 0 110 0 544 729 _sc
124 83 _m
285 83 _l
285 639 _l
110 604 _l
110 694 _l
284 729 _l
383 729 _l
383 83 _l
544 83 _l
544 0 _l
124 0 _l
124 83 _l
_cl}_d
/two{{636 0 73 0 536 742 _sc
192 83 _m
536 83 _l
536 0 _l
73 0 _l
73 83 _l
110 121 161 173 226 239 _c
290 304 331 346 348 365 _c
380 400 402 430 414 455 _c
426 479 433 504 433 528 _c
433 566 419 598 392 622 _c
365 646 330 659 286 659 _c
255 659 222 653 188 643 _c
154 632 117 616 78 594 _c
78 694 _l
118 710 155 722 189 730 _c
223 738 255 742 284 742 _c
}_e{359 742 419 723 464 685 _c
509 647 532 597 532 534 _c
532 504 526 475 515 449 _c
504 422 484 390 454 354 _c
446 344 420 317 376 272 _c
332 227 271 164 192 83 _c
_cl}_e}_d
/three{{636 0 76 -13 556 742 _sc
406 393 _m
453 383 490 362 516 330 _c
542 298 556 258 556 212 _c
556 140 531 84 482 45 _c
432 6 362 -13 271 -13 _c
240 -13 208 -10 176 -4 _c
144 1 110 10 76 22 _c
76 117 _l
103 101 133 89 166 81 _c
198 73 232 69 268 69 _c
330 69 377 81 409 105 _c
441 129 458 165 458 212 _c
458 254 443 288 413 312 _c
383 336 341 349 287 349 _c
}_e{202 349 _l
202 430 _l
291 430 _l
339 430 376 439 402 459 _c
428 478 441 506 441 543 _c
441 580 427 609 401 629 _c
374 649 336 659 287 659 _c
260 659 231 656 200 650 _c
169 644 135 635 98 623 _c
98 711 _l
135 721 170 729 203 734 _c
235 739 266 742 296 742 _c
370 742 429 725 473 691 _c
517 657 539 611 539 553 _c
539 513 527 479 504 451 _c
481 423 448 403 406 393 _c
_cl}_e}_d
/four{636 0 49 0 580 729 _sc
378 643 _m
129 254 _l
378 254 _l
378 643 _l
352 729 _m
476 729 _l
476 254 _l
580 254 _l
580 172 _l
476 172 _l
476 0 _l
378 0 _l
378 172 _l
49 172 _l
49 267 _l
352 729 _l
_cl}_d
/five{{636 0 77 -13 549 729 _sc
108 729 _m
495 729 _l
495 646 _l
198 646 _l
198 467 _l
212 472 227 476 241 478 _c
255 480 270 482 284 482 _c
365 482 429 459 477 415 _c
525 370 549 310 549 234 _c
549 155 524 94 475 51 _c
426 8 357 -13 269 -13 _c
238 -13 207 -10 175 -6 _c
143 -1 111 6 77 17 _c
77 116 _l
106 100 136 88 168 80 _c
199 72 232 69 267 69 _c
}_e{323 69 368 83 401 113 _c
433 143 450 183 450 234 _c
450 284 433 324 401 354 _c
368 384 323 399 267 399 _c
241 399 214 396 188 390 _c
162 384 135 375 108 363 _c
108 729 _l
_cl}_e}_d
/six{{636 0 70 -13 573 742 _sc
330 404 _m
286 404 251 388 225 358 _c
199 328 186 286 186 234 _c
186 181 199 139 225 109 _c
251 79 286 64 330 64 _c
374 64 409 79 435 109 _c
461 139 474 181 474 234 _c
474 286 461 328 435 358 _c
409 388 374 404 330 404 _c
526 713 _m
526 623 _l
501 635 476 644 451 650 _c
425 656 400 659 376 659 _c
310 659 260 637 226 593 _c
}_e{192 549 172 482 168 394 _c
187 422 211 444 240 459 _c
269 474 301 482 336 482 _c
409 482 467 459 509 415 _c
551 371 573 310 573 234 _c
573 159 550 99 506 54 _c
462 9 403 -13 330 -13 _c
246 -13 181 19 137 83 _c
92 147 70 241 70 364 _c
70 479 97 571 152 639 _c
206 707 280 742 372 742 _c
396 742 421 739 447 735 _c
472 730 498 723 526 713 _c
_cl}_e}_d
/seven{636 0 82 0 551 729 _sc
82 729 _m
551 729 _l
551 687 _l
286 0 _l
183 0 _l
432 646 _l
82 646 _l
82 729 _l
_cl}_d
/eight{{636 0 68 -13 568 742 _sc
318 346 _m
271 346 234 333 207 308 _c
180 283 167 249 167 205 _c
167 161 180 126 207 101 _c
234 76 271 64 318 64 _c
364 64 401 76 428 102 _c
455 127 469 161 469 205 _c
469 249 455 283 429 308 _c
402 333 365 346 318 346 _c
219 388 _m
177 398 144 418 120 447 _c
96 476 85 511 85 553 _c
85 611 105 657 147 691 _c
188 725 245 742 318 742 _c
}_e{390 742 447 725 489 691 _c
530 657 551 611 551 553 _c
551 511 539 476 515 447 _c
491 418 459 398 417 388 _c
464 377 501 355 528 323 _c
554 291 568 251 568 205 _c
568 134 546 80 503 43 _c
459 5 398 -13 318 -13 _c
237 -13 175 5 132 43 _c
89 80 68 134 68 205 _c
68 251 81 291 108 323 _c
134 355 171 377 219 388 _c
183 544 _m
183 506 194 476 218 455 _c
}_e{242 434 275 424 318 424 _c
360 424 393 434 417 455 _c
441 476 453 506 453 544 _c
453 582 441 611 417 632 _c
393 653 360 664 318 664 _c
275 664 242 653 218 632 _c
194 611 183 582 183 544 _c
_cl}_e}_d
/nine{{636 0 63 -13 566 742 _sc
110 15 _m
110 105 _l
134 93 159 84 185 78 _c
210 72 235 69 260 69 _c
324 69 374 90 408 134 _c
442 178 462 244 468 334 _c
448 306 424 284 396 269 _c
367 254 335 247 300 247 _c
226 247 168 269 126 313 _c
84 357 63 417 63 494 _c
63 568 85 628 129 674 _c
173 719 232 742 306 742 _c
390 742 455 709 499 645 _c
543 580 566 486 566 364 _c
}_e{566 248 538 157 484 89 _c
429 21 356 -13 264 -13 _c
239 -13 214 -10 189 -6 _c
163 -2 137 5 110 15 _c
306 324 _m
350 324 385 339 411 369 _c
437 399 450 441 450 494 _c
450 546 437 588 411 618 _c
385 648 350 664 306 664 _c
262 664 227 648 201 618 _c
175 588 162 546 162 494 _c
162 441 175 399 201 369 _c
227 339 262 324 306 324 _c
_cl}_e}_d
/A{684 0 8 0 676 729 _sc
342 632 _m
208 269 _l
476 269 _l
342 632 _l
286 729 _m
398 729 _l
676 0 _l
573 0 _l
507 187 _l
178 187 _l
112 0 _l
8 0 _l
286 729 _l
_cl}_d
/B{{686 0 98 0 615 729 _sc
197 348 _m
197 81 _l
355 81 _l
408 81 447 92 473 114 _c
498 136 511 169 511 215 _c
511 260 498 293 473 315 _c
447 337 408 348 355 348 _c
197 348 _l
197 648 _m
197 428 _l
343 428 _l
391 428 426 437 450 455 _c
474 473 486 500 486 538 _c
486 574 474 602 450 620 _c
426 638 391 648 343 648 _c
197 648 _l
98 729 _m
350 729 _l
}_e{425 729 483 713 524 682 _c
564 650 585 606 585 549 _c
585 504 574 468 553 442 _c
532 416 502 399 462 393 _c
510 382 548 360 575 327 _c
601 294 615 253 615 204 _c
615 138 592 88 548 53 _c
504 17 441 0 360 0 _c
98 0 _l
98 729 _l
_cl}_e}_d
/C{{698 0 56 -13 644 742 _sc
644 673 _m
644 569 _l
610 599 575 622 537 638 _c
499 653 460 661 418 661 _c
334 661 270 635 226 584 _c
182 533 160 460 160 364 _c
160 268 182 194 226 143 _c
270 92 334 67 418 67 _c
460 67 499 74 537 90 _c
575 105 610 128 644 159 _c
644 56 _l
609 32 572 15 534 4 _c
496 -7 455 -13 412 -13 _c
302 -13 215 20 151 87 _c
}_e{87 154 56 246 56 364 _c
56 481 87 573 151 641 _c
215 708 302 742 412 742 _c
456 742 497 736 535 725 _c
573 713 610 696 644 673 _c
_cl}_e}_d
/P{603 0 98 0 569 729 _sc
197 648 _m
197 374 _l
321 374 _l
367 374 402 385 427 409 _c
452 433 465 467 465 511 _c
465 555 452 588 427 612 _c
402 636 367 648 321 648 _c
197 648 _l
98 729 _m
321 729 _l
402 729 464 710 506 673 _c
548 636 569 582 569 511 _c
569 439 548 384 506 348 _c
464 311 402 293 321 293 _c
197 293 _l
197 0 _l
98 0 _l
98 729 _l
_cl}_d
/R{{695 0 98 0 666 729 _sc
444 342 _m
465 334 486 319 506 296 _c
526 272 546 240 566 199 _c
666 0 _l
560 0 _l
467 187 _l
443 235 419 268 397 284 _c
374 300 343 308 304 308 _c
197 308 _l
197 0 _l
98 0 _l
98 729 _l
321 729 _l
404 729 466 711 507 677 _c
548 642 569 589 569 519 _c
569 473 558 434 537 404 _c
515 374 484 353 444 342 _c
197 648 _m
197 389 _l
321 389 _l
}_e{368 389 404 400 428 422 _c
452 444 465 476 465 519 _c
465 561 452 593 428 615 _c
404 637 368 648 321 648 _c
197 648 _l
_cl}_e}_d
/S{{635 0 66 -13 579 742 _sc
535 705 _m
535 609 _l
497 627 462 640 429 649 _c
395 657 363 662 333 662 _c
279 662 237 651 208 631 _c
179 610 165 580 165 542 _c
165 510 174 485 194 469 _c
213 452 250 439 304 429 _c
364 417 _l
437 403 491 378 526 343 _c
561 307 579 260 579 201 _c
579 130 555 77 508 41 _c
460 5 391 -13 300 -13 _c
265 -13 228 -9 189 -2 _c
}_e{150 5 110 16 69 32 _c
69 134 _l
109 111 148 94 186 83 _c
224 71 262 66 300 66 _c
356 66 399 77 430 99 _c
460 121 476 152 476 194 _c
476 230 465 258 443 278 _c
421 298 385 313 335 323 _c
275 335 _l
201 349 148 372 115 404 _c
82 435 66 478 66 534 _c
66 598 88 649 134 686 _c
179 723 242 742 322 742 _c
356 742 390 739 426 733 _c
461 727 497 717 535 705 _c
}_e{_cl}_e}_d
/U{732 0 87 -13 645 729 _sc
87 729 _m
186 729 _l
186 286 _l
186 208 200 151 228 117 _c
256 83 302 66 366 66 _c
429 66 475 83 503 117 _c
531 151 546 208 546 286 _c
546 729 _l
645 729 _l
645 274 _l
645 178 621 107 574 59 _c
527 11 458 -13 366 -13 _c
274 -13 204 11 157 59 _c
110 107 87 178 87 274 _c
87 729 _l
_cl}_d
/a{{613 0 60 -13 522 560 _sc
343 275 _m
270 275 220 266 192 250 _c
164 233 150 205 150 165 _c
150 133 160 107 181 89 _c
202 70 231 61 267 61 _c
317 61 357 78 387 114 _c
417 149 432 196 432 255 _c
432 275 _l
343 275 _l
522 312 _m
522 0 _l
432 0 _l
432 83 _l
411 49 385 25 355 10 _c
325 -5 287 -13 243 -13 _c
187 -13 142 2 109 33 _c
76 64 60 106 60 159 _c
}_e{60 220 80 266 122 298 _c
163 329 224 345 306 345 _c
432 345 _l
432 354 _l
432 395 418 427 391 450 _c
364 472 326 484 277 484 _c
245 484 215 480 185 472 _c
155 464 127 453 100 439 _c
100 522 _l
132 534 164 544 195 550 _c
226 556 256 560 286 560 _c
365 560 424 539 463 498 _c
502 457 522 395 522 312 _c
_cl}_e}_d
/b{{635 0 91 -13 580 760 _sc
487 273 _m
487 339 473 390 446 428 _c
418 466 381 485 334 485 _c
286 485 249 466 222 428 _c
194 390 181 339 181 273 _c
181 207 194 155 222 117 _c
249 79 286 61 334 61 _c
381 61 418 79 446 117 _c
473 155 487 207 487 273 _c
181 464 _m
199 496 223 520 252 536 _c
281 552 316 560 356 560 _c
422 560 476 533 518 481 _c
559 428 580 359 580 273 _c
}_e{580 187 559 117 518 65 _c
476 13 422 -13 356 -13 _c
316 -13 281 -5 252 10 _c
223 25 199 49 181 82 _c
181 0 _l
91 0 _l
91 760 _l
181 760 _l
181 464 _l
_cl}_e}_d
/c{{550 0 55 -13 488 560 _sc
488 526 _m
488 442 _l
462 456 437 466 411 473 _c
385 480 360 484 334 484 _c
276 484 230 465 198 428 _c
166 391 150 339 150 273 _c
150 206 166 154 198 117 _c
230 80 276 62 334 62 _c
360 62 385 65 411 72 _c
437 79 462 90 488 104 _c
488 21 _l
462 9 436 0 410 -5 _c
383 -10 354 -13 324 -13 _c
242 -13 176 12 128 64 _c
}_e{79 115 55 185 55 273 _c
55 362 79 432 128 483 _c
177 534 244 560 330 560 _c
358 560 385 557 411 551 _c
437 545 463 537 488 526 _c
_cl}_e}_d
/d{{635 0 55 -13 544 760 _sc
454 464 _m
454 760 _l
544 760 _l
544 0 _l
454 0 _l
454 82 _l
435 49 411 25 382 10 _c
353 -5 319 -13 279 -13 _c
213 -13 159 13 117 65 _c
75 117 55 187 55 273 _c
55 359 75 428 117 481 _c
159 533 213 560 279 560 _c
319 560 353 552 382 536 _c
411 520 435 496 454 464 _c
148 273 _m
148 207 161 155 188 117 _c
215 79 253 61 301 61 _c
}_e{348 61 385 79 413 117 _c
440 155 454 207 454 273 _c
454 339 440 390 413 428 _c
385 466 348 485 301 485 _c
253 485 215 466 188 428 _c
161 390 148 339 148 273 _c
_cl}_e}_d
/e{{615 0 55 -13 562 560 _sc
562 296 _m
562 252 _l
149 252 _l
153 190 171 142 205 110 _c
238 78 284 62 344 62 _c
378 62 412 66 444 74 _c
476 82 509 95 541 113 _c
541 28 _l
509 14 476 3 442 -3 _c
408 -9 373 -13 339 -13 _c
251 -13 182 12 131 62 _c
80 112 55 181 55 268 _c
55 357 79 428 127 481 _c
175 533 241 560 323 560 _c
397 560 455 536 498 489 _c
}_e{540 441 562 377 562 296 _c
472 322 _m
471 371 457 410 431 440 _c
404 469 368 484 324 484 _c
274 484 234 469 204 441 _c
174 413 156 373 152 322 _c
472 322 _l
_cl}_e}_d
/i{278 0 94 0 184 760 _sc
94 547 _m
184 547 _l
184 0 _l
94 0 _l
94 547 _l
94 760 _m
184 760 _l
184 646 _l
94 646 _l
94 760 _l
_cl}_d
/l{278 0 94 0 184 760 _sc
94 760 _m
184 760 _l
184 0 _l
94 0 _l
94 760 _l
_cl}_d
/m{{974 0 91 0 889 560 _sc
520 442 _m
542 482 569 511 600 531 _c
631 550 668 560 711 560 _c
767 560 811 540 842 500 _c
873 460 889 403 889 330 _c
889 0 _l
799 0 _l
799 327 _l
799 379 789 418 771 444 _c
752 469 724 482 686 482 _c
639 482 602 466 575 435 _c
548 404 535 362 535 309 _c
535 0 _l
445 0 _l
445 327 _l
445 379 435 418 417 444 _c
398 469 369 482 331 482 _c
}_e{285 482 248 466 221 435 _c
194 404 181 362 181 309 _c
181 0 _l
91 0 _l
91 547 _l
181 547 _l
181 462 _l
201 495 226 520 255 536 _c
283 552 317 560 357 560 _c
397 560 430 550 458 530 _c
486 510 506 480 520 442 _c
_cl}_e}_d
/n{634 0 91 0 549 560 _sc
549 330 _m
549 0 _l
459 0 _l
459 327 _l
459 379 448 417 428 443 _c
408 469 378 482 338 482 _c
289 482 251 466 223 435 _c
195 404 181 362 181 309 _c
181 0 _l
91 0 _l
91 547 _l
181 547 _l
181 462 _l
202 494 227 519 257 535 _c
286 551 320 560 358 560 _c
420 560 468 540 500 501 _c
532 462 549 405 549 330 _c
_cl}_d
/o{612 0 55 -13 557 560 _sc
306 484 _m
258 484 220 465 192 427 _c
164 389 150 338 150 273 _c
150 207 163 156 191 118 _c
219 80 257 62 306 62 _c
354 62 392 80 420 118 _c
448 156 462 207 462 273 _c
462 337 448 389 420 427 _c
392 465 354 484 306 484 _c
306 560 _m
384 560 445 534 490 484 _c
534 433 557 363 557 273 _c
557 183 534 113 490 63 _c
445 12 384 -13 306 -13 _c
227 -13 165 12 121 63 _c
77 113 55 183 55 273 _c
55 363 77 433 121 484 _c
165 534 227 560 306 560 _c
_cl}_d
/q{{635 0 55 -207 544 560 _sc
148 273 _m
148 207 161 155 188 117 _c
215 79 253 61 301 61 _c
348 61 385 79 413 117 _c
440 155 454 207 454 273 _c
454 339 440 390 413 428 _c
385 466 348 485 301 485 _c
253 485 215 466 188 428 _c
161 390 148 339 148 273 _c
454 82 _m
435 49 411 25 382 10 _c
353 -5 319 -13 279 -13 _c
213 -13 159 13 117 65 _c
75 117 55 187 55 273 _c
}_e{55 359 75 428 117 481 _c
159 533 213 560 279 560 _c
319 560 353 552 382 536 _c
411 520 435 496 454 464 _c
454 547 _l
544 547 _l
544 -207 _l
454 -207 _l
454 82 _l
_cl}_e}_d
/r{411 0 91 0 411 560 _sc
411 463 _m
401 469 390 473 378 476 _c
366 478 353 480 339 480 _c
288 480 249 463 222 430 _c
194 397 181 350 181 288 _c
181 0 _l
91 0 _l
91 547 _l
181 547 _l
181 462 _l
199 495 224 520 254 536 _c
284 552 321 560 365 560 _c
371 560 378 559 386 559 _c
393 558 401 557 411 555 _c
411 463 _l
_cl}_d
/s{{521 0 54 -13 472 560 _sc
443 531 _m
443 446 _l
417 458 391 468 364 475 _c
336 481 308 485 279 485 _c
234 485 200 478 178 464 _c
156 450 145 430 145 403 _c
145 382 153 366 169 354 _c
185 342 217 330 265 320 _c
296 313 _l
360 299 405 279 432 255 _c
458 230 472 195 472 151 _c
472 100 452 60 412 31 _c
372 1 316 -13 246 -13 _c
216 -13 186 -10 154 -5 _c
}_e{122 0 89 8 54 20 _c
54 113 _l
87 95 120 82 152 74 _c
184 65 216 61 248 61 _c
290 61 323 68 346 82 _c
368 96 380 117 380 144 _c
380 168 371 187 355 200 _c
339 213 303 226 247 238 _c
216 245 _l
160 257 119 275 95 299 _c
70 323 58 356 58 399 _c
58 450 76 490 112 518 _c
148 546 200 560 268 560 _c
301 560 332 557 362 552 _c
391 547 418 540 443 531 _c
}_e{_cl}_e}_d
/t{392 0 27 0 368 702 _sc
183 702 _m
183 547 _l
368 547 _l
368 477 _l
183 477 _l
183 180 _l
183 135 189 106 201 94 _c
213 81 238 75 276 75 _c
368 75 _l
368 0 _l
276 0 _l
206 0 158 13 132 39 _c
106 65 93 112 93 180 _c
93 477 _l
27 477 _l
27 547 _l
93 547 _l
93 702 _l
183 702 _l
_cl}_d
/u{634 0 85 -13 543 560 _sc
85 216 _m
85 547 _l
175 547 _l
175 219 _l
175 167 185 129 205 103 _c
225 77 255 64 296 64 _c
344 64 383 79 411 110 _c
439 141 453 183 453 237 _c
453 547 _l
543 547 _l
543 0 _l
453 0 _l
453 84 _l
431 50 405 26 377 10 _c
348 -5 315 -13 277 -13 _c
214 -13 166 6 134 45 _c
101 83 85 140 85 216 _c
311 560 _m
311 560 _l
_cl}_d
/v{592 0 30 0 562 547 _sc
30 547 _m
125 547 _l
296 88 _l
467 547 _l
562 547 _l
357 0 _l
235 0 _l
30 547 _l
_cl}_d
/x{592 0 29 0 559 547 _sc
549 547 _m
351 281 _l
559 0 _l
453 0 _l
294 215 _l
135 0 _l
29 0 _l
241 286 _l
47 547 _l
153 547 _l
298 352 _l
443 547 _l
549 547 _l
_cl}_d
end readonly def

/BuildGlyph
 {exch begin
 CharStrings exch
 2 copy known not{pop /.notdef}if
 true 3 1 roll get exec
 end}_d

/BuildChar {
 1 index /Encoding get exch get
 1 index /BuildGlyph get exec
}_d

FontName currentdict end definefont pop
end
%%EndProlog
mpldict begin
90 252 translate
432 288 0 0 clipbox
gsave
0 0 m
432 0 l
432 288 l
0 288 l
cl
1.000 setgray
fill
grestore
gsave
32.827273 111.7088 m
195.129545 111.7088 l
195.129545 284 l
32.827273 284 l
cl
1.000 setgray
fill
grestore
gsave
162.3 172.3 32.83 111.7 clipbox
46.352462 -30208.021619 m
55.369255 -30208.021619 l
55.369255 119.540218 l
46.352462 119.540218 l
cl
0.122 0.467 0.706 setrgbcolor
fill
grestore
gsave
162.3 172.3 32.83 111.7 clipbox
100.45322 -30208.021619 m
109.470013 -30208.021619 l
109.470013 134.010143 l
100.45322 134.010143 l
cl
0.122 0.467 0.706 setrgbcolor
fill
grestore
gsave
162.3 172.3 32.83 111.7 clipbox
154.553977 -30208.021619 m
163.57077 -30208.021619 l
163.57077 134.010143 l
154.553977 134.010143 l
cl
0.122 0.467 0.706 setrgbcolor
fill
grestore
gsave
162.3 172.3 32.83 111.7 clipbox
55.369255 -30208.021619 m
64.386048 -30208.021619 l
64.386048 157.609573 l
55.369255 157.609573 l
cl
1.000 0.498 0.055 setrgbcolor
fill
grestore
gsave
162.3 172.3 32.83 111.7 clipbox
109.470013 -30208.021619 m
118.486806 -30208.021619 l
118.486806 261.858548 l
109.470013 261.858548 l
cl
1.000 0.498 0.055 setrgbcolor
fill
grestore
gsave
162.3 172.3 32.83 111.7 clipbox
163.57077 -30208.021619 m
172.587563 -30208.021619 l
172.587563 276.168582 l
163.57077 276.168582 l
cl
1.000 0.498 0.055 setrgbcolor
fill
grestore
gsave
162.3 172.3 32.83 111.7 clipbox
64.386048 -30208.021619 m
73.402841 -30208.021619 l
73.402841 119.540218 l
64.386048 119.540218 l
cl
0.173 0.627 0.173 setrgbcolor
fill
grestore
gsave
162.3 172.3 32.83 111.7 clipbox
118.486806 -30208.021619 m
127.503598 -30208.021619 l
127.503598 119.540218 l
118.486806 119.540218 l
cl
0.173 0.627 0.173 setrgbcolor
fill
grestore
gsave
162.3 172.3 32.83 111.7 clipbox
172.587563 -30208.021619 m
181.604356 -30208.021619 l
181.604356 276.168582 l
172.587563 276.168582 l
cl
0.173 0.627 0.173 setrgbcolor
fill
grestore
0.800 setlinewidth
1 setlinejoin
0 setlinecap
[] 0 setdash
0.000 setgray
gsave
/o {
gsave
newpath
translate
0.8 setlinewidth
1 setlinejoin
0 setlinecap
0 0 m
0 -3.5 l

gsave
0.000 setgray
fill
grestore
stroke
grestore
} bind def
59.8777 111.709 o
grestore
/DejaVuSans findfont
10.000 scalefont
setfont
gsave
62.635464 77.068175 translate
90.000000 rotate
0.000000 0.000000 m /R glyphshow
6.948242 0.000000 m /B glyphshow
13.808594 0.000000 m /A glyphshow
20.649414 0.000000 m /C glyphshow
grestore
gsave
/o {
gsave
newpath
translate
0.8 setlinewidth
1 setlinejoin
0 setlinecap
0 0 m
0 -3.5 l

gsave
0.000 setgray
fill
grestore
stroke
grestore
} bind def
113.978 111.709 o
grestore
gsave
116.736222 77.177550 translate
90.000000 rotate
0.000000 0.000000 m /A glyphshow
6.840820 0.000000 m /B glyphshow
13.701172 0.000000 m /A glyphshow
20.541992 0.000000 m /C glyphshow
grestore
gsave
/o {
gsave
newpath
translate
0.8 setlinewidth
1 setlinejoin
0 setlinecap
0 0 m
0 -3.5 l

gsave
0.000 setgray
fill
grestore
stroke
grestore
} bind def
168.079 111.709 o
grestore
gsave
170.836979 64.677550 translate
90.000000 rotate
0.000000 0.000000 m /P glyphshow
6.030273 0.000000 m /A glyphshow
12.871094 0.000000 m /C glyphshow
19.853516 0.000000 m /S glyphshow
26.201172 0.000000 m /A glyphshow
33.041992 0.000000 m /C glyphshow
grestore
gsave
/o {
gsave
newpath
translate
0.8 setlinewidth
1 setlinejoin
0 setlinecap
0 0 m
-3.5 0 l

gsave
0.000 setgray
fill
grestore
stroke
grestore
} bind def
32.8273 119.54 o
grestore
gsave
7.827273 115.079281 translate
0.000000 rotate
/DejaVuSans findfont
10.0 scalefont
setfont
0.000000 0.976562 moveto
/one glyphshow

6.362305 0.976562 moveto
/zero glyphshow

/DejaVuSans findfont
7.0 scalefont
setfont
12.820312 4.804688 moveto
/zero glyphshow


grestore
gsave
/o {
gsave
newpath
translate
0.8 setlinewidth
1 setlinejoin
0 setlinecap
0 0 m
-3.5 0 l

gsave
0.000 setgray
fill
grestore
stroke
grestore
} bind def
32.8273 149.868 o
grestore
gsave
7.827273 145.906843 translate
0.000000 rotate
/DejaVuSans findfont
10.0 scalefont
setfont
0.000000 0.064063 moveto
/one glyphshow

6.362305 0.064063 moveto
/zero glyphshow

/DejaVuSans findfont
7.0 scalefont
setfont
12.820312 3.892188 moveto
/one glyphshow


grestore
gsave
/o {
gsave
newpath
translate
0.8 setlinewidth
1 setlinejoin
0 setlinecap
0 0 m
-3.5 0 l

gsave
0.000 setgray
fill
grestore
stroke
grestore
} bind def
32.8273 180.195 o
grestore
gsave
7.827273 175.734404 translate
0.000000 rotate
/DejaVuSans findfont
10.0 scalefont
setfont
0.000000 0.976562 moveto
/one glyphshow

6.362305 0.976562 moveto
/zero glyphshow

/DejaVuSans findfont
7.0 scalefont
setfont
12.820312 4.804688 moveto
/two glyphshow


grestore
gsave
/o {
gsave
newpath
translate
0.8 setlinewidth
1 setlinejoin
0 setlinecap
0 0 m
-3.5 0 l

gsave
0.000 setgray
fill
grestore
stroke
grestore
} bind def
32.8273 210.523 o
grestore
gsave
7.827273 206.061966 translate
0.000000 rotate
/DejaVuSans findfont
10.0 scalefont
setfont
0.000000 0.976562 moveto
/one glyphshow

6.362305 0.976562 moveto
/zero glyphshow

/DejaVuSans findfont
7.0 scalefont
setfont
12.820312 4.804688 moveto
/three glyphshow


grestore
gsave
/o {
gsave
newpath
translate
0.8 setlinewidth
1 setlinejoin
0 setlinecap
0 0 m
-3.5 0 l

gsave
0.000 setgray
fill
grestore
stroke
grestore
} bind def
32.8273 240.85 o
grestore
gsave
7.827273 236.889528 translate
0.000000 rotate
/DejaVuSans findfont
10.0 scalefont
setfont
0.000000 0.064063 moveto
/one glyphshow

6.362305 0.064063 moveto
/zero glyphshow

/DejaVuSans findfont
7.0 scalefont
setfont
12.820312 3.892188 moveto
/four glyphshow


grestore
gsave
/o {
gsave
newpath
translate
0.8 setlinewidth
1 setlinejoin
0 setlinecap
0 0 m
-3.5 0 l

gsave
0.000 setgray
fill
grestore
stroke
grestore
} bind def
32.8273 271.178 o
grestore
gsave
7.827273 267.217090 translate
0.000000 rotate
/DejaVuSans findfont
10.0 scalefont
setfont
0.000000 0.064063 moveto
/one glyphshow

6.362305 0.064063 moveto
/zero glyphshow

/DejaVuSans findfont
7.0 scalefont
setfont
12.820312 3.892188 moveto
/five glyphshow


grestore
0.600 setlinewidth
gsave
/o {
gsave
newpath
translate
0.6 setlinewidth
1 setlinejoin
0 setlinecap
0 0 m
-2 0 l

gsave
0.000 setgray
fill
grestore
stroke
grestore
} bind def
32.8273 112.812 o
grestore
gsave
/o {
gsave
newpath
translate
0.6 setlinewidth
1 setlinejoin
0 setlinecap
0 0 m
-2 0 l

gsave
0.000 setgray
fill
grestore
stroke
grestore
} bind def
32.8273 114.842 o
grestore
gsave
/o {
gsave
newpath
translate
0.6 setlinewidth
1 setlinejoin
0 setlinecap
0 0 m
-2 0 l

gsave
0.000 setgray
fill
grestore
stroke
grestore
} bind def
32.8273 116.601 o
grestore
gsave
/o {
gsave
newpath
translate
0.6 setlinewidth
1 setlinejoin
0 setlinecap
0 0 m
-2 0 l

gsave
0.000 setgray
fill
grestore
stroke
grestore
} bind def
32.8273 118.153 o
grestore
gsave
/o {
gsave
newpath
translate
0.6 setlinewidth
1 setlinejoin
0 setlinecap
0 0 m
-2 0 l

gsave
0.000 setgray
fill
grestore
stroke
grestore
} bind def
32.8273 128.67 o
grestore
gsave
/o {
gsave
newpath
translate
0.6 setlinewidth
1 setlinejoin
0 setlinecap
0 0 m
-2 0 l

gsave
0.000 setgray
fill
grestore
stroke
grestore
} bind def
32.8273 134.01 o
grestore
gsave
/o {
gsave
newpath
translate
0.6 setlinewidth
1 setlinejoin
0 setlinecap
0 0 m
-2 0 l

gsave
0.000 setgray
fill
grestore
stroke
grestore
} bind def
32.8273 137.799 o
grestore
gsave
/o {
gsave
newpath
translate
0.6 setlinewidth
1 setlinejoin
0 setlinecap
0 0 m
-2 0 l

gsave
0.000 setgray
fill
grestore
stroke
grestore
} bind def
32.8273 140.738 o
grestore
gsave
/o {
gsave
newpath
translate
0.6 setlinewidth
1 setlinejoin
0 setlinecap
0 0 m
-2 0 l

gsave
0.000 setgray
fill
grestore
stroke
grestore
} bind def
32.8273 143.14 o
grestore
gsave
/o {
gsave
newpath
translate
0.6 setlinewidth
1 setlinejoin
0 setlinecap
0 0 m
-2 0 l

gsave
0.000 setgray
fill
grestore
stroke
grestore
} bind def
32.8273 145.17 o
grestore
gsave
/o {
gsave
newpath
translate
0.6 setlinewidth
1 setlinejoin
0 setlinecap
0 0 m
-2 0 l

gsave
0.000 setgray
fill
grestore
stroke
grestore
} bind def
32.8273 146.929 o
grestore
gsave
/o {
gsave
newpath
translate
0.6 setlinewidth
1 setlinejoin
0 setlinecap
0 0 m
-2 0 l

gsave
0.000 setgray
fill
grestore
stroke
grestore
} bind def
32.8273 148.48 o
grestore
gsave
/o {
gsave
newpath
translate
0.6 setlinewidth
1 setlinejoin
0 setlinecap
0 0 m
-2 0 l

gsave
0.000 setgray
fill
grestore
stroke
grestore
} bind def
32.8273 158.997 o
grestore
gsave
/o {
gsave
newpath
translate
0.6 setlinewidth
1 setlinejoin
0 setlinecap
0 0 m
-2 0 l

gsave
0.000 setgray
fill
grestore
stroke
grestore
} bind def
32.8273 164.338 o
grestore
gsave
/o {
gsave
newpath
translate
0.6 setlinewidth
1 setlinejoin
0 setlinecap
0 0 m
-2 0 l

gsave
0.000 setgray
fill
grestore
stroke
grestore
} bind def
32.8273 168.127 o
grestore
gsave
/o {
gsave
newpath
translate
0.6 setlinewidth
1 setlinejoin
0 setlinecap
0 0 m
-2 0 l

gsave
0.000 setgray
fill
grestore
stroke
grestore
} bind def
32.8273 171.066 o
grestore
gsave
/o {
gsave
newpath
translate
0.6 setlinewidth
1 setlinejoin
0 setlinecap
0 0 m
-2 0 l

gsave
0.000 setgray
fill
grestore
stroke
grestore
} bind def
32.8273 173.467 o
grestore
gsave
/o {
gsave
newpath
translate
0.6 setlinewidth
1 setlinejoin
0 setlinecap
0 0 m
-2 0 l

gsave
0.000 setgray
fill
grestore
stroke
grestore
} bind def
32.8273 175.498 o
grestore
gsave
/o {
gsave
newpath
translate
0.6 setlinewidth
1 setlinejoin
0 setlinecap
0 0 m
-2 0 l

gsave
0.000 setgray
fill
grestore
stroke
grestore
} bind def
32.8273 177.256 o
grestore
gsave
/o {
gsave
newpath
translate
0.6 setlinewidth
1 setlinejoin
0 setlinecap
0 0 m
-2 0 l

gsave
0.000 setgray
fill
grestore
stroke
grestore
} bind def
32.8273 178.808 o
grestore
gsave
/o {
gsave
newpath
translate
0.6 setlinewidth
1 setlinejoin
0 setlinecap
0 0 m
-2 0 l

gsave
0.000 setgray
fill
grestore
stroke
grestore
} bind def
32.8273 189.325 o
grestore
gsave
/o {
gsave
newpath
translate
0.6 setlinewidth
1 setlinejoin
0 setlinecap
0 0 m
-2 0 l

gsave
0.000 setgray
fill
grestore
stroke
grestore
} bind def
32.8273 194.665 o
grestore
gsave
/o {
gsave
newpath
translate
0.6 setlinewidth
1 setlinejoin
0 setlinecap
0 0 m
-2 0 l

gsave
0.000 setgray
fill
grestore
stroke
grestore
} bind def
32.8273 198.454 o
grestore
gsave
/o {
gsave
newpath
translate
0.6 setlinewidth
1 setlinejoin
0 setlinecap
0 0 m
-2 0 l

gsave
0.000 setgray
fill
grestore
stroke
grestore
} bind def
32.8273 201.393 o
grestore
gsave
/o {
gsave
newpath
translate
0.6 setlinewidth
1 setlinejoin
0 setlinecap
0 0 m
-2 0 l

gsave
0.000 setgray
fill
grestore
stroke
grestore
} bind def
32.8273 203.795 o
grestore
gsave
/o {
gsave
newpath
translate
0.6 setlinewidth
1 setlinejoin
0 setlinecap
0 0 m
-2 0 l

gsave
0.000 setgray
fill
grestore
stroke
grestore
} bind def
32.8273 205.825 o
grestore
gsave
/o {
gsave
newpath
translate
0.6 setlinewidth
1 setlinejoin
0 setlinecap
0 0 m
-2 0 l

gsave
0.000 setgray
fill
grestore
stroke
grestore
} bind def
32.8273 207.584 o
grestore
gsave
/o {
gsave
newpath
translate
0.6 setlinewidth
1 setlinejoin
0 setlinecap
0 0 m
-2 0 l

gsave
0.000 setgray
fill
grestore
stroke
grestore
} bind def
32.8273 209.135 o
grestore
gsave
/o {
gsave
newpath
translate
0.6 setlinewidth
1 setlinejoin
0 setlinecap
0 0 m
-2 0 l

gsave
0.000 setgray
fill
grestore
stroke
grestore
} bind def
32.8273 219.652 o
grestore
gsave
/o {
gsave
newpath
translate
0.6 setlinewidth
1 setlinejoin
0 setlinecap
0 0 m
-2 0 l

gsave
0.000 setgray
fill
grestore
stroke
grestore
} bind def
32.8273 224.993 o
grestore
gsave
/o {
gsave
newpath
translate
0.6 setlinewidth
1 setlinejoin
0 setlinecap
0 0 m
-2 0 l

gsave
0.000 setgray
fill
grestore
stroke
grestore
} bind def
32.8273 228.782 o
grestore
gsave
/o {
gsave
newpath
translate
0.6 setlinewidth
1 setlinejoin
0 setlinecap
0 0 m
-2 0 l

gsave
0.000 setgray
fill
grestore
stroke
grestore
} bind def
32.8273 231.721 o
grestore
gsave
/o {
gsave
newpath
translate
0.6 setlinewidth
1 setlinejoin
0 setlinecap
0 0 m
-2 0 l

gsave
0.000 setgray
fill
grestore
stroke
grestore
} bind def
32.8273 234.122 o
grestore
gsave
/o {
gsave
newpath
translate
0.6 setlinewidth
1 setlinejoin
0 setlinecap
0 0 m
-2 0 l

gsave
0.000 setgray
fill
grestore
stroke
grestore
} bind def
32.8273 236.153 o
grestore
gsave
/o {
gsave
newpath
translate
0.6 setlinewidth
1 setlinejoin
0 setlinecap
0 0 m
-2 0 l

gsave
0.000 setgray
fill
grestore
stroke
grestore
} bind def
32.8273 237.911 o
grestore
gsave
/o {
gsave
newpath
translate
0.6 setlinewidth
1 setlinejoin
0 setlinecap
0 0 m
-2 0 l

gsave
0.000 setgray
fill
grestore
stroke
grestore
} bind def
32.8273 239.463 o
grestore
gsave
/o {
gsave
newpath
translate
0.6 setlinewidth
1 setlinejoin
0 setlinecap
0 0 m
-2 0 l

gsave
0.000 setgray
fill
grestore
stroke
grestore
} bind def
32.8273 249.98 o
grestore
gsave
/o {
gsave
newpath
translate
0.6 setlinewidth
1 setlinejoin
0 setlinecap
0 0 m
-2 0 l

gsave
0.000 setgray
fill
grestore
stroke
grestore
} bind def
32.8273 255.32 o
grestore
gsave
/o {
gsave
newpath
translate
0.6 setlinewidth
1 setlinejoin
0 setlinecap
0 0 m
-2 0 l

gsave
0.000 setgray
fill
grestore
stroke
grestore
} bind def
32.8273 259.109 o
grestore
gsave
/o {
gsave
newpath
translate
0.6 setlinewidth
1 setlinejoin
0 setlinecap
0 0 m
-2 0 l

gsave
0.000 setgray
fill
grestore
stroke
grestore
} bind def
32.8273 262.049 o
grestore
gsave
/o {
gsave
newpath
translate
0.6 setlinewidth
1 setlinejoin
0 setlinecap
0 0 m
-2 0 l

gsave
0.000 setgray
fill
grestore
stroke
grestore
} bind def
32.8273 264.45 o
grestore
gsave
/o {
gsave
newpath
translate
0.6 setlinewidth
1 setlinejoin
0 setlinecap
0 0 m
-2 0 l

gsave
0.000 setgray
fill
grestore
stroke
grestore
} bind def
32.8273 266.48 o
grestore
gsave
/o {
gsave
newpath
translate
0.6 setlinewidth
1 setlinejoin
0 setlinecap
0 0 m
-2 0 l

gsave
0.000 setgray
fill
grestore
stroke
grestore
} bind def
32.8273 268.239 o
grestore
gsave
/o {
gsave
newpath
translate
0.6 setlinewidth
1 setlinejoin
0 setlinecap
0 0 m
-2 0 l

gsave
0.000 setgray
fill
grestore
stroke
grestore
} bind def
32.8273 269.79 o
grestore
gsave
/o {
gsave
newpath
translate
0.6 setlinewidth
1 setlinejoin
0 setlinecap
0 0 m
-2 0 l

gsave
0.000 setgray
fill
grestore
stroke
grestore
} bind def
32.8273 280.308 o
grestore
gsave
6.403807 163.432525 translate
90.000000 rotate
0.000000 0.000000 m /C glyphshow
6.982422 0.000000 m /o glyphshow
13.100586 0.000000 m /m glyphshow
22.841797 0.000000 m /b glyphshow
29.189453 0.000000 m /i glyphshow
31.967773 0.000000 m /n glyphshow
38.305664 0.000000 m /a glyphshow
44.433594 0.000000 m /t glyphshow
48.354492 0.000000 m /i glyphshow
51.132812 0.000000 m /o glyphshow
57.250977 0.000000 m /n glyphshow
63.588867 0.000000 m /s glyphshow
grestore
0.800 setlinewidth
0 setlinejoin
2 setlinecap
[] 0 setdash
gsave
32.827273 111.7088 m
32.827273 284 l
stroke
grestore
gsave
195.129545 111.7088 m
195.129545 284 l
stroke
grestore
gsave
32.827273 111.7088 m
195.129545 111.7088 l
stroke
grestore
gsave
32.827273 284 m
195.129545 284 l
stroke
grestore
1.000 setlinewidth
0 setlinecap
0.800 setgray
gsave
44.650284 13.174551 m
183.306534 13.174551 l
184.639867 13.174551 185.306534 13.841218 185.306534 15.174551 c
185.306534 58.190176 l
185.306534 59.523509 184.639867 60.190176 183.306534 60.190176 c
44.650284 60.190176 l
43.316951 60.190176 42.650284 59.523509 42.650284 58.190176 c
42.650284 15.174551 l
42.650284 13.841218 43.316951 13.174551 44.650284 13.174551 c
cl
gsave
1.000 setgray
fill
grestore
stroke
grestore
gsave
46.650284 48.596426 m
66.650284 48.596426 l
66.650284 55.596426 l
46.650284 55.596426 l
cl
0.122 0.467 0.706 setrgbcolor
fill
grestore
0.000 setgray
gsave
74.650284 48.596426 translate
0.000000 rotate
0.000000 0.000000 m /C glyphshow
6.982422 0.000000 m /o glyphshow
13.100586 0.000000 m /n glyphshow
19.438477 0.000000 m /t glyphshow
23.359375 0.000000 m /e glyphshow
29.511719 0.000000 m /x glyphshow
35.429688 0.000000 m /t glyphshow
39.350586 0.000000 m /u glyphshow
45.688477 0.000000 m /a glyphshow
51.816406 0.000000 m /l glyphshow
54.594727 0.000000 m /space glyphshow
57.773438 0.000000 m /a glyphshow
63.901367 0.000000 m /t glyphshow
67.822266 0.000000 m /t glyphshow
71.743164 0.000000 m /r glyphshow
75.854492 0.000000 m /i glyphshow
78.632812 0.000000 m /b glyphshow
84.980469 0.000000 m /u glyphshow
91.318359 0.000000 m /t glyphshow
95.239258 0.000000 m /e glyphshow
101.391602 0.000000 m /s glyphshow
grestore
gsave
46.650284 33.924551 m
66.650284 33.924551 l
66.650284 40.924551 l
46.650284 40.924551 l
cl
1.000 0.498 0.055 setrgbcolor
fill
grestore
gsave
74.650284 33.924551 translate
0.000000 rotate
0.000000 0.000000 m /U glyphshow
7.319336 0.000000 m /n glyphshow
13.657227 0.000000 m /i glyphshow
16.435547 0.000000 m /q glyphshow
22.783203 0.000000 m /u glyphshow
29.121094 0.000000 m /e glyphshow
35.273438 0.000000 m /space glyphshow
38.452148 0.000000 m /r glyphshow
42.563477 0.000000 m /u glyphshow
48.901367 0.000000 m /l glyphshow
51.679688 0.000000 m /e glyphshow
57.832031 0.000000 m /s glyphshow
grestore
gsave
46.650284 19.252676 m
66.650284 19.252676 l
66.650284 26.252676 l
46.650284 26.252676 l
cl
0.173 0.627 0.173 setrgbcolor
fill
grestore
gsave
74.650284 19.252676 translate
0.000000 rotate
0.000000 0.000000 m /U glyphshow
7.319336 0.000000 m /n glyphshow
13.657227 0.000000 m /i glyphshow
16.435547 0.000000 m /q glyphshow
22.783203 0.000000 m /u glyphshow
29.121094 0.000000 m /e glyphshow
35.273438 0.000000 m /space glyphshow
38.452148 0.000000 m /a glyphshow
44.580078 0.000000 m /c glyphshow
50.078125 0.000000 m /c glyphshow
55.576172 0.000000 m /e glyphshow
61.728516 0.000000 m /s glyphshow
66.938477 0.000000 m /s glyphshow
72.148438 0.000000 m /space glyphshow
75.327148 0.000000 m /l glyphshow
78.105469 0.000000 m /e glyphshow
84.257812 0.000000 m /v glyphshow
90.175781 0.000000 m /e glyphshow
96.328125 0.000000 m /l glyphshow
99.106445 0.000000 m /s glyphshow
grestore
gsave
232.413636 111.7088 m
394.715909 111.7088 l
394.715909 284 l
232.413636 284 l
cl
1.000 setgray
fill
grestore
gsave
162.3 172.3 232.4 111.7 clipbox
245.938826 111.7088 m
272.989205 111.7088 l
272.989205 249.54176 l
245.938826 249.54176 l
cl
0.267 0.005 0.329 setrgbcolor
fill
grestore
gsave
162.3 172.3 232.4 111.7 clipbox
300.039583 111.7088 m
327.089962 111.7088 l
327.089962 128.93792 l
300.039583 128.93792 l
cl
0.267 0.005 0.329 setrgbcolor
fill
grestore
gsave
162.3 172.3 232.4 111.7 clipbox
354.140341 111.7088 m
381.19072 111.7088 l
381.19072 134.68096 l
354.140341 134.68096 l
cl
0.267 0.005 0.329 setrgbcolor
fill
grestore
gsave
162.3 172.3 232.4 111.7 clipbox
245.938826 249.54176 m
272.989205 249.54176 l
272.989205 284 l
245.938826 284 l
cl
0.230 0.322 0.546 setrgbcolor
fill
grestore
gsave
162.3 172.3 232.4 111.7 clipbox
300.039583 128.93792 m
327.089962 128.93792 l
327.089962 284 l
300.039583 284 l
cl
0.230 0.322 0.546 setrgbcolor
fill
grestore
gsave
162.3 172.3 232.4 111.7 clipbox
354.140341 134.68096 m
381.19072 134.68096 l
381.19072 166.841984 l
354.140341 166.841984 l
cl
0.230 0.322 0.546 setrgbcolor
fill
grestore
gsave
162.3 172.3 232.4 111.7 clipbox
245.938826 111.7088 m
272.989205 111.7088 l
272.989205 111.7088 l
245.938826 111.7088 l
cl
0.128 0.567 0.551 setrgbcolor
fill
grestore
gsave
162.3 172.3 232.4 111.7 clipbox
300.039583 111.7088 m
327.089962 111.7088 l
327.089962 111.7088 l
300.039583 111.7088 l
cl
0.128 0.567 0.551 setrgbcolor
fill
grestore
gsave
162.3 172.3 232.4 111.7 clipbox
354.140341 166.841984 m
381.19072 166.841984 l
381.19072 238.05568 l
354.140341 238.05568 l
cl
0.128 0.567 0.551 setrgbcolor
fill
grestore
gsave
162.3 172.3 232.4 111.7 clipbox
245.938826 111.7088 m
272.989205 111.7088 l
272.989205 111.7088 l
245.938826 111.7088 l
cl
0.369 0.789 0.383 setrgbcolor
fill
grestore
gsave
162.3 172.3 232.4 111.7 clipbox
300.039583 111.7088 m
327.089962 111.7088 l
327.089962 111.7088 l
300.039583 111.7088 l
cl
0.369 0.789 0.383 setrgbcolor
fill
grestore
gsave
162.3 172.3 232.4 111.7 clipbox
354.140341 238.05568 m
381.19072 238.05568 l
381.19072 249.54176 l
354.140341 249.54176 l
cl
0.369 0.789 0.383 setrgbcolor
fill
grestore
gsave
162.3 172.3 232.4 111.7 clipbox
245.938826 111.7088 m
272.989205 111.7088 l
272.989205 111.7088 l
245.938826 111.7088 l
cl
0.993 0.906 0.144 setrgbcolor
fill
grestore
gsave
162.3 172.3 232.4 111.7 clipbox
300.039583 111.7088 m
327.089962 111.7088 l
327.089962 111.7088 l
300.039583 111.7088 l
cl
0.993 0.906 0.144 setrgbcolor
fill
grestore
gsave
162.3 172.3 232.4 111.7 clipbox
354.140341 249.54176 m
381.19072 249.54176 l
381.19072 284 l
354.140341 284 l
cl
0.993 0.906 0.144 setrgbcolor
fill
grestore
0.800 setlinewidth
1 setlinejoin
[] 0 setdash
gsave
/o {
gsave
newpath
translate
0.8 setlinewidth
1 setlinejoin
0 setlinecap
0 0 m
0 -3.5 l

gsave
0.000 setgray
fill
grestore
stroke
grestore
} bind def
259.464 111.709 o
grestore
gsave
262.221828 77.068175 translate
90.000000 rotate
0.000000 0.000000 m /R glyphshow
6.948242 0.000000 m /B glyphshow
13.808594 0.000000 m /A glyphshow
20.649414 0.000000 m /C glyphshow
grestore
gsave
/o {
gsave
newpath
translate
0.8 setlinewidth
1 setlinejoin
0 setlinecap
0 0 m
0 -3.5 l

gsave
0.000 setgray
fill
grestore
stroke
grestore
} bind def
313.565 111.709 o
grestore
gsave
316.322585 77.177550 translate
90.000000 rotate
0.000000 0.000000 m /A glyphshow
6.840820 0.000000 m /B glyphshow
13.701172 0.000000 m /A glyphshow
20.541992 0.000000 m /C glyphshow
grestore
gsave
/o {
gsave
newpath
translate
0.8 setlinewidth
1 setlinejoin
0 setlinecap
0 0 m
0 -3.5 l

gsave
0.000 setgray
fill
grestore
stroke
grestore
} bind def
367.666 111.709 o
grestore
gsave
370.423343 64.677550 translate
90.000000 rotate
0.000000 0.000000 m /P glyphshow
6.030273 0.000000 m /A glyphshow
12.871094 0.000000 m /C glyphshow
19.853516 0.000000 m /S glyphshow
26.201172 0.000000 m /A glyphshow
33.041992 0.000000 m /C glyphshow
grestore
gsave
/o {
gsave
newpath
translate
0.8 setlinewidth
1 setlinejoin
0 setlinecap
0 0 m
-3.5 0 l

gsave
0.000 setgray
fill
grestore
stroke
grestore
} bind def
232.414 111.709 o
grestore
gsave
219.054261 107.911925 translate
0.000000 rotate
0.000000 0.000000 m /zero glyphshow
grestore
gsave
/o {
gsave
newpath
translate
0.8 setlinewidth
1 setlinejoin
0 setlinecap
0 0 m
-3.5 0 l

gsave
0.000 setgray
fill
grestore
stroke
grestore
} bind def
232.414 128.938 o
grestore
gsave
212.694886 125.141045 translate
0.000000 rotate
0.000000 0.000000 m /one glyphshow
6.362305 0.000000 m /zero glyphshow
grestore
gsave
/o {
gsave
newpath
translate
0.8 setlinewidth
1 setlinejoin
0 setlinecap
0 0 m
-3.5 0 l

gsave
0.000 setgray
fill
grestore
stroke
grestore
} bind def
232.414 146.167 o
grestore
gsave
212.694886 142.370165 translate
0.000000 rotate
0.000000 0.000000 m /two glyphshow
6.362305 0.000000 m /zero glyphshow
grestore
gsave
/o {
gsave
newpath
translate
0.8 setlinewidth
1 setlinejoin
0 setlinecap
0 0 m
-3.5 0 l

gsave
0.000 setgray
fill
grestore
stroke
grestore
} bind def
232.414 163.396 o
grestore
gsave
212.694886 159.599285 translate
0.000000 rotate
0.000000 0.000000 m /three glyphshow
6.362305 0.000000 m /zero glyphshow
grestore
gsave
/o {
gsave
newpath
translate
0.8 setlinewidth
1 setlinejoin
0 setlinecap
0 0 m
-3.5 0 l

gsave
0.000 setgray
fill
grestore
stroke
grestore
} bind def
232.414 180.625 o
grestore
gsave
212.694886 176.828405 translate
0.000000 rotate
0.000000 0.000000 m /four glyphshow
6.362305 0.000000 m /zero glyphshow
grestore
gsave
/o {
gsave
newpath
translate
0.8 setlinewidth
1 setlinejoin
0 setlinecap
0 0 m
-3.5 0 l

gsave
0.000 setgray
fill
grestore
stroke
grestore
} bind def
232.414 197.854 o
grestore
gsave
212.694886 194.057525 translate
0.000000 rotate
0.000000 0.000000 m /five glyphshow
6.362305 0.000000 m /zero glyphshow
grestore
gsave
/o {
gsave
newpath
translate
0.8 setlinewidth
1 setlinejoin
0 setlinecap
0 0 m
-3.5 0 l

gsave
0.000 setgray
fill
grestore
stroke
grestore
} bind def
232.414 215.084 o
grestore
gsave
212.694886 211.286645 translate
0.000000 rotate
0.000000 0.000000 m /six glyphshow
6.362305 0.000000 m /zero glyphshow
grestore
gsave
/o {
gsave
newpath
translate
0.8 setlinewidth
1 setlinejoin
0 setlinecap
0 0 m
-3.5 0 l

gsave
0.000 setgray
fill
grestore
stroke
grestore
} bind def
232.414 232.313 o
grestore
gsave
212.694886 228.515765 translate
0.000000 rotate
0.000000 0.000000 m /seven glyphshow
6.362305 0.000000 m /zero glyphshow
grestore
gsave
/o {
gsave
newpath
translate
0.8 setlinewidth
1 setlinejoin
0 setlinecap
0 0 m
-3.5 0 l

gsave
0.000 setgray
fill
grestore
stroke
grestore
} bind def
232.414 249.542 o
grestore
gsave
212.694886 245.744885 translate
0.000000 rotate
0.000000 0.000000 m /eight glyphshow
6.362305 0.000000 m /zero glyphshow
grestore
gsave
/o {
gsave
newpath
translate
0.8 setlinewidth
1 setlinejoin
0 setlinecap
0 0 m
-3.5 0 l

gsave
0.000 setgray
fill
grestore
stroke
grestore
} bind def
232.414 266.771 o
grestore
gsave
212.694886 262.974005 translate
0.000000 rotate
0.000000 0.000000 m /nine glyphshow
6.362305 0.000000 m /zero glyphshow
grestore
gsave
/o {
gsave
newpath
translate
0.8 setlinewidth
1 setlinejoin
0 setlinecap
0 0 m
-3.5 0 l

gsave
0.000 setgray
fill
grestore
stroke
grestore
} bind def
232.414 284 o
grestore
gsave
206.335511 280.203125 translate
0.000000 rotate
0.000000 0.000000 m /one glyphshow
6.362305 0.000000 m /zero glyphshow
12.724609 0.000000 m /zero glyphshow
grestore
gsave
209.236216 164.698150 translate
90.000000 rotate
0.000000 0.000000 m /A glyphshow
6.840820 0.000000 m /c glyphshow
12.338867 0.000000 m /c glyphshow
17.836914 0.000000 m /e glyphshow
23.989258 0.000000 m /s glyphshow
29.199219 0.000000 m /s glyphshow
34.409180 0.000000 m /e glyphshow
40.561523 0.000000 m /s glyphshow
45.771484 0.000000 m /space glyphshow
48.950195 0.000000 m /parenleft glyphshow
52.851562 0.000000 m /percent glyphshow
62.353516 0.000000 m /parenright glyphshow
grestore
0 setlinejoin
2 setlinecap
[] 0 setdash
gsave
232.413636 111.7088 m
232.413636 284 l
stroke
grestore
gsave
394.715909 111.7088 m
394.715909 284 l
stroke
grestore
gsave
232.413636 111.7088 m
394.715909 111.7088 l
stroke
grestore
gsave
232.413636 284 m
394.715909 284 l
stroke
grestore
1.000 setlinewidth
0 setlinecap
0.800 setgray
gsave
202.205398 13.174551 m
424.924148 13.174551 l
426.257481 13.174551 426.924148 13.841218 426.924148 15.174551 c
426.924148 58.190176 l
426.924148 59.523509 426.257481 60.190176 424.924148 60.190176 c
202.205398 60.190176 l
200.872064 60.190176 200.205398 59.523509 200.205398 58.190176 c
200.205398 15.174551 l
200.205398 13.841218 200.872064 13.174551 202.205398 13.174551 c
cl
gsave
1.000 setgray
fill
grestore
stroke
grestore
gsave
204.205398 48.596426 m
224.205398 48.596426 l
224.205398 55.596426 l
204.205398 55.596426 l
cl
0.267 0.005 0.329 setrgbcolor
fill
grestore
0.000 setgray
gsave
232.205398 48.596426 translate
0.000000 rotate
0.000000 0.000000 m /A glyphshow
6.840820 0.000000 m /c glyphshow
12.338867 0.000000 m /c glyphshow
17.836914 0.000000 m /e glyphshow
23.989258 0.000000 m /s glyphshow
29.199219 0.000000 m /s glyphshow
34.409180 0.000000 m /space glyphshow
37.587891 0.000000 m /d glyphshow
43.935547 0.000000 m /e glyphshow
50.087891 0.000000 m /n glyphshow
56.425781 0.000000 m /i glyphshow
59.204102 0.000000 m /e glyphshow
65.356445 0.000000 m /d glyphshow
grestore
gsave
204.205398 33.924551 m
224.205398 33.924551 l
224.205398 40.924551 l
204.205398 40.924551 l
cl
0.230 0.322 0.546 setrgbcolor
fill
grestore
gsave
232.205398 33.924551 translate
0.000000 rotate
0.000000 0.000000 m /A glyphshow
6.840820 0.000000 m /c glyphshow
12.338867 0.000000 m /c glyphshow
17.836914 0.000000 m /e glyphshow
23.989258 0.000000 m /s glyphshow
29.199219 0.000000 m /s glyphshow
34.409180 0.000000 m /space glyphshow
37.587891 0.000000 m /l glyphshow
40.366211 0.000000 m /e glyphshow
46.518555 0.000000 m /v glyphshow
52.436523 0.000000 m /e glyphshow
58.588867 0.000000 m /l glyphshow
61.367188 0.000000 m /space glyphshow
64.545898 0.000000 m /one glyphshow
grestore
gsave
204.205398 19.252676 m
224.205398 19.252676 l
224.205398 26.252676 l
204.205398 26.252676 l
cl
0.128 0.567 0.551 setrgbcolor
fill
grestore
gsave
232.205398 19.252676 translate
0.000000 rotate
0.000000 0.000000 m /A glyphshow
6.840820 0.000000 m /c glyphshow
12.338867 0.000000 m /c glyphshow
17.836914 0.000000 m /e glyphshow
23.989258 0.000000 m /s glyphshow
29.199219 0.000000 m /s glyphshow
34.409180 0.000000 m /space glyphshow
37.587891 0.000000 m /l glyphshow
40.366211 0.000000 m /e glyphshow
46.518555 0.000000 m /v glyphshow
52.436523 0.000000 m /e glyphshow
58.588867 0.000000 m /l glyphshow
61.367188 0.000000 m /space glyphshow
64.545898 0.000000 m /two glyphshow
grestore
gsave
323.955398 48.596426 m
343.955398 48.596426 l
343.955398 55.596426 l
323.955398 55.596426 l
cl
0.369 0.789 0.383 setrgbcolor
fill
grestore
gsave
351.955398 48.596426 translate
0.000000 rotate
0.000000 0.000000 m /A glyphshow
6.840820 0.000000 m /c glyphshow
12.338867 0.000000 m /c glyphshow
17.836914 0.000000 m /e glyphshow
23.989258 0.000000 m /s glyphshow
29.199219 0.000000 m /s glyphshow
34.409180 0.000000 m /space glyphshow
37.587891 0.000000 m /l glyphshow
40.366211 0.000000 m /e glyphshow
46.518555 0.000000 m /v glyphshow
52.436523 0.000000 m /e glyphshow
58.588867 0.000000 m /l glyphshow
61.367188 0.000000 m /space glyphshow
64.545898 0.000000 m /three glyphshow
grestore
gsave
323.955398 33.924551 m
343.955398 33.924551 l
343.955398 40.924551 l
323.955398 40.924551 l
cl
0.993 0.906 0.144 setrgbcolor
fill
grestore
gsave
351.955398 33.924551 translate
0.000000 rotate
0.000000 0.000000 m /A glyphshow
6.840820 0.000000 m /c glyphshow
12.338867 0.000000 m /c glyphshow
17.836914 0.000000 m /e glyphshow
23.989258 0.000000 m /s glyphshow
29.199219 0.000000 m /s glyphshow
34.409180 0.000000 m /space glyphshow
37.587891 0.000000 m /l glyphshow
40.366211 0.000000 m /e glyphshow
46.518555 0.000000 m /v glyphshow
52.436523 0.000000 m /e glyphshow
58.588867 0.000000 m /l glyphshow
61.367188 0.000000 m /space glyphshow
64.545898 0.000000 m /four glyphshow
grestore

end
showpage
